CarrPurc_P1-19_P2-38_tauVary/Gly80/NewFile6.csv

X,CH1,CH2,Start,Increment,
Sequence,Volt,Volt,-3.200000e-03,2.000000e-04
0,1.20e-03,4.00e-02,
1,0.00e+00,0.00e+00,
2,0.00e+00,4.00e-02,
3,1.20e-03,2.00e-02,
4,1.20e-03,4.00e-02,
5,0.00e+00,2.00e-02,
6,0.00e+00,2.00e-02,
7,2.00e-03,4.00e-02,
8,0.00e+00,4.00e-02,
9,1.20e-03,2.00e-02,
10,1.20e-03,4.00e-02,
11,-8.00e-04,2.00e-02,
12,-8.00e-04,4.00e-02,
13,1.60e-03,2.00e-02,
14,0.00e+00,4.00e-02,
15,1.20e-03,0.00e+00,
16,0.00e+00,4.00e-02,
17,1.20e-03,0.00e+00,
18,6.40e-03,2.00e-02,
19,-3.28e-02,1.78e+00,
20,2.12e-02,1.20e-01,
21,-1.80e-02,6.00e-02,
22,4.40e-03,1.00e-01,
23,-3.20e-03,6.00e-02,
24,-2.40e-03,8.00e-02,
25,3.60e-03,6.00e-02,
26,2.40e-03,8.00e-02,
27,-8.00e-04,4.00e-02,
28,2.40e-03,6.00e-02,
29,-1.20e-03,8.00e-02,
30,2.00e-03,8.00e-02,
31,-1.20e-03,2.00e-02,
32,-4.00e-04,2.00e-02,
33,8.00e-03,2.10e+00,
34,-1.00e-02,1.60e-01,
35,8.40e-03,8.00e-02,
36,6.40e-03,1.00e-01,
37,-3.60e-03,6.00e-02,
38,2.40e-03,6.00e-02,
39,-8.00e-04,8.00e-02,
40,2.40e-03,6.00e-02,
41,-1.60e-03,8.00e-02,
42,-1.20e-03,6.00e-02,
43,2.80e-03,8.00e-02,
44,-4.40e-03,8.00e-02,
45,7.20e-03,4.00e-02,
46,-1.96e-02,8.00e-02,
47,2.64e-02,2.00e-02,
48,-2.80e-02,2.00e-02,
49,2.84e-02,8.00e-02,
50,1.52e-02,8.00e-02,
51,-1.16e-02,2.00e-02,
52,4.00e-03,2.00e-02,
53,-1.60e-03,8.00e-02,
54,-1.20e-03,4.00e-02,
55,2.80e-03,2.00e-02,
56,-1.20e-03,2.00e-02,
57,2.40e-03,6.00e-02,
58,-8.00e-04,4.00e-02,
59,2.00e-03,2.00e-02,
60,0.00e+00,4.00e-02,
61,2.00e-03,2.00e-02,
62,0.00e+00,2.00e-02,
63,8.00e-03,2.14e+00,
64,8.00e-03,1.60e-01,
65,4.00e-04,8.00e-02,
66,1.20e-03,1.00e-01,
67,0.00e+00,6.00e-02,
68,2.00e-03,8.00e-02,
69,0.00e+00,6.00e-02,
70,-4.00e-04,6.00e-02,
71,2.00e-03,8.00e-02,
72,2.00e-03,8.00e-02,
73,-4.00e-04,6.00e-02,
74,-4.00e-03,8.00e-02,
75,6.00e-03,2.00e-02,
76,-1.56e-02,8.00e-02,
77,1.56e-02,2.00e-02,
78,2.24e-02,2.00e-02,
79,-2.12e-02,8.00e-02,
80,1.00e-02,2.00e-02,
81,-7.60e-03,8.00e-02,
82,2.80e-03,2.00e-02,
83,-1.60e-03,8.00e-02,
84,2.80e-03,4.00e-02,
85,-8.00e-04,2.00e-02,
86,-8.00e-04,2.00e-02,
87,1.60e-03,4.00e-02,
88,-8.00e-04,4.00e-02,
89,2.40e-03,2.00e-02,
90,2.80e-03,4.00e-02,
91,-2.80e-03,2.00e-02,
92,-3.60e-03,2.00e-02,
93,8.40e-03,2.20e+00,
94,7.20e-03,1.60e-01,
95,0.00e+00,8.00e-02,
96,1.60e-03,1.00e-01,
97,-8.00e-04,6.00e-02,
98,2.00e-03,6.00e-02,
99,-8.00e-04,8.00e-02,
100,2.00e-03,8.00e-02,
101,-8.00e-04,6.00e-02,
102,2.40e-03,6.00e-02,
103,-1.20e-03,8.00e-02,
104,-4.40e-03,6.00e-02,
105,5.20e-03,8.00e-02,
106,1.44e-02,2.00e-02,
107,-1.84e-02,8.00e-02,
108,2.16e-02,8.00e-02,
109,-2.20e-02,2.00e-02,
110,1.12e-02,2.00e-02,
111,-8.40e-03,8.00e-02,
112,2.80e-03,4.00e-02,
113,-1.60e-03,2.00e-02,
114,2.80e-03,4.00e-02,
115,-1.60e-03,2.00e-02,
116,2.00e-03,4.00e-02,
117,-8.00e-04,2.00e-02,
118,-8.00e-04,4.00e-02,
119,2.40e-03,2.00e-02,
120,3.60e-03,2.00e-02,
121,-2.80e-03,4.00e-02,
122,-3.20e-03,2.00e-02,
123,8.00e-03,2.14e+00,
124,7.20e-03,1.60e-01,
125,-2.40e-03,8.00e-02,
126,3.20e-03,1.00e-01,
127,-8.00e-04,6.00e-02,
128,1.20e-03,6.00e-02,
129,-8.00e-04,8.00e-02,
130,-8.00e-04,6.00e-02,
131,2.00e-03,8.00e-02,
132,2.40e-03,8.00e-02,
133,-1.20e-03,4.00e-02,
134,-2.40e-03,8.00e-02,
135,5.20e-03,2.00e-02,
136,-1.16e-02,8.00e-02,
137,1.28e-02,2.00e-02,
138,-1.68e-02,8.00e-02,
139,1.84e-02,2.00e-02,
140,9.20e-03,2.00e-02,
141,-6.00e-03,8.00e-02,
142,2.80e-03,4.00e-02,
143,-1.20e-03,2.00e-02,
144,1.20e-03,4.00e-02,
145,0.00e+00,2.00e-02,
146,2.00e-03,4.00e-02,
147,-8.00e-04,2.00e-02,
148,2.00e-03,4.00e-02,
149,0.00e+00,2.00e-02,
150,-8.00e-04,2.00e-02,
151,1.20e-03,4.00e-02,
152,-2.40e-03,2.00e-02,
153,8.40e-03,2.24e+00,
154,8.00e-03,1.60e-01,
155,-8.00e-04,8.00e-02,
156,2.00e-03,1.00e-01,
157,-4.00e-04,6.00e-02,
158,1.60e-03,6.00e-02,
159,0.00e+00,8.00e-02,
160,-4.00e-04,6.00e-02,
161,2.00e-03,8.00e-02,
162,2.40e-03,8.00e-02,
163,0.00e+00,2.00e-02,
164,-3.20e-03,8.00e-02,
165,5.60e-03,2.00e-02,
166,-1.16e-02,8.00e-02,
167,1.32e-02,2.00e-02,
168,-1.64e-02,2.00e-02,
169,1.76e-02,8.00e-02,
170,8.40e-03,8.00e-02,
171,-5.20e-03,2.00e-02,
172,2.40e-03,2.00e-02,
173,-1.20e-03,8.00e-02,
174,-8.00e-04,2.00e-02,
175,2.40e-03,6.00e-02,
176,0.00e+00,4.00e-02,
177,2.00e-03,2.00e-02,
178,0.00e+00,4.00e-02,
179,2.00e-03,2.00e-02,
180,2.40e-03,4.00e-02,
181,-1.60e-03,2.00e-02,
182,-1.60e-03,2.00e-02,
183,8.80e-03,2.16e+00,
184,8.00e-03,1.60e-01,
185,0.00e+00,8.00e-02,
186,0.00e+00,1.00e-01,
187,1.20e-03,6.00e-02,
188,0.00e+00,6.00e-02,
189,2.00e-03,8.00e-02,
190,0.00e+00,6.00e-02,
191,1.20e-03,8.00e-02,
192,0.00e+00,6.00e-02,
193,2.40e-03,8.00e-02,
194,-2.40e-03,6.00e-02,
195,4.40e-03,8.00e-02,
196,1.08e-02,8.00e-02,
197,-1.20e-02,2.00e-02,
198,-1.60e-02,8.00e-02,
199,1.64e-02,2.00e-02,
200,8.00e-03,8.00e-02,
201,-5.60e-03,2.00e-02,
202,2.40e-03,4.00e-02,
203,-1.20e-03,2.00e-02,
204,2.00e-03,2.00e-02,
205,-8.00e-04,6.00e-02,
206,2.40e-03,2.00e-02,
207,-1.20e-03,4.00e-02,
208,0.00e+00,4.00e-02,
209,2.00e-03,2.00e-02,
210,2.80e-03,4.00e-02,
211,-1.60e-03,2.00e-02,
212,-2.40e-03,2.00e-02,
213,8.00e-03,2.22e+00,
214,7.60e-03,1.60e-01,
215,-8.00e-04,8.00e-02,
216,1.60e-03,1.00e-01,
217,-4.00e-04,6.00e-02,
218,1.60e-03,8.00e-02,
219,0.00e+00,6.00e-02,
220,1.60e-03,6.00e-02,
221,-8.00e-04,8.00e-02,
222,-8.00e-04,6.00e-02,
223,2.80e-03,8.00e-02,
224,-2.80e-03,8.00e-02,
225,5.20e-03,2.00e-02,
226,-1.08e-02,8.00e-02,
227,1.04e-02,2.00e-02,
228,-1.56e-02,8.00e-02,
229,1.56e-02,2.00e-02,
230,8.00e-03,8.00e-02,
231,-6.00e-03,2.00e-02,
232,2.40e-03,4.00e-02,
233,-8.00e-04,2.00e-02,
234,0.00e+00,4.00e-02,
235,2.00e-03,2.00e-02,
236,2.00e-03,4.00e-02,
237,0.00e+00,2.00e-02,
238,0.00e+00,4.00e-02,
239,2.00e-03,2.00e-02,
240,1.60e-03,4.00e-02,
241,-1.20e-03,2.00e-02,
242,-2.40e-03,2.00e-02,
243,8.00e-03,2.14e+00,
244,7.60e-03,1.60e-01,
245,-8.00e-04,8.00e-02,
246,2.00e-03,1.00e-01,
247,0.00e+00,6.00e-02,
248,2.00e-03,1.00e-01,
249,0.00e+00,6.00e-02,
250,2.00e-03,8.00e-02,
251,-4.00e-04,6.00e-02,
252,2.40e-03,6.00e-02,
253,-1.20e-03,8.00e-02,
254,-3.20e-03,8.00e-02,
255,5.60e-03,4.00e-02,
256,-1.08e-02,8.00e-02,
257,1.24e-02,2.00e-02,
258,1.52e-02,8.00e-02,
259,-1.48e-02,2.00e-02,
260,6.80e-03,8.00e-02,
261,-4.40e-03,2.00e-02,
262,-8.00e-04,8.00e-02,
263,2.00e-03,2.00e-02,
264,2.00e-03,2.00e-02,
265,0.00e+00,6.00e-02,
266,0.00e+00,4.00e-02,
267,2.00e-03,2.00e-02,
268,1.60e-03,4.00e-02,
269,-4.00e-04,2.00e-02,
270,2.00e-03,4.00e-02,
271,-8.00e-04,2.00e-02,
272,-2.80e-03,2.00e-02,
273,8.40e-03,2.22e+00,
274,8.00e-03,1.60e-01,
275,-4.00e-04,8.00e-02,
276,0.00e+00,1.00e-01,
277,2.40e-03,6.00e-02,
278,0.00e+00,6.00e-02,
279,2.00e-03,8.00e-02,
280,1.20e-03,8.00e-02,
281,-8.00e-04,6.00e-02,
282,-8.00e-04,8.00e-02,
283,1.60e-03,4.00e-02,
284,-1.60e-03,8.00e-02,
285,4.40e-03,2.00e-02,
286,-9.20e-03,8.00e-02,
287,9.60e-03,2.00e-02,
288,-1.32e-02,8.00e-02,
289,1.56e-02,2.00e-02,
290,6.80e-03,8.00e-02,
291,-5.60e-03,2.00e-02,
292,2.40e-03,8.00e-02,
293,-1.20e-03,2.00e-02,
294,0.00e+00,4.00e-02,
295,2.40e-03,2.00e-02,
296,2.00e-03,4.00e-02,
297,0.00e+00,2.00e-02,
298,0.00e+00,4.00e-02,
299,1.20e-03,2.00e-02,
300,2.40e-03,4.00e-02,
301,-1.20e-03,2.00e-02,
302,-2.40e-03,2.00e-02,
303,8.40e-03,2.16e+00,
304,8.00e-03,1.60e-01,
305,0.00e+00,8.00e-02,
306,0.00e+00,1.00e-01,
307,2.00e-03,6.00e-02,
308,-4.00e-04,6.00e-02,
309,2.00e-03,8.00e-02,
310,2.00e-03,6.00e-02,
311,-1.20e-03,8.00e-02,
312,-4.00e-04,6.00e-02,
313,2.00e-03,8.00e-02,
314,-8.00e-04,8.00e-02,
315,4.00e-03,2.00e-02,
316,-8.40e-03,8.00e-02,
317,1.00e-02,2.00e-02,
318,-1.28e-02,8.00e-02,
319,1.44e-02,2.00e-02,
320,6.80e-03,8.00e-02,
321,-5.20e-03,2.00e-02,
322,2.40e-03,2.00e-02,
323,-8.00e-04,6.00e-02,
324,2.00e-03,4.00e-02,
325,-8.00e-04,2.00e-02,
326,0.00e+00,4.00e-02,
327,1.60e-03,2.00e-02,
328,1.20e-03,4.00e-02,
329,0.00e+00,2.00e-02,
330,-8.00e-04,4.00e-02,
331,2.00e-03,2.00e-02,
332,-2.00e-03,2.00e-02,
333,8.00e-03,1.82e+00,
334,7.20e-03,1.60e-01,
335,-4.00e-04,8.00e-02,
336,-8.00e-04,1.00e-01,
337,1.60e-03,6.00e-02,
338,0.00e+00,8.00e-02,
339,1.60e-03,6.00e-02,
340,0.00e+00,6.00e-02,
341,2.00e-03,8.00e-02,
342,2.00e-03,6.00e-02,
343,0.00e+00,8.00e-02,
344,-2.80e-03,8.00e-02,
345,4.80e-03,6.00e-02,
346,-1.00e-02,8.00e-02,
347,1.12e-02,2.00e-02,
348,-1.28e-02,8.00e-02,
349,1.32e-02,2.00e-02,
350,5.60e-03,2.00e-02,
351,-4.00e-03,8.00e-02,
352,-4.00e-04,6.00e-02,
353,2.00e-03,2.00e-02,
354,-8.00e-04,4.00e-02,
355,1.60e-03,2.00e-02,
356,1.20e-03,2.00e-02,
357,0.00e+00,4.00e-02,
358,1.20e-03,2.00e-02,
359,-8.00e-04,4.00e-02,
360,2.40e-03,4.00e-02,
361,-1.60e-03,2.00e-02,
362,-2.80e-03,2.00e-02,
363,8.80e-03,2.16e+00,
364,8.00e-03,1.60e-01,
365,4.00e-04,8.00e-02,
366,1.20e-03,1.00e-01,
367,-4.00e-04,6.00e-02,
368,-4.00e-04,6.00e-02,
369,1.20e-03,8.00e-02,
370,2.00e-03,6.00e-02,
371,-8.00e-04,8.00e-02,
372,-8.00e-04,6.00e-02,
373,1.60e-03,8.00e-02,
374,-2.40e-03,8.00e-02,
375,4.00e-03,4.00e-02,
376,-8.40e-03,8.00e-02,
377,9.20e-03,2.00e-02,
378,1.12e-02,8.00e-02,
379,-1.20e-02,2.00e-02,
380,6.40e-03,8.00e-02,
381,-4.00e-03,2.00e-02,
382,2.00e-03,6.00e-02,
383,-4.00e-04,2.00e-02,
384,0.00e+00,4.00e-02,
385,2.00e-03,2.00e-02,
386,1.60e-03,4.00e-02,
387,0.00e+00,2.00e-02,
388,2.00e-03,2.00e-02,
389,-8.00e-04,4.00e-02,
390,2.00e-03,4.00e-02,
391,-1.20e-03,2.00e-02,
392,-2.80e-03,2.00e-02,
393,8.80e-03,2.20e+00,
394,8.00e-03,1.60e-01,
395,-1.20e-03,8.00e-02,
396,0.00e+00,1.00e-01,
397,2.00e-03,6.00e-02,
398,-4.00e-04,6.00e-02,
399,2.00e-03,8.00e-02,
400,0.00e+00,6.00e-02,
401,1.60e-03,8.00e-02,
402,-4.00e-04,8.00e-02,
403,1.60e-03,6.00e-02,
404,-8.00e-04,8.00e-02,
405,3.60e-03,4.00e-02,
406,-8.40e-03,8.00e-02,
407,9.20e-03,2.00e-02,
408,-1.16e-02,8.00e-02,
409,1.16e-02,2.00e-02,
410,6.40e-03,4.00e-02,
411,-4.40e-03,2.00e-02,
412,-1.20e-03,4.00e-02,
413,1.60e-03,2.00e-02,
414,-4.00e-04,4.00e-02,
415,2.00e-03,2.00e-02,
416,1.20e-03,2.00e-02,
417,0.00e+00,4.00e-02,
418,1.20e-03,4.00e-02,
419,-8.00e-04,2.00e-02,
420,2.00e-03,2.00e-02,
421,-1.20e-03,4.00e-02,
422,-2.80e-03,2.00e-02,
423,8.40e-03,2.22e+00,
424,7.60e-03,1.60e-01,
425,-4.00e-04,8.00e-02,
426,0.00e+00,1.00e-01,
427,2.40e-03,6.00e-02,
428,0.00e+00,8.00e-02,
429,2.00e-03,6.00e-02,
430,0.00e+00,6.00e-02,
431,2.00e-03,8.00e-02,
432,-8.00e-04,6.00e-02,
433,1.60e-03,8.00e-02,
434,-1.20e-03,8.00e-02,
435,4.00e-03,2.00e-02,
436,-8.40e-03,8.00e-02,
437,9.20e-03,2.00e-02,
438,-1.04e-02,8.00e-02,
439,1.16e-02,2.00e-02,
440,5.60e-03,8.00e-02,
441,-3.60e-03,2.00e-02,
442,2.40e-03,8.00e-02,
443,-8.00e-04,2.00e-02,
444,-4.00e-04,4.00e-02,
445,1.60e-03,2.00e-02,
446,1.20e-03,4.00e-02,
447,-1.20e-03,2.00e-02,
448,2.00e-03,2.00e-02,
449,-4.00e-04,4.00e-02,
450,2.00e-03,2.00e-02,
451,-1.60e-03,4.00e-02,
452,-3.20e-03,2.00e-02,
453,8.40e-03,2.12e+00,
454,7.60e-03,1.60e-01,
455,-1.20e-03,8.00e-02,
456,2.00e-03,1.00e-01,
457,-8.00e-04,6.00e-02,
458,-8.00e-04,6.00e-02,
459,1.60e-03,8.00e-02,
460,0.00e+00,6.00e-02,
461,2.00e-03,8.00e-02,
462,0.00e+00,6.00e-02,
463,2.00e-03,8.00e-02,
464,-1.60e-03,8.00e-02,
465,2.80e-03,4.00e-02,
466,-7.20e-03,8.00e-02,
467,9.60e-03,4.00e-02,
468,-1.00e-02,8.00e-02,
469,1.04e-02,2.00e-02,
470,5.60e-03,8.00e-02,
471,-3.60e-03,2.00e-02,
472,2.00e-03,2.00e-02,
473,-8.00e-04,8.00e-02,
474,2.00e-03,2.00e-02,
475,-4.00e-04,8.00e-02,
476,1.20e-03,2.00e-02,
477,-8.00e-04,6.00e-02,
478,1.20e-03,4.00e-02,
479,-4.00e-04,2.00e-02,
480,2.40e-03,4.00e-02,
481,-8.00e-04,2.00e-02,
482,-3.20e-03,2.00e-02,
483,8.40e-03,2.14e+00,
484,8.00e-03,1.60e-01,
485,-8.00e-04,8.00e-02,
486,-8.00e-04,1.00e-01,
487,2.40e-03,6.00e-02,
488,-4.00e-04,8.00e-02,
489,2.00e-03,6.00e-02,
490,0.00e+00,6.00e-02,
491,1.20e-03,8.00e-02,
492,2.00e-03,6.00e-02,
493,-4.00e-04,8.00e-02,
494,-1.60e-03,8.00e-02,
495,3.60e-03,2.00e-02,
496,-6.40e-03,8.00e-02,
497,1.00e-02,2.00e-02,
498,-8.80e-03,8.00e-02,
499,1.04e-02,2.00e-02,
500,5.60e-03,8.00e-02,
501,-2.80e-03,2.00e-02,
502,2.40e-03,2.00e-02,
503,-4.00e-04,8.00e-02,
504,1.60e-03,4.00e-02,
505,-4.00e-04,2.00e-02,
506,1.20e-03,2.00e-02,
507,-4.00e-04,4.00e-02,
508,-8.00e-04,4.00e-02,
509,2.40e-03,2.00e-02,
510,2.40e-03,4.00e-02,
511,-1.20e-03,2.00e-02,
512,-3.60e-03,2.00e-02,
513,9.20e-03,2.20e+00,
514,8.00e-03,1.60e-01,
515,-8.00e-04,8.00e-02,
516,-8.00e-04,1.00e-01,
517,2.00e-03,6.00e-02,
518,0.00e+00,6.00e-02,
519,2.00e-03,8.00e-02,
520,2.00e-03,6.00e-02,
521,-8.00e-04,8.00e-02,
522,-8.00e-04,6.00e-02,
523,1.20e-03,8.00e-02,
524,-1.60e-03,8.00e-02,
525,3.60e-03,4.00e-02,
526,-6.80e-03,8.00e-02,
527,9.20e-03,2.00e-02,
528,-9.20e-03,2.00e-02,
529,1.08e-02,8.00e-02,
530,4.80e-03,2.00e-02,
531,-2.80e-03,8.00e-02,
532,2.00e-03,8.00e-02,
533,-8.00e-04,2.00e-02,
534,1.20e-03,8.00e-02,
535,-8.00e-04,2.00e-02,
536,0.00e+00,2.00e-02,
537,1.60e-03,8.00e-02,
538,1.20e-03,6.00e-02,
539,-8.00e-04,2.00e-02,
540,1.60e-03,2.00e-02,
541,-1.60e-03,4.00e-02,
542,-3.60e-03,2.00e-02,
543,8.40e-03,2.02e+00,
544,7.20e-03,1.60e-01,
545,-8.00e-04,8.00e-02,
546,-8.00e-04,1.00e-01,
547,2.40e-03,6.00e-02,
548,0.00e+00,6.00e-02,
549,2.00e-03,8.00e-02,
550,1.20e-03,6.00e-02,
551,-8.00e-04,8.00e-02,
552,1.20e-03,6.00e-02,
553,-4.00e-04,8.00e-02,
554,-1.20e-03,6.00e-02,
555,2.80e-03,8.00e-02,
556,-6.80e-03,2.00e-02,
557,8.80e-03,8.00e-02,
558,9.60e-03,8.00e-02,
559,-8.80e-03,2.00e-02,
560,5.60e-03,8.00e-02,
561,-3.20e-03,2.00e-02,
562,2.40e-03,2.00e-02,
563,-8.00e-04,4.00e-02,
564,1.20e-03,4.00e-02,
565,0.00e+00,2.00e-02,
566,-4.00e-04,4.00e-02,
567,1.60e-03,2.00e-02,
568,2.40e-03,4.00e-02,
569,-8.00e-04,2.00e-02,
570,2.00e-03,4.00e-02,
571,-1.60e-03,2.00e-02,
572,-3.20e-03,2.00e-02,
573,8.40e-03,2.00e+00,
574,8.00e-03,1.60e-01,
575,-4.00e-04,8.00e-02,
576,-8.00e-04,1.00e-01,
577,2.00e-03,6.00e-02,
578,-4.00e-04,6.00e-02,
579,2.00e-03,8.00e-02,
580,1.60e-03,6.00e-02,
581,-8.00e-04,8.00e-02,
582,2.00e-03,8.00e-02,
583,0.00e+00,4.00e-02,
584,-1.20e-03,8.00e-02,
585,2.80e-03,2.00e-02,
586,-5.60e-03,8.00e-02,
587,8.40e-03,2.00e-02,
588,-7.60e-03,8.00e-02,
589,9.20e-03,2.00e-02,
590,5.20e-03,8.00e-02,
591,-2.40e-03,2.00e-02,
592,2.00e-03,8.00e-02,
593,0.00e+00,2.00e-02,
594,2.00e-03,4.00e-02,
595,-4.00e-04,2.00e-02,
596,-4.00e-04,4.00e-02,
597,1.20e-03,2.00e-02,
598,2.00e-03,4.00e-02,
599,-8.00e-04,2.00e-02,
600,2.80e-03,2.00e-02,
601,-1.20e-03,4.00e-02,
602,-4.00e-03,2.00e-02,
603,8.80e-03,2.02e+00,
604,8.00e-03,1.60e-01,
605,-1.20e-03,8.00e-02,
606,-8.00e-04,1.00e-01,
607,2.40e-03,6.00e-02,
608,0.00e+00,6.00e-02,
609,2.00e-03,8.00e-02,
610,1.20e-03,6.00e-02,
611,-4.00e-04,8.00e-02,
612,0.00e+00,8.00e-02,
613,2.00e-03,6.00e-02,
614,-1.60e-03,8.00e-02,
615,3.60e-03,2.00e-02,
616,-6.00e-03,8.00e-02,
617,8.40e-03,2.00e-02,
618,9.20e-03,8.00e-02,
619,-8.00e-03,2.00e-02,
620,4.00e-03,8.00e-02,
621,-2.40e-03,2.00e-02,
622,-4.00e-04,8.00e-02,
623,2.00e-03,2.00e-02,
624,2.00e-03,2.00e-02,
625,-4.00e-04,4.00e-02,
626,2.00e-03,4.00e-02,
627,-4.00e-04,2.00e-02,
628,2.40e-03,4.00e-02,
629,-1.20e-03,2.00e-02,
630,-1.20e-03,4.00e-02,
631,2.80e-03,2.00e-02,
632,-3.60e-03,2.00e-02,
633,8.40e-03,2.18e+00,
634,8.00e-03,1.60e-01,
635,-8.00e-04,8.00e-02,
636,-4.00e-04,1.00e-01,
637,2.40e-03,6.00e-02,
638,1.20e-03,6.00e-02,
639,-8.00e-04,8.00e-02,
640,1.20e-03,6.00e-02,
641,0.00e+00,8.00e-02,
642,2.00e-03,8.00e-02,
643,0.00e+00,4.00e-02,
644,-8.00e-04,8.00e-02,
645,2.40e-03,4.00e-02,
646,-5.20e-03,8.00e-02,
647,8.00e-03,2.00e-02,
648,-7.20e-03,8.00e-02,
649,8.80e-03,2.00e-02,
650,-2.40e-03,8.00e-02,
651,4.40e-03,2.00e-02,
652,2.40e-03,8.00e-02,
653,-8.00e-04,2.00e-02,
654,1.20e-03,2.00e-02,
655,-8.00e-04,4.00e-02,
656,0.00e+00,2.00e-02,
657,1.20e-03,6.00e-02,
658,-4.00e-04,4.00e-02,
659,2.40e-03,2.00e-02,
660,2.40e-03,4.00e-02,
661,-2.80e-03,2.00e-02,
662,-4.40e-03,2.00e-02,
663,8.40e-03,2.02e+00,
664,7.60e-03,1.60e-01,
665,-1.20e-03,8.00e-02,
666,2.40e-03,1.00e-01,
667,-8.00e-04,6.00e-02,
668,-8.00e-04,8.00e-02,
669,1.60e-03,6.00e-02,
670,1.20e-03,6.00e-02,
671,0.00e+00,8.00e-02,
672,2.00e-03,6.00e-02,
673,-8.00e-04,8.00e-02,
674,-1.20e-03,8.00e-02,
675,2.80e-03,2.00e-02,
676,-5.20e-03,8.00e-02,
677,7.20e-03,2.00e-02,
678,-7.20e-03,2.00e-02,
679,8.40e-03,8.00e-02,
680,4.00e-03,4.00e-02,
681,-2.00e-03,2.00e-02,
682,1.60e-03,4.00e-02,
683,-8.00e-04,2.00e-02,
684,1.20e-03,4.00e-02,
685,0.00e+00,2.00e-02,
686,0.00e+00,4.00e-02,
687,2.00e-03,2.00e-02,
688,-8.00e-04,2.00e-02,
689,2.00e-03,4.00e-02,
690,2.80e-03,4.00e-02,
691,-2.00e-03,2.00e-02,
692,-4.00e-03,2.00e-02,
693,8.80e-03,1.98e+00,
694,8.00e-03,1.60e-01,
695,-1.20e-03,8.00e-02,
696,-1.20e-03,1.00e-01,
697,2.40e-03,6.00e-02,
698,2.00e-03,6.00e-02,
699,-4.00e-04,8.00e-02,
700,2.40e-03,6.00e-02,
701,0.00e+00,8.00e-02,
702,-4.00e-04,6.00e-02,
703,1.60e-03,8.00e-02,
704,-1.20e-03,8.00e-02,
705,3.60e-03,2.00e-02,
706,-4.40e-03,8.00e-02,
707,6.80e-03,2.00e-02,
708,-7.20e-03,2.00e-02,
709,7.60e-03,8.00e-02,
710,4.00e-03,2.00e-02,
711,-2.00e-03,8.00e-02,
712,1.60e-03,4.00e-02,
713,-4.00e-04,2.00e-02,
714,0.00e+00,4.00e-02,
715,1.20e-03,2.00e-02,
716,1.60e-03,4.00e-02,
717,0.00e+00,2.00e-02,
718,2.40e-03,4.00e-02,
719,-8.00e-04,2.00e-02,
720,3.20e-03,4.00e-02,
721,-2.00e-03,2.00e-02,
722,-4.40e-03,2.00e-02,
723,8.80e-03,2.06e+00,
724,8.00e-03,1.60e-01,
725,-8.00e-04,8.00e-02,
726,2.40e-03,1.00e-01,
727,-1.20e-03,6.00e-02,
728,-4.00e-04,6.00e-02,
729,1.60e-03,8.00e-02,
730,0.00e+00,8.00e-02,
731,2.00e-03,6.00e-02,
732,-8.00e-04,8.00e-02,
733,1.20e-03,4.00e-02,
734,-8.00e-04,8.00e-02,
735,2.00e-03,6.00e-02,
736,-4.80e-03,8.00e-02,
737,6.80e-03,4.00e-02,
738,-7.20e-03,8.00e-02,
739,7.20e-03,2.00e-02,
740,3.20e-03,8.00e-02,
741,-1.60e-03,2.00e-02,
742,-8.00e-04,2.00e-02,
743,1.60e-03,8.00e-02,
744,0.00e+00,2.00e-02,
745,1.60e-03,6.00e-02,
746,-4.00e-04,4.00e-02,
747,1.60e-03,2.00e-02,
748,2.40e-03,2.00e-02,
749,-8.00e-04,6.00e-02,
750,2.80e-03,4.00e-02,
751,-2.80e-03,2.00e-02,
752,-4.00e-03,2.00e-02,
753,8.40e-03,2.00e+00,
754,7.20e-03,1.60e-01,
755,-1.60e-03,8.00e-02,
756,2.80e-03,1.00e-01,
757,-1.20e-03,6.00e-02,
758,-8.00e-04,6.00e-02,
759,2.00e-03,8.00e-02,
760,1.20e-03,6.00e-02,
761,-8.00e-04,8.00e-02,
762,2.00e-03,8.00e-02,
763,-8.00e-04,4.00e-02,
764,-8.00e-04,8.00e-02,
765,2.40e-03,2.00e-02,
766,-4.40e-03,8.00e-02,
767,7.20e-03,2.00e-02,
768,-6.00e-03,8.00e-02,
769,7.20e-03,2.00e-02,
770,4.00e-03,8.00e-02,
771,-2.40e-03,2.00e-02,
772,1.60e-03,2.00e-02,
773,-8.00e-04,8.00e-02,
774,0.00e+00,2.00e-02,
775,2.00e-03,6.00e-02,
776,0.00e+00,4.00e-02,
777,1.20e-03,2.00e-02,
778,2.00e-03,4.00e-02,
779,-8.00e-04,2.00e-02,
780,2.40e-03,2.00e-02,
781,-2.40e-03,4.00e-02,
782,-4.40e-03,2.00e-02,
783,8.40e-03,2.22e+00,
784,7.60e-03,1.60e-01,
785,-1.60e-03,8.00e-02,
786,-8.00e-04,1.00e-01,
787,2.40e-03,6.00e-02,
788,1.20e-03,6.00e-02,
789,-4.00e-04,8.00e-02,
790,1.60e-03,6.00e-02,
791,0.00e+00,8.00e-02,
792,0.00e+00,8.00e-02,
793,1.60e-03,4.00e-02,
794,-1.60e-03,8.00e-02,
795,2.80e-03,2.00e-02,
796,-4.40e-03,2.00e-02,
797,6.00e-03,8.00e-02,
798,-6.40e-03,8.00e-02,
799,6.80e-03,2.00e-02,
800,3.20e-03,8.00e-02,
801,-1.60e-03,2.00e-02,
802,1.20e-03,4.00e-02,
803,0.00e+00,2.00e-02,
804,2.00e-03,2.00e-02,
805,0.00e+00,4.00e-02,
806,0.00e+00,4.00e-02,
807,2.00e-03,2.00e-02,
808,-8.00e-04,4.00e-02,
809,2.40e-03,2.00e-02,
810,3.60e-03,4.00e-02,
811,-1.60e-03,2.00e-02,
812,-4.40e-03,2.00e-02,
813,8.80e-03,2.06e+00,
814,8.00e-03,1.60e-01,
815,-1.60e-03,8.00e-02,
816,-1.20e-03,1.00e-01,
817,2.40e-03,6.00e-02,
818,2.00e-03,6.00e-02,
819,0.00e+00,1.00e-01,
820,0.00e+00,6.00e-02,
821,1.60e-03,8.00e-02,
822,1.20e-03,6.00e-02,
823,0.00e+00,8.00e-02,
824,-8.00e-04,8.00e-02,
825,2.40e-03,6.00e-02,
826,-4.40e-03,8.00e-02,
827,6.80e-03,2.00e-02,
828,6.80e-03,2.00e-02,
829,-5.60e-03,8.00e-02,
830,3.60e-03,8.00e-02,
831,-2.40e-03,2.00e-02,
832,-8.00e-04,8.00e-02,
833,1.60e-03,2.00e-02,
834,1.20e-03,2.00e-02,
835,-4.00e-04,8.00e-02,
836,-4.00e-04,2.00e-02,
837,1.20e-03,6.00e-02,
838,2.40e-03,4.00e-02,
839,-1.20e-03,2.00e-02,
840,3.60e-03,4.00e-02,
841,-2.80e-03,2.00e-02,
842,-4.00e-03,2.16e+00,
843,8.40e-03,0.00e+00,
844,7.60e-03,1.60e-01,
845,-1.60e-03,8.00e-02,
846,-8.00e-04,1.00e-01,
847,2.80e-03,6.00e-02,
848,1.20e-03,6.00e-02,
849,-8.00e-04,8.00e-02,
850,2.00e-03,6.00e-02,
851,0.00e+00,8.00e-02,
852,1.20e-03,6.00e-02,
853,0.00e+00,8.00e-02,
854,-4.00e-04,8.00e-02,
855,2.40e-03,4.00e-02,
