CarrPurc_P1-19_P2-38_tauVary/Gly80/NewFile3.csv

X,CH1,CH2,Start,Increment,
Sequence,Volt,Volt,-3.200000e-03,2.000000e-04
0,0.00e+00,4.00e-02,
1,1.20e-03,0.00e+00,
2,1.60e-03,4.00e-02,
3,0.00e+00,0.00e+00,
4,0.00e+00,4.00e-02,
5,1.20e-03,0.00e+00,
6,0.00e+00,4.00e-02,
7,1.20e-03,0.00e+00,
8,0.00e+00,4.00e-02,
9,1.60e-03,0.00e+00,
10,1.20e-03,4.00e-02,
11,4.00e-04,0.00e+00,
12,1.20e-03,4.00e-02,
13,0.00e+00,0.00e+00,
14,1.20e-03,4.00e-02,
15,0.00e+00,0.00e+00,
16,2.00e-03,4.00e-02,
17,0.00e+00,0.00e+00,
18,6.40e-03,2.00e-02,
19,-3.36e-02,2.18e+00,
20,2.04e-02,1.20e-01,
21,-1.76e-02,6.00e-02,
22,5.20e-03,1.00e-01,
23,-2.80e-03,6.00e-02,
24,4.00e-03,8.00e-02,
25,-1.60e-03,6.00e-02,
26,2.80e-03,6.00e-02,
27,-1.20e-03,8.00e-02,
28,2.00e-03,6.00e-02,
29,-8.00e-04,8.00e-02,
30,2.40e-03,8.00e-02,
31,-1.20e-03,4.00e-02,
32,0.00e+00,4.00e-02,
33,8.00e-03,2.14e+00,
34,-1.00e-02,1.60e-01,
35,9.20e-03,8.00e-02,
36,6.40e-03,1.00e-01,
37,-4.00e-03,6.00e-02,
38,-8.00e-04,6.00e-02,
39,2.40e-03,8.00e-02,
40,-1.20e-03,6.00e-02,
41,2.40e-03,8.00e-02,
42,2.40e-03,6.00e-02,
43,-1.20e-03,8.00e-02,
44,-4.00e-03,8.00e-02,
45,7.20e-03,4.00e-02,
46,-1.80e-02,8.00e-02,
47,2.60e-02,2.00e-02,
48,3.00e-02,2.00e-02,
49,-2.64e-02,8.00e-02,
50,1.60e-02,2.00e-02,
51,-1.16e-02,8.00e-02,
52,3.60e-03,2.00e-02,
53,-1.60e-03,8.00e-02,
54,-1.20e-03,4.00e-02,
55,2.80e-03,2.00e-02,
56,-8.00e-04,4.00e-02,
57,2.00e-03,2.00e-02,
58,0.00e+00,4.00e-02,
59,2.00e-03,2.00e-02,
60,-4.00e-04,4.00e-02,
61,2.00e-03,2.00e-02,
62,0.00e+00,2.00e-02,
63,7.60e-03,1.92e+00,
64,7.60e-03,1.60e-01,
65,0.00e+00,8.00e-02,
66,2.40e-03,1.00e-01,
67,4.00e-04,6.00e-02,
68,1.20e-03,8.00e-02,
69,0.00e+00,6.00e-02,
70,2.40e-03,6.00e-02,
71,-8.00e-04,8.00e-02,
72,2.00e-03,8.00e-02,
73,-8.00e-04,6.00e-02,
74,-4.40e-03,8.00e-02,
75,6.80e-03,4.00e-02,
76,1.64e-02,8.00e-02,
77,-1.88e-02,2.00e-02,
78,-2.40e-02,2.00e-02,
79,2.48e-02,8.00e-02,
80,1.20e-02,2.00e-02,
81,-8.80e-03,8.00e-02,
82,3.60e-03,2.00e-02,
83,-1.60e-03,8.00e-02,
84,2.80e-03,4.00e-02,
85,-1.20e-03,2.00e-02,
86,2.40e-03,2.00e-02,
87,-4.00e-04,4.00e-02,
88,2.40e-03,4.00e-02,
89,-1.20e-03,2.00e-02,
90,4.00e-03,4.00e-02,
91,-2.40e-03,2.00e-02,
92,-4.00e-03,2.14e+00,
93,8.80e-03,0.00e+00,
94,8.00e-03,1.60e-01,
95,-4.00e-04,8.00e-02,
96,-8.00e-04,1.00e-01,
97,2.40e-03,6.00e-02,
98,-8.00e-04,6.00e-02,
99,2.00e-03,8.00e-02,
100,2.40e-03,8.00e-02,
101,-4.00e-04,6.00e-02,
102,2.40e-03,6.00e-02,
103,-1.20e-03,8.00e-02,
104,-4.00e-03,8.00e-02,
105,6.00e-03,2.00e-02,
106,1.68e-02,2.00e-02,
107,-1.96e-02,8.00e-02,
108,2.44e-02,2.00e-02,
109,-2.48e-02,8.00e-02,
110,1.20e-02,2.00e-02,
111,-8.40e-03,4.00e-02,
112,3.60e-03,4.00e-02,
113,-1.60e-03,2.00e-02,
114,2.40e-03,4.00e-02,
115,-1.20e-03,2.00e-02,
116,-4.00e-04,4.00e-02,
117,2.00e-03,2.00e-02,
118,-4.00e-04,4.00e-02,
119,2.40e-03,2.00e-02,
120,3.20e-03,2.00e-02,
121,-2.40e-03,4.00e-02,
122,-3.20e-03,2.00e-02,
123,8.00e-03,2.04e+00,
124,7.20e-03,1.60e-01,
125,-2.40e-03,8.00e-02,
126,3.60e-03,1.00e-01,
127,-4.00e-04,6.00e-02,
128,0.00e+00,6.00e-02,
129,2.00e-03,8.00e-02,
130,-8.00e-04,6.00e-02,
131,2.40e-03,8.00e-02,
132,2.80e-03,6.00e-02,
133,-1.20e-03,8.00e-02,
134,-3.20e-03,8.00e-02,
135,6.00e-03,2.00e-02,
136,-1.44e-02,8.00e-02,
137,1.44e-02,2.00e-02,
138,-2.04e-02,8.00e-02,
139,2.28e-02,2.00e-02,
140,1.16e-02,2.00e-02,
141,-7.20e-03,8.00e-02,
142,2.40e-03,8.00e-02,
143,-8.00e-04,2.00e-02,
144,-8.00e-04,2.00e-02,
145,2.00e-03,6.00e-02,
146,2.00e-03,4.00e-02,
147,-4.00e-04,2.00e-02,
148,0.00e+00,4.00e-02,
149,2.00e-03,2.00e-02,
150,-8.00e-04,2.00e-02,
151,2.40e-03,4.00e-02,
152,-1.60e-03,2.00e-02,
153,7.60e-03,2.06e+00,
154,7.60e-03,1.60e-01,
155,-4.00e-04,8.00e-02,
156,2.40e-03,1.00e-01,
157,-8.00e-04,6.00e-02,
158,2.00e-03,6.00e-02,
159,-4.00e-04,8.00e-02,
160,-8.00e-04,6.00e-02,
161,2.40e-03,8.00e-02,
162,2.40e-03,6.00e-02,
163,-8.00e-04,8.00e-02,
164,-3.60e-03,8.00e-02,
165,6.80e-03,4.00e-02,
166,-1.60e-02,8.00e-02,
167,1.60e-02,2.00e-02,
168,2.16e-02,8.00e-02,
169,-1.96e-02,2.00e-02,
170,9.60e-03,8.00e-02,
171,-7.20e-03,2.00e-02,
172,2.80e-03,2.00e-02,
173,-8.00e-04,8.00e-02,
174,-8.00e-04,2.00e-02,
175,2.40e-03,6.00e-02,
176,0.00e+00,4.00e-02,
177,2.00e-03,2.00e-02,
178,0.00e+00,4.00e-02,
179,1.60e-03,2.00e-02,
180,-8.00e-04,4.00e-02,
181,2.00e-03,2.00e-02,
182,-1.60e-03,2.00e-02,
183,8.40e-03,2.10e+00,
184,8.00e-03,1.60e-01,
185,0.00e+00,8.00e-02,
186,-8.00e-04,1.00e-01,
187,2.00e-03,6.00e-02,
188,1.20e-03,6.00e-02,
189,0.00e+00,8.00e-02,
190,-8.00e-04,6.00e-02,
191,1.60e-03,8.00e-02,
192,2.00e-03,6.00e-02,
193,-4.00e-04,8.00e-02,
194,-3.60e-03,8.00e-02,
195,5.60e-03,2.00e-02,
196,1.36e-02,8.00e-02,
197,-1.56e-02,2.00e-02,
198,-1.96e-02,8.00e-02,
199,1.96e-02,2.00e-02,
200,9.60e-03,2.00e-02,
201,-7.60e-03,8.00e-02,
202,3.60e-03,2.00e-02,
203,-8.00e-04,8.00e-02,
204,2.00e-03,4.00e-02,
205,-1.20e-03,2.00e-02,
206,-8.00e-04,2.00e-02,
207,2.00e-03,4.00e-02,
208,0.00e+00,4.00e-02,
209,2.40e-03,2.00e-02,
210,2.40e-03,4.00e-02,
211,-1.60e-03,2.00e-02,
212,-2.40e-03,2.00e-02,
213,8.40e-03,2.26e+00,
214,8.00e-03,1.60e-01,
215,0.00e+00,8.00e-02,
216,-8.00e-04,1.00e-01,
217,2.00e-03,6.00e-02,
218,1.60e-03,1.00e-01,
219,0.00e+00,6.00e-02,
220,0.00e+00,6.00e-02,
221,2.40e-03,8.00e-02,
222,2.40e-03,6.00e-02,
223,-8.00e-04,8.00e-02,
224,-2.80e-03,8.00e-02,
225,5.20e-03,4.00e-02,
226,-1.36e-02,8.00e-02,
227,1.36e-02,2.00e-02,
228,-1.76e-02,8.00e-02,
229,2.00e-02,2.00e-02,
230,1.04e-02,2.00e-02,
231,-7.20e-03,8.00e-02,
232,2.40e-03,4.00e-02,
233,-1.20e-03,2.00e-02,
234,2.00e-03,4.00e-02,
235,-8.00e-04,2.00e-02,
236,-8.00e-04,4.00e-02,
237,2.00e-03,2.00e-02,
238,1.60e-03,4.00e-02,
239,0.00e+00,2.00e-02,
240,-8.00e-04,4.00e-02,
241,2.00e-03,2.00e-02,
242,-2.40e-03,2.00e-02,
243,7.60e-03,2.14e+00,
244,7.20e-03,1.60e-01,
245,0.00e+00,8.00e-02,
246,1.20e-03,1.00e-01,
247,0.00e+00,6.00e-02,
248,0.00e+00,8.00e-02,
249,2.00e-03,6.00e-02,
250,-4.00e-04,8.00e-02,
251,2.40e-03,6.00e-02,
252,2.80e-03,6.00e-02,
253,-8.00e-04,8.00e-02,
254,-3.20e-03,8.00e-02,
255,5.60e-03,6.00e-02,
256,-1.36e-02,8.00e-02,
257,1.44e-02,2.00e-02,
258,1.76e-02,2.00e-02,
259,-1.64e-02,8.00e-02,
260,8.80e-03,8.00e-02,
261,-5.60e-03,2.00e-02,
262,2.40e-03,2.00e-02,
263,-4.00e-04,8.00e-02,
264,2.00e-03,2.00e-02,
265,-4.00e-04,6.00e-02,
266,4.00e-04,4.00e-02,
267,2.40e-03,2.00e-02,
268,-8.00e-04,4.00e-02,
269,2.00e-03,2.00e-02,
270,-8.00e-04,4.00e-02,
271,1.60e-03,2.00e-02,
272,-1.60e-03,2.00e-02,
273,8.40e-03,2.16e+00,
274,7.60e-03,1.60e-01,
275,4.00e-04,8.00e-02,
276,0.00e+00,1.00e-01,
277,2.00e-03,6.00e-02,
278,2.00e-03,6.00e-02,
279,-8.00e-04,8.00e-02,
280,-4.00e-04,8.00e-02,
281,1.60e-03,6.00e-02,
282,-4.00e-04,6.00e-02,
283,2.40e-03,8.00e-02,
284,-2.40e-03,8.00e-02,
285,4.40e-03,4.00e-02,
286,-1.20e-02,8.00e-02,
287,1.20e-02,2.00e-02,
288,-1.64e-02,2.00e-02,
289,1.80e-02,8.00e-02,
290,8.40e-03,8.00e-02,
291,-5.60e-03,2.00e-02,
292,2.40e-03,4.00e-02,
293,-4.00e-04,2.00e-02,
294,-8.00e-04,4.00e-02,
295,2.40e-03,2.00e-02,
296,1.20e-03,4.00e-02,
297,-1.20e-03,2.00e-02,
298,0.00e+00,4.00e-02,
299,1.60e-03,2.00e-02,
300,0.00e+00,4.00e-02,
301,1.20e-03,2.00e-02,
302,-1.60e-03,2.00e-02,
303,8.40e-03,2.20e+00,
304,8.00e-03,1.60e-01,
305,4.00e-04,8.00e-02,
306,2.00e-03,1.00e-01,
307,-8.00e-04,6.00e-02,
308,1.20e-03,6.00e-02,
309,-4.00e-04,8.00e-02,
310,1.20e-03,6.00e-02,
311,-8.00e-04,8.00e-02,
312,1.60e-03,6.00e-02,
313,-8.00e-04,8.00e-02,
314,-2.40e-03,8.00e-02,
315,4.80e-03,4.00e-02,
316,-1.20e-02,8.00e-02,
317,1.04e-02,2.00e-02,
318,-1.48e-02,8.00e-02,
319,1.68e-02,2.00e-02,
320,8.80e-03,8.00e-02,
321,-6.00e-03,2.00e-02,
322,2.40e-03,2.00e-02,
323,-8.00e-04,8.00e-02,
324,1.60e-03,4.00e-02,
325,-4.00e-04,2.00e-02,
326,-8.00e-04,4.00e-02,
327,1.60e-03,2.00e-02,
328,1.20e-03,4.00e-02,
329,-8.00e-04,2.00e-02,
330,-8.00e-04,4.00e-02,
331,1.60e-03,2.00e-02,
332,-1.60e-03,2.00e-02,
333,8.40e-03,2.08e+00,
334,7.60e-03,1.60e-01,
335,4.00e-04,8.00e-02,
336,0.00e+00,1.00e-01,
337,2.00e-03,6.00e-02,
338,-8.00e-04,8.00e-02,
339,2.00e-03,6.00e-02,
340,2.00e-03,6.00e-02,
341,-4.00e-04,8.00e-02,
342,-4.00e-04,6.00e-02,
343,2.40e-03,8.00e-02,
344,-2.40e-03,8.00e-02,
345,6.40e-03,2.00e-02,
346,-1.16e-02,2.00e-02,
347,1.32e-02,8.00e-02,
348,-1.40e-02,2.00e-02,
349,1.60e-02,8.00e-02,
350,7.60e-03,2.00e-02,
351,-4.40e-03,8.00e-02,
352,0.00e+00,4.00e-02,
353,2.00e-03,2.00e-02,
354,1.60e-03,4.00e-02,
355,-8.00e-04,2.00e-02,
356,1.20e-03,2.00e-02,
357,-8.00e-04,4.00e-02,
358,0.00e+00,2.00e-02,
359,2.00e-03,4.00e-02,
360,2.00e-03,4.00e-02,
361,-8.00e-04,2.00e-02,
362,-2.00e-03,2.00e-02,
363,8.40e-03,2.22e+00,
364,7.60e-03,1.60e-01,
365,0.00e+00,8.00e-02,
366,0.00e+00,1.00e-01,
367,2.00e-03,6.00e-02,
368,0.00e+00,6.00e-02,
369,2.00e-03,8.00e-02,
370,0.00e+00,6.00e-02,
371,2.00e-03,8.00e-02,
372,0.00e+00,6.00e-02,
373,2.40e-03,8.00e-02,
374,-2.40e-03,8.00e-02,
375,4.80e-03,4.00e-02,
376,-1.04e-02,8.00e-02,
377,1.24e-02,2.00e-02,
378,-1.36e-02,2.00e-02,
379,1.48e-02,8.00e-02,
380,8.00e-03,8.00e-02,
381,-5.60e-03,2.00e-02,
382,2.40e-03,4.00e-02,
383,-8.00e-04,2.00e-02,
384,2.00e-03,4.00e-02,
385,-4.00e-04,2.00e-02,
386,-4.00e-04,4.00e-02,
387,2.00e-03,2.00e-02,
388,0.00e+00,2.00e-02,
389,2.40e-03,4.00e-02,
390,2.00e-03,4.00e-02,
391,-8.00e-04,2.00e-02,
392,-2.40e-03,2.00e-02,
393,8.80e-03,2.22e+00,
394,8.00e-03,1.60e-01,
395,0.00e+00,8.00e-02,
396,-4.00e-04,1.00e-01,
397,2.00e-03,6.00e-02,
398,2.00e-03,6.00e-02,
399,0.00e+00,8.00e-02,
400,1.60e-03,6.00e-02,
401,-4.00e-04,8.00e-02,
402,2.00e-03,8.00e-02,
403,-8.00e-04,4.00e-02,
404,-2.00e-03,8.00e-02,
405,4.00e-03,4.00e-02,
406,-1.00e-02,8.00e-02,
407,1.04e-02,2.00e-02,
408,-1.32e-02,2.00e-02,
409,1.48e-02,8.00e-02,
410,6.80e-03,4.00e-02,
411,-4.40e-03,2.00e-02,
412,2.80e-03,4.00e-02,
413,0.00e+00,2.00e-02,
414,0.00e+00,4.00e-02,
415,2.40e-03,2.00e-02,
416,0.00e+00,2.00e-02,
417,1.20e-03,4.00e-02,
418,0.00e+00,4.00e-02,
419,1.60e-03,2.00e-02,
420,1.60e-03,2.00e-02,
421,-8.00e-04,4.00e-02,
422,-1.60e-03,2.00e-02,
423,9.20e-03,2.18e+00,
424,8.00e-03,1.60e-01,
425,4.00e-04,8.00e-02,
426,0.00e+00,1.00e-01,
427,2.00e-03,6.00e-02,
428,0.00e+00,8.00e-02,
429,2.40e-03,6.00e-02,
430,2.00e-03,6.00e-02,
431,-4.00e-04,8.00e-02,
432,0.00e+00,6.00e-02,
433,2.00e-03,8.00e-02,
434,-2.40e-03,8.00e-02,
435,4.40e-03,4.00e-02,
436,-9.20e-03,8.00e-02,
437,1.16e-02,2.00e-02,
438,-1.32e-02,8.00e-02,
439,1.40e-02,2.00e-02,
440,6.80e-03,8.00e-02,
441,-4.00e-03,2.00e-02,
442,2.40e-03,8.00e-02,
443,0.00e+00,2.00e-02,
444,-8.00e-04,4.00e-02,
445,2.40e-03,2.00e-02,
446,0.00e+00,4.00e-02,
447,1.60e-03,2.00e-02,
448,-8.00e-04,2.00e-02,
449,2.00e-03,4.00e-02,
450,1.20e-03,2.00e-02,
451,-1.20e-03,4.00e-02,
452,-2.40e-03,2.00e-02,
453,8.00e-03,1.96e+00,
454,7.60e-03,1.60e-01,
455,0.00e+00,8.00e-02,
456,-8.00e-04,1.00e-01,
457,2.00e-03,6.00e-02,
458,0.00e+00,6.00e-02,
459,2.00e-03,8.00e-02,
460,2.00e-03,6.00e-02,
461,0.00e+00,8.00e-02,
462,2.00e-03,6.00e-02,
463,0.00e+00,8.00e-02,
464,-2.00e-03,8.00e-02,
465,4.00e-03,2.00e-02,
466,-1.00e-02,2.00e-02,
467,1.24e-02,8.00e-02,
468,1.28e-02,8.00e-02,
469,-1.24e-02,2.00e-02,
470,6.80e-03,8.00e-02,
471,-4.40e-03,2.00e-02,
472,2.40e-03,2.00e-02,
473,-4.00e-04,8.00e-02,
474,1.60e-03,4.00e-02,
475,-8.00e-04,2.00e-02,
476,-4.00e-04,4.00e-02,
477,1.60e-03,2.00e-02,
478,1.60e-03,4.00e-02,
479,-4.00e-04,2.00e-02,
480,2.00e-03,4.00e-02,
481,-1.20e-03,2.00e-02,
482,-2.80e-03,0.00e+00,
483,8.40e-03,2.10e+00,
484,7.60e-03,1.60e-01,
485,0.00e+00,8.00e-02,
486,-8.00e-04,1.00e-01,
487,2.00e-03,6.00e-02,
488,0.00e+00,8.00e-02,
489,1.20e-03,6.00e-02,
490,2.00e-03,6.00e-02,
491,0.00e+00,8.00e-02,
492,-4.00e-04,8.00e-02,
493,2.40e-03,4.00e-02,
494,-1.60e-03,8.00e-02,
495,4.00e-03,2.00e-02,
496,-8.40e-03,8.00e-02,
497,1.08e-02,4.00e-02,
498,-1.16e-02,8.00e-02,
499,1.32e-02,2.00e-02,
500,6.40e-03,2.00e-02,
501,-3.60e-03,8.00e-02,
502,2.00e-03,6.00e-02,
503,-8.00e-04,2.00e-02,
504,0.00e+00,4.00e-02,
505,1.20e-03,2.00e-02,
506,-8.00e-04,2.00e-02,
507,2.00e-03,4.00e-02,
508,0.00e+00,4.00e-02,
509,2.00e-03,2.00e-02,
510,2.00e-03,4.00e-02,
511,-1.60e-03,2.00e-02,
512,-2.40e-03,2.00e-02,
513,9.20e-03,2.18e+00,
514,8.00e-03,1.60e-01,
515,0.00e+00,8.00e-02,
516,-8.00e-04,1.00e-01,
517,2.40e-03,6.00e-02,
518,0.00e+00,6.00e-02,
519,2.00e-03,8.00e-02,
520,0.00e+00,6.00e-02,
521,2.00e-03,8.00e-02,
522,1.60e-03,6.00e-02,
523,0.00e+00,8.00e-02,
524,-1.60e-03,8.00e-02,
525,3.60e-03,2.00e-02,
526,-8.40e-03,2.00e-02,
527,1.08e-02,8.00e-02,
528,-1.04e-02,2.00e-02,
529,1.28e-02,8.00e-02,
530,5.60e-03,2.00e-02,
531,-4.00e-03,8.00e-02,
532,2.00e-03,4.00e-02,
533,-8.00e-04,2.00e-02,
534,0.00e+00,4.00e-02,
535,2.00e-03,2.00e-02,
536,0.00e+00,4.00e-02,
537,1.20e-03,2.00e-02,
538,2.00e-03,4.00e-02,
539,-8.00e-04,2.00e-02,
540,2.40e-03,2.00e-02,
541,-8.00e-04,4.00e-02,
542,-2.40e-03,2.00e-02,
543,9.20e-03,2.20e+00,
544,8.00e-03,1.60e-01,
545,0.00e+00,8.00e-02,
546,2.00e-03,1.00e-01,
547,-8.00e-04,6.00e-02,
548,4.00e-04,6.00e-02,
549,1.20e-03,8.00e-02,
550,0.00e+00,6.00e-02,
551,2.00e-03,8.00e-02,
552,0.00e+00,6.00e-02,
553,2.00e-03,8.00e-02,
554,-1.20e-03,8.00e-02,
555,4.00e-03,2.00e-02,
556,-7.60e-03,8.00e-02,
557,1.00e-02,2.00e-02,
558,-1.08e-02,8.00e-02,
559,1.12e-02,2.00e-02,
560,5.20e-03,8.00e-02,
561,-3.20e-03,2.00e-02,
562,2.00e-03,2.00e-02,
563,0.00e+00,6.00e-02,
564,0.00e+00,4.00e-02,
565,2.00e-03,2.00e-02,
566,-8.00e-04,4.00e-02,
567,1.60e-03,2.00e-02,
568,-8.00e-04,4.00e-02,
569,2.00e-03,2.00e-02,
570,2.40e-03,4.00e-02,
571,-1.20e-03,2.00e-02,
572,-2.40e-03,2.00e-02,
573,8.40e-03,2.06e+00,
574,7.20e-03,1.60e-01,
575,-4.00e-04,8.00e-02,
576,-4.00e-04,1.00e-01,
577,2.40e-03,6.00e-02,
578,0.00e+00,6.00e-02,
579,1.20e-03,8.00e-02,
580,1.20e-03,6.00e-02,
581,0.00e+00,8.00e-02,
582,1.60e-03,8.00e-02,
583,-4.00e-04,4.00e-02,
584,-1.20e-03,8.00e-02,
585,4.00e-03,2.00e-02,
586,-7.20e-03,8.00e-02,
587,9.60e-03,2.00e-02,
588,-1.04e-02,8.00e-02,
589,1.12e-02,2.00e-02,
590,5.60e-03,2.00e-02,
591,-3.60e-03,6.00e-02,
592,0.00e+00,4.00e-02,
593,2.00e-03,2.00e-02,
594,0.00e+00,4.00e-02,
595,1.60e-03,2.00e-02,
596,0.00e+00,4.00e-02,
597,1.60e-03,2.00e-02,
598,-4.00e-04,4.00e-02,
599,1.60e-03,2.00e-02,
600,2.40e-03,2.00e-02,
601,-1.20e-03,4.00e-02,
602,-2.80e-03,2.00e-02,
603,8.00e-03,1.98e+00,
604,8.00e-03,1.40e-01,
605,-8.00e-04,8.00e-02,
606,2.00e-03,1.00e-01,
607,-8.00e-04,6.00e-02,
608,0.00e+00,6.00e-02,
609,2.00e-03,8.00e-02,
610,1.20e-03,6.00e-02,
611,-8.00e-04,8.00e-02,
612,0.00e+00,8.00e-02,
613,2.00e-03,6.00e-02,
614,-1.60e-03,8.00e-02,
615,3.60e-03,2.00e-02,
616,-7.20e-03,8.00e-02,
617,1.00e-02,2.00e-02,
618,-9.20e-03,8.00e-02,
619,1.04e-02,2.00e-02,
620,5.20e-03,8.00e-02,
621,-2.80e-03,2.00e-02,
622,-4.00e-04,2.00e-02,
623,1.60e-03,6.00e-02,
624,-8.00e-04,2.00e-02,
625,2.00e-03,4.00e-02,
626,2.00e-03,4.00e-02,
627,-4.00e-04,2.00e-02,
628,-8.00e-04,4.00e-02,
629,2.00e-03,2.00e-02,
630,2.40e-03,4.00e-02,
631,-1.60e-03,2.00e-02,
632,-2.80e-03,2.00e-02,
633,9.20e-03,2.22e+00,
634,8.00e-03,1.60e-01,
635,-8.00e-04,8.00e-02,
636,2.40e-03,1.00e-01,
637,-8.00e-04,6.00e-02,
638,-8.00e-04,6.00e-02,
639,2.00e-03,8.00e-02,
640,1.20e-03,6.00e-02,
641,-8.00e-04,8.00e-02,
642,0.00e+00,6.00e-02,
643,2.00e-03,8.00e-02,
644,-8.00e-04,8.00e-02,
645,3.20e-03,2.00e-02,
646,-7.20e-03,8.00e-02,
647,9.60e-03,2.00e-02,
648,1.00e-02,2.00e-02,
649,-8.80e-03,8.00e-02,
650,5.20e-03,2.00e-02,
651,-2.80e-03,6.00e-02,
652,1.60e-03,4.00e-02,
653,-8.00e-04,2.00e-02,
654,0.00e+00,2.00e-02,
655,1.20e-03,4.00e-02,
656,1.20e-03,4.00e-02,
657,0.00e+00,2.00e-02,
658,1.20e-03,4.00e-02,
659,-1.20e-03,2.00e-02,
660,2.40e-03,4.00e-02,
661,-1.60e-03,2.00e-02,
662,-3.20e-03,2.00e-02,
663,8.00e-03,2.02e+00,
664,7.60e-03,1.60e-01,
665,-8.00e-04,8.00e-02,
666,-4.00e-04,1.00e-01,
667,2.40e-03,6.00e-02,
668,0.00e+00,8.00e-02,
669,1.60e-03,6.00e-02,
670,2.00e-03,6.00e-02,
671,0.00e+00,8.00e-02,
672,1.20e-03,6.00e-02,
673,0.00e+00,8.00e-02,
674,-8.00e-04,8.00e-02,
675,2.80e-03,2.00e-02,
676,-6.80e-03,2.00e-02,
677,8.80e-03,8.00e-02,
678,-8.80e-03,8.00e-02,
679,9.60e-03,2.00e-02,
680,4.40e-03,2.00e-02,
681,-3.20e-03,8.00e-02,
682,2.00e-03,8.00e-02,
683,-8.00e-04,2.00e-02,
684,0.00e+00,8.00e-02,
685,2.00e-03,2.00e-02,
686,0.00e+00,2.00e-02,
687,1.20e-03,6.00e-02,
688,2.00e-03,2.00e-02,
689,-8.00e-04,6.00e-02,
690,2.40e-03,4.00e-02,
691,-1.60e-03,2.00e-02,
692,-3.20e-03,2.00e-02,
693,8.40e-03,2.18e+00,
694,7.60e-03,1.60e-01,
695,-8.00e-04,8.00e-02,
696,-1.20e-03,1.00e-01,
697,2.40e-03,6.00e-02,
698,0.00e+00,6.00e-02,
699,2.00e-03,1.00e-01,
700,2.00e-03,6.00e-02,
701,0.00e+00,8.00e-02,
702,0.00e+00,6.00e-02,
703,1.60e-03,8.00e-02,
704,-1.20e-03,8.00e-02,
705,3.60e-03,2.00e-02,
706,-6.40e-03,8.00e-02,
707,8.40e-03,4.00e-02,
708,-8.40e-03,8.00e-02,
709,1.00e-02,2.00e-02,
710,4.80e-03,8.00e-02,
711,-2.40e-03,2.00e-02,
712,-4.00e-04,2.00e-02,
713,2.00e-03,8.00e-02,
714,0.00e+00,2.00e-02,
715,1.20e-03,8.00e-02,
716,0.00e+00,2.00e-02,
717,2.00e-03,6.00e-02,
718,0.00e+00,4.00e-02,
719,2.80e-03,2.00e-02,
720,2.40e-03,2.00e-02,
721,-1.60e-03,8.00e-02,
722,-3.60e-03,2.00e-02,
723,8.80e-03,2.20e+00,
724,8.00e-03,1.60e-01,
725,-8.00e-04,8.00e-02,
726,2.40e-03,1.00e-01,
727,-1.20e-03,6.00e-02,
728,2.00e-03,6.00e-02,
729,0.00e+00,8.00e-02,
730,0.00e+00,8.00e-02,
731,1.20e-03,6.00e-02,
732,0.00e+00,8.00e-02,
733,1.20e-03,4.00e-02,
734,-8.00e-04,8.00e-02,
735,2.80e-03,6.00e-02,
736,-5.60e-03,8.00e-02,
737,8.80e-03,2.00e-02,
738,-8.00e-03,8.00e-02,
739,9.20e-03,2.00e-02,
740,4.40e-03,8.00e-02,
741,-2.80e-03,2.00e-02,
742,2.00e-03,2.00e-02,
743,0.00e+00,8.00e-02,
744,1.20e-03,2.00e-02,
745,-4.00e-04,6.00e-02,
746,0.00e+00,4.00e-02,
747,2.00e-03,2.00e-02,
748,-1.20e-03,2.00e-02,
749,2.40e-03,4.00e-02,
750,2.40e-03,4.00e-02,
751,-1.60e-03,2.00e-02,
752,-3.60e-03,2.00e-02,
753,8.80e-03,2.18e+00,
754,8.00e-03,1.60e-01,
755,-8.00e-04,8.00e-02,
756,-8.00e-04,1.00e-01,
757,2.40e-03,6.00e-02,
758,-4.00e-04,6.00e-02,
759,2.00e-03,8.00e-02,
760,2.00e-03,6.00e-02,
761,0.00e+00,8.00e-02,
762,0.00e+00,8.00e-02,
763,1.60e-03,6.00e-02,
764,-8.00e-04,8.00e-02,
765,2.80e-03,2.00e-02,
766,-5.60e-03,8.00e-02,
767,8.00e-03,2.00e-02,
768,-8.00e-03,8.00e-02,
769,8.40e-03,2.00e-02,
770,4.80e-03,2.00e-02,
771,-2.40e-03,8.00e-02,
772,2.40e-03,4.00e-02,
773,0.00e+00,2.00e-02,
774,2.00e-03,4.00e-02,
775,0.00e+00,2.00e-02,
776,0.00e+00,4.00e-02,
777,1.20e-03,2.00e-02,
778,2.40e-03,4.00e-02,
779,-8.00e-04,2.00e-02,
780,3.60e-03,2.00e-02,
781,-1.60e-03,4.00e-02,
782,-2.80e-03,-1.40e-01,
783,8.40e-03,2.20e+00,
784,7.60e-03,1.60e-01,
785,-1.20e-03,8.00e-02,
786,2.00e-03,1.00e-01,
787,-8.00e-04,6.00e-02,
788,-8.00e-04,6.00e-02,
789,2.00e-03,8.00e-02,
790,0.00e+00,6.00e-02,
791,1.60e-03,8.00e-02,
792,1.60e-03,6.00e-02,
793,0.00e+00,8.00e-02,
794,-1.20e-03,6.00e-02,
795,2.80e-03,8.00e-02,
796,-5.60e-03,8.00e-02,
797,7.60e-03,2.00e-02,
798,-6.40e-03,8.00e-02,
799,8.80e-03,2.00e-02,
800,4.00e-03,8.00e-02,
801,-2.40e-03,2.00e-02,
802,0.00e+00,2.00e-02,
803,1.60e-03,6.00e-02,
804,1.20e-03,2.00e-02,
805,0.00e+00,4.00e-02,
806,1.20e-03,4.00e-02,
807,-4.00e-04,2.00e-02,
808,2.00e-03,4.00e-02,
809,-8.00e-04,2.00e-02,
810,2.80e-03,4.00e-02,
811,-2.00e-03,2.00e-02,
812,-4.00e-03,2.00e-02,
813,8.80e-03,2.14e+00,
814,8.00e-03,1.60e-01,
815,-1.20e-03,8.00e-02,
816,2.80e-03,1.00e-01,
817,-1.20e-03,6.00e-02,
818,0.00e+00,8.00e-02,
819,1.60e-03,6.00e-02,
820,4.00e-04,6.00e-02,
821,2.00e-03,8.00e-02,
822,1.20e-03,6.00e-02,
823,-8.00e-04,8.00e-02,
824,2.40e-03,8.00e-02,
825,-1.20e-03,2.00e-02,
826,-5.20e-03,2.00e-02,
827,7.20e-03,8.00e-02,
828,-6.40e-03,2.00e-02,
829,8.00e-03,8.00e-02,
830,4.00e-03,8.00e-02,
831,-2.40e-03,2.00e-02,
832,2.00e-03,4.00e-02,
833,0.00e+00,2.00e-02,
834,0.00e+00,4.00e-02,
835,2.00e-03,2.00e-02,
836,0.00e+00,4.00e-02,
837,1.60e-03,2.00e-02,
838,2.00e-03,4.00e-02,
839,-1.20e-03,2.00e-02,
840,2.80e-03,4.00e-02,
841,-2.00e-03,2.00e-02,
842,-4.00e-03,2.10e+00,
843,9.20e-03,0.00e+00,
844,8.00e-03,1.60e-01,
845,-1.20e-03,8.00e-02,
846,2.40e-03,1.00e-01,
847,-1.20e-03,6.00e-02,
848,-8.00e-04,6.00e-02,
849,2.00e-03,8.00e-02,
850,2.00e-03,6.00e-02,
851,0.00e+00,8.00e-02,
852,1.20e-03,6.00e-02,
853,-4.00e-04,8.00e-02,
854,-8.00e-04,8.00e-02,
855,2.80e-03,4.00e-02,
856,-4.40e-03,8.00e-02,
