CarrPurc_P1-19_P2-38_tauVary/Gly80/NewFile8.csv

X,CH1,CH2,Start,Increment,
Sequence,Volt,Volt,-3.200000e-03,2.000000e-04
0,1.20e-03,4.00e-02,
1,4.00e-04,2.00e-02,
2,0.00e+00,4.00e-02,
3,1.20e-03,2.00e-02,
4,2.00e-03,4.00e-02,
5,4.00e-04,2.00e-02,
6,1.60e-03,2.00e-02,
7,0.00e+00,4.00e-02,
8,1.20e-03,4.00e-02,
9,0.00e+00,2.00e-02,
10,1.20e-03,4.00e-02,
11,0.00e+00,2.00e-02,
12,0.00e+00,4.00e-02,
13,1.20e-03,2.00e-02,
14,0.00e+00,4.00e-02,
15,1.20e-03,2.00e-02,
16,0.00e+00,4.00e-02,
17,1.20e-03,2.00e-02,
18,6.40e-03,2.00e-02,
19,-2.68e-02,2.20e+00,
20,1.56e-02,8.00e-02,
21,-1.36e-02,1.20e-01,
22,4.00e-03,1.00e-01,
23,-2.00e-03,6.00e-02,
24,2.80e-03,8.00e-02,
25,-1.60e-03,6.00e-02,
26,2.40e-03,6.00e-02,
27,-8.00e-04,8.00e-02,
28,2.00e-03,6.00e-02,
29,-8.00e-04,8.00e-02,
30,0.00e+00,8.00e-02,
31,2.00e-03,2.00e-02,
32,4.00e-04,6.00e-02,
33,8.40e-03,2.24e+00,
34,7.60e-03,1.60e-01,
35,-6.80e-03,8.00e-02,
36,5.20e-03,1.00e-01,
37,-2.40e-03,6.00e-02,
38,2.00e-03,1.00e-01,
39,-4.00e-04,6.00e-02,
40,-1.20e-03,6.00e-02,
41,2.00e-03,8.00e-02,
42,-8.00e-04,6.00e-02,
43,2.40e-03,8.00e-02,
44,-3.20e-03,6.00e-02,
45,6.00e-03,8.00e-02,
46,-1.64e-02,6.00e-02,
47,1.96e-02,8.00e-02,
48,-2.16e-02,8.00e-02,
49,2.44e-02,6.00e-02,
50,1.28e-02,8.00e-02,
51,-9.20e-03,2.00e-02,
52,2.80e-03,8.00e-02,
53,-1.20e-03,2.00e-02,
54,2.40e-03,8.00e-02,
55,-1.20e-03,2.00e-02,
56,-8.00e-04,2.00e-02,
57,2.00e-03,8.00e-02,
58,1.20e-03,2.00e-02,
59,-4.00e-04,8.00e-02,
60,1.20e-03,2.00e-02,
61,-8.00e-04,8.00e-02,
62,0.00e+00,2.00e-02,
63,7.20e-03,2.16e+00,
64,6.80e-03,1.60e-01,
65,8.00e-04,8.00e-02,
66,2.00e-03,1.00e-01,
67,0.00e+00,6.00e-02,
68,0.00e+00,1.00e-01,
69,1.60e-03,6.00e-02,
70,2.00e-03,6.00e-02,
71,0.00e+00,8.00e-02,
72,2.00e-03,8.00e-02,
73,-4.00e-04,6.00e-02,
74,-3.20e-03,6.00e-02,
75,4.40e-03,8.00e-02,
76,1.12e-02,8.00e-02,
77,-1.36e-02,4.00e-02,
78,-1.68e-02,4.00e-02,
79,1.84e-02,8.00e-02,
80,9.20e-03,8.00e-02,
81,-5.20e-03,2.00e-02,
82,2.80e-03,8.00e-02,
83,-8.00e-04,2.00e-02,
84,2.40e-03,8.00e-02,
85,-8.00e-04,2.00e-02,
86,2.40e-03,2.00e-02,
87,0.00e+00,8.00e-02,
88,2.00e-03,6.00e-02,
89,-8.00e-04,2.00e-02,
90,2.40e-03,4.00e-02,
91,-1.60e-03,2.00e-02,
92,-3.20e-03,2.20e+00,
93,8.00e-03,0.00e+00,
94,7.20e-03,1.60e-01,
95,4.00e-04,8.00e-02,
96,0.00e+00,1.00e-01,
97,1.60e-03,6.00e-02,
98,0.00e+00,6.00e-02,
99,1.60e-03,1.00e-01,
100,2.00e-03,8.00e-02,
101,-4.00e-04,6.00e-02,
102,2.40e-03,6.00e-02,
103,-4.00e-04,8.00e-02,
104,-3.20e-03,6.00e-02,
105,4.40e-03,8.00e-02,
106,1.20e-02,6.00e-02,
107,-1.40e-02,8.00e-02,
108,1.84e-02,8.00e-02,
109,-1.72e-02,2.00e-02,
110,8.40e-03,8.00e-02,
111,-6.00e-03,2.00e-02,
112,2.40e-03,8.00e-02,
113,-8.00e-04,2.00e-02,
114,2.00e-03,2.00e-02,
115,-8.00e-04,8.00e-02,
116,2.00e-03,2.00e-02,
117,-8.00e-04,8.00e-02,
118,0.00e+00,6.00e-02,
119,2.00e-03,2.00e-02,
120,2.80e-03,2.00e-02,
121,-1.60e-03,4.00e-02,
122,-2.40e-03,2.00e-02,
123,8.80e-03,2.20e+00,
124,8.00e-03,1.60e-01,
125,-8.00e-04,8.00e-02,
126,2.80e-03,1.00e-01,
127,-4.00e-04,6.00e-02,
128,1.60e-03,6.00e-02,
129,0.00e+00,1.00e-01,
130,2.00e-03,6.00e-02,
131,-4.00e-04,8.00e-02,
132,2.40e-03,6.00e-02,
133,-8.00e-04,8.00e-02,
134,-2.40e-03,8.00e-02,
135,4.40e-03,2.00e-02,
136,-8.80e-03,8.00e-02,
137,1.04e-02,2.00e-02,
138,-1.44e-02,8.00e-02,
139,1.56e-02,2.00e-02,
140,6.80e-03,2.00e-02,
141,-4.80e-03,8.00e-02,
142,2.40e-03,8.00e-02,
143,-8.00e-04,2.00e-02,
144,0.00e+00,8.00e-02,
145,1.60e-03,2.00e-02,
146,0.00e+00,2.00e-02,
147,2.00e-03,8.00e-02,
148,1.20e-03,2.00e-02,
149,0.00e+00,6.00e-02,
150,1.60e-03,2.00e-02,
151,-4.00e-04,4.00e-02,
152,-1.20e-03,2.00e-02,
153,8.40e-03,2.26e+00,
154,7.60e-03,1.60e-01,
155,-4.00e-04,8.00e-02,
156,2.00e-03,1.00e-01,
157,0.00e+00,6.00e-02,
158,2.00e-03,6.00e-02,
159,0.00e+00,1.00e-01,
160,-8.00e-04,6.00e-02,
161,2.00e-03,8.00e-02,
162,2.00e-03,6.00e-02,
163,0.00e+00,8.00e-02,
164,-3.20e-03,8.00e-02,
165,4.00e-03,4.00e-02,
166,9.60e-03,8.00e-02,
167,-1.04e-02,2.00e-02,
168,-1.36e-02,2.00e-02,
169,1.44e-02,8.00e-02,
170,7.20e-03,8.00e-02,
171,-4.00e-03,2.00e-02,
172,2.40e-03,2.00e-02,
173,-8.00e-04,8.00e-02,
174,2.00e-03,2.00e-02,
175,-4.00e-04,8.00e-02,
176,0.00e+00,2.00e-02,
177,1.20e-03,8.00e-02,
178,0.00e+00,2.00e-02,
179,1.20e-03,8.00e-02,
180,1.20e-03,8.00e-02,
181,-1.20e-03,2.00e-02,
182,-2.40e-03,2.00e-02,
183,8.00e-03,2.20e+00,
184,7.20e-03,1.60e-01,
185,4.00e-04,8.00e-02,
186,1.20e-03,1.00e-01,
187,0.00e+00,6.00e-02,
188,0.00e+00,6.00e-02,
189,1.20e-03,1.00e-01,
190,1.20e-03,6.00e-02,
191,0.00e+00,8.00e-02,
192,1.20e-03,6.00e-02,
193,-4.00e-04,8.00e-02,
194,3.60e-03,6.00e-02,
195,-1.60e-03,8.00e-02,
196,8.40e-03,6.00e-02,
197,-1.12e-02,8.00e-02,
198,-1.32e-02,8.00e-02,
199,1.40e-02,2.00e-02,
200,6.00e-03,8.00e-02,
201,-4.80e-03,2.00e-02,
202,2.40e-03,8.00e-02,
203,-8.00e-04,2.00e-02,
204,2.00e-03,8.00e-02,
205,-8.00e-04,2.00e-02,
206,2.00e-03,2.00e-02,
207,0.00e+00,8.00e-02,
208,0.00e+00,2.00e-02,
209,2.00e-03,6.00e-02,
210,2.40e-03,4.00e-02,
211,-1.20e-03,2.00e-02,
212,-1.60e-03,2.00e-02,
213,8.40e-03,1.96e+00,
214,8.00e-03,1.60e-01,
215,4.00e-04,8.00e-02,
216,1.20e-03,1.00e-01,
217,-4.00e-04,6.00e-02,
218,0.00e+00,1.00e-01,
219,1.20e-03,6.00e-02,
220,1.20e-03,6.00e-02,
221,0.00e+00,8.00e-02,
222,-8.00e-04,6.00e-02,
223,2.00e-03,8.00e-02,
224,-1.60e-03,6.00e-02,
225,4.80e-03,8.00e-02,
226,-8.00e-03,8.00e-02,
227,9.20e-03,2.00e-02,
228,1.40e-02,8.00e-02,
229,-1.16e-02,2.00e-02,
230,6.00e-03,8.00e-02,
231,-4.40e-03,2.00e-02,
232,2.40e-03,8.00e-02,
233,-1.20e-03,2.00e-02,
234,0.00e+00,8.00e-02,
235,1.20e-03,2.00e-02,
236,1.20e-03,2.00e-02,
237,-8.00e-04,6.00e-02,
238,1.20e-03,4.00e-02,
239,0.00e+00,2.00e-02,
240,1.60e-03,2.00e-02,
241,-8.00e-04,8.00e-02,
242,-2.40e-03,2.00e-02,
243,8.80e-03,2.10e+00,
244,8.00e-03,1.60e-01,
245,4.00e-04,8.00e-02,
246,2.00e-03,1.00e-01,
247,0.00e+00,6.00e-02,
248,4.00e-04,1.00e-01,
249,1.20e-03,6.00e-02,
250,-4.00e-04,8.00e-02,
251,2.00e-03,6.00e-02,
252,2.00e-03,6.00e-02,
253,-8.00e-04,8.00e-02,
254,-2.00e-03,8.00e-02,
255,5.20e-03,6.00e-02,
256,8.40e-03,8.00e-02,
257,-1.00e-02,2.00e-02,
258,-1.16e-02,2.00e-02,
259,1.40e-02,8.00e-02,
260,5.60e-03,8.00e-02,
261,-3.60e-03,2.00e-02,
262,-8.00e-04,8.00e-02,
263,2.00e-03,2.00e-02,
264,0.00e+00,2.00e-02,
265,1.60e-03,8.00e-02,
266,0.00e+00,8.00e-02,
267,2.00e-03,2.00e-02,
268,1.20e-03,2.00e-02,
269,0.00e+00,8.00e-02,
270,1.20e-03,6.00e-02,
271,-8.00e-04,2.00e-02,
272,-2.00e-03,2.00e-02,
273,8.00e-03,1.86e+00,
274,7.20e-03,1.60e-01,
275,4.00e-04,8.00e-02,
276,2.00e-03,1.00e-01,
277,0.00e+00,6.00e-02,
278,0.00e+00,6.00e-02,
279,1.20e-03,1.00e-01,
280,-4.00e-04,8.00e-02,
281,2.00e-03,6.00e-02,
282,1.20e-03,6.00e-02,
283,-4.00e-04,8.00e-02,
284,-1.60e-03,6.00e-02,
285,3.60e-03,8.00e-02,
286,-8.40e-03,8.00e-02,
287,7.60e-03,2.00e-02,
288,-1.20e-02,8.00e-02,
289,1.24e-02,2.00e-02,
290,6.00e-03,8.00e-02,
291,-4.40e-03,2.00e-02,
292,2.40e-03,8.00e-02,
293,-8.00e-04,2.00e-02,
294,2.00e-03,2.00e-02,
295,-4.00e-04,8.00e-02,
296,1.20e-03,2.00e-02,
297,-4.00e-04,6.00e-02,
298,0.00e+00,2.00e-02,
299,1.60e-03,8.00e-02,
300,1.60e-03,4.00e-02,
301,-4.00e-04,2.00e-02,
302,-2.00e-03,2.00e-02,
303,8.00e-03,2.22e+00,
304,7.60e-03,1.60e-01,
305,0.00e+00,8.00e-02,
306,1.60e-03,1.00e-01,
307,0.00e+00,6.00e-02,
308,2.00e-03,6.00e-02,
309,0.00e+00,1.00e-01,
310,1.20e-03,6.00e-02,
311,0.00e+00,8.00e-02,
312,1.60e-03,6.00e-02,
313,0.00e+00,8.00e-02,
314,-1.20e-03,6.00e-02,
315,4.00e-03,8.00e-02,
316,-7.60e-03,8.00e-02,
317,8.00e-03,4.00e-02,
318,-1.08e-02,8.00e-02,
319,1.12e-02,4.00e-02,
320,5.60e-03,8.00e-02,
321,-4.40e-03,2.00e-02,
322,2.00e-03,2.00e-02,
323,-8.00e-04,8.00e-02,
324,0.00e+00,8.00e-02,
325,1.60e-03,2.00e-02,
326,-8.00e-04,2.00e-02,
327,1.20e-03,8.00e-02,
328,0.00e+00,2.00e-02,
329,1.20e-03,8.00e-02,
330,1.20e-03,2.00e-02,
331,-1.20e-03,8.00e-02,
332,-1.60e-03,2.00e-02,
333,8.40e-03,2.06e+00,
334,8.00e-03,1.60e-01,
335,4.00e-04,8.00e-02,
336,1.60e-03,1.00e-01,
337,0.00e+00,6.00e-02,
338,1.20e-03,1.00e-01,
339,0.00e+00,6.00e-02,
340,1.20e-03,6.00e-02,
341,-4.00e-04,8.00e-02,
342,-8.00e-04,6.00e-02,
343,1.60e-03,8.00e-02,
344,-1.20e-03,8.00e-02,
345,4.00e-03,6.00e-02,
346,-7.60e-03,8.00e-02,
347,7.60e-03,2.00e-02,
348,-1.04e-02,8.00e-02,
349,1.08e-02,2.00e-02,
350,5.60e-03,8.00e-02,
351,-3.20e-03,4.00e-02,
352,1.20e-03,8.00e-02,
353,-8.00e-04,2.00e-02,
354,0.00e+00,8.00e-02,
355,2.00e-03,2.00e-02,
356,1.20e-03,2.00e-02,
357,0.00e+00,8.00e-02,
358,1.20e-03,2.00e-02,
359,0.00e+00,8.00e-02,
360,1.60e-03,2.00e-02,
361,-8.00e-04,6.00e-02,
362,-1.60e-03,2.00e-02,
363,8.40e-03,2.22e+00,
364,8.00e-03,1.60e-01,
365,4.00e-04,8.00e-02,
366,1.60e-03,1.00e-01,
367,0.00e+00,6.00e-02,
368,2.00e-03,6.00e-02,
369,0.00e+00,8.00e-02,
370,1.20e-03,6.00e-02,
371,0.00e+00,8.00e-02,
372,-4.00e-04,6.00e-02,
373,2.00e-03,8.00e-02,
374,-1.60e-03,6.00e-02,
375,4.00e-03,8.00e-02,
376,-6.80e-03,8.00e-02,
377,9.20e-03,2.00e-02,
378,1.12e-02,8.00e-02,
379,-1.08e-02,2.00e-02,
380,5.60e-03,8.00e-02,
381,-3.60e-03,2.00e-02,
382,2.00e-03,8.00e-02,
383,-4.00e-04,2.00e-02,
384,0.00e+00,8.00e-02,
385,1.20e-03,2.00e-02,
386,0.00e+00,2.00e-02,
387,1.20e-03,6.00e-02,
388,0.00e+00,2.00e-02,
389,1.20e-03,4.00e-02,
390,1.60e-03,4.00e-02,
391,-8.00e-04,2.00e-02,
392,-1.60e-03,2.00e-02,
393,8.00e-03,1.94e+00,
394,7.60e-03,1.60e-01,
395,0.00e+00,8.00e-02,
396,0.00e+00,1.00e-01,
397,1.60e-03,6.00e-02,
398,0.00e+00,6.00e-02,
399,1.20e-03,1.00e-01,
400,1.20e-03,6.00e-02,
401,0.00e+00,8.00e-02,
402,0.00e+00,8.00e-02,
403,1.60e-03,6.00e-02,
404,-1.20e-03,6.00e-02,
405,3.60e-03,8.00e-02,
406,-6.80e-03,6.00e-02,
407,7.60e-03,8.00e-02,
408,-8.80e-03,8.00e-02,
409,1.04e-02,2.00e-02,
410,5.20e-03,2.00e-02,
411,-4.00e-03,8.00e-02,
412,2.00e-03,8.00e-02,
413,0.00e+00,2.00e-02,
414,0.00e+00,2.00e-02,
415,2.00e-03,8.00e-02,
416,0.00e+00,8.00e-02,
417,1.20e-03,2.00e-02,
418,0.00e+00,8.00e-02,
419,1.20e-03,2.00e-02,
420,1.20e-03,2.00e-02,
421,-8.00e-04,6.00e-02,
422,-1.60e-03,2.00e-02,
423,8.40e-03,2.20e+00,
424,7.60e-03,1.60e-01,
425,0.00e+00,8.00e-02,
426,0.00e+00,1.00e-01,
427,2.00e-03,6.00e-02,
428,1.20e-03,6.00e-02,
429,0.00e+00,1.00e-01,
430,1.20e-03,6.00e-02,
431,0.00e+00,8.00e-02,
432,2.00e-03,6.00e-02,
433,0.00e+00,8.00e-02,
434,-1.20e-03,6.00e-02,
435,3.20e-03,8.00e-02,
436,-6.00e-03,8.00e-02,
437,7.20e-03,6.00e-02,
438,1.00e-02,8.00e-02,
439,-8.80e-03,2.00e-02,
440,4.00e-03,8.00e-02,
441,-3.60e-03,2.00e-02,
442,2.00e-03,8.00e-02,
443,-8.00e-04,2.00e-02,
444,1.20e-03,2.00e-02,
445,-4.00e-04,8.00e-02,
446,-8.00e-04,2.00e-02,
447,1.60e-03,8.00e-02,
448,1.20e-03,2.00e-02,
449,-4.00e-04,6.00e-02,
450,1.60e-03,2.00e-02,
451,-1.20e-03,4.00e-02,
452,-2.40e-03,2.00e-02,
453,9.20e-03,2.00e+00,
454,8.00e-03,1.60e-01,
455,0.00e+00,8.00e-02,
456,2.00e-03,1.00e-01,
457,-8.00e-04,6.00e-02,
458,1.20e-03,1.00e-01,
459,0.00e+00,6.00e-02,
460,0.00e+00,6.00e-02,
461,2.00e-03,8.00e-02,
462,2.00e-03,6.00e-02,
463,-4.00e-04,8.00e-02,
464,2.80e-03,6.00e-02,
465,-1.20e-03,8.00e-02,
466,-6.00e-03,6.00e-02,
467,8.00e-03,8.00e-02,
468,-8.40e-03,6.00e-02,
469,1.00e-02,8.00e-02,
470,5.20e-03,8.00e-02,
471,-2.80e-03,2.00e-02,
472,1.60e-03,8.00e-02,
473,0.00e+00,2.00e-02,
474,0.00e+00,8.00e-02,
475,1.20e-03,2.00e-02,
476,2.00e-03,8.00e-02,
477,0.00e+00,2.00e-02,
478,-8.00e-04,8.00e-02,
479,1.20e-03,2.00e-02,
480,1.20e-03,2.00e-02,
481,-1.20e-03,8.00e-02,
482,-2.40e-03,-8.00e-02,
483,8.00e-03,2.14e+00,
484,7.60e-03,1.60e-01,
485,-4.00e-04,8.00e-02,
486,1.20e-03,1.00e-01,
487,0.00e+00,6.00e-02,
488,0.00e+00,1.00e-01,
489,1.20e-03,6.00e-02,
490,1.20e-03,6.00e-02,
491,0.00e+00,8.00e-02,
492,2.00e-03,6.00e-02,
493,-8.00e-04,8.00e-02,
494,-1.20e-03,6.00e-02,
495,3.60e-03,8.00e-02,
496,-6.80e-03,8.00e-02,
497,7.60e-03,4.00e-02,
498,-8.40e-03,8.00e-02,
499,1.00e-02,2.00e-02,
500,4.80e-03,8.00e-02,
501,-3.20e-03,2.00e-02,
502,1.60e-03,8.00e-02,
503,-8.00e-04,2.00e-02,
504,1.20e-03,2.00e-02,
505,-4.00e-04,8.00e-02,
506,1.20e-03,2.00e-02,
507,0.00e+00,8.00e-02,
508,0.00e+00,2.00e-02,
509,2.00e-03,8.00e-02,
510,2.00e-03,8.00e-02,
511,-1.20e-03,2.00e-02,
512,-1.60e-03,2.00e-02,
513,8.40e-03,2.00e+00,
514,8.00e-03,1.60e-01,
515,0.00e+00,8.00e-02,
516,0.00e+00,1.00e-01,
517,2.00e-03,6.00e-02,
518,0.00e+00,6.00e-02,
519,1.20e-03,1.00e-01,
520,1.60e-03,6.00e-02,
521,0.00e+00,8.00e-02,
522,-4.00e-04,6.00e-02,
523,2.00e-03,8.00e-02,
524,-1.60e-03,6.00e-02,
525,2.80e-03,8.00e-02,
526,-5.60e-03,6.00e-02,
527,7.60e-03,8.00e-02,
528,8.40e-03,2.00e-02,
529,-7.20e-03,8.00e-02,
530,4.00e-03,2.00e-02,
531,-2.80e-03,8.00e-02,
532,2.40e-03,4.00e-02,
533,0.00e+00,8.00e-02,
534,1.20e-03,8.00e-02,
535,0.00e+00,2.00e-02,
536,0.00e+00,8.00e-02,
537,1.20e-03,2.00e-02,
538,0.00e+00,6.00e-02,
539,2.00e-03,2.00e-02,
540,2.40e-03,2.00e-02,
541,-1.20e-03,4.00e-02,
542,-2.40e-03,2.00e-02,
543,8.40e-03,2.26e+00,
544,8.00e-03,1.60e-01,
545,-4.00e-04,8.00e-02,
546,0.00e+00,1.00e-01,
547,2.40e-03,6.00e-02,
548,2.00e-03,6.00e-02,
549,0.00e+00,1.00e-01,
550,2.00e-03,6.00e-02,
551,0.00e+00,8.00e-02,
552,1.20e-03,6.00e-02,
553,0.00e+00,8.00e-02,
554,-1.20e-03,6.00e-02,
555,2.40e-03,8.00e-02,
556,-4.80e-03,4.00e-02,
557,6.80e-03,8.00e-02,
558,-7.20e-03,8.00e-02,
559,8.00e-03,2.00e-02,
560,4.40e-03,8.00e-02,
561,-2.00e-03,2.00e-02,
562,2.00e-03,8.00e-02,
563,-4.00e-04,2.00e-02,
564,4.00e-04,8.00e-02,
565,1.20e-03,2.00e-02,
566,1.20e-03,2.00e-02,
567,-4.00e-04,8.00e-02,
568,2.00e-03,8.00e-02,
569,-8.00e-04,2.00e-02,
570,2.40e-03,2.00e-02,
571,-1.20e-03,8.00e-02,
572,-2.80e-03,2.00e-02,
573,8.40e-03,1.98e+00,
574,8.00e-03,1.60e-01,
575,0.00e+00,8.00e-02,
576,2.00e-03,1.00e-01,
577,-4.00e-04,6.00e-02,
578,0.00e+00,6.00e-02,
579,2.00e-03,1.00e-01,
580,0.00e+00,6.00e-02,
581,2.00e-03,8.00e-02,
582,2.00e-03,8.00e-02,
583,0.00e+00,6.00e-02,
584,-1.20e-03,6.00e-02,
585,2.80e-03,8.00e-02,
586,-4.80e-03,8.00e-02,
587,7.20e-03,2.00e-02,
588,8.00e-03,8.00e-02,
589,-7.20e-03,2.00e-02,
590,4.80e-03,8.00e-02,
591,-1.60e-03,2.00e-02,
592,2.00e-03,8.00e-02,
593,0.00e+00,2.00e-02,
594,1.20e-03,8.00e-02,
595,0.00e+00,2.00e-02,
596,1.20e-03,2.00e-02,
597,0.00e+00,6.00e-02,
598,0.00e+00,2.00e-02,
599,2.00e-03,8.00e-02,
600,2.00e-03,2.00e-02,
601,-1.60e-03,4.00e-02,
602,-2.80e-03,2.00e-02,
603,8.00e-03,2.16e+00,
604,7.20e-03,1.60e-01,
605,0.00e+00,8.00e-02,
606,2.40e-03,1.00e-01,
607,-4.00e-04,6.00e-02,
608,-4.00e-04,6.00e-02,
609,2.00e-03,8.00e-02,
610,0.00e+00,6.00e-02,
611,1.60e-03,8.00e-02,
612,1.20e-03,8.00e-02,
613,0.00e+00,6.00e-02,
614,-8.00e-04,6.00e-02,
615,3.60e-03,8.00e-02,
616,-4.80e-03,4.00e-02,
617,7.20e-03,8.00e-02,
618,8.00e-03,4.00e-02,
619,-6.00e-03,8.00e-02,
620,4.00e-03,8.00e-02,
621,-1.60e-03,2.00e-02,
622,1.20e-03,8.00e-02,
623,-8.00e-04,2.00e-02,
624,-8.00e-04,8.00e-02,
625,1.20e-03,2.00e-02,
626,2.00e-03,2.00e-02,
627,4.00e-04,8.00e-02,
628,-4.00e-04,2.00e-02,
629,1.60e-03,8.00e-02,
630,2.40e-03,2.00e-02,
631,-1.60e-03,8.00e-02,
632,-3.20e-03,2.00e-02,
633,8.40e-03,2.16e+00,
634,7.20e-03,1.60e-01,
635,-8.00e-04,8.00e-02,
636,1.60e-03,1.00e-01,
637,-8.00e-04,6.00e-02,
638,0.00e+00,1.00e-01,
639,1.60e-03,6.00e-02,
640,1.20e-03,6.00e-02,
641,0.00e+00,8.00e-02,
642,0.00e+00,6.00e-02,
643,1.20e-03,8.00e-02,
644,-4.00e-04,6.00e-02,
645,2.00e-03,8.00e-02,
646,-4.00e-03,6.00e-02,
647,7.20e-03,8.00e-02,
648,8.00e-03,8.00e-02,
649,-6.00e-03,2.00e-02,
650,4.40e-03,8.00e-02,
651,-1.60e-03,2.00e-02,
652,1.20e-03,8.00e-02,
653,0.00e+00,2.00e-02,
654,0.00e+00,8.00e-02,
655,1.60e-03,2.00e-02,
656,-4.00e-04,8.00e-02,
657,1.20e-03,2.00e-02,
658,2.00e-03,2.00e-02,
659,-4.00e-04,8.00e-02,
660,2.40e-03,8.00e-02,
661,-1.20e-03,2.00e-02,
662,-2.40e-03,2.00e-02,
663,9.20e-03,2.14e+00,
664,8.00e-03,1.60e-01,
665,-8.00e-04,8.00e-02,
666,-4.00e-04,1.00e-01,
667,2.40e-03,6.00e-02,
668,4.00e-04,8.00e-02,
669,2.00e-03,6.00e-02,
670,2.00e-03,6.00e-02,
671,0.00e+00,8.00e-02,
672,0.00e+00,6.00e-02,
673,2.00e-03,8.00e-02,
674,-1.20e-03,8.00e-02,
675,2.40e-03,6.00e-02,
676,-4.40e-03,8.00e-02,
677,6.00e-03,4.00e-02,
678,-6.80e-03,2.00e-02,
679,7.60e-03,8.00e-02,
680,4.00e-03,4.00e-02,
681,-2.40e-03,8.00e-02,
682,0.00e+00,8.00e-02,
683,2.00e-03,2.00e-02,
684,1.20e-03,8.00e-02,
685,-4.00e-04,2.00e-02,
686,1.20e-03,8.00e-02,
687,-4.00e-04,2.00e-02,
688,0.00e+00,2.00e-02,
689,2.40e-03,4.00e-02,
690,-1.20e-03,2.00e-02,
691,2.40e-03,6.00e-02,
692,-3.20e-03,2.00e-02,
693,8.40e-03,2.20e+00,
694,7.60e-03,1.60e-01,
695,-4.00e-04,8.00e-02,
696,2.00e-03,1.00e-01,
697,-1.20e-03,6.00e-02,
698,-8.00e-04,6.00e-02,
699,1.20e-03,8.00e-02,
700,1.20e-03,6.00e-02,
701,0.00e+00,8.00e-02,
702,1.20e-03,6.00e-02,
703,0.00e+00,8.00e-02,
704,-1.20e-03,6.00e-02,
705,2.40e-03,8.00e-02,
706,-4.40e-03,8.00e-02,
707,6.40e-03,2.00e-02,
708,-6.00e-03,8.00e-02,
709,7.20e-03,2.00e-02,
710,3.60e-03,8.00e-02,
711,-1.60e-03,2.00e-02,
712,1.60e-03,8.00e-02,
713,0.00e+00,2.00e-02,
714,0.00e+00,2.00e-02,
715,1.20e-03,8.00e-02,
716,0.00e+00,2.00e-02,
717,2.00e-03,8.00e-02,
718,1.20e-03,2.00e-02,
719,-8.00e-04,8.00e-02,
720,2.40e-03,6.00e-02,
721,-1.20e-03,2.00e-02,
722,-3.20e-03,2.00e-02,
723,8.40e-03,2.26e+00,
724,7.20e-03,1.60e-01,
725,-4.00e-04,8.00e-02,
726,-8.00e-04,1.00e-01,
727,2.00e-03,6.00e-02,
728,0.00e+00,6.00e-02,
729,1.20e-03,1.00e-01,
730,1.20e-03,8.00e-02,
731,0.00e+00,6.00e-02,
732,0.00e+00,6.00e-02,
733,1.20e-03,8.00e-02,
734,-8.00e-04,8.00e-02,
735,2.40e-03,6.00e-02,
736,-4.00e-03,8.00e-02,
737,6.80e-03,6.00e-02,
738,-5.60e-03,8.00e-02,
739,6.80e-03,2.00e-02,
740,2.80e-03,8.00e-02,
741,-2.00e-03,4.00e-02,
742,2.00e-03,2.00e-02,
743,0.00e+00,8.00e-02,
744,1.20e-03,2.00e-02,
745,0.00e+00,8.00e-02,
746,0.00e+00,8.00e-02,
747,1.20e-03,2.00e-02,
748,0.00e+00,2.00e-02,
749,2.40e-03,8.00e-02,
750,2.40e-03,2.00e-02,
751,-1.20e-03,8.00e-02,
752,-2.80e-03,2.00e-02,
753,8.40e-03,2.08e+00,
754,8.00e-03,1.60e-01,
755,-8.00e-04,8.00e-02,
756,-8.00e-04,1.00e-01,
757,2.40e-03,6.00e-02,
758,0.00e+00,6.00e-02,
759,2.00e-03,1.00e-01,
760,0.00e+00,6.00e-02,
761,2.00e-03,8.00e-02,
762,1.20e-03,8.00e-02,
763,0.00e+00,6.00e-02,
764,-4.00e-04,6.00e-02,
765,2.00e-03,8.00e-02,
766,-4.00e-03,6.00e-02,
767,5.60e-03,8.00e-02,
768,-4.80e-03,8.00e-02,
769,6.40e-03,2.00e-02,
770,3.20e-03,8.00e-02,
771,-1.20e-03,4.00e-02,
772,2.00e-03,8.00e-02,
773,0.00e+00,2.00e-02,
774,1.20e-03,8.00e-02,
775,0.00e+00,2.00e-02,
776,1.20e-03,8.00e-02,
777,-8.00e-04,2.00e-02,
778,0.00e+00,2.00e-02,
779,2.00e-03,8.00e-02,
780,2.40e-03,2.00e-02,
781,-1.20e-03,8.00e-02,
782,-3.60e-03,2.00e-02,
783,8.80e-03,2.22e+00,
784,8.00e-03,1.60e-01,
785,-8.00e-04,8.00e-02,
786,-4.00e-04,1.00e-01,
787,2.00e-03,6.00e-02,
788,0.00e+00,6.00e-02,
789,1.20e-03,1.00e-01,
790,1.20e-03,6.00e-02,
791,0.00e+00,8.00e-02,
792,0.00e+00,6.00e-02,
793,1.20e-03,8.00e-02,
794,-8.00e-04,8.00e-02,
795,2.40e-03,2.00e-02,
796,-3.60e-03,6.00e-02,
797,6.40e-03,8.00e-02,
798,6.00e-03,8.00e-02,
799,-4.80e-03,4.00e-02,
800,3.20e-03,8.00e-02,
801,-1.60e-03,2.00e-02,
802,1.20e-03,8.00e-02,
803,0.00e+00,2.00e-02,
804,0.00e+00,2.00e-02,
805,1.20e-03,8.00e-02,
806,1.20e-03,8.00e-02,
807,0.00e+00,2.00e-02,
808,2.00e-03,2.00e-02,
809,-8.00e-04,8.00e-02,
810,2.40e-03,4.00e-02,
811,-1.60e-03,2.00e-02,
812,-3.20e-03,2.00e-02,
813,8.00e-03,2.18e+00,
814,7.60e-03,1.60e-01,
815,-1.20e-03,8.00e-02,
816,-8.00e-04,1.00e-01,
817,2.40e-03,6.00e-02,
818,0.00e+00,8.00e-02,
819,2.00e-03,6.00e-02,
820,4.00e-04,6.00e-02,
821,1.20e-03,8.00e-02,
822,1.20e-03,6.00e-02,
823,0.00e+00,8.00e-02,
824,-1.20e-03,8.00e-02,
825,2.40e-03,6.00e-02,
826,-4.00e-03,2.00e-02,
827,6.40e-03,8.00e-02,
828,5.60e-03,8.00e-02,
829,-4.80e-03,2.00e-02,
830,2.80e-03,8.00e-02,
831,-1.20e-03,2.00e-02,
832,1.20e-03,8.00e-02,
833,0.00e+00,2.00e-02,
834,4.00e-04,2.00e-02,
835,1.20e-03,8.00e-02,
836,1.20e-03,6.00e-02,
837,0.00e+00,2.00e-02,
838,2.00e-03,2.00e-02,
839,-1.20e-03,8.00e-02,
840,2.40e-03,2.00e-02,
841,-1.60e-03,6.00e-02,
842,-2.80e-03,2.00e-02,
843,8.40e-03,2.16e+00,
844,7.20e-03,1.60e-01,
845,-8.00e-04,8.00e-02,
846,-8.00e-04,1.00e-01,
847,2.00e-03,6.00e-02,
848,0.00e+00,6.00e-02,
849,2.00e-03,1.00e-01,
850,1.20e-03,6.00e-02,
851,0.00e+00,8.00e-02,
852,1.20e-03,6.00e-02,
853,0.00e+00,8.00e-02,
854,-8.00e-04,8.00e-02,
855,2.40e-03,6.00e-02,
856,-3.20e-03,8.00e-02,
857,5.60e-03,6.00e-02,
858,5.20e-03,8.00e-02,
