CarrPurc_P1-19_P2-38_tauVary/Gly80/NewFile2.csv

X,CH1,CH2,Start,Increment,
Sequence,Volt,Volt,-3.200000e-03,2.000000e-04
0,1.20e-03,4.00e-02,
1,0.00e+00,0.00e+00,
2,0.00e+00,4.00e-02,
3,1.20e-03,0.00e+00,
4,0.00e+00,4.00e-02,
5,1.60e-03,0.00e+00,
6,0.00e+00,0.00e+00,
7,1.20e-03,4.00e-02,
8,1.20e-03,4.00e-02,
9,0.00e+00,0.00e+00,
10,4.00e-04,4.00e-02,
11,1.60e-03,0.00e+00,
12,1.60e-03,4.00e-02,
13,0.00e+00,0.00e+00,
14,1.20e-03,4.00e-02,
15,0.00e+00,0.00e+00,
16,1.20e-03,4.00e-02,
17,-8.00e-04,0.00e+00,
18,6.40e-03,0.00e+00,
19,-3.20e-02,1.74e+00,
20,2.12e-02,1.20e-01,
21,-1.76e-02,6.00e-02,
22,5.20e-03,6.00e-02,
23,-2.40e-03,8.00e-02,
24,4.00e-03,8.00e-02,
25,-1.60e-03,6.00e-02,
26,2.40e-03,8.00e-02,
27,-8.00e-04,2.00e-02,
28,-8.00e-04,8.00e-02,
29,2.40e-03,2.00e-02,
30,2.40e-03,2.00e-02,
31,-1.20e-03,8.00e-02,
32,0.00e+00,2.00e-02,
33,8.00e-03,2.10e+00,
34,-8.80e-03,1.60e-01,
35,8.40e-03,8.00e-02,
36,6.80e-03,1.00e-01,
37,-3.20e-03,6.00e-02,
38,-8.00e-04,6.00e-02,
39,2.40e-03,8.00e-02,
40,2.80e-03,6.00e-02,
41,-1.60e-03,8.00e-02,
42,-1.60e-03,8.00e-02,
43,2.80e-03,2.00e-02,
44,-4.00e-03,8.00e-02,
45,7.20e-03,2.00e-02,
46,-1.92e-02,8.00e-02,
47,2.48e-02,2.00e-02,
48,2.88e-02,6.00e-02,
49,-2.56e-02,2.00e-02,
50,1.60e-02,4.00e-02,
51,-1.12e-02,2.00e-02,
52,4.00e-03,2.00e-02,
53,-1.60e-03,4.00e-02,
54,2.40e-03,4.00e-02,
55,-1.20e-03,2.00e-02,
56,-8.00e-04,4.00e-02,
57,2.40e-03,2.00e-02,
58,2.00e-03,4.00e-02,
59,-4.00e-04,2.00e-02,
60,-4.00e-04,4.00e-02,
61,2.00e-03,2.00e-02,
62,0.00e+00,2.00e-02,
63,7.60e-03,2.14e+00,
64,7.60e-03,1.60e-01,
65,0.00e+00,8.00e-02,
66,4.00e-04,1.00e-01,
67,2.00e-03,6.00e-02,
68,0.00e+00,8.00e-02,
69,2.40e-03,6.00e-02,
70,2.00e-03,6.00e-02,
71,0.00e+00,8.00e-02,
72,4.00e-04,8.00e-02,
73,2.40e-03,4.00e-02,
74,-4.40e-03,8.00e-02,
75,6.80e-03,2.00e-02,
76,1.60e-02,2.00e-02,
77,-1.76e-02,8.00e-02,
78,-2.28e-02,2.00e-02,
79,2.40e-02,6.00e-02,
80,1.12e-02,2.00e-02,
81,-8.00e-03,6.00e-02,
82,3.20e-03,4.00e-02,
83,-1.20e-03,2.00e-02,
84,2.80e-03,4.00e-02,
85,-1.20e-03,2.00e-02,
86,2.40e-03,2.00e-02,
87,-8.00e-04,4.00e-02,
88,2.40e-03,4.00e-02,
89,-1.20e-03,2.00e-02,
90,4.00e-03,4.00e-02,
91,-2.80e-03,2.00e-02,
92,-3.20e-03,2.00e-02,
93,8.80e-03,2.26e+00,
94,8.00e-03,1.60e-01,
95,0.00e+00,8.00e-02,
96,2.40e-03,1.00e-01,
97,-8.00e-04,6.00e-02,
98,2.00e-03,6.00e-02,
99,-8.00e-04,8.00e-02,
100,2.40e-03,8.00e-02,
101,-8.00e-04,6.00e-02,
102,2.40e-03,6.00e-02,
103,-8.00e-04,8.00e-02,
104,-4.00e-03,6.00e-02,
105,6.00e-03,8.00e-02,
106,1.52e-02,8.00e-02,
107,-1.76e-02,2.00e-02,
108,2.32e-02,8.00e-02,
109,-2.20e-02,2.00e-02,
110,1.16e-02,2.00e-02,
111,-8.40e-03,8.00e-02,
112,3.20e-03,2.00e-02,
113,-1.20e-03,6.00e-02,
114,-1.20e-03,4.00e-02,
115,2.40e-03,2.00e-02,
116,2.40e-03,4.00e-02,
117,-8.00e-04,2.00e-02,
118,-8.00e-04,4.00e-02,
119,2.40e-03,2.00e-02,
120,3.20e-03,2.00e-02,
121,-2.40e-03,4.00e-02,
122,-3.20e-03,2.00e-02,
123,8.40e-03,2.16e+00,
124,8.00e-03,1.60e-01,
125,-1.60e-03,8.00e-02,
126,3.20e-03,1.00e-01,
127,-4.00e-04,6.00e-02,
128,2.40e-03,6.00e-02,
129,0.00e+00,8.00e-02,
130,-8.00e-04,6.00e-02,
131,2.80e-03,8.00e-02,
132,2.40e-03,6.00e-02,
133,-8.00e-04,8.00e-02,
134,-3.20e-03,8.00e-02,
135,5.20e-03,2.00e-02,
136,-1.44e-02,2.00e-02,
137,1.32e-02,8.00e-02,
138,-1.96e-02,8.00e-02,
139,2.20e-02,2.00e-02,
140,1.08e-02,2.00e-02,
141,-7.20e-03,4.00e-02,
142,3.60e-03,4.00e-02,
143,-4.00e-04,2.00e-02,
144,2.00e-03,4.00e-02,
145,-8.00e-04,2.00e-02,
146,-8.00e-04,4.00e-02,
147,2.00e-03,2.00e-02,
148,0.00e+00,4.00e-02,
149,2.00e-03,2.00e-02,
150,1.20e-03,2.00e-02,
151,-8.00e-04,4.00e-02,
152,-1.60e-03,2.00e-02,
153,8.40e-03,2.14e+00,
154,7.60e-03,1.60e-01,
155,-1.20e-03,8.00e-02,
156,2.40e-03,1.00e-01,
157,-4.00e-04,6.00e-02,
158,1.60e-03,6.00e-02,
159,0.00e+00,8.00e-02,
160,2.40e-03,6.00e-02,
161,-8.00e-04,8.00e-02,
162,0.00e+00,8.00e-02,
163,2.40e-03,2.00e-02,
164,-4.00e-03,8.00e-02,
165,6.80e-03,2.00e-02,
166,1.36e-02,2.00e-02,
167,-1.40e-02,8.00e-02,
168,-1.92e-02,2.00e-02,
169,2.04e-02,8.00e-02,
170,8.40e-03,6.00e-02,
171,-6.80e-03,2.00e-02,
172,3.20e-03,2.00e-02,
173,-8.00e-04,4.00e-02,
174,-8.00e-04,4.00e-02,
175,2.40e-03,2.00e-02,
176,0.00e+00,4.00e-02,
177,2.00e-03,2.00e-02,
178,-4.00e-04,4.00e-02,
179,2.80e-03,2.00e-02,
180,2.00e-03,4.00e-02,
181,-8.00e-04,2.00e-02,
182,-1.20e-03,2.00e-02,
183,8.40e-03,2.20e+00,
184,7.20e-03,1.60e-01,
185,0.00e+00,8.00e-02,
186,0.00e+00,1.00e-01,
187,2.40e-03,6.00e-02,
188,0.00e+00,6.00e-02,
189,2.00e-03,8.00e-02,
190,0.00e+00,6.00e-02,
191,2.00e-03,8.00e-02,
192,0.00e+00,6.00e-02,
193,2.00e-03,8.00e-02,
194,-3.60e-03,8.00e-02,
195,5.20e-03,2.00e-02,
196,1.24e-02,8.00e-02,
197,-1.44e-02,2.00e-02,
198,-1.72e-02,8.00e-02,
199,1.88e-02,2.00e-02,
200,8.80e-03,2.00e-02,
201,-6.80e-03,4.00e-02,
202,2.40e-03,4.00e-02,
203,-1.20e-03,2.00e-02,
204,-8.00e-04,4.00e-02,
205,2.80e-03,2.00e-02,
206,2.40e-03,2.00e-02,
207,0.00e+00,4.00e-02,
208,1.60e-03,4.00e-02,
209,0.00e+00,2.00e-02,
210,2.40e-03,4.00e-02,
211,-1.20e-03,2.00e-02,
212,-2.40e-03,2.00e-02,
213,9.20e-03,2.18e+00,
214,8.00e-03,1.60e-01,
215,4.00e-04,8.00e-02,
216,2.00e-03,1.00e-01,
217,-8.00e-04,6.00e-02,
218,0.00e+00,8.00e-02,
219,2.00e-03,6.00e-02,
220,2.00e-03,6.00e-02,
221,-8.00e-04,8.00e-02,
222,2.80e-03,6.00e-02,
223,-1.20e-03,8.00e-02,
224,-2.80e-03,8.00e-02,
225,5.20e-03,2.00e-02,
226,-1.20e-02,8.00e-02,
227,1.28e-02,2.00e-02,
228,-1.76e-02,8.00e-02,
229,1.84e-02,2.00e-02,
230,9.60e-03,2.00e-02,
231,-6.40e-03,8.00e-02,
232,2.80e-03,4.00e-02,
233,-4.00e-04,2.00e-02,
234,2.40e-03,4.00e-02,
235,-8.00e-04,2.00e-02,
236,2.00e-03,4.00e-02,
237,0.00e+00,2.00e-02,
238,0.00e+00,4.00e-02,
239,2.00e-03,2.00e-02,
240,2.00e-03,4.00e-02,
241,-8.00e-04,2.00e-02,
242,-2.40e-03,2.00e-02,
243,8.00e-03,2.04e+00,
244,8.00e-03,1.60e-01,
245,4.00e-04,8.00e-02,
246,2.00e-03,1.00e-01,
247,0.00e+00,6.00e-02,
248,1.20e-03,8.00e-02,
249,-8.00e-04,6.00e-02,
250,1.60e-03,8.00e-02,
251,-8.00e-04,6.00e-02,
252,2.40e-03,8.00e-02,
253,-8.00e-04,4.00e-02,
254,-2.80e-03,8.00e-02,
255,6.40e-03,2.00e-02,
256,-1.28e-02,8.00e-02,
257,1.28e-02,2.00e-02,
258,-1.72e-02,2.00e-02,
259,1.68e-02,8.00e-02,
260,8.00e-03,8.00e-02,
261,-5.60e-03,2.00e-02,
262,2.80e-03,4.00e-02,
263,0.00e+00,2.00e-02,
264,0.00e+00,2.00e-02,
265,2.00e-03,4.00e-02,
266,0.00e+00,4.00e-02,
267,1.60e-03,2.00e-02,
268,0.00e+00,4.00e-02,
269,2.00e-03,2.00e-02,
270,2.00e-03,4.00e-02,
271,-8.00e-04,2.00e-02,
272,-2.00e-03,2.00e-02,
273,8.40e-03,1.96e+00,
274,7.60e-03,1.60e-01,
275,4.00e-04,8.00e-02,
276,1.60e-03,1.00e-01,
277,0.00e+00,6.00e-02,
278,0.00e+00,6.00e-02,
279,1.60e-03,8.00e-02,
280,-4.00e-04,8.00e-02,
281,2.00e-03,6.00e-02,
282,2.00e-03,6.00e-02,
283,0.00e+00,8.00e-02,
284,-1.60e-03,8.00e-02,
285,4.80e-03,2.00e-02,
286,-1.04e-02,2.00e-02,
287,1.04e-02,8.00e-02,
288,-1.48e-02,8.00e-02,
289,1.60e-02,2.00e-02,
290,8.40e-03,8.00e-02,
291,-5.60e-03,2.00e-02,
292,2.80e-03,2.00e-02,
293,-8.00e-04,8.00e-02,
294,2.40e-03,4.00e-02,
295,-8.00e-04,2.00e-02,
296,0.00e+00,4.00e-02,
297,2.40e-03,2.00e-02,
298,0.00e+00,4.00e-02,
299,1.60e-03,2.00e-02,
300,1.60e-03,4.00e-02,
301,0.00e+00,2.00e-02,
302,-2.40e-03,2.00e-02,
303,8.40e-03,2.18e+00,
304,8.00e-03,1.60e-01,
305,4.00e-04,8.00e-02,
306,2.40e-03,1.00e-01,
307,-8.00e-04,6.00e-02,
308,0.00e+00,6.00e-02,
309,2.00e-03,1.00e-01,
310,1.20e-03,6.00e-02,
311,-4.00e-04,8.00e-02,
312,-4.00e-04,6.00e-02,
313,2.40e-03,8.00e-02,
314,-2.40e-03,8.00e-02,
315,4.00e-03,2.00e-02,
316,-1.04e-02,8.00e-02,
317,1.00e-02,2.00e-02,
318,-1.44e-02,2.00e-02,
319,1.56e-02,6.00e-02,
320,8.00e-03,4.00e-02,
321,-5.60e-03,2.00e-02,
322,2.40e-03,4.00e-02,
323,-8.00e-04,2.00e-02,
324,-4.00e-04,4.00e-02,
325,2.00e-03,2.00e-02,
326,0.00e+00,4.00e-02,
327,1.60e-03,2.00e-02,
328,0.00e+00,4.00e-02,
329,1.60e-03,2.00e-02,
330,2.00e-03,4.00e-02,
331,-8.00e-04,2.00e-02,
332,-2.00e-03,2.00e-02,
333,8.80e-03,2.14e+00,
334,8.00e-03,1.60e-01,
335,4.00e-04,8.00e-02,
336,2.40e-03,1.00e-01,
337,0.00e+00,6.00e-02,
338,0.00e+00,8.00e-02,
339,1.20e-03,6.00e-02,
340,0.00e+00,6.00e-02,
341,2.40e-03,8.00e-02,
342,2.40e-03,6.00e-02,
343,0.00e+00,8.00e-02,
344,-2.40e-03,8.00e-02,
345,5.60e-03,2.00e-02,
346,-1.12e-02,2.00e-02,
347,1.32e-02,8.00e-02,
348,1.52e-02,2.00e-02,
349,-1.44e-02,6.00e-02,
350,7.60e-03,4.00e-02,
351,-4.40e-03,2.00e-02,
352,-4.00e-04,4.00e-02,
353,2.00e-03,2.00e-02,
354,-8.00e-04,4.00e-02,
355,1.60e-03,2.00e-02,
356,2.00e-03,2.00e-02,
357,0.00e+00,4.00e-02,
358,2.00e-03,2.00e-02,
359,0.00e+00,4.00e-02,
360,-8.00e-04,4.00e-02,
361,2.00e-03,2.00e-02,
362,-2.40e-03,2.00e-02,
363,8.40e-03,2.14e+00,
364,7.60e-03,1.60e-01,
365,4.00e-04,8.00e-02,
366,0.00e+00,1.00e-01,
367,2.40e-03,6.00e-02,
368,0.00e+00,6.00e-02,
369,1.60e-03,8.00e-02,
370,1.20e-03,6.00e-02,
371,-8.00e-04,8.00e-02,
372,0.00e+00,8.00e-02,
373,2.00e-03,2.00e-02,
374,-2.80e-03,8.00e-02,
375,4.80e-03,2.00e-02,
376,-9.60e-03,2.00e-02,
377,1.20e-02,8.00e-02,
378,1.44e-02,2.00e-02,
379,-1.32e-02,6.00e-02,
380,7.20e-03,8.00e-02,
381,-5.20e-03,2.00e-02,
382,2.40e-03,4.00e-02,
383,-8.00e-04,2.00e-02,
384,-4.00e-04,4.00e-02,
385,2.40e-03,2.00e-02,
386,0.00e+00,4.00e-02,
387,1.60e-03,2.00e-02,
388,-8.00e-04,2.00e-02,
389,1.20e-03,4.00e-02,
390,1.60e-03,4.00e-02,
391,-4.00e-04,2.00e-02,
392,-2.40e-03,2.00e-02,
393,8.40e-03,2.08e+00,
394,8.00e-03,1.60e-01,
395,0.00e+00,8.00e-02,
396,2.00e-03,1.00e-01,
397,-4.00e-04,6.00e-02,
398,-8.00e-04,6.00e-02,
399,2.00e-03,8.00e-02,
400,0.00e+00,6.00e-02,
401,2.00e-03,8.00e-02,
402,2.00e-03,8.00e-02,
403,0.00e+00,4.00e-02,
404,-1.60e-03,8.00e-02,
405,4.00e-03,2.00e-02,
406,-8.80e-03,8.00e-02,
407,9.20e-03,2.00e-02,
408,-1.32e-02,2.00e-02,
409,1.28e-02,8.00e-02,
410,7.20e-03,4.00e-02,
411,-4.40e-03,2.00e-02,
412,1.60e-03,4.00e-02,
413,-8.00e-04,2.00e-02,
414,-8.00e-04,4.00e-02,
415,2.00e-03,2.00e-02,
416,1.20e-03,2.00e-02,
417,0.00e+00,4.00e-02,
418,0.00e+00,4.00e-02,
419,2.00e-03,2.00e-02,
420,2.00e-03,2.00e-02,
421,-8.00e-04,4.00e-02,
422,-2.80e-03,2.00e-02,
423,9.20e-03,2.22e+00,
424,8.00e-03,1.60e-01,
425,0.00e+00,8.00e-02,
426,0.00e+00,1.00e-01,
427,1.60e-03,6.00e-02,
428,0.00e+00,8.00e-02,
429,2.00e-03,6.00e-02,
430,-4.00e-04,6.00e-02,
431,2.40e-03,8.00e-02,
432,2.00e-03,6.00e-02,
433,0.00e+00,8.00e-02,
434,-1.60e-03,8.00e-02,
435,3.60e-03,2.00e-02,
436,-8.40e-03,8.00e-02,
437,1.12e-02,2.00e-02,
438,-1.16e-02,8.00e-02,
439,1.32e-02,2.00e-02,
440,6.40e-03,2.00e-02,
441,-4.00e-03,8.00e-02,
442,2.00e-03,4.00e-02,
443,-4.00e-04,2.00e-02,
444,2.00e-03,4.00e-02,
445,-4.00e-04,2.00e-02,
446,2.00e-03,4.00e-02,
447,0.00e+00,2.00e-02,
448,0.00e+00,2.00e-02,
449,2.00e-03,4.00e-02,
450,1.60e-03,2.00e-02,
451,-8.00e-04,4.00e-02,
452,-2.40e-03,2.00e-02,
453,8.40e-03,1.98e+00,
454,8.00e-03,1.60e-01,
455,-4.00e-04,8.00e-02,
456,-4.00e-04,1.00e-01,
457,2.40e-03,6.00e-02,
458,0.00e+00,6.00e-02,
459,1.60e-03,8.00e-02,
460,1.20e-03,6.00e-02,
461,-4.00e-04,8.00e-02,
462,1.20e-03,8.00e-02,
463,-8.00e-04,4.00e-02,
464,-1.20e-03,8.00e-02,
465,4.00e-03,2.00e-02,
466,-8.80e-03,2.00e-02,
467,1.16e-02,8.00e-02,
468,1.32e-02,8.00e-02,
469,-1.20e-02,2.00e-02,
470,6.80e-03,6.00e-02,
471,-3.60e-03,2.00e-02,
472,0.00e+00,4.00e-02,
473,2.00e-03,2.00e-02,
474,0.00e+00,4.00e-02,
475,2.00e-03,2.00e-02,
476,0.00e+00,4.00e-02,
477,1.60e-03,2.00e-02,
478,1.20e-03,4.00e-02,
479,-4.00e-04,2.00e-02,
480,2.00e-03,4.00e-02,
481,-1.20e-03,2.00e-02,
482,-2.40e-03,2.00e-02,
483,8.00e-03,2.06e+00,
484,7.60e-03,1.60e-01,
485,0.00e+00,8.00e-02,
486,0.00e+00,1.00e-01,
487,2.80e-03,6.00e-02,
488,0.00e+00,8.00e-02,
489,2.00e-03,6.00e-02,
490,2.00e-03,6.00e-02,
491,0.00e+00,8.00e-02,
492,2.40e-03,8.00e-02,
493,0.00e+00,4.00e-02,
494,-8.00e-04,8.00e-02,
495,4.00e-03,2.00e-02,
496,-7.60e-03,8.00e-02,
497,1.16e-02,2.00e-02,
498,-1.04e-02,2.00e-02,
499,1.28e-02,8.00e-02,
500,6.00e-03,2.00e-02,
501,-3.20e-03,6.00e-02,
502,2.00e-03,4.00e-02,
503,-4.00e-04,2.00e-02,
504,4.00e-04,4.00e-02,
505,2.00e-03,2.00e-02,
506,2.00e-03,2.00e-02,
507,-4.00e-04,4.00e-02,
508,1.20e-03,4.00e-02,
509,-8.00e-04,2.00e-02,
510,-8.00e-04,4.00e-02,
511,2.40e-03,2.00e-02,
512,-2.40e-03,2.00e-02,
513,8.40e-03,2.12e+00,
514,8.00e-03,1.60e-01,
515,-4.00e-04,8.00e-02,
516,2.40e-03,1.00e-01,
517,-8.00e-04,6.00e-02,
518,-4.00e-04,6.00e-02,
519,1.20e-03,8.00e-02,
520,0.00e+00,6.00e-02,
521,2.00e-03,8.00e-02,
522,2.00e-03,4.00e-02,
523,-8.00e-04,8.00e-02,
524,-1.60e-03,8.00e-02,
525,4.00e-03,2.00e-02,
526,-7.20e-03,8.00e-02,
527,1.00e-02,2.00e-02,
528,-1.00e-02,2.00e-02,
529,1.16e-02,8.00e-02,
530,6.00e-03,2.00e-02,
531,-3.20e-03,8.00e-02,
532,-8.00e-04,8.00e-02,
533,2.00e-03,2.00e-02,
534,0.00e+00,6.00e-02,
535,2.00e-03,2.00e-02,
536,1.20e-03,4.00e-02,
537,0.00e+00,2.00e-02,
538,0.00e+00,4.00e-02,
539,1.20e-03,2.00e-02,
540,2.00e-03,2.00e-02,
541,-8.00e-04,4.00e-02,
542,-2.80e-03,2.00e-02,
543,9.20e-03,2.20e+00,
544,8.00e-03,1.60e-01,
545,-8.00e-04,8.00e-02,
546,2.40e-03,1.00e-01,
547,-1.20e-03,6.00e-02,
548,-4.00e-04,6.00e-02,
549,2.00e-03,8.00e-02,
550,0.00e+00,6.00e-02,
551,2.40e-03,8.00e-02,
552,2.40e-03,6.00e-02,
553,0.00e+00,8.00e-02,
554,-1.60e-03,8.00e-02,
555,2.80e-03,2.00e-02,
556,-7.60e-03,2.00e-02,
557,8.80e-03,8.00e-02,
558,1.08e-02,8.00e-02,
559,-1.00e-02,2.00e-02,
560,5.60e-03,2.00e-02,
561,-3.20e-03,8.00e-02,
562,2.00e-03,2.00e-02,
563,-8.00e-04,8.00e-02,
564,0.00e+00,4.00e-02,
565,2.00e-03,2.00e-02,
566,-4.00e-04,4.00e-02,
567,2.00e-03,2.00e-02,
568,2.00e-03,4.00e-02,
569,-8.00e-04,2.00e-02,
570,2.80e-03,4.00e-02,
571,-1.20e-03,2.00e-02,
572,-2.40e-03,2.00e-02,
573,8.40e-03,2.18e+00,
574,7.20e-03,1.60e-01,
575,0.00e+00,8.00e-02,
576,2.40e-03,1.00e-01,
577,-4.00e-04,6.00e-02,
578,0.00e+00,6.00e-02,
579,2.40e-03,8.00e-02,
580,4.00e-04,6.00e-02,
581,2.00e-03,8.00e-02,
582,2.00e-03,8.00e-02,
583,0.00e+00,4.00e-02,
584,-1.20e-03,8.00e-02,
585,3.60e-03,2.00e-02,
586,-6.00e-03,8.00e-02,
587,1.00e-02,2.00e-02,
588,-8.80e-03,8.00e-02,
589,1.04e-02,2.00e-02,
590,5.20e-03,8.00e-02,
591,-3.60e-03,2.00e-02,
592,2.00e-03,4.00e-02,
593,-8.00e-04,2.00e-02,
594,-8.00e-04,4.00e-02,
595,2.40e-03,2.00e-02,
596,0.00e+00,4.00e-02,
597,1.60e-03,2.00e-02,
598,-8.00e-04,4.00e-02,
599,2.00e-03,2.00e-02,
600,2.80e-03,2.00e-02,
601,-1.20e-03,4.00e-02,
602,-2.80e-03,2.00e-02,
603,8.40e-03,2.06e+00,
604,7.60e-03,1.40e-01,
605,-1.20e-03,8.00e-02,
606,2.00e-03,1.00e-01,
607,-8.00e-04,6.00e-02,
608,0.00e+00,6.00e-02,
609,2.40e-03,8.00e-02,
610,1.20e-03,6.00e-02,
611,0.00e+00,8.00e-02,
612,0.00e+00,8.00e-02,
613,2.00e-03,6.00e-02,
614,-1.60e-03,8.00e-02,
615,3.20e-03,4.00e-02,
616,-6.00e-03,8.00e-02,
617,1.00e-02,2.00e-02,
618,1.00e-02,8.00e-02,
619,-8.80e-03,2.00e-02,
620,4.80e-03,8.00e-02,
621,-2.80e-03,2.00e-02,
622,0.00e+00,4.00e-02,
623,2.00e-03,2.00e-02,
624,0.00e+00,2.00e-02,
625,2.00e-03,4.00e-02,
626,1.60e-03,4.00e-02,
627,-4.00e-04,2.00e-02,
628,-4.00e-04,4.00e-02,
629,2.40e-03,2.00e-02,
630,2.00e-03,4.00e-02,
631,-1.60e-03,2.00e-02,
632,-3.20e-03,2.00e-02,
633,9.20e-03,2.16e+00,
634,8.00e-03,1.60e-01,
635,-8.00e-04,8.00e-02,
636,2.40e-03,1.00e-01,
637,-8.00e-04,6.00e-02,
638,-8.00e-04,6.00e-02,
639,2.00e-03,8.00e-02,
640,2.00e-03,6.00e-02,
641,0.00e+00,8.00e-02,
642,2.00e-03,8.00e-02,
643,0.00e+00,2.00e-02,
644,-1.20e-03,8.00e-02,
645,2.80e-03,2.00e-02,
646,-6.80e-03,2.00e-02,
647,8.00e-03,8.00e-02,
648,-8.40e-03,2.00e-02,
649,9.60e-03,8.00e-02,
650,5.20e-03,2.00e-02,
651,-2.80e-03,6.00e-02,
652,2.00e-03,4.00e-02,
653,-8.00e-04,2.00e-02,
654,1.20e-03,2.00e-02,
655,-8.00e-04,4.00e-02,
656,-4.00e-04,4.00e-02,
657,2.00e-03,2.00e-02,
658,0.00e+00,4.00e-02,
659,2.00e-03,2.00e-02,
660,2.80e-03,4.00e-02,
661,-1.60e-03,2.00e-02,
662,-2.80e-03,2.00e-02,
663,8.40e-03,2.24e+00,
664,8.00e-03,1.60e-01,
665,-1.20e-03,8.00e-02,
666,2.40e-03,1.00e-01,
667,-8.00e-04,6.00e-02,
668,0.00e+00,8.00e-02,
669,1.60e-03,6.00e-02,
670,2.00e-03,6.00e-02,
671,0.00e+00,8.00e-02,
672,2.00e-03,6.00e-02,
673,0.00e+00,8.00e-02,
674,-1.20e-03,8.00e-02,
675,2.80e-03,2.00e-02,
676,-6.00e-03,2.00e-02,
677,8.40e-03,8.00e-02,
678,-8.00e-03,2.00e-02,
679,9.60e-03,8.00e-02,
680,4.80e-03,4.00e-02,
681,-2.80e-03,2.00e-02,
682,2.00e-03,4.00e-02,
683,-8.00e-04,2.00e-02,
684,-8.00e-04,4.00e-02,
685,2.00e-03,2.00e-02,
686,0.00e+00,4.00e-02,
687,1.20e-03,2.00e-02,
688,-8.00e-04,2.00e-02,
689,2.40e-03,4.00e-02,
690,2.40e-03,4.00e-02,
691,-1.60e-03,2.00e-02,
692,-3.60e-03,2.14e+00,
693,8.40e-03,0.00e+00,
694,7.60e-03,1.60e-01,
695,-4.00e-04,8.00e-02,
696,2.40e-03,1.00e-01,
697,-8.00e-04,6.00e-02,
698,0.00e+00,6.00e-02,
699,2.00e-03,8.00e-02,
700,0.00e+00,6.00e-02,
701,1.20e-03,8.00e-02,
702,2.00e-03,6.00e-02,
703,0.00e+00,8.00e-02,
704,-1.20e-03,8.00e-02,
705,2.80e-03,2.00e-02,
706,-5.60e-03,8.00e-02,
707,8.40e-03,2.00e-02,
708,-7.20e-03,2.00e-02,
709,9.20e-03,8.00e-02,
710,4.80e-03,6.00e-02,
711,-1.60e-03,2.00e-02,
712,-4.00e-04,4.00e-02,
713,1.60e-03,2.00e-02,
714,-8.00e-04,4.00e-02,
715,2.00e-03,2.00e-02,
716,0.00e+00,4.00e-02,
717,1.20e-03,2.00e-02,
718,2.00e-03,4.00e-02,
719,-8.00e-04,2.00e-02,
720,2.80e-03,4.00e-02,
721,-1.60e-03,2.00e-02,
722,-3.60e-03,2.00e-02,
723,8.80e-03,2.04e+00,
724,8.00e-03,1.60e-01,
725,-1.20e-03,8.00e-02,
726,-8.00e-04,1.00e-01,
727,2.00e-03,6.00e-02,
728,-4.00e-04,6.00e-02,
729,1.60e-03,8.00e-02,
730,0.00e+00,8.00e-02,
731,1.20e-03,6.00e-02,
732,1.20e-03,8.00e-02,
733,-4.00e-04,4.00e-02,
734,-4.00e-04,8.00e-02,
735,2.80e-03,2.00e-02,
736,-6.00e-03,8.00e-02,
737,8.40e-03,2.00e-02,
738,-7.20e-03,2.00e-02,
739,8.40e-03,8.00e-02,
740,4.40e-03,8.00e-02,
741,-2.40e-03,2.00e-02,
742,2.00e-03,4.00e-02,
743,0.00e+00,2.00e-02,
744,0.00e+00,2.00e-02,
745,2.00e-03,4.00e-02,
746,1.20e-03,4.00e-02,
747,-8.00e-04,2.00e-02,
748,-4.00e-04,2.00e-02,
749,2.00e-03,4.00e-02,
750,2.80e-03,4.00e-02,
751,-1.60e-03,2.00e-02,
752,-3.60e-03,2.00e-02,
753,9.20e-03,2.22e+00,
754,8.00e-03,1.60e-01,
755,-1.20e-03,8.00e-02,
756,-1.20e-03,1.00e-01,
757,2.40e-03,6.00e-02,
758,2.00e-03,6.00e-02,
759,-8.00e-04,1.00e-01,
760,-8.00e-04,6.00e-02,
761,2.40e-03,8.00e-02,
762,2.40e-03,8.00e-02,
763,0.00e+00,6.00e-02,
764,-1.20e-03,8.00e-02,
765,2.80e-03,2.00e-02,
766,-5.20e-03,8.00e-02,
767,8.00e-03,2.00e-02,
768,-6.80e-03,8.00e-02,
769,8.80e-03,2.00e-02,
770,5.20e-03,2.00e-02,
771,-2.40e-03,6.00e-02,
772,-4.00e-04,4.00e-02,
773,1.60e-03,2.00e-02,
774,0.00e+00,4.00e-02,
775,2.00e-03,2.00e-02,
776,-8.00e-04,4.00e-02,
777,1.20e-03,2.00e-02,
778,2.00e-03,4.00e-02,
779,-8.00e-04,2.00e-02,
780,2.80e-03,2.00e-02,
781,-1.60e-03,4.00e-02,
782,-4.00e-03,0.00e+00,
783,8.40e-03,2.22e+00,
784,8.00e-03,1.60e-01,
785,-1.20e-03,8.00e-02,
786,2.40e-03,1.00e-01,
787,-8.00e-04,6.00e-02,
788,0.00e+00,6.00e-02,
789,1.60e-03,8.00e-02,
790,0.00e+00,6.00e-02,
791,1.60e-03,8.00e-02,
792,0.00e+00,6.00e-02,
793,1.60e-03,8.00e-02,
794,0.00e+00,8.00e-02,
795,3.20e-03,2.00e-02,
796,-5.20e-03,2.00e-02,
797,6.40e-03,8.00e-02,
798,-6.40e-03,8.00e-02,
799,7.60e-03,2.00e-02,
800,3.60e-03,2.00e-02,
801,-1.60e-03,8.00e-02,
802,2.00e-03,4.00e-02,
803,0.00e+00,2.00e-02,
804,0.00e+00,2.00e-02,
805,2.00e-03,4.00e-02,
806,0.00e+00,4.00e-02,
807,1.60e-03,2.00e-02,
808,2.40e-03,4.00e-02,
809,-8.00e-04,2.00e-02,
810,3.20e-03,4.00e-02,
811,-1.60e-03,2.00e-02,
812,-4.00e-03,2.00e-02,
813,8.40e-03,1.94e+00,
814,7.60e-03,1.60e-01,
815,-1.20e-03,8.00e-02,
816,2.80e-03,1.00e-01,
817,-8.00e-04,6.00e-02,
818,2.00e-03,8.00e-02,
819,0.00e+00,6.00e-02,
820,0.00e+00,6.00e-02,
821,2.00e-03,8.00e-02,
822,2.00e-03,6.00e-02,
823,0.00e+00,8.00e-02,
824,-4.00e-04,8.00e-02,
825,2.80e-03,2.00e-02,
826,-4.40e-03,8.00e-02,
827,7.20e-03,2.00e-02,
828,-6.00e-03,2.00e-02,
829,8.00e-03,8.00e-02,
830,4.00e-03,8.00e-02,
831,-2.40e-03,2.00e-02,
832,0.00e+00,4.00e-02,
833,1.60e-03,2.00e-02,
834,1.60e-03,4.00e-02,
835,0.00e+00,2.00e-02,
836,0.00e+00,4.00e-02,
837,1.20e-03,2.00e-02,
838,-8.00e-04,4.00e-02,
839,2.40e-03,2.00e-02,
840,2.80e-03,4.00e-02,
841,-1.60e-03,2.00e-02,
842,-3.20e-03,2.00e-02,
843,9.20e-03,2.08e+00,
844,8.00e-03,1.60e-01,
845,-1.20e-03,8.00e-02,
846,-4.00e-04,1.00e-01,
847,2.80e-03,6.00e-02,
848,2.00e-03,6.00e-02,
849,-4.00e-04,8.00e-02,
850,0.00e+00,6.00e-02,
851,2.40e-03,8.00e-02,
852,2.40e-03,8.00e-02,
853,0.00e+00,4.00e-02,
854,-4.00e-04,8.00e-02,
855,2.40e-03,2.00e-02,
856,-4.00e-03,8.00e-02,
857,6.80e-03,2.00e-02,
