CarrPurc_P1-19_P2-38_tauVary/Gly88/NewFile7.csv

X,CH1,CH2,Start,Increment,
Sequence,Volt,Volt,-5.000000e-03,1.000000e-04
0,0.00e+00,4.00e-02,
1,2.40e-03,0.00e+00,
2,1.60e-03,4.00e-02,
3,0.00e+00,0.00e+00,
4,-8.00e-04,4.00e-02,
5,8.00e-04,0.00e+00,
6,0.00e+00,0.00e+00,
7,1.20e-03,4.00e-02,
8,1.20e-03,4.00e-02,
9,-8.00e-04,0.00e+00,
10,-8.00e-04,4.00e-02,
11,1.20e-03,0.00e+00,
12,1.60e-03,4.00e-02,
13,0.00e+00,0.00e+00,
14,0.00e+00,4.00e-02,
15,1.20e-03,2.00e-02,
16,1.20e-03,4.00e-02,
17,0.00e+00,0.00e+00,
18,8.00e-04,4.00e-02,
19,-4.00e-04,0.00e+00,
20,8.00e-04,2.00e-02,
21,0.00e+00,4.00e-02,
22,0.00e+00,4.00e-02,
23,1.20e-03,0.00e+00,
24,0.00e+00,4.00e-02,
25,1.20e-03,0.00e+00,
26,0.00e+00,4.00e-02,
27,1.20e-03,0.00e+00,
28,1.20e-03,4.00e-02,
29,0.00e+00,0.00e+00,
30,1.20e-03,4.00e-02,
31,0.00e+00,0.00e+00,
32,1.20e-03,4.00e-02,
33,-4.00e-04,0.00e+00,
34,1.20e-03,4.00e-02,
35,-8.00e-04,0.00e+00,
36,8.00e-04,4.00e-02,
37,-8.00e-04,0.00e+00,
38,8.00e-04,4.00e-02,
39,-8.00e-04,0.00e+00,
40,-8.00e-04,4.00e-02,
41,8.00e-04,0.00e+00,
42,1.20e-03,4.00e-02,
43,0.00e+00,0.00e+00,
44,-8.00e-04,4.00e-02,
45,1.20e-03,0.00e+00,
46,1.20e-03,4.00e-02,
47,4.00e-04,0.00e+00,
48,0.00e+00,4.00e-02,
49,8.00e-04,0.00e+00,
50,-8.00e-04,4.00e-02,
51,1.20e-03,0.00e+00,
52,0.00e+00,4.00e-02,
53,1.20e-03,0.00e+00,
54,4.00e-04,2.00e-02,
55,5.60e-03,1.96e+00,
56,5.20e-03,1.60e-01,
57,-2.88e-02,8.00e-02,
58,1.68e-02,8.00e-02,
59,-1.48e-02,1.20e-01,
60,8.00e-03,1.00e-01,
61,-8.40e-03,6.00e-02,
62,5.20e-03,1.00e-01,
63,-1.60e-03,6.00e-02,
64,2.80e-03,6.00e-02,
65,-2.00e-03,8.00e-02,
66,2.80e-03,6.00e-02,
67,-1.60e-03,8.00e-02,
68,2.40e-03,8.00e-02,
69,-1.60e-03,6.00e-02,
70,2.40e-03,6.00e-02,
71,-8.00e-04,8.00e-02,
72,-4.00e-04,8.00e-02,
73,2.40e-03,6.00e-02,
74,1.60e-03,1.94e+00,
75,8.00e-03,4.00e-02,
76,6.80e-03,1.60e-01,
77,-8.00e-03,1.00e-01,
78,-8.40e-03,1.20e-01,
79,6.80e-03,8.00e-02,
80,4.00e-03,1.00e-01,
81,-2.40e-03,8.00e-02,
82,-4.00e-04,1.00e-01,
83,2.40e-03,6.00e-02,
84,-8.00e-04,1.00e-01,
85,2.40e-03,6.00e-02,
86,1.60e-03,6.00e-02,
87,-1.20e-03,8.00e-02,
88,-3.20e-03,8.00e-02,
89,6.00e-03,6.00e-02,
90,9.20e-03,6.00e-02,
91,-1.04e-02,8.00e-02,
92,-1.56e-02,6.00e-02,
93,2.00e-02,8.00e-02,
94,-2.20e-02,6.00e-02,
95,2.48e-02,8.00e-02,
96,-2.12e-02,8.00e-02,
97,2.04e-02,4.00e-02,
98,1.32e-02,8.00e-02,
99,-8.80e-03,4.00e-02,
100,-6.00e-03,8.00e-02,
101,6.40e-03,2.00e-02,
102,2.40e-03,8.00e-02,
103,-1.20e-03,2.00e-02,
104,2.00e-03,2.00e-02,
105,-8.00e-04,8.00e-02,
106,-1.20e-03,6.00e-02,
107,2.00e-03,2.00e-02,
108,2.80e-03,2.00e-02,
109,-8.00e-04,8.00e-02,
110,-8.00e-04,2.00e-02,
111,2.00e-03,8.00e-02,
112,0.00e+00,6.00e-02,
113,2.40e-03,2.00e-02,
114,4.00e-04,2.00e-02,
115,7.20e-03,1.70e+00,
116,6.40e-03,1.60e-01,
117,4.00e-04,1.20e-01,
118,3.60e-03,1.40e-01,
119,0.00e+00,8.00e-02,
120,2.40e-03,1.00e-01,
121,-8.00e-04,6.00e-02,
122,2.40e-03,6.00e-02,
123,-1.20e-03,1.00e-01,
124,-8.00e-04,6.00e-02,
125,2.00e-03,1.00e-01,
126,2.40e-03,8.00e-02,
127,-1.20e-03,6.00e-02,
128,-4.00e-03,6.00e-02,
129,5.60e-03,8.00e-02,
130,-6.40e-03,6.00e-02,
131,9.20e-03,8.00e-02,
132,1.28e-02,6.00e-02,
133,-1.48e-02,8.00e-02,
134,1.88e-02,6.00e-02,
135,-1.92e-02,8.00e-02,
136,-1.56e-02,8.00e-02,
137,1.36e-02,4.00e-02,
138,9.20e-03,8.00e-02,
139,-6.80e-03,2.00e-02,
140,-4.00e-03,2.00e-02,
141,3.60e-03,8.00e-02,
142,2.40e-03,8.00e-02,
143,-1.20e-03,2.00e-02,
144,-1.20e-03,8.00e-02,
145,2.40e-03,2.00e-02,
146,2.00e-03,8.00e-02,
147,-8.00e-04,2.00e-02,
148,-8.00e-04,2.00e-02,
149,2.40e-03,8.00e-02,
150,2.80e-03,2.00e-02,
151,-2.80e-03,8.00e-02,
152,-4.00e-03,6.00e-02,
153,6.40e-03,2.00e-02,
154,2.00e-03,2.00e-02,
155,7.60e-03,1.90e+00,
156,6.80e-03,1.60e-01,
157,-4.00e-04,8.00e-02,
158,2.80e-03,1.20e-01,
159,-8.00e-04,8.00e-02,
160,-8.00e-04,1.00e-01,
161,1.60e-03,6.00e-02,
162,-8.00e-04,1.00e-01,
163,2.00e-03,6.00e-02,
164,-8.00e-04,6.00e-02,
165,2.40e-03,8.00e-02,
166,-8.00e-04,6.00e-02,
167,2.40e-03,8.00e-02,
168,4.00e-03,6.00e-02,
169,-3.60e-03,8.00e-02,
170,-5.20e-03,8.00e-02,
171,9.60e-03,6.00e-02,
172,1.28e-02,6.00e-02,
173,-1.60e-02,8.00e-02,
174,1.92e-02,8.00e-02,
175,-1.84e-02,4.00e-02,
176,-1.52e-02,8.00e-02,
177,1.36e-02,4.00e-02,
178,9.60e-03,8.00e-02,
179,-6.40e-03,2.00e-02,
180,-4.00e-03,8.00e-02,
181,4.40e-03,2.00e-02,
182,2.80e-03,8.00e-02,
183,-8.00e-04,2.00e-02,
184,-1.20e-03,8.00e-02,
185,2.40e-03,2.00e-02,
186,2.40e-03,8.00e-02,
187,0.00e+00,2.00e-02,
188,0.00e+00,8.00e-02,
189,2.40e-03,2.00e-02,
190,2.40e-03,2.00e-02,
191,-1.60e-03,8.00e-02,
192,-3.60e-03,8.00e-02,
193,5.20e-03,2.00e-02,
194,2.80e-03,2.00e-02,
195,7.20e-03,1.96e+00,
196,6.80e-03,1.60e-01,
197,-1.60e-03,8.00e-02,
198,-1.60e-03,1.20e-01,
199,3.60e-03,8.00e-02,
200,1.20e-03,1.00e-01,
201,0.00e+00,6.00e-02,
202,-8.00e-04,6.00e-02,
203,2.40e-03,1.00e-01,
204,2.00e-03,6.00e-02,
205,-1.60e-03,8.00e-02,
206,-8.00e-04,6.00e-02,
207,2.40e-03,8.00e-02,
208,3.60e-03,8.00e-02,
209,-2.00e-03,6.00e-02,
210,-4.40e-03,6.00e-02,
211,6.80e-03,8.00e-02,
212,9.20e-03,6.00e-02,
213,-9.20e-03,8.00e-02,
214,-1.56e-02,6.00e-02,
215,1.60e-02,8.00e-02,
216,-1.24e-02,8.00e-02,
217,1.40e-02,4.00e-02,
218,8.80e-03,8.00e-02,
219,-5.60e-03,2.00e-02,
220,-3.60e-03,2.00e-02,
221,4.00e-03,8.00e-02,
222,-4.00e-04,2.00e-02,
223,2.40e-03,8.00e-02,
224,-8.00e-04,8.00e-02,
225,2.00e-03,2.00e-02,
226,1.60e-03,6.00e-02,
227,-8.00e-04,2.00e-02,
228,0.00e+00,2.00e-02,
229,1.60e-03,8.00e-02,
230,2.00e-03,2.00e-02,
231,-1.20e-03,6.00e-02,
232,-2.40e-03,2.00e-02,
233,4.00e-03,6.00e-02,
234,2.80e-03,2.00e-02,
235,7.20e-03,1.96e+00,
236,6.80e-03,1.60e-01,
237,0.00e+00,8.00e-02,
238,3.60e-03,8.00e-02,
239,-8.00e-04,1.40e-01,
240,1.20e-03,1.00e-01,
241,-8.00e-04,6.00e-02,
242,2.00e-03,6.00e-02,
243,-8.00e-04,1.00e-01,
244,2.00e-03,6.00e-02,
245,-4.00e-04,8.00e-02,
246,-8.00e-04,6.00e-02,
247,2.00e-03,8.00e-02,
248,-3.60e-03,8.00e-02,
249,4.40e-03,6.00e-02,
250,7.20e-03,8.00e-02,
251,-5.60e-03,6.00e-02,
252,1.00e-02,6.00e-02,
253,-1.16e-02,8.00e-02,
254,-1.56e-02,8.00e-02,
255,1.64e-02,6.00e-02,
256,-1.28e-02,8.00e-02,
257,1.20e-02,2.00e-02,
258,7.20e-03,2.00e-02,
259,-5.20e-03,8.00e-02,
260,-2.00e-03,8.00e-02,
261,2.80e-03,2.00e-02,
262,2.40e-03,8.00e-02,
263,-1.20e-03,2.00e-02,
264,-1.20e-03,2.00e-02,
265,2.40e-03,8.00e-02,
266,2.40e-03,2.00e-02,
267,-8.00e-04,8.00e-02,
268,-8.00e-04,2.00e-02,
269,2.00e-03,8.00e-02,
270,2.00e-03,2.00e-02,
271,-1.60e-03,8.00e-02,
272,-1.60e-03,8.00e-02,
273,4.00e-03,2.00e-02,
274,3.20e-03,2.00e-02,
275,7.60e-03,1.92e+00,
276,6.80e-03,1.60e-01,
277,4.00e-04,1.20e-01,
278,3.60e-03,8.00e-02,
279,0.00e+00,1.20e-01,
280,2.40e-03,1.00e-01,
281,-4.00e-04,8.00e-02,
282,2.40e-03,1.00e-01,
283,0.00e+00,6.00e-02,
284,-8.00e-04,6.00e-02,
285,2.00e-03,1.00e-01,
286,2.40e-03,6.00e-02,
287,-4.00e-04,8.00e-02,
288,4.00e-03,6.00e-02,
289,-2.40e-03,8.00e-02,
290,-4.40e-03,6.00e-02,
291,6.00e-03,8.00e-02,
292,1.00e-02,8.00e-02,
293,-1.08e-02,6.00e-02,
294,-1.40e-02,8.00e-02,
295,1.64e-02,2.00e-02,
296,-1.12e-02,8.00e-02,
297,1.08e-02,6.00e-02,
298,6.80e-03,8.00e-02,
299,-6.00e-03,4.00e-02,
300,-3.20e-03,8.00e-02,
301,3.60e-03,4.00e-02,
302,2.40e-03,2.00e-02,
303,-8.00e-04,8.00e-02,
304,3.20e-03,8.00e-02,
305,-1.20e-03,2.00e-02,
306,-8.00e-04,2.00e-02,
307,2.40e-03,8.00e-02,
308,0.00e+00,2.00e-02,
309,2.40e-03,8.00e-02,
310,2.40e-03,8.00e-02,
311,-1.20e-03,2.00e-02,
312,-2.80e-03,2.00e-02,
313,4.00e-03,8.00e-02,
314,2.80e-03,2.00e-02,
315,7.20e-03,1.78e+00,
316,6.80e-03,1.60e-01,
317,4.00e-04,1.20e-01,
318,2.80e-03,8.00e-02,
319,0.00e+00,1.40e-01,
320,0.00e+00,1.00e-01,
321,2.80e-03,6.00e-02,
322,2.80e-03,1.00e-01,
323,-8.00e-04,6.00e-02,
324,-1.20e-03,6.00e-02,
325,2.40e-03,1.00e-01,
326,-4.00e-04,6.00e-02,
327,2.80e-03,8.00e-02,
328,3.60e-03,6.00e-02,
329,-2.80e-03,8.00e-02,
330,-4.00e-03,6.00e-02,
331,6.40e-03,8.00e-02,
332,9.60e-03,8.00e-02,
333,-1.00e-02,6.00e-02,
334,-1.28e-02,6.00e-02,
335,1.52e-02,8.00e-02,
336,-1.08e-02,6.00e-02,
337,1.00e-02,8.00e-02,
338,7.20e-03,8.00e-02,
339,-5.20e-03,4.00e-02,
340,-3.60e-03,8.00e-02,
341,4.00e-03,4.00e-02,
342,2.00e-03,8.00e-02,
343,-8.00e-04,2.00e-02,
344,1.20e-03,8.00e-02,
345,-1.20e-03,2.00e-02,
346,-8.00e-04,8.00e-02,
347,2.00e-03,2.00e-02,
348,-8.00e-04,8.00e-02,
349,1.20e-03,2.00e-02,
350,2.00e-03,6.00e-02,
351,-1.20e-03,2.00e-02,
352,-2.40e-03,2.00e-02,
353,4.40e-03,8.00e-02,
354,3.20e-03,2.00e-02,
355,8.00e-03,1.80e+00,
356,6.80e-03,1.60e-01,
357,0.00e+00,8.00e-02,
358,3.20e-03,8.00e-02,
359,0.00e+00,1.40e-01,
360,1.20e-03,1.00e-01,
361,-8.00e-04,6.00e-02,
362,2.40e-03,1.00e-01,
363,-4.00e-04,6.00e-02,
364,2.00e-03,8.00e-02,
365,-1.20e-03,6.00e-02,
366,2.00e-03,6.00e-02,
367,-1.20e-03,8.00e-02,
368,-2.80e-03,6.00e-02,
369,3.20e-03,8.00e-02,
370,-4.00e-03,6.00e-02,
371,6.00e-03,8.00e-02,
372,9.60e-03,6.00e-02,
373,-1.00e-02,8.00e-02,
374,1.32e-02,8.00e-02,
375,-1.24e-02,4.00e-02,
376,-1.12e-02,6.00e-02,
377,9.60e-03,8.00e-02,
378,5.60e-03,8.00e-02,
379,-4.00e-03,4.00e-02,
380,3.60e-03,8.00e-02,
381,-1.60e-03,2.00e-02,
382,1.60e-03,8.00e-02,
383,-8.00e-04,2.00e-02,
384,-8.00e-04,8.00e-02,
385,2.00e-03,2.00e-02,
386,-8.00e-04,8.00e-02,
387,1.20e-03,2.00e-02,
388,2.00e-03,2.00e-02,
389,-8.00e-04,8.00e-02,
390,1.20e-03,8.00e-02,
391,-8.00e-04,2.00e-02,
392,-2.40e-03,8.00e-02,
393,4.00e-03,2.00e-02,
394,3.20e-03,2.00e-02,
395,7.20e-03,1.86e+00,
396,6.80e-03,1.60e-01,
397,4.00e-04,1.00e-01,
398,2.80e-03,8.00e-02,
399,0.00e+00,1.40e-01,
400,1.60e-03,1.00e-01,
401,-8.00e-04,6.00e-02,
402,-4.00e-04,1.00e-01,
403,2.40e-03,6.00e-02,
404,-8.00e-04,6.00e-02,
405,1.20e-03,8.00e-02,
406,2.00e-03,6.00e-02,
407,-8.00e-04,8.00e-02,
408,2.80e-03,6.00e-02,
409,-1.60e-03,8.00e-02,
410,-3.60e-03,6.00e-02,
411,6.40e-03,8.00e-02,
412,8.80e-03,8.00e-02,
413,-8.40e-03,6.00e-02,
414,1.24e-02,8.00e-02,
415,-1.24e-02,4.00e-02,
416,-1.04e-02,8.00e-02,
417,1.00e-02,2.00e-02,
418,6.00e-03,8.00e-02,
419,-4.00e-03,2.00e-02,
420,-2.40e-03,2.00e-02,
421,2.80e-03,8.00e-02,
422,2.40e-03,2.00e-02,
423,-1.20e-03,8.00e-02,
424,-1.20e-03,8.00e-02,
425,2.00e-03,2.00e-02,
426,-8.00e-04,8.00e-02,
427,2.40e-03,2.00e-02,
428,2.00e-03,8.00e-02,
429,-1.20e-03,2.00e-02,
430,-8.00e-04,2.00e-02,
431,2.00e-03,8.00e-02,
432,-2.40e-03,2.00e-02,
433,4.00e-03,8.00e-02,
434,2.80e-03,2.00e-02,
435,7.20e-03,1.96e+00,
436,6.80e-03,1.60e-01,
437,4.00e-04,1.20e-01,
438,4.00e-03,8.00e-02,
439,-8.00e-04,1.40e-01,
440,2.40e-03,1.00e-01,
441,-8.00e-04,6.00e-02,
442,-8.00e-04,1.00e-01,
443,2.40e-03,6.00e-02,
444,-8.00e-04,8.00e-02,
445,2.40e-03,6.00e-02,
446,2.00e-03,6.00e-02,
447,0.00e+00,8.00e-02,
448,2.40e-03,6.00e-02,
449,-1.60e-03,8.00e-02,
450,-2.80e-03,6.00e-02,
451,5.60e-03,8.00e-02,
452,7.20e-03,8.00e-02,
453,-8.40e-03,6.00e-02,
454,-1.16e-02,6.00e-02,
455,1.20e-02,8.00e-02,
456,-1.00e-02,8.00e-02,
457,9.60e-03,6.00e-02,
458,6.80e-03,8.00e-02,
459,-3.60e-03,4.00e-02,
460,-2.40e-03,8.00e-02,
461,2.40e-03,4.00e-02,
462,2.00e-03,4.00e-02,
463,-8.00e-04,8.00e-02,
464,-8.00e-04,8.00e-02,
465,2.40e-03,2.00e-02,
466,-1.20e-03,2.00e-02,
467,1.60e-03,8.00e-02,
468,-8.00e-04,8.00e-02,
469,2.00e-03,2.00e-02,
470,2.40e-03,8.00e-02,
471,-8.00e-04,2.00e-02,
472,-2.00e-03,2.00e-02,
473,4.00e-03,8.00e-02,
474,3.20e-03,2.00e-02,
475,7.20e-03,1.82e+00,
476,6.80e-03,1.60e-01,
477,1.20e-03,1.00e-01,
478,3.20e-03,8.00e-02,
479,-8.00e-04,1.40e-01,
480,-8.00e-04,1.00e-01,
481,2.00e-03,8.00e-02,
482,2.00e-03,1.00e-01,
483,-1.20e-03,6.00e-02,
484,-8.00e-04,6.00e-02,
485,2.40e-03,1.00e-01,
486,2.00e-03,6.00e-02,
487,-8.00e-04,8.00e-02,
488,2.80e-03,8.00e-02,
489,-1.60e-03,6.00e-02,
490,-3.20e-03,6.00e-02,
491,6.40e-03,8.00e-02,
492,8.00e-03,6.00e-02,
493,-8.00e-03,8.00e-02,
494,-9.60e-03,6.00e-02,
495,1.24e-02,8.00e-02,
496,-9.20e-03,8.00e-02,
497,8.40e-03,4.00e-02,
498,5.20e-03,8.00e-02,
499,-3.60e-03,4.00e-02,
500,-2.00e-03,2.00e-02,
501,2.40e-03,8.00e-02,
502,2.40e-03,8.00e-02,
503,0.00e+00,2.00e-02,
504,-8.00e-04,2.00e-02,
505,2.00e-03,8.00e-02,
506,-8.00e-04,8.00e-02,
507,2.40e-03,2.00e-02,
508,1.60e-03,8.00e-02,
509,-4.00e-04,2.00e-02,
510,2.40e-03,2.00e-02,
511,-1.20e-03,8.00e-02,
512,-2.80e-03,8.00e-02,
513,4.40e-03,2.00e-02,
514,4.40e-03,2.00e-02,
515,7.60e-03,1.84e+00,
516,6.80e-03,1.60e-01,
517,1.20e-03,1.00e-01,
518,2.80e-03,1.20e-01,
519,-1.20e-03,8.00e-02,
520,0.00e+00,1.00e-01,
521,2.40e-03,6.00e-02,
522,2.40e-03,1.00e-01,
523,-4.00e-04,6.00e-02,
524,-1.20e-03,6.00e-02,
525,2.40e-03,1.00e-01,
526,-4.00e-04,6.00e-02,
527,2.40e-03,8.00e-02,
528,2.00e-03,6.00e-02,
529,-1.60e-03,8.00e-02,
530,-3.60e-03,6.00e-02,
531,4.80e-03,8.00e-02,
532,7.20e-03,8.00e-02,
533,-7.20e-03,6.00e-02,
534,-9.60e-03,8.00e-02,
535,1.12e-02,6.00e-02,
536,-8.40e-03,8.00e-02,
537,8.00e-03,4.00e-02,
538,5.60e-03,8.00e-02,
539,-3.60e-03,2.00e-02,
540,-1.60e-03,8.00e-02,
541,2.80e-03,2.00e-02,
542,2.00e-03,8.00e-02,
543,-8.00e-04,2.00e-02,
544,-8.00e-04,8.00e-02,
545,1.20e-03,2.00e-02,
546,2.00e-03,8.00e-02,
547,-4.00e-04,2.00e-02,
548,-8.00e-04,2.00e-02,
549,2.00e-03,8.00e-02,
550,2.40e-03,2.00e-02,
551,-1.20e-03,8.00e-02,
552,-2.80e-03,8.00e-02,
553,3.60e-03,2.00e-02,
554,3.60e-03,4.00e-02,
555,7.20e-03,1.94e+00,
556,6.80e-03,1.60e-01,
557,8.00e-04,8.00e-02,
558,3.20e-03,1.40e-01,
559,-8.00e-04,8.00e-02,
560,-1.20e-03,1.00e-01,
561,2.00e-03,6.00e-02,
562,2.00e-03,1.00e-01,
563,-1.20e-03,6.00e-02,
564,-8.00e-04,6.00e-02,
565,1.60e-03,1.00e-01,
566,2.00e-03,6.00e-02,
567,-1.20e-03,8.00e-02,
568,2.40e-03,6.00e-02,
569,-2.40e-03,8.00e-02,
570,-3.20e-03,8.00e-02,
571,4.00e-03,6.00e-02,
572,6.40e-03,6.00e-02,
573,-6.80e-03,8.00e-02,
574,-8.80e-03,8.00e-02,
575,1.00e-02,6.00e-02,
576,-7.60e-03,8.00e-02,
577,7.20e-03,4.00e-02,
578,6.80e-03,8.00e-02,
579,-3.60e-03,2.00e-02,
580,-2.40e-03,8.00e-02,
581,2.80e-03,4.00e-02,
582,2.40e-03,8.00e-02,
583,-4.00e-04,2.00e-02,
584,2.00e-03,8.00e-02,
585,-1.20e-03,2.00e-02,
586,2.00e-03,8.00e-02,
587,-8.00e-04,2.00e-02,
588,1.20e-03,8.00e-02,
589,-1.60e-03,2.00e-02,
590,-1.20e-03,2.00e-02,
591,2.40e-03,8.00e-02,
592,3.60e-03,2.00e-02,
593,-2.80e-03,8.00e-02,
594,3.20e-03,2.00e-02,
595,8.00e-03,1.86e+00,
596,6.80e-03,1.60e-01,
597,0.00e+00,1.20e-01,
598,3.60e-03,8.00e-02,
599,-8.00e-04,1.40e-01,
600,2.00e-03,1.00e-01,
601,-8.00e-04,6.00e-02,
602,3.20e-03,1.00e-01,
603,0.00e+00,6.00e-02,
604,-8.00e-04,6.00e-02,
605,2.00e-03,1.00e-01,
606,-4.00e-04,6.00e-02,
607,2.40e-03,8.00e-02,
608,2.80e-03,6.00e-02,
609,-1.60e-03,8.00e-02,
610,-4.00e-03,6.00e-02,
611,5.20e-03,8.00e-02,
612,6.80e-03,8.00e-02,
613,-6.80e-03,6.00e-02,
614,-8.80e-03,6.00e-02,
615,1.00e-02,8.00e-02,
616,-6.80e-03,8.00e-02,
617,8.00e-03,4.00e-02,
618,5.20e-03,8.00e-02,
619,-3.20e-03,2.00e-02,
620,-1.60e-03,8.00e-02,
621,2.40e-03,2.00e-02,
622,2.00e-03,8.00e-02,
623,-8.00e-04,2.00e-02,
624,-8.00e-04,8.00e-02,
625,2.00e-03,2.00e-02,
626,-8.00e-04,2.00e-02,
627,2.40e-03,8.00e-02,
628,-1.20e-03,2.00e-02,
629,2.40e-03,8.00e-02,
630,-8.00e-04,2.00e-02,
631,2.40e-03,8.00e-02,
632,3.60e-03,8.00e-02,
633,-2.80e-03,2.00e-02,
634,3.60e-03,2.00e-02,
635,7.20e-03,1.84e+00,
636,6.80e-03,1.60e-01,
637,0.00e+00,1.00e-01,
638,3.20e-03,8.00e-02,
639,-1.20e-03,1.40e-01,
640,-8.00e-04,1.00e-01,
641,2.00e-03,6.00e-02,
642,-1.20e-03,1.00e-01,
643,2.40e-03,6.00e-02,
644,0.00e+00,6.00e-02,
645,2.00e-03,1.00e-01,
646,0.00e+00,6.00e-02,
647,2.40e-03,8.00e-02,
648,2.40e-03,6.00e-02,
649,-1.20e-03,8.00e-02,
650,-2.80e-03,6.00e-02,
651,4.00e-03,8.00e-02,
652,6.40e-03,6.00e-02,
653,-6.00e-03,8.00e-02,
654,-7.60e-03,8.00e-02,
655,9.60e-03,4.00e-02,
656,-7.20e-03,8.00e-02,
657,7.20e-03,4.00e-02,
658,5.60e-03,8.00e-02,
659,-2.80e-03,4.00e-02,
660,-1.60e-03,8.00e-02,
661,2.80e-03,2.00e-02,
662,2.40e-03,8.00e-02,
663,-1.20e-03,2.00e-02,
664,1.20e-03,2.00e-02,
665,-8.00e-04,8.00e-02,
666,2.40e-03,8.00e-02,
667,-1.20e-03,2.00e-02,
668,-8.00e-04,8.00e-02,
669,2.40e-03,2.00e-02,
670,-8.00e-04,2.00e-02,
671,2.40e-03,8.00e-02,
672,3.60e-03,2.00e-02,
673,-2.80e-03,8.00e-02,
674,4.40e-03,2.00e-02,
675,7.60e-03,1.94e+00,
676,6.80e-03,1.60e-01,
677,4.00e-04,1.20e-01,
678,4.00e-03,1.40e-01,
679,-1.20e-03,8.00e-02,
680,-1.20e-03,1.00e-01,
681,2.40e-03,8.00e-02,
682,2.40e-03,1.00e-01,
683,-8.00e-04,6.00e-02,
684,0.00e+00,6.00e-02,
685,2.40e-03,8.00e-02,
686,2.40e-03,6.00e-02,
687,0.00e+00,8.00e-02,
688,3.20e-03,6.00e-02,
689,-1.20e-03,8.00e-02,
690,-2.40e-03,6.00e-02,
691,3.60e-03,8.00e-02,
692,5.60e-03,6.00e-02,
693,-5.60e-03,8.00e-02,
694,-8.40e-03,8.00e-02,
695,9.20e-03,4.00e-02,
696,-6.00e-03,8.00e-02,
697,6.80e-03,2.00e-02,
698,4.80e-03,8.00e-02,
699,-2.80e-03,4.00e-02,
700,-1.60e-03,8.00e-02,
701,2.00e-03,2.00e-02,
702,2.00e-03,8.00e-02,
703,-4.00e-04,2.00e-02,
704,2.00e-03,8.00e-02,
705,-4.00e-04,2.00e-02,
706,0.00e+00,8.00e-02,
707,2.40e-03,2.00e-02,
708,-8.00e-04,2.00e-02,
709,2.00e-03,8.00e-02,
710,2.40e-03,2.00e-02,
711,-1.20e-03,8.00e-02,
712,3.60e-03,2.00e-02,
713,-2.40e-03,8.00e-02,
714,3.20e-03,2.00e-02,
715,7.20e-03,1.78e+00,
716,6.80e-03,1.60e-01,
717,4.00e-04,8.00e-02,
718,4.40e-03,1.20e-01,
719,-4.00e-04,8.00e-02,
720,2.40e-03,1.00e-01,
721,-1.20e-03,6.00e-02,
722,2.00e-03,1.00e-01,
723,-8.00e-04,6.00e-02,
724,-1.60e-03,6.00e-02,
725,2.00e-03,1.00e-01,
726,2.00e-03,6.00e-02,
727,-8.00e-04,8.00e-02,
728,2.40e-03,6.00e-02,
729,-1.60e-03,8.00e-02,
730,-2.40e-03,8.00e-02,
731,4.80e-03,6.00e-02,
732,5.60e-03,6.00e-02,
733,-6.00e-03,8.00e-02,
734,-7.20e-03,8.00e-02,
735,9.20e-03,6.00e-02,
736,-6.00e-03,8.00e-02,
737,5.60e-03,4.00e-02,
738,4.40e-03,8.00e-02,
739,-2.40e-03,4.00e-02,
740,-1.60e-03,4.00e-02,
741,2.40e-03,8.00e-02,
742,-8.00e-04,2.00e-02,
743,2.40e-03,8.00e-02,
744,-4.00e-04,8.00e-02,
745,2.00e-03,2.00e-02,
746,0.00e+00,2.00e-02,
747,3.60e-03,8.00e-02,
748,-4.00e-04,2.00e-02,
749,2.80e-03,8.00e-02,
750,2.80e-03,8.00e-02,
751,-1.60e-03,2.00e-02,
752,2.80e-03,2.00e-02,
753,-3.60e-03,8.00e-02,
754,2.80e-03,2.00e-02,
755,8.00e-03,1.78e+00,
756,6.80e-03,1.60e-01,
757,4.00e-04,8.00e-02,
758,4.40e-03,1.20e-01,
759,-8.00e-04,8.00e-02,
760,-1.20e-03,1.00e-01,
761,2.40e-03,6.00e-02,
762,2.40e-03,1.00e-01,
763,-8.00e-04,6.00e-02,
764,-8.00e-04,6.00e-02,
765,2.00e-03,1.00e-01,
766,1.20e-03,6.00e-02,
767,-8.00e-04,8.00e-02,
768,2.40e-03,6.00e-02,
769,-1.60e-03,8.00e-02,
770,-1.60e-03,8.00e-02,
771,4.00e-03,6.00e-02,
772,5.20e-03,8.00e-02,
773,-4.40e-03,6.00e-02,
774,-7.20e-03,8.00e-02,
775,8.00e-03,4.00e-02,
776,-6.80e-03,8.00e-02,
777,6.00e-03,2.00e-02,
778,4.00e-03,2.00e-02,
779,-2.40e-03,8.00e-02,
780,2.40e-03,8.00e-02,
781,-1.60e-03,2.00e-02,
782,0.00e+00,8.00e-02,
783,2.00e-03,2.00e-02,
784,2.00e-03,2.00e-02,
785,-1.20e-03,8.00e-02,
786,-1.20e-03,8.00e-02,
787,2.00e-03,2.00e-02,
788,-1.20e-03,8.00e-02,
789,2.40e-03,2.00e-02,
790,-1.20e-03,2.00e-02,
791,2.80e-03,8.00e-02,
792,3.60e-03,2.00e-02,
793,-2.80e-03,8.00e-02,
794,3.20e-03,1.92e+00,
795,7.20e-03,0.00e+00,
796,6.80e-03,1.60e-01,
797,4.00e-04,8.00e-02,
798,4.00e-03,1.40e-01,
799,-1.20e-03,8.00e-02,
800,-8.00e-04,1.00e-01,
801,2.40e-03,6.00e-02,
802,2.80e-03,1.00e-01,
803,-8.00e-04,6.00e-02,
804,-1.20e-03,6.00e-02,
805,1.20e-03,1.00e-01,
806,4.00e-04,8.00e-02,
807,2.40e-03,6.00e-02,
808,2.40e-03,8.00e-02,
809,-8.00e-04,6.00e-02,
810,-2.00e-03,6.00e-02,
811,4.00e-03,8.00e-02,
812,4.80e-03,6.00e-02,
813,-4.80e-03,8.00e-02,
814,-6.00e-03,6.00e-02,
815,8.00e-03,8.00e-02,
816,-6.00e-03,6.00e-02,
817,5.60e-03,8.00e-02,
818,3.60e-03,8.00e-02,
819,-2.80e-03,2.00e-02,
820,-1.60e-03,2.00e-02,
821,1.60e-03,8.00e-02,
822,-8.00e-04,8.00e-02,
823,2.00e-03,2.00e-02,
824,2.00e-03,8.00e-02,
825,-4.00e-04,2.00e-02,
826,0.00e+00,2.00e-02,
827,3.20e-03,8.00e-02,
828,2.40e-03,2.00e-02,
829,-8.00e-04,8.00e-02,
830,-8.00e-04,8.00e-02,
831,3.20e-03,2.00e-02,
832,4.00e-03,2.00e-02,
833,-2.80e-03,8.00e-02,
834,3.60e-03,2.00e-02,
835,8.00e-03,2.00e+00,
836,7.60e-03,1.60e-01,
837,8.00e-04,1.20e-01,
838,4.80e-03,1.20e-01,
839,-1.20e-03,8.00e-02,
840,2.40e-03,1.00e-01,
841,-1.60e-03,6.00e-02,
842,-4.00e-04,6.00e-02,
843,2.40e-03,1.00e-01,
844,1.20e-03,6.00e-02,
845,-1.20e-03,1.00e-01,
846,1.20e-03,8.00e-02,
847,-2.40e-03,6.00e-02,
848,-8.00e-04,6.00e-02,
849,2.40e-03,8.00e-02,
850,-1.60e-03,6.00e-02,
851,2.80e-03,8.00e-02,
852,5.20e-03,6.00e-02,
853,-5.20e-03,8.00e-02,
854,-6.00e-03,8.00e-02,
855,6.80e-03,4.00e-02,
