CarrPurc_P1-19_P2-38_tauVary/Gly88/NewFile2.csv

X,CH1,CH2,Start,Increment,
Sequence,Volt,Volt,-5.000000e-03,1.000000e-04
0,1.20e-03,4.00e-02,
1,0.00e+00,0.00e+00,
2,0.00e+00,4.00e-02,
3,1.20e-03,0.00e+00,
4,0.00e+00,0.00e+00,
5,1.20e-03,4.00e-02,
6,1.20e-03,4.00e-02,
7,0.00e+00,0.00e+00,
8,0.00e+00,4.00e-02,
9,1.20e-03,0.00e+00,
10,1.20e-03,4.00e-02,
11,0.00e+00,0.00e+00,
12,1.20e-03,4.00e-02,
13,0.00e+00,0.00e+00,
14,0.00e+00,4.00e-02,
15,1.20e-03,0.00e+00,
16,4.00e-04,4.00e-02,
17,1.20e-03,0.00e+00,
18,8.00e-04,4.00e-02,
19,0.00e+00,0.00e+00,
20,0.00e+00,0.00e+00,
21,1.20e-03,4.00e-02,
22,0.00e+00,4.00e-02,
23,1.20e-03,0.00e+00,
24,0.00e+00,4.00e-02,
25,1.20e-03,0.00e+00,
26,1.20e-03,4.00e-02,
27,4.00e-04,0.00e+00,
28,1.20e-03,4.00e-02,
29,0.00e+00,2.00e-02,
30,1.20e-03,4.00e-02,
31,0.00e+00,0.00e+00,
32,1.20e-03,4.00e-02,
33,-4.00e-04,0.00e+00,
34,4.00e-04,4.00e-02,
35,1.20e-03,0.00e+00,
36,4.00e-04,0.00e+00,
37,1.20e-03,4.00e-02,
38,1.20e-03,4.00e-02,
39,4.00e-04,0.00e+00,
40,0.00e+00,4.00e-02,
41,1.20e-03,0.00e+00,
42,1.20e-03,4.00e-02,
43,0.00e+00,0.00e+00,
44,1.20e-03,4.00e-02,
45,0.00e+00,0.00e+00,
46,8.00e-04,4.00e-02,
47,-8.00e-04,0.00e+00,
48,0.00e+00,4.00e-02,
49,1.20e-03,0.00e+00,
50,1.20e-03,4.00e-02,
51,4.00e-04,0.00e+00,
52,1.20e-03,0.00e+00,
53,0.00e+00,4.00e-02,
54,8.00e-04,1.88e+00,
55,5.60e-03,-6.00e-02,
56,5.60e-03,1.60e-01,
57,-3.04e-02,8.00e-02,
58,1.76e-02,8.00e-02,
59,-1.44e-02,1.20e-01,
60,8.00e-03,1.00e-01,
61,-8.80e-03,6.00e-02,
62,-2.40e-03,6.00e-02,
63,4.00e-03,1.00e-01,
64,3.60e-03,6.00e-02,
65,-2.00e-03,8.00e-02,
66,3.60e-03,6.00e-02,
67,-1.60e-03,8.00e-02,
68,-1.60e-03,8.00e-02,
69,2.40e-03,6.00e-02,
70,2.40e-03,6.00e-02,
71,-1.20e-03,8.00e-02,
72,-1.20e-03,8.00e-02,
73,2.40e-03,6.00e-02,
74,8.00e-04,2.00e+00,
75,7.60e-03,2.00e-02,
76,6.40e-03,1.60e-01,
77,-7.60e-03,8.00e-02,
78,-7.60e-03,1.20e-01,
79,7.20e-03,8.00e-02,
80,4.80e-03,1.00e-01,
81,-1.20e-03,6.00e-02,
82,-4.00e-04,6.00e-02,
83,2.40e-03,1.00e-01,
84,-8.00e-04,8.00e-02,
85,2.40e-03,6.00e-02,
86,2.00e-03,6.00e-02,
87,-8.00e-04,8.00e-02,
88,-3.20e-03,8.00e-02,
89,6.40e-03,6.00e-02,
90,9.60e-03,6.00e-02,
91,-1.08e-02,8.00e-02,
92,-1.68e-02,6.00e-02,
93,2.08e-02,8.00e-02,
94,-2.24e-02,8.00e-02,
95,2.56e-02,2.00e-02,
96,-2.00e-02,8.00e-02,
97,2.00e-02,2.00e-02,
98,1.28e-02,8.00e-02,
99,-9.60e-03,2.00e-02,
100,-5.60e-03,8.00e-02,
101,5.60e-03,2.00e-02,
102,3.60e-03,8.00e-02,
103,-8.00e-04,2.00e-02,
104,2.00e-03,8.00e-02,
105,-1.60e-03,2.00e-02,
106,-1.20e-03,2.00e-02,
107,1.60e-03,8.00e-02,
108,2.40e-03,2.00e-02,
109,-1.20e-03,8.00e-02,
110,-8.00e-04,2.00e-02,
111,2.00e-03,8.00e-02,
112,2.00e-03,2.00e-02,
113,0.00e+00,8.00e-02,
114,4.00e-04,2.00e-02,
115,7.20e-03,1.92e+00,
116,6.80e-03,1.60e-01,
117,4.00e-04,1.00e-01,
118,2.40e-03,1.20e-01,
119,0.00e+00,8.00e-02,
120,0.00e+00,1.00e-01,
121,2.40e-03,6.00e-02,
122,2.40e-03,6.00e-02,
123,-8.00e-04,1.00e-01,
124,-8.00e-04,6.00e-02,
125,2.40e-03,8.00e-02,
126,2.40e-03,8.00e-02,
127,-1.60e-03,6.00e-02,
128,-4.80e-03,6.00e-02,
129,5.60e-03,8.00e-02,
130,-6.40e-03,6.00e-02,
131,9.20e-03,8.00e-02,
132,1.36e-02,6.00e-02,
133,-1.56e-02,8.00e-02,
134,-2.00e-02,6.00e-02,
135,2.16e-02,8.00e-02,
136,-1.60e-02,8.00e-02,
137,1.44e-02,4.00e-02,
138,9.60e-03,8.00e-02,
139,-6.00e-03,2.00e-02,
140,-4.40e-03,2.00e-02,
141,4.00e-03,8.00e-02,
142,-1.20e-03,8.00e-02,
143,2.40e-03,2.00e-02,
144,-1.20e-03,8.00e-02,
145,2.40e-03,2.00e-02,
146,2.40e-03,2.00e-02,
147,-8.00e-04,8.00e-02,
148,-8.00e-04,2.00e-02,
149,2.40e-03,8.00e-02,
150,3.60e-03,2.00e-02,
151,-2.40e-03,6.00e-02,
152,-4.00e-03,4.00e-02,
153,6.40e-03,2.00e-02,
154,3.20e-03,2.00e-02,
155,7.60e-03,1.84e+00,
156,6.80e-03,1.60e-01,
157,-4.00e-04,8.00e-02,
158,3.60e-03,1.20e-01,
159,-8.00e-04,8.00e-02,
160,1.60e-03,1.00e-01,
161,-8.00e-04,6.00e-02,
162,2.00e-03,6.00e-02,
163,-8.00e-04,1.00e-01,
164,-8.00e-04,6.00e-02,
165,2.40e-03,8.00e-02,
166,-1.20e-03,6.00e-02,
167,2.80e-03,8.00e-02,
168,4.00e-03,6.00e-02,
169,-4.00e-03,8.00e-02,
170,-5.60e-03,8.00e-02,
171,8.40e-03,6.00e-02,
172,1.28e-02,6.00e-02,
173,-1.52e-02,8.00e-02,
174,1.92e-02,8.00e-02,
175,-1.84e-02,4.00e-02,
176,-1.52e-02,8.00e-02,
177,1.40e-02,2.00e-02,
178,9.20e-03,8.00e-02,
179,-6.80e-03,2.00e-02,
180,-4.00e-03,8.00e-02,
181,4.40e-03,2.00e-02,
182,2.80e-03,8.00e-02,
183,-8.00e-04,2.00e-02,
184,-8.00e-04,8.00e-02,
185,2.40e-03,2.00e-02,
186,2.40e-03,6.00e-02,
187,-8.00e-04,2.00e-02,
188,0.00e+00,8.00e-02,
189,1.20e-03,2.00e-02,
190,2.40e-03,2.00e-02,
191,-1.20e-03,8.00e-02,
192,-3.60e-03,2.00e-02,
193,5.60e-03,4.00e-02,
194,3.60e-03,2.00e-02,
195,7.20e-03,1.92e+00,
196,6.80e-03,1.60e-01,
197,-1.60e-03,8.00e-02,
198,-1.60e-03,1.20e-01,
199,3.60e-03,8.00e-02,
200,2.00e-03,1.00e-01,
201,0.00e+00,6.00e-02,
202,-8.00e-04,1.00e-01,
203,2.40e-03,6.00e-02,
204,-1.20e-03,6.00e-02,
205,2.40e-03,8.00e-02,
206,2.40e-03,6.00e-02,
207,-1.20e-03,8.00e-02,
208,-2.00e-03,8.00e-02,
209,3.60e-03,6.00e-02,
210,-4.40e-03,6.00e-02,
211,6.80e-03,8.00e-02,
212,1.00e-02,6.00e-02,
213,-1.08e-02,8.00e-02,
214,-1.48e-02,6.00e-02,
215,1.72e-02,8.00e-02,
216,-1.40e-02,8.00e-02,
217,1.28e-02,4.00e-02,
218,8.00e-03,8.00e-02,
219,-6.00e-03,2.00e-02,
220,-3.60e-03,8.00e-02,
221,4.00e-03,2.00e-02,
222,2.40e-03,2.00e-02,
223,0.00e+00,8.00e-02,
224,0.00e+00,8.00e-02,
225,2.00e-03,2.00e-02,
226,2.00e-03,6.00e-02,
227,0.00e+00,2.00e-02,
228,2.00e-03,2.00e-02,
229,-8.00e-04,8.00e-02,
230,-1.20e-03,2.00e-02,
231,1.60e-03,8.00e-02,
232,-2.40e-03,2.00e-02,
233,4.00e-03,6.00e-02,
234,3.20e-03,2.00e-02,
235,7.60e-03,1.80e+00,
236,6.80e-03,1.60e-01,
237,-4.00e-04,8.00e-02,
238,0.00e+00,1.20e-01,
239,2.80e-03,8.00e-02,
240,2.00e-03,1.00e-01,
241,0.00e+00,6.00e-02,
242,0.00e+00,6.00e-02,
243,2.40e-03,1.00e-01,
244,2.40e-03,6.00e-02,
245,-4.00e-04,8.00e-02,
246,2.40e-03,6.00e-02,
247,-1.60e-03,8.00e-02,
248,-2.80e-03,8.00e-02,
249,4.80e-03,6.00e-02,
250,-5.20e-03,8.00e-02,
251,7.20e-03,6.00e-02,
252,1.08e-02,6.00e-02,
253,-1.16e-02,8.00e-02,
254,-1.44e-02,8.00e-02,
255,1.64e-02,6.00e-02,
256,-1.28e-02,8.00e-02,
257,1.20e-02,2.00e-02,
258,6.80e-03,2.00e-02,
259,-5.20e-03,8.00e-02,
260,-2.80e-03,8.00e-02,
261,3.20e-03,2.00e-02,
262,2.00e-03,2.00e-02,
263,-1.20e-03,8.00e-02,
264,-8.00e-04,2.00e-02,
265,2.00e-03,8.00e-02,
266,2.00e-03,2.00e-02,
267,-1.20e-03,8.00e-02,
268,-8.00e-04,2.00e-02,
269,2.00e-03,8.00e-02,
270,2.40e-03,2.00e-02,
271,-1.60e-03,8.00e-02,
272,-2.00e-03,8.00e-02,
273,4.40e-03,2.00e-02,
274,3.60e-03,2.00e-02,
275,7.60e-03,1.90e+00,
276,6.80e-03,1.60e-01,
277,4.00e-04,8.00e-02,
278,3.20e-03,1.20e-01,
279,0.00e+00,8.00e-02,
280,0.00e+00,1.00e-01,
281,2.00e-03,6.00e-02,
282,0.00e+00,6.00e-02,
283,2.00e-03,1.00e-01,
284,-8.00e-04,6.00e-02,
285,2.00e-03,8.00e-02,
286,2.00e-03,6.00e-02,
287,-8.00e-04,8.00e-02,
288,3.20e-03,6.00e-02,
289,-2.40e-03,8.00e-02,
290,-4.00e-03,6.00e-02,
291,6.80e-03,8.00e-02,
292,9.60e-03,8.00e-02,
293,-1.16e-02,6.00e-02,
294,1.52e-02,8.00e-02,
295,-1.32e-02,2.00e-02,
296,-1.16e-02,8.00e-02,
297,1.08e-02,2.00e-02,
298,8.00e-03,8.00e-02,
299,-5.60e-03,2.00e-02,
300,-3.20e-03,8.00e-02,
301,4.00e-03,2.00e-02,
302,2.80e-03,2.00e-02,
303,-8.00e-04,8.00e-02,
304,-8.00e-04,2.00e-02,
305,2.00e-03,8.00e-02,
306,2.00e-03,6.00e-02,
307,-8.00e-04,2.00e-02,
308,-8.00e-04,2.00e-02,
309,1.20e-03,6.00e-02,
310,2.40e-03,2.00e-02,
311,-1.60e-03,8.00e-02,
312,-2.80e-03,2.00e-02,
313,4.80e-03,6.00e-02,
314,3.60e-03,2.00e-02,
315,7.60e-03,1.96e+00,
316,6.80e-03,1.60e-01,
317,0.00e+00,8.00e-02,
318,2.80e-03,8.00e-02,
319,-8.00e-04,1.40e-01,
320,-8.00e-04,1.00e-01,
321,2.00e-03,6.00e-02,
322,2.40e-03,1.00e-01,
323,-8.00e-04,6.00e-02,
324,-1.20e-03,8.00e-02,
325,2.40e-03,6.00e-02,
326,-8.00e-04,6.00e-02,
327,2.80e-03,8.00e-02,
328,-2.40e-03,6.00e-02,
329,3.60e-03,8.00e-02,
330,-4.00e-03,6.00e-02,
331,5.60e-03,8.00e-02,
332,8.40e-03,8.00e-02,
333,-1.00e-02,6.00e-02,
334,-1.28e-02,6.00e-02,
335,1.44e-02,8.00e-02,
336,-1.16e-02,6.00e-02,
337,1.12e-02,8.00e-02,
338,6.80e-03,8.00e-02,
339,-5.20e-03,2.00e-02,
340,-2.80e-03,2.00e-02,
341,4.00e-03,8.00e-02,
342,2.40e-03,8.00e-02,
343,-8.00e-04,2.00e-02,
344,-8.00e-04,8.00e-02,
345,1.60e-03,2.00e-02,
346,-8.00e-04,8.00e-02,
347,2.00e-03,2.00e-02,
348,-4.00e-04,2.00e-02,
349,1.60e-03,8.00e-02,
350,2.40e-03,2.00e-02,
351,-1.60e-03,8.00e-02,
352,-2.40e-03,2.00e-02,
353,4.40e-03,8.00e-02,
354,3.60e-03,2.00e-02,
355,7.20e-03,1.72e+00,
356,6.80e-03,1.60e-01,
357,0.00e+00,1.20e-01,
358,3.60e-03,8.00e-02,
359,0.00e+00,1.40e-01,
360,0.00e+00,1.00e-01,
361,2.00e-03,6.00e-02,
362,-8.00e-04,6.00e-02,
363,2.40e-03,1.00e-01,
364,2.40e-03,6.00e-02,
365,-8.00e-04,1.00e-01,
366,2.00e-03,6.00e-02,
367,-8.00e-04,8.00e-02,
368,-2.40e-03,6.00e-02,
369,3.20e-03,8.00e-02,
370,-4.40e-03,6.00e-02,
371,6.00e-03,8.00e-02,
372,9.20e-03,6.00e-02,
373,-1.00e-02,8.00e-02,
374,-1.28e-02,4.00e-02,
375,1.28e-02,8.00e-02,
376,-1.04e-02,8.00e-02,
377,9.60e-03,2.00e-02,
378,6.00e-03,8.00e-02,
379,-3.20e-03,2.00e-02,
380,-2.40e-03,8.00e-02,
381,3.60e-03,2.00e-02,
382,2.40e-03,2.00e-02,
383,-4.00e-04,8.00e-02,
384,2.00e-03,8.00e-02,
385,-8.00e-04,2.00e-02,
386,2.00e-03,8.00e-02,
387,-1.20e-03,2.00e-02,
388,-8.00e-04,2.00e-02,
389,2.00e-03,8.00e-02,
390,2.00e-03,8.00e-02,
391,-1.20e-03,2.00e-02,
392,-2.80e-03,2.00e-02,
393,4.40e-03,8.00e-02,
394,3.60e-03,2.00e-02,
395,8.00e-03,1.88e+00,
396,7.20e-03,1.60e-01,
397,0.00e+00,8.00e-02,
398,3.20e-03,1.20e-01,
399,0.00e+00,8.00e-02,
400,1.60e-03,1.00e-01,
401,0.00e+00,6.00e-02,
402,2.00e-03,1.00e-01,
403,-4.00e-04,6.00e-02,
404,-8.00e-04,6.00e-02,
405,2.00e-03,8.00e-02,
406,-8.00e-04,6.00e-02,
407,2.40e-03,8.00e-02,
408,2.40e-03,6.00e-02,
409,-1.60e-03,8.00e-02,
410,-3.60e-03,6.00e-02,
411,5.60e-03,8.00e-02,
412,7.60e-03,8.00e-02,
413,-8.80e-03,6.00e-02,
414,-1.16e-02,8.00e-02,
415,1.24e-02,4.00e-02,
416,-1.00e-02,6.00e-02,
417,9.20e-03,8.00e-02,
418,6.00e-03,8.00e-02,
419,-4.00e-03,4.00e-02,
420,-2.40e-03,8.00e-02,
421,2.40e-03,2.00e-02,
422,2.00e-03,2.00e-02,
423,-8.00e-04,8.00e-02,
424,-8.00e-04,8.00e-02,
425,2.00e-03,2.00e-02,
426,-8.00e-04,8.00e-02,
427,2.40e-03,2.00e-02,
428,-8.00e-04,8.00e-02,
429,2.00e-03,2.00e-02,
430,2.40e-03,2.00e-02,
431,-1.20e-03,8.00e-02,
432,-2.80e-03,8.00e-02,
433,4.00e-03,2.00e-02,
434,3.20e-03,2.00e-02,
435,7.20e-03,1.98e+00,
436,6.80e-03,1.60e-01,
437,0.00e+00,8.00e-02,
438,3.60e-03,1.20e-01,
439,-8.00e-04,8.00e-02,
440,-8.00e-04,8.00e-02,
441,1.60e-03,1.00e-01,
442,2.40e-03,1.00e-01,
443,-8.00e-04,6.00e-02,
444,-8.00e-04,8.00e-02,
445,2.40e-03,6.00e-02,
446,2.00e-03,6.00e-02,
447,-4.00e-04,8.00e-02,
448,-1.60e-03,6.00e-02,
449,2.80e-03,8.00e-02,
450,-2.80e-03,6.00e-02,
451,5.60e-03,8.00e-02,
452,7.20e-03,8.00e-02,
453,-7.20e-03,6.00e-02,
454,-1.08e-02,8.00e-02,
455,1.28e-02,4.00e-02,
456,-9.60e-03,8.00e-02,
457,9.60e-03,4.00e-02,
458,5.60e-03,8.00e-02,
459,-3.60e-03,2.00e-02,
460,-2.40e-03,8.00e-02,
461,4.00e-03,2.00e-02,
462,2.80e-03,8.00e-02,
463,0.00e+00,2.00e-02,
464,1.60e-03,2.00e-02,
465,-1.20e-03,8.00e-02,
466,2.00e-03,2.00e-02,
467,-8.00e-04,8.00e-02,
468,-4.00e-04,8.00e-02,
469,2.00e-03,2.00e-02,
470,2.40e-03,6.00e-02,
471,-1.60e-03,2.00e-02,
472,-2.40e-03,2.00e-02,
473,4.80e-03,8.00e-02,
474,4.00e-03,2.00e-02,
475,7.60e-03,1.74e+00,
476,6.80e-03,1.60e-01,
477,0.00e+00,8.00e-02,
478,3.60e-03,8.00e-02,
479,0.00e+00,1.40e-01,
480,-8.00e-04,1.00e-01,
481,2.40e-03,6.00e-02,
482,2.40e-03,6.00e-02,
483,-1.20e-03,1.00e-01,
484,2.00e-03,8.00e-02,
485,-8.00e-04,6.00e-02,
486,-8.00e-04,6.00e-02,
487,2.40e-03,8.00e-02,
488,2.80e-03,8.00e-02,
489,-1.60e-03,6.00e-02,
490,-3.20e-03,6.00e-02,
491,5.60e-03,8.00e-02,
492,7.20e-03,6.00e-02,
493,-8.00e-03,8.00e-02,
494,1.08e-02,8.00e-02,
495,-1.00e-02,2.00e-02,
496,-8.40e-03,8.00e-02,
497,8.00e-03,4.00e-02,
498,5.20e-03,8.00e-02,
499,-3.60e-03,2.00e-02,
500,-2.00e-03,8.00e-02,
501,2.80e-03,2.00e-02,
502,2.00e-03,8.00e-02,
503,-4.00e-04,2.00e-02,
504,2.40e-03,2.00e-02,
505,-8.00e-04,8.00e-02,
506,2.00e-03,8.00e-02,
507,-1.20e-03,2.00e-02,
508,-8.00e-04,2.00e-02,
509,2.00e-03,8.00e-02,
510,2.40e-03,2.00e-02,
511,-1.60e-03,8.00e-02,
512,-2.40e-03,8.00e-02,
513,4.00e-03,2.00e-02,
514,3.60e-03,-1.40e-01,
515,7.60e-03,1.96e+00,
516,6.80e-03,1.60e-01,
517,4.00e-04,1.20e-01,
518,4.00e-03,1.20e-01,
519,-8.00e-04,8.00e-02,
520,2.00e-03,1.00e-01,
521,0.00e+00,6.00e-02,
522,2.00e-03,6.00e-02,
523,0.00e+00,1.00e-01,
524,-8.00e-04,6.00e-02,
525,2.00e-03,8.00e-02,
526,2.00e-03,6.00e-02,
527,0.00e+00,8.00e-02,
528,2.40e-03,6.00e-02,
529,-1.60e-03,8.00e-02,
530,-2.40e-03,6.00e-02,
531,5.60e-03,8.00e-02,
532,6.80e-03,8.00e-02,
533,-8.00e-03,6.00e-02,
534,-9.60e-03,8.00e-02,
535,1.08e-02,2.00e-02,
536,-8.40e-03,8.00e-02,
537,8.00e-03,4.00e-02,
538,5.60e-03,2.00e-02,
539,-3.60e-03,8.00e-02,
540,-1.60e-03,8.00e-02,
541,2.80e-03,2.00e-02,
542,-1.20e-03,8.00e-02,
543,2.00e-03,2.00e-02,
544,-8.00e-04,8.00e-02,
545,1.60e-03,2.00e-02,
546,2.00e-03,8.00e-02,
547,-1.20e-03,2.00e-02,
548,-8.00e-04,2.00e-02,
549,2.00e-03,8.00e-02,
550,2.00e-03,2.00e-02,
551,-1.60e-03,8.00e-02,
552,-2.80e-03,2.00e-02,
553,4.80e-03,6.00e-02,
554,4.40e-03,2.00e-02,
555,8.00e-03,1.88e+00,
556,7.60e-03,1.60e-01,
557,4.00e-04,1.20e-01,
558,3.60e-03,1.40e-01,
559,-8.00e-04,8.00e-02,
560,-8.00e-04,1.00e-01,
561,2.00e-03,6.00e-02,
562,-4.00e-04,1.00e-01,
563,2.40e-03,6.00e-02,
564,-8.00e-04,6.00e-02,
565,2.40e-03,8.00e-02,
566,2.00e-03,6.00e-02,
567,-8.00e-04,8.00e-02,
568,-1.60e-03,6.00e-02,
569,2.80e-03,8.00e-02,
570,-2.40e-03,8.00e-02,
571,4.40e-03,6.00e-02,
572,6.80e-03,6.00e-02,
573,-7.20e-03,8.00e-02,
574,-9.20e-03,8.00e-02,
575,1.00e-02,6.00e-02,
576,-8.00e-03,8.00e-02,
577,6.80e-03,6.00e-02,
578,5.20e-03,8.00e-02,
579,-3.60e-03,2.00e-02,
580,-1.60e-03,2.00e-02,
581,2.40e-03,8.00e-02,
582,2.00e-03,8.00e-02,
583,-8.00e-04,2.00e-02,
584,-8.00e-04,8.00e-02,
585,1.20e-03,2.00e-02,
586,0.00e+00,8.00e-02,
587,2.40e-03,2.00e-02,
588,2.00e-03,2.00e-02,
589,-8.00e-04,6.00e-02,
590,2.00e-03,4.00e-02,
591,-1.60e-03,2.00e-02,
592,-3.20e-03,4.00e-02,
593,4.00e-03,2.00e-02,
594,4.40e-03,2.00e-02,
595,7.20e-03,1.82e+00,
596,6.80e-03,1.60e-01,
597,0.00e+00,8.00e-02,
598,4.00e-03,8.00e-02,
599,-8.00e-04,1.40e-01,
600,2.00e-03,1.00e-01,
601,-8.00e-04,6.00e-02,
602,-4.00e-04,1.00e-01,
603,2.80e-03,6.00e-02,
604,2.00e-03,1.00e-01,
605,-4.00e-04,6.00e-02,
606,2.00e-03,6.00e-02,
607,-4.00e-04,8.00e-02,
608,2.40e-03,6.00e-02,
609,-1.60e-03,8.00e-02,
610,-2.80e-03,6.00e-02,
611,4.80e-03,8.00e-02,
612,6.80e-03,8.00e-02,
613,-6.00e-03,6.00e-02,
614,9.60e-03,6.00e-02,
615,-8.80e-03,8.00e-02,
616,-7.20e-03,8.00e-02,
617,6.80e-03,4.00e-02,
618,4.80e-03,8.00e-02,
619,-2.40e-03,4.00e-02,
620,-1.60e-03,8.00e-02,
621,2.40e-03,2.00e-02,
622,2.00e-03,2.00e-02,
623,-8.00e-04,8.00e-02,
624,1.60e-03,2.00e-02,
625,-1.20e-03,8.00e-02,
626,2.00e-03,2.00e-02,
627,-8.00e-04,8.00e-02,
628,-8.00e-04,2.00e-02,
629,2.00e-03,8.00e-02,
630,2.80e-03,2.00e-02,
631,-1.20e-03,8.00e-02,
632,-2.80e-03,8.00e-02,
633,4.00e-03,2.00e-02,
634,4.00e-03,1.94e+00,
635,8.00e-03,-2.00e-02,
636,7.20e-03,1.60e-01,
637,4.00e-04,1.00e-01,
638,4.00e-03,1.20e-01,
639,-1.20e-03,8.00e-02,
640,-8.00e-04,1.00e-01,
641,2.40e-03,6.00e-02,
642,0.00e+00,6.00e-02,
643,2.40e-03,1.00e-01,
644,-8.00e-04,6.00e-02,
645,2.40e-03,1.00e-01,
646,2.00e-03,6.00e-02,
647,-8.00e-04,8.00e-02,
648,2.40e-03,6.00e-02,
649,-1.20e-03,8.00e-02,
650,-2.40e-03,6.00e-02,
651,4.00e-03,8.00e-02,
652,6.40e-03,8.00e-02,
653,-5.60e-03,4.00e-02,
654,9.20e-03,6.00e-02,
655,-8.00e-03,8.00e-02,
656,-6.80e-03,8.00e-02,
657,6.80e-03,2.00e-02,
658,4.40e-03,8.00e-02,
659,-2.80e-03,2.00e-02,
660,-1.60e-03,8.00e-02,
661,2.80e-03,2.00e-02,
662,2.00e-03,8.00e-02,
663,-8.00e-04,2.00e-02,
664,2.40e-03,2.00e-02,
665,-4.00e-04,8.00e-02,
666,2.00e-03,2.00e-02,
667,-8.00e-04,8.00e-02,
668,-8.00e-04,8.00e-02,
669,1.20e-03,2.00e-02,
670,-1.20e-03,2.00e-02,
671,2.00e-03,8.00e-02,
672,3.60e-03,2.00e-02,
673,-3.60e-03,8.00e-02,
674,4.00e-03,2.00e-02,
675,7.60e-03,2.00e+00,
676,6.80e-03,1.60e-01,
677,4.00e-04,8.00e-02,
678,4.40e-03,8.00e-02,
679,-8.00e-04,1.20e-01,
680,1.60e-03,1.00e-01,
681,-1.20e-03,6.00e-02,
682,2.40e-03,1.00e-01,
683,-8.00e-04,6.00e-02,
684,-4.00e-04,6.00e-02,
685,2.40e-03,1.00e-01,
686,2.40e-03,6.00e-02,
687,-8.00e-04,8.00e-02,
688,2.00e-03,6.00e-02,
689,-1.60e-03,8.00e-02,
690,-2.80e-03,6.00e-02,
691,4.00e-03,8.00e-02,
692,5.60e-03,6.00e-02,
693,-5.60e-03,8.00e-02,
694,-7.20e-03,8.00e-02,
695,8.80e-03,2.00e-02,
696,-7.20e-03,6.00e-02,
697,6.40e-03,8.00e-02,
698,4.80e-03,8.00e-02,
699,-2.40e-03,2.00e-02,
700,-1.60e-03,4.00e-02,
701,2.80e-03,8.00e-02,
702,2.00e-03,8.00e-02,
703,-4.00e-04,2.00e-02,
704,-8.00e-04,2.00e-02,
705,2.00e-03,8.00e-02,
706,2.00e-03,8.00e-02,
707,-1.20e-03,2.00e-02,
708,-8.00e-04,2.00e-02,
709,1.60e-03,8.00e-02,
710,2.40e-03,2.00e-02,
711,-1.20e-03,8.00e-02,
712,-3.20e-03,2.00e-02,
713,4.00e-03,8.00e-02,
714,4.40e-03,2.00e-02,
715,8.00e-03,1.94e+00,
716,7.60e-03,1.60e-01,
717,4.00e-04,8.00e-02,
718,4.80e-03,1.20e-01,
719,-1.20e-03,8.00e-02,
720,2.40e-03,1.00e-01,
721,-1.20e-03,6.00e-02,
722,3.20e-03,1.00e-01,
723,0.00e+00,6.00e-02,
724,-8.00e-04,6.00e-02,
725,2.00e-03,8.00e-02,
726,0.00e+00,6.00e-02,
727,2.40e-03,8.00e-02,
728,2.80e-03,6.00e-02,
729,-1.20e-03,8.00e-02,
730,4.00e-03,8.00e-02,
731,-2.40e-03,6.00e-02,
732,5.60e-03,6.00e-02,
733,-6.40e-03,8.00e-02,
734,-7.60e-03,8.00e-02,
735,8.40e-03,4.00e-02,
736,-5.60e-03,8.00e-02,
737,6.40e-03,4.00e-02,
738,4.40e-03,8.00e-02,
739,-1.60e-03,2.00e-02,
740,-1.20e-03,8.00e-02,
741,2.40e-03,2.00e-02,
742,2.40e-03,2.00e-02,
743,0.00e+00,8.00e-02,
744,2.00e-03,2.00e-02,
745,-8.00e-04,8.00e-02,
746,-4.00e-04,8.00e-02,
747,2.00e-03,2.00e-02,
748,-8.00e-04,2.00e-02,
749,2.40e-03,8.00e-02,
750,-1.20e-03,4.00e-02,
751,3.20e-03,2.00e-02,
752,-3.60e-03,2.00e-02,
753,3.60e-03,6.00e-02,
754,4.40e-03,2.00e+00,
755,8.00e-03,0.00e+00,
756,6.80e-03,1.60e-01,
757,8.00e-04,8.00e-02,
758,4.80e-03,1.20e-01,
759,-8.00e-04,8.00e-02,
760,2.40e-03,1.00e-01,
761,-8.00e-04,6.00e-02,
762,2.40e-03,1.00e-01,
763,-8.00e-04,6.00e-02,
764,-4.00e-04,6.00e-02,
765,2.00e-03,8.00e-02,
766,2.40e-03,6.00e-02,
767,0.00e+00,8.00e-02,
768,-8.00e-04,6.00e-02,
769,2.00e-03,8.00e-02,
770,-1.60e-03,8.00e-02,
771,3.20e-03,6.00e-02,
772,5.20e-03,8.00e-02,
773,-4.40e-03,6.00e-02,
774,8.00e-03,6.00e-02,
775,-6.80e-03,8.00e-02,
776,-6.00e-03,8.00e-02,
777,6.00e-03,2.00e-02,
778,4.80e-03,2.00e-02,
779,-2.40e-03,8.00e-02,
780,-1.60e-03,2.00e-02,
781,2.40e-03,8.00e-02,
782,2.40e-03,8.00e-02,
783,0.00e+00,2.00e-02,
784,2.00e-03,2.00e-02,
785,-8.00e-04,8.00e-02,
786,0.00e+00,2.00e-02,
787,2.40e-03,8.00e-02,
788,-1.60e-03,2.00e-02,
789,2.40e-03,8.00e-02,
790,2.80e-03,2.00e-02,
791,-1.20e-03,8.00e-02,
792,3.60e-03,2.00e-02,
793,-3.60e-03,8.00e-02,
794,3.20e-03,2.00e-02,
795,8.00e-03,1.82e+00,
796,7.60e-03,1.60e-01,
797,4.00e-04,1.00e-01,
798,4.80e-03,1.40e-01,
799,-1.60e-03,8.00e-02,
800,-1.20e-03,1.00e-01,
801,2.40e-03,6.00e-02,
802,-8.00e-04,1.00e-01,
803,2.80e-03,6.00e-02,
804,-4.00e-04,6.00e-02,
805,2.40e-03,8.00e-02,
806,2.00e-03,8.00e-02,
807,-8.00e-04,6.00e-02,
808,2.40e-03,8.00e-02,
809,-1.20e-03,6.00e-02,
810,-1.60e-03,6.00e-02,
811,3.60e-03,8.00e-02,
812,4.80e-03,6.00e-02,
813,-4.80e-03,8.00e-02,
814,-6.00e-03,6.00e-02,
815,8.00e-03,8.00e-02,
816,-4.80e-03,8.00e-02,
817,5.60e-03,2.00e-02,
818,4.00e-03,8.00e-02,
819,-2.40e-03,2.00e-02,
820,-8.00e-04,8.00e-02,
821,2.80e-03,2.00e-02,
822,-8.00e-04,8.00e-02,
823,2.00e-03,2.00e-02,
824,2.00e-03,8.00e-02,
825,-8.00e-04,2.00e-02,
826,2.00e-03,2.00e-02,
827,-1.20e-03,8.00e-02,
828,-1.20e-03,2.00e-02,
829,2.40e-03,8.00e-02,
830,2.40e-03,4.00e-02,
831,-1.20e-03,2.00e-02,
832,4.00e-03,4.00e-02,
833,-2.80e-03,2.00e-02,
834,3.60e-03,2.00e-02,
835,8.00e-03,2.00e+00,
836,6.80e-03,1.60e-01,
837,0.00e+00,8.00e-02,
838,4.80e-03,8.00e-02,
839,-8.00e-04,1.20e-01,
840,-8.00e-04,1.00e-01,
841,2.40e-03,6.00e-02,
842,2.40e-03,1.00e-01,
843,-1.20e-03,6.00e-02,
844,-8.00e-04,6.00e-02,
845,1.60e-03,8.00e-02,
846,2.40e-03,8.00e-02,
847,0.00e+00,6.00e-02,
848,2.40e-03,6.00e-02,
849,-1.20e-03,8.00e-02,
850,-2.00e-03,6.00e-02,
851,4.00e-03,8.00e-02,
852,5.20e-03,6.00e-02,
853,-4.40e-03,8.00e-02,
854,7.20e-03,8.00e-02,
855,-6.00e-03,6.00e-02,
