CarrPurc_P1-19_P2-38_tauVary/Gly88/NewFile1.csv

X,CH1,CH2,Start,Increment,
Sequence,Volt,Volt,-5.000000e-03,1.000000e-04
0,1.20e-03,4.00e-02,
1,4.00e-04,2.00e-02,
2,1.20e-03,4.00e-02,
3,0.00e+00,0.00e+00,
4,0.00e+00,4.00e-02,
5,1.20e-03,0.00e+00,
6,4.00e-04,2.00e-02,
7,1.20e-03,4.00e-02,
8,1.20e-03,4.00e-02,
9,0.00e+00,2.00e-02,
10,0.00e+00,4.00e-02,
11,1.20e-03,2.00e-02,
12,1.20e-03,4.00e-02,
13,4.00e-04,2.00e-02,
14,8.00e-04,4.00e-02,
15,0.00e+00,2.00e-02,
16,4.00e-04,4.00e-02,
17,1.20e-03,2.00e-02,
18,4.00e-04,4.00e-02,
19,1.20e-03,2.00e-02,
20,4.00e-04,2.00e-02,
21,1.20e-03,4.00e-02,
22,4.00e-04,4.00e-02,
23,1.20e-03,2.00e-02,
24,8.00e-04,4.00e-02,
25,0.00e+00,2.00e-02,
26,4.00e-04,4.00e-02,
27,1.20e-03,2.00e-02,
28,1.20e-03,4.00e-02,
29,0.00e+00,2.00e-02,
30,0.00e+00,2.00e-02,
31,1.20e-03,4.00e-02,
32,1.20e-03,4.00e-02,
33,4.00e-04,2.00e-02,
34,0.00e+00,4.00e-02,
35,8.00e-04,2.00e-02,
36,4.00e-04,4.00e-02,
37,1.20e-03,2.00e-02,
38,4.00e-04,4.00e-02,
39,1.20e-03,2.00e-02,
40,4.00e-04,2.00e-02,
41,1.20e-03,4.00e-02,
42,1.20e-03,4.00e-02,
43,0.00e+00,2.00e-02,
44,1.20e-03,4.00e-02,
45,4.00e-04,2.00e-02,
46,1.20e-03,4.00e-02,
47,0.00e+00,2.00e-02,
48,8.00e-04,4.00e-02,
49,-4.00e-04,2.00e-02,
50,8.00e-04,4.00e-02,
51,0.00e+00,2.00e-02,
52,1.20e-03,2.00e-02,
53,0.00e+00,4.00e-02,
54,4.00e-04,1.86e+00,
55,5.60e-03,-6.00e-02,
56,5.60e-03,1.60e-01,
57,-2.80e-02,8.00e-02,
58,1.72e-02,1.20e-01,
59,-1.32e-02,8.00e-02,
60,6.80e-03,1.00e-01,
61,-8.00e-03,6.00e-02,
62,-2.80e-03,1.00e-01,
63,3.60e-03,6.00e-02,
64,-1.60e-03,6.00e-02,
65,3.60e-03,8.00e-02,
66,3.20e-03,6.00e-02,
67,-1.60e-03,8.00e-02,
68,-1.20e-03,8.00e-02,
69,2.40e-03,6.00e-02,
70,2.40e-03,6.00e-02,
71,-1.20e-03,8.00e-02,
72,-8.00e-04,8.00e-02,
73,1.20e-03,6.00e-02,
74,4.00e-04,2.00e+00,
75,7.60e-03,2.00e-02,
76,6.80e-03,1.60e-01,
77,-6.80e-03,1.20e-01,
78,-7.20e-03,1.20e-01,
79,6.00e-03,8.00e-02,
80,4.00e-03,1.00e-01,
81,-8.00e-04,8.00e-02,
82,0.00e+00,1.00e-01,
83,2.40e-03,6.00e-02,
84,-8.00e-04,1.00e-01,
85,2.00e-03,6.00e-02,
86,1.60e-03,6.00e-02,
87,-1.20e-03,8.00e-02,
88,-2.80e-03,8.00e-02,
89,5.20e-03,6.00e-02,
90,8.40e-03,6.00e-02,
91,-8.80e-03,8.00e-02,
92,-1.40e-02,6.00e-02,
93,1.84e-02,8.00e-02,
94,2.16e-02,6.00e-02,
95,-1.92e-02,8.00e-02,
96,-1.84e-02,6.00e-02,
97,1.84e-02,8.00e-02,
98,1.16e-02,6.00e-02,
99,-8.80e-03,8.00e-02,
100,-6.00e-03,8.00e-02,
101,4.80e-03,6.00e-02,
102,2.40e-03,8.00e-02,
103,-8.00e-04,2.00e-02,
104,2.00e-03,8.00e-02,
105,-8.00e-04,4.00e-02,
106,-8.00e-04,2.00e-02,
107,2.00e-03,8.00e-02,
108,2.00e-03,8.00e-02,
109,-8.00e-04,4.00e-02,
110,0.00e+00,8.00e-02,
111,2.00e-03,2.00e-02,
112,1.20e-03,8.00e-02,
113,0.00e+00,2.00e-02,
114,0.00e+00,2.00e-02,
115,7.20e-03,1.88e+00,
116,6.80e-03,1.60e-01,
117,1.20e-03,1.20e-01,
118,2.80e-03,1.40e-01,
119,4.00e-04,8.00e-02,
120,2.00e-03,8.00e-02,
121,-4.00e-04,1.00e-01,
122,2.40e-03,1.00e-01,
123,-8.00e-04,6.00e-02,
124,-4.00e-04,1.00e-01,
125,1.60e-03,6.00e-02,
126,2.40e-03,8.00e-02,
127,-1.20e-03,6.00e-02,
128,-2.80e-03,6.00e-02,
129,6.00e-03,8.00e-02,
130,8.00e-03,6.00e-02,
131,-6.00e-03,8.00e-02,
132,1.20e-02,6.00e-02,
133,-1.32e-02,8.00e-02,
134,-1.60e-02,6.00e-02,
135,1.84e-02,8.00e-02,
136,-1.44e-02,6.00e-02,
137,1.24e-02,8.00e-02,
138,8.40e-03,8.00e-02,
139,-6.00e-03,6.00e-02,
140,-2.80e-03,6.00e-02,
141,4.00e-03,8.00e-02,
142,2.80e-03,8.00e-02,
143,-8.00e-04,4.00e-02,
144,-8.00e-04,8.00e-02,
145,2.40e-03,4.00e-02,
146,2.00e-03,4.00e-02,
147,-8.00e-04,8.00e-02,
148,2.00e-03,8.00e-02,
149,0.00e+00,2.00e-02,
150,2.80e-03,2.00e-02,
151,-1.60e-03,8.00e-02,
152,-3.60e-03,8.00e-02,
153,5.20e-03,2.00e-02,
154,1.60e-03,2.00e-02,
155,7.20e-03,1.82e+00,
156,6.80e-03,1.60e-01,
157,1.20e-03,1.20e-01,
158,2.80e-03,1.40e-01,
159,0.00e+00,8.00e-02,
160,2.00e-03,1.00e-01,
161,0.00e+00,8.00e-02,
162,2.00e-03,1.00e-01,
163,0.00e+00,6.00e-02,
164,2.40e-03,1.00e-01,
165,-8.00e-04,6.00e-02,
166,2.40e-03,6.00e-02,
167,0.00e+00,8.00e-02,
168,3.60e-03,6.00e-02,
169,-2.80e-03,8.00e-02,
170,-5.20e-03,8.00e-02,
171,7.20e-03,6.00e-02,
172,1.12e-02,6.00e-02,
173,-1.24e-02,8.00e-02,
174,1.64e-02,6.00e-02,
175,-1.56e-02,8.00e-02,
176,-1.32e-02,8.00e-02,
177,1.24e-02,6.00e-02,
178,8.40e-03,8.00e-02,
179,-5.60e-03,6.00e-02,
180,-3.60e-03,8.00e-02,
181,3.60e-03,6.00e-02,
182,2.40e-03,8.00e-02,
183,-1.20e-03,6.00e-02,
184,-8.00e-04,8.00e-02,
185,2.00e-03,2.00e-02,
186,2.00e-03,8.00e-02,
187,-4.00e-04,4.00e-02,
188,-8.00e-04,8.00e-02,
189,1.20e-03,4.00e-02,
190,2.40e-03,8.00e-02,
191,-1.20e-03,4.00e-02,
192,-2.80e-03,8.00e-02,
193,5.20e-03,2.00e-02,
194,3.20e-03,2.00e-02,
195,7.20e-03,1.92e+00,
196,6.80e-03,1.60e-01,
197,-8.00e-04,1.20e-01,
198,-8.00e-04,1.40e-01,
199,3.60e-03,8.00e-02,
200,2.40e-03,8.00e-02,
201,0.00e+00,1.00e-01,
202,-8.00e-04,1.00e-01,
203,2.40e-03,6.00e-02,
204,-8.00e-04,6.00e-02,
205,2.40e-03,1.00e-01,
206,2.40e-03,6.00e-02,
207,-8.00e-04,8.00e-02,
208,-2.00e-03,8.00e-02,
209,3.20e-03,6.00e-02,
210,-4.00e-03,6.00e-02,
211,6.80e-03,8.00e-02,
212,8.00e-03,6.00e-02,
213,-8.40e-03,8.00e-02,
214,-1.32e-02,6.00e-02,
215,1.60e-02,8.00e-02,
216,-1.16e-02,6.00e-02,
217,1.16e-02,8.00e-02,
218,7.20e-03,8.00e-02,
219,-5.20e-03,6.00e-02,
220,-2.80e-03,8.00e-02,
221,3.60e-03,4.00e-02,
222,2.40e-03,4.00e-02,
223,0.00e+00,8.00e-02,
224,1.20e-03,8.00e-02,
225,0.00e+00,2.00e-02,
226,1.20e-03,8.00e-02,
227,0.00e+00,2.00e-02,
228,0.00e+00,8.00e-02,
229,2.00e-03,2.00e-02,
230,2.00e-03,8.00e-02,
231,-8.00e-04,2.00e-02,
232,-1.60e-03,2.00e-02,
233,4.00e-03,8.00e-02,
234,3.20e-03,2.00e-02,
235,7.60e-03,1.96e+00,
236,6.80e-03,1.60e-01,
237,0.00e+00,1.20e-01,
238,2.40e-03,1.40e-01,
239,-8.00e-04,8.00e-02,
240,1.20e-03,1.00e-01,
241,-8.00e-04,8.00e-02,
242,1.20e-03,6.00e-02,
243,0.00e+00,1.00e-01,
244,-8.00e-04,6.00e-02,
245,2.00e-03,1.00e-01,
246,0.00e+00,6.00e-02,
247,2.40e-03,8.00e-02,
248,-2.40e-03,8.00e-02,
249,4.00e-03,6.00e-02,
250,6.80e-03,8.00e-02,
251,-4.40e-03,6.00e-02,
252,9.60e-03,6.00e-02,
253,-8.80e-03,8.00e-02,
254,-1.16e-02,8.00e-02,
255,1.52e-02,6.00e-02,
256,-1.00e-02,8.00e-02,
257,1.08e-02,6.00e-02,
258,6.40e-03,6.00e-02,
259,-4.00e-03,8.00e-02,
260,-2.40e-03,6.00e-02,
261,3.20e-03,8.00e-02,
262,2.00e-03,8.00e-02,
263,-8.00e-04,4.00e-02,
264,-1.20e-03,6.00e-02,
265,2.00e-03,8.00e-02,
266,2.00e-03,8.00e-02,
267,-8.00e-04,4.00e-02,
268,0.00e+00,8.00e-02,
269,2.00e-03,2.00e-02,
270,-1.20e-03,8.00e-02,
271,1.60e-03,2.00e-02,
272,-1.20e-03,8.00e-02,
273,4.00e-03,2.00e-02,
274,3.20e-03,2.00e-02,
275,7.60e-03,1.92e+00,
276,6.80e-03,1.60e-01,
277,4.00e-04,1.00e-01,
278,2.40e-03,1.20e-01,
279,0.00e+00,8.00e-02,
280,1.60e-03,1.00e-01,
281,0.00e+00,8.00e-02,
282,4.00e-04,1.00e-01,
283,2.40e-03,6.00e-02,
284,2.00e-03,1.00e-01,
285,0.00e+00,6.00e-02,
286,2.00e-03,6.00e-02,
287,0.00e+00,8.00e-02,
288,-1.60e-03,6.00e-02,
289,2.80e-03,8.00e-02,
290,-4.00e-03,6.00e-02,
291,5.60e-03,8.00e-02,
292,9.60e-03,8.00e-02,
293,-9.20e-03,6.00e-02,
294,1.24e-02,6.00e-02,
295,-1.20e-02,8.00e-02,
296,-1.00e-02,8.00e-02,
297,9.60e-03,6.00e-02,
298,6.40e-03,8.00e-02,
299,-4.40e-03,6.00e-02,
300,-2.80e-03,8.00e-02,
301,3.60e-03,6.00e-02,
302,2.00e-03,6.00e-02,
303,-8.00e-04,8.00e-02,
304,-8.00e-04,8.00e-02,
305,2.00e-03,4.00e-02,
306,-8.00e-04,8.00e-02,
307,2.40e-03,2.00e-02,
308,-4.00e-04,8.00e-02,
309,2.00e-03,4.00e-02,
310,2.00e-03,8.00e-02,
311,-8.00e-04,4.00e-02,
312,-1.60e-03,4.00e-02,
313,4.00e-03,8.00e-02,
314,3.20e-03,2.00e-02,
315,7.20e-03,1.96e+00,
316,6.80e-03,1.60e-01,
317,1.20e-03,1.20e-01,
318,3.60e-03,1.40e-01,
319,4.00e-04,8.00e-02,
320,2.00e-03,1.00e-01,
321,-8.00e-04,8.00e-02,
322,-1.20e-03,1.00e-01,
323,2.40e-03,6.00e-02,
324,2.00e-03,1.00e-01,
325,-8.00e-04,6.00e-02,
326,2.00e-03,6.00e-02,
327,-8.00e-04,8.00e-02,
328,2.40e-03,6.00e-02,
329,-1.60e-03,8.00e-02,
330,-3.60e-03,6.00e-02,
331,5.60e-03,8.00e-02,
332,8.00e-03,8.00e-02,
333,-7.60e-03,6.00e-02,
334,-1.16e-02,6.00e-02,
335,1.24e-02,8.00e-02,
336,-9.60e-03,6.00e-02,
337,8.80e-03,8.00e-02,
338,6.40e-03,8.00e-02,
339,-4.40e-03,6.00e-02,
340,-2.40e-03,6.00e-02,
341,3.20e-03,8.00e-02,
342,2.40e-03,8.00e-02,
343,0.00e+00,2.00e-02,
344,-8.00e-04,8.00e-02,
345,1.20e-03,2.00e-02,
346,1.60e-03,8.00e-02,
347,-8.00e-04,2.00e-02,
348,-4.00e-04,8.00e-02,
349,2.00e-03,2.00e-02,
350,2.40e-03,8.00e-02,
351,-1.20e-03,2.00e-02,
352,-2.40e-03,8.00e-02,
353,3.60e-03,2.00e-02,
354,2.80e-03,2.00e-02,
355,7.20e-03,1.74e+00,
356,6.40e-03,1.60e-01,
357,4.00e-04,1.20e-01,
358,3.20e-03,1.40e-01,
359,0.00e+00,8.00e-02,
360,2.00e-03,1.00e-01,
361,-8.00e-04,8.00e-02,
362,2.40e-03,1.00e-01,
363,-4.00e-04,6.00e-02,
364,0.00e+00,1.00e-01,
365,2.40e-03,6.00e-02,
366,2.00e-03,6.00e-02,
367,-8.00e-04,8.00e-02,
368,2.80e-03,6.00e-02,
369,-1.60e-03,8.00e-02,
370,-4.00e-03,6.00e-02,
371,5.60e-03,8.00e-02,
372,7.20e-03,6.00e-02,
373,-8.00e-03,8.00e-02,
374,-1.12e-02,6.00e-02,
375,1.16e-02,8.00e-02,
376,-9.20e-03,6.00e-02,
377,8.00e-03,8.00e-02,
378,5.60e-03,8.00e-02,
379,-2.40e-03,6.00e-02,
380,-1.60e-03,6.00e-02,
381,2.80e-03,8.00e-02,
382,2.00e-03,6.00e-02,
383,0.00e+00,8.00e-02,
384,1.20e-03,8.00e-02,
385,-8.00e-04,4.00e-02,
386,1.60e-03,8.00e-02,
387,-8.00e-04,2.00e-02,
388,0.00e+00,8.00e-02,
389,1.20e-03,2.00e-02,
390,2.00e-03,8.00e-02,
391,-8.00e-04,2.00e-02,
392,-1.60e-03,8.00e-02,
393,4.00e-03,2.00e-02,
394,3.60e-03,2.00e-02,
395,8.00e-03,1.92e+00,
396,6.80e-03,1.60e-01,
397,4.00e-04,1.20e-01,
398,2.80e-03,1.40e-01,
399,0.00e+00,8.00e-02,
400,1.60e-03,1.00e-01,
401,-8.00e-04,8.00e-02,
402,0.00e+00,1.00e-01,
403,2.00e-03,6.00e-02,
404,-8.00e-04,6.00e-02,
405,1.20e-03,1.00e-01,
406,2.00e-03,6.00e-02,
407,0.00e+00,8.00e-02,
408,2.40e-03,6.00e-02,
409,-1.60e-03,8.00e-02,
410,-2.80e-03,6.00e-02,
411,5.60e-03,8.00e-02,
412,7.20e-03,8.00e-02,
413,-7.60e-03,6.00e-02,
414,-1.04e-02,6.00e-02,
415,1.12e-02,8.00e-02,
416,-8.80e-03,6.00e-02,
417,8.00e-03,8.00e-02,
418,5.60e-03,8.00e-02,
419,-4.00e-03,6.00e-02,
420,-2.40e-03,6.00e-02,
421,2.40e-03,8.00e-02,
422,2.00e-03,8.00e-02,
423,-1.20e-03,2.00e-02,
424,2.40e-03,8.00e-02,
425,-8.00e-04,4.00e-02,
426,2.00e-03,8.00e-02,
427,-8.00e-04,4.00e-02,
428,-8.00e-04,8.00e-02,
429,2.00e-03,2.00e-02,
430,2.00e-03,2.00e-02,
431,-4.00e-04,8.00e-02,
432,-2.40e-03,8.00e-02,
433,3.60e-03,2.00e-02,
434,2.80e-03,2.00e-02,
435,7.20e-03,1.92e+00,
436,6.80e-03,1.60e-01,
437,4.00e-04,1.20e-01,
438,3.60e-03,8.00e-02,
439,-4.00e-04,1.40e-01,
440,-8.00e-04,8.00e-02,
441,2.00e-03,1.00e-01,
442,2.40e-03,1.00e-01,
443,-8.00e-04,6.00e-02,
444,-8.00e-04,8.00e-02,
445,2.00e-03,6.00e-02,
446,2.00e-03,6.00e-02,
447,0.00e+00,8.00e-02,
448,2.40e-03,6.00e-02,
449,-1.20e-03,8.00e-02,
450,-2.40e-03,6.00e-02,
451,4.40e-03,8.00e-02,
452,6.80e-03,8.00e-02,
453,-7.20e-03,6.00e-02,
454,-9.60e-03,6.00e-02,
455,1.08e-02,8.00e-02,
456,-8.40e-03,8.00e-02,
457,8.40e-03,6.00e-02,
458,5.20e-03,6.00e-02,
459,-4.00e-03,8.00e-02,
460,-1.60e-03,8.00e-02,
461,2.80e-03,4.00e-02,
462,2.00e-03,8.00e-02,
463,-8.00e-04,4.00e-02,
464,1.20e-03,8.00e-02,
465,-1.20e-03,4.00e-02,
466,-8.00e-04,8.00e-02,
467,2.00e-03,4.00e-02,
468,0.00e+00,8.00e-02,
469,1.20e-03,2.00e-02,
470,2.00e-03,8.00e-02,
471,-1.20e-03,2.00e-02,
472,-2.40e-03,2.00e-02,
473,4.00e-03,8.00e-02,
474,3.60e-03,1.96e+00,
475,7.60e-03,0.00e+00,
476,7.20e-03,1.60e-01,
477,1.20e-03,1.20e-01,
478,4.00e-03,1.40e-01,
479,0.00e+00,8.00e-02,
480,1.60e-03,1.00e-01,
481,-8.00e-04,8.00e-02,
482,2.40e-03,1.00e-01,
483,0.00e+00,6.00e-02,
484,2.00e-03,1.00e-01,
485,-8.00e-04,6.00e-02,
486,0.00e+00,6.00e-02,
487,2.00e-03,8.00e-02,
488,2.40e-03,8.00e-02,
489,-2.00e-03,6.00e-02,
490,-3.20e-03,6.00e-02,
491,5.20e-03,8.00e-02,
492,6.80e-03,6.00e-02,
493,-7.20e-03,8.00e-02,
494,-8.80e-03,6.00e-02,
495,1.00e-02,8.00e-02,
496,-7.20e-03,6.00e-02,
497,6.80e-03,8.00e-02,
498,4.80e-03,6.00e-02,
499,-3.60e-03,8.00e-02,
500,-1.20e-03,6.00e-02,
501,2.40e-03,8.00e-02,
502,2.00e-03,8.00e-02,
503,-4.00e-04,2.00e-02,
504,-4.00e-04,8.00e-02,
505,2.00e-03,2.00e-02,
506,2.00e-03,8.00e-02,
507,0.00e+00,2.00e-02,
508,-4.00e-04,4.00e-02,
509,1.20e-03,8.00e-02,
510,2.00e-03,8.00e-02,
511,-8.00e-04,2.00e-02,
512,-2.40e-03,8.00e-02,
513,3.60e-03,2.00e-02,
514,3.20e-03,2.00e-02,
515,7.60e-03,1.78e+00,
516,6.80e-03,1.60e-01,
517,8.00e-04,1.20e-01,
518,4.00e-03,1.20e-01,
519,0.00e+00,8.00e-02,
520,2.00e-03,1.00e-01,
521,-4.00e-04,8.00e-02,
522,2.40e-03,6.00e-02,
523,0.00e+00,1.00e-01,
524,-4.00e-04,6.00e-02,
525,2.00e-03,1.00e-01,
526,0.00e+00,6.00e-02,
527,2.00e-03,8.00e-02,
528,2.40e-03,6.00e-02,
529,-1.60e-03,8.00e-02,
530,-2.40e-03,6.00e-02,
531,5.20e-03,8.00e-02,
532,6.40e-03,8.00e-02,
533,-6.80e-03,6.00e-02,
534,-8.00e-03,8.00e-02,
535,1.08e-02,6.00e-02,
536,-6.80e-03,6.00e-02,
537,6.80e-03,8.00e-02,
538,4.40e-03,8.00e-02,
539,-2.80e-03,6.00e-02,
540,-1.60e-03,8.00e-02,
541,2.80e-03,4.00e-02,
542,2.00e-03,8.00e-02,
543,-8.00e-04,2.00e-02,
544,2.00e-03,8.00e-02,
545,-8.00e-04,2.00e-02,
546,2.00e-03,8.00e-02,
547,-4.00e-04,2.00e-02,
548,-8.00e-04,8.00e-02,
549,1.60e-03,2.00e-02,
550,-1.20e-03,8.00e-02,
551,2.00e-03,2.00e-02,
552,-2.40e-03,8.00e-02,
553,3.60e-03,2.00e-02,
554,3.60e-03,2.00e-02,
555,8.00e-03,1.98e+00,
556,6.80e-03,1.60e-01,
557,8.00e-04,1.20e-01,
558,4.00e-03,1.40e-01,
559,0.00e+00,8.00e-02,
560,2.40e-03,1.00e-01,
561,-4.00e-04,8.00e-02,
562,-8.00e-04,1.00e-01,
563,2.40e-03,6.00e-02,
564,-8.00e-04,6.00e-02,
565,2.00e-03,8.00e-02,
566,-4.00e-04,6.00e-02,
567,2.00e-03,8.00e-02,
568,2.00e-03,6.00e-02,
569,-1.60e-03,8.00e-02,
570,-2.40e-03,8.00e-02,
571,4.00e-03,6.00e-02,
572,5.60e-03,6.00e-02,
573,-6.00e-03,8.00e-02,
574,-7.60e-03,8.00e-02,
575,8.40e-03,6.00e-02,
576,-6.80e-03,8.00e-02,
577,6.80e-03,6.00e-02,
578,4.80e-03,6.00e-02,
579,-2.40e-03,8.00e-02,
580,-1.60e-03,6.00e-02,
581,2.40e-03,8.00e-02,
582,0.00e+00,8.00e-02,
583,2.00e-03,6.00e-02,
584,-8.00e-04,8.00e-02,
585,2.00e-03,4.00e-02,
586,2.00e-03,8.00e-02,
587,0.00e+00,4.00e-02,
588,0.00e+00,8.00e-02,
589,2.00e-03,2.00e-02,
590,2.00e-03,8.00e-02,
591,-8.00e-04,2.00e-02,
592,-2.80e-03,8.00e-02,
593,4.00e-03,2.00e-02,
594,3.20e-03,2.00e-02,
595,7.20e-03,1.94e+00,
596,6.80e-03,1.60e-01,
597,8.00e-04,1.20e-01,
598,4.00e-03,1.40e-01,
599,-4.00e-04,8.00e-02,
600,-4.00e-04,8.00e-02,
601,2.00e-03,1.00e-01,
602,0.00e+00,1.00e-01,
603,2.40e-03,6.00e-02,
604,-4.00e-04,6.00e-02,
605,2.00e-03,1.00e-01,
606,2.00e-03,6.00e-02,
607,-4.00e-04,8.00e-02,
608,2.40e-03,6.00e-02,
609,-1.60e-03,8.00e-02,
610,-2.40e-03,6.00e-02,
611,4.80e-03,8.00e-02,
612,5.60e-03,8.00e-02,
613,-6.00e-03,6.00e-02,
614,-7.20e-03,6.00e-02,
615,9.20e-03,8.00e-02,
616,-6.00e-03,6.00e-02,
617,6.00e-03,8.00e-02,
618,4.00e-03,6.00e-02,
619,-2.40e-03,8.00e-02,
620,-1.20e-03,8.00e-02,
621,2.80e-03,4.00e-02,
622,2.00e-03,8.00e-02,
623,-4.00e-04,4.00e-02,
624,-8.00e-04,8.00e-02,
625,1.60e-03,4.00e-02,
626,2.40e-03,8.00e-02,
627,-8.00e-04,2.00e-02,
628,-4.00e-04,8.00e-02,
629,2.40e-03,2.00e-02,
630,2.40e-03,2.00e-02,
631,-1.20e-03,8.00e-02,
632,-2.80e-03,8.00e-02,
633,3.60e-03,2.00e-02,
634,3.60e-03,-6.00e-02,
635,8.00e-03,1.92e+00,
636,6.80e-03,1.60e-01,
637,8.00e-04,1.20e-01,
638,4.00e-03,1.20e-01,
639,0.00e+00,8.00e-02,
640,0.00e+00,8.00e-02,
641,2.40e-03,1.00e-01,
642,2.40e-03,1.00e-01,
643,-8.00e-04,6.00e-02,
644,-8.00e-04,6.00e-02,
645,2.00e-03,1.00e-01,
646,2.00e-03,6.00e-02,
647,-8.00e-04,8.00e-02,
648,1.20e-03,6.00e-02,
649,-1.60e-03,8.00e-02,
650,-2.40e-03,6.00e-02,
651,3.60e-03,8.00e-02,
652,5.20e-03,6.00e-02,
653,-4.40e-03,8.00e-02,
654,8.00e-03,6.00e-02,
655,-6.80e-03,8.00e-02,
656,-5.60e-03,8.00e-02,
657,5.20e-03,6.00e-02,
658,4.00e-03,6.00e-02,
659,-2.40e-03,8.00e-02,
660,-1.60e-03,6.00e-02,
661,2.40e-03,8.00e-02,
662,2.00e-03,8.00e-02,
663,0.00e+00,4.00e-02,
664,0.00e+00,8.00e-02,
665,2.40e-03,4.00e-02,
666,2.00e-03,8.00e-02,
667,-1.20e-03,2.00e-02,
668,-8.00e-04,8.00e-02,
669,2.00e-03,2.00e-02,
670,-1.20e-03,8.00e-02,
671,2.00e-03,2.00e-02,
672,2.80e-03,8.00e-02,
673,-2.80e-03,2.00e-02,
674,3.20e-03,2.00e-02,
675,7.20e-03,1.94e+00,
676,6.80e-03,1.60e-01,
677,8.00e-04,1.20e-01,
678,4.00e-03,1.40e-01,
679,-4.00e-04,8.00e-02,
680,2.40e-03,1.00e-01,
681,-4.00e-04,8.00e-02,
682,2.40e-03,1.00e-01,
683,-8.00e-04,6.00e-02,
684,2.00e-03,6.00e-02,
685,-4.00e-04,1.00e-01,
686,0.00e+00,6.00e-02,
687,2.00e-03,8.00e-02,
688,-8.00e-04,6.00e-02,
689,2.00e-03,8.00e-02,
690,-2.00e-03,6.00e-02,
691,3.60e-03,8.00e-02,
692,5.20e-03,6.00e-02,
693,-5.60e-03,8.00e-02,
694,-7.20e-03,6.00e-02,
695,8.00e-03,8.00e-02,
696,-5.60e-03,6.00e-02,
697,6.40e-03,8.00e-02,
698,4.80e-03,6.00e-02,
699,-2.00e-03,8.00e-02,
700,-1.60e-03,8.00e-02,
701,2.40e-03,4.00e-02,
702,2.40e-03,8.00e-02,
703,0.00e+00,4.00e-02,
704,-4.00e-04,6.00e-02,
705,2.00e-03,8.00e-02,
706,-8.00e-04,4.00e-02,
707,2.00e-03,8.00e-02,
708,-8.00e-04,2.00e-02,
709,2.00e-03,8.00e-02,
710,2.80e-03,2.00e-02,
711,-1.20e-03,8.00e-02,
712,-2.40e-03,2.00e-02,
713,3.60e-03,8.00e-02,
714,3.60e-03,1.84e+00,
715,8.00e-03,0.00e+00,
716,7.20e-03,1.60e-01,
717,8.00e-04,1.20e-01,
718,4.40e-03,1.40e-01,
719,0.00e+00,8.00e-02,
720,-8.00e-04,1.00e-01,
721,2.40e-03,8.00e-02,
722,2.40e-03,1.00e-01,
723,-8.00e-04,6.00e-02,
724,-8.00e-04,6.00e-02,
725,1.60e-03,8.00e-02,
726,1.20e-03,6.00e-02,
727,-8.00e-04,8.00e-02,
728,2.40e-03,6.00e-02,
729,-1.20e-03,8.00e-02,
730,-2.00e-03,8.00e-02,
731,3.60e-03,6.00e-02,
732,5.20e-03,6.00e-02,
733,-4.40e-03,8.00e-02,
734,-5.60e-03,8.00e-02,
735,8.00e-03,6.00e-02,
736,-5.20e-03,8.00e-02,
737,5.60e-03,6.00e-02,
738,-1.60e-03,6.00e-02,
739,3.20e-03,8.00e-02,
740,-8.00e-04,8.00e-02,
741,2.40e-03,4.00e-02,
742,-8.00e-04,8.00e-02,
743,2.00e-03,2.00e-02,
744,0.00e+00,8.00e-02,
745,2.00e-03,2.00e-02,
746,2.00e-03,8.00e-02,
747,-8.00e-04,4.00e-02,
748,-8.00e-04,2.00e-02,
749,2.00e-03,8.00e-02,
750,2.40e-03,8.00e-02,
751,-4.00e-04,2.00e-02,
752,3.20e-03,2.00e-02,
753,-2.40e-03,8.00e-02,
754,3.20e-03,2.00e-02,
755,7.60e-03,1.92e+00,
756,6.80e-03,1.60e-01,
757,1.20e-03,1.20e-01,
758,4.00e-03,1.20e-01,
759,-8.00e-04,8.00e-02,
760,-8.00e-04,1.00e-01,
761,2.40e-03,8.00e-02,
762,-4.00e-04,1.00e-01,
763,2.40e-03,6.00e-02,
764,-8.00e-04,6.00e-02,
765,2.00e-03,8.00e-02,
766,-8.00e-04,6.00e-02,
767,2.00e-03,8.00e-02,
768,1.20e-03,6.00e-02,
769,-1.20e-03,8.00e-02,
770,-1.20e-03,8.00e-02,
771,3.60e-03,6.00e-02,
772,4.80e-03,8.00e-02,
773,-4.40e-03,6.00e-02,
774,-6.00e-03,6.00e-02,
775,7.20e-03,8.00e-02,
776,-5.20e-03,8.00e-02,
777,5.20e-03,4.00e-02,
778,3.60e-03,8.00e-02,
779,-1.60e-03,4.00e-02,
780,-1.20e-03,8.00e-02,
781,2.40e-03,4.00e-02,
782,-8.00e-04,8.00e-02,
783,2.00e-03,2.00e-02,
784,1.20e-03,8.00e-02,
785,-8.00e-04,2.00e-02,
786,-8.00e-04,8.00e-02,
787,2.00e-03,2.00e-02,
788,-8.00e-04,4.00e-02,
789,2.00e-03,8.00e-02,
790,-1.20e-03,8.00e-02,
791,2.40e-03,2.00e-02,
792,3.60e-03,8.00e-02,
793,-2.80e-03,2.00e-02,
794,2.80e-03,2.00e-02,
795,8.00e-03,1.92e+00,
796,6.80e-03,1.60e-01,
797,4.00e-04,1.20e-01,
798,4.00e-03,1.40e-01,
799,-8.00e-04,8.00e-02,
800,2.00e-03,1.00e-01,
801,-8.00e-04,8.00e-02,
802,-8.00e-04,1.00e-01,
803,2.40e-03,6.00e-02,
804,2.40e-03,6.00e-02,
805,-4.00e-04,8.00e-02,
806,-8.00e-04,8.00e-02,
807,2.00e-03,6.00e-02,
808,1.60e-03,8.00e-02,
809,-8.00e-04,6.00e-02,
810,-1.60e-03,6.00e-02,
811,3.60e-03,8.00e-02,
812,4.80e-03,6.00e-02,
813,-4.00e-03,8.00e-02,
814,-5.60e-03,6.00e-02,
815,6.80e-03,8.00e-02,
816,-4.80e-03,6.00e-02,
817,4.40e-03,8.00e-02,
818,4.00e-03,8.00e-02,
819,-1.60e-03,6.00e-02,
820,-1.20e-03,6.00e-02,
821,2.00e-03,8.00e-02,
822,1.60e-03,6.00e-02,
823,-8.00e-04,8.00e-02,
824,-4.00e-04,8.00e-02,
825,2.00e-03,4.00e-02,
826,-4.00e-04,8.00e-02,
827,2.40e-03,2.00e-02,
828,-8.00e-04,2.00e-02,
829,2.00e-03,8.00e-02,
830,-8.00e-04,8.00e-02,
831,2.40e-03,2.00e-02,
832,3.60e-03,8.00e-02,
833,-3.20e-03,2.00e-02,
834,2.80e-03,2.00e-02,
835,7.60e-03,1.80e+00,
836,6.80e-03,1.60e-01,
837,8.00e-04,1.20e-01,
838,5.20e-03,1.20e-01,
839,-8.00e-04,8.00e-02,
840,-8.00e-04,8.00e-02,
841,2.00e-03,1.00e-01,
842,2.00e-03,1.00e-01,
843,-8.00e-04,6.00e-02,
844,-4.00e-04,6.00e-02,
845,2.00e-03,1.00e-01,
846,2.00e-03,8.00e-02,
847,-8.00e-04,6.00e-02,
848,-8.00e-04,6.00e-02,
849,2.00e-03,8.00e-02,
850,-1.60e-03,6.00e-02,
851,3.60e-03,8.00e-02,
852,5.20e-03,6.00e-02,
853,-3.60e-03,8.00e-02,
854,6.40e-03,8.00e-02,
855,-5.20e-03,6.00e-02,
856,-4.40e-03,8.00e-02,
