CarrPurc_P1-19_P2-38_tauVary/Gly88/NewFile9.csv

X,CH1,CH2,Start,Increment,
Sequence,Volt,Volt,-5.000000e-03,1.000000e-04
0,0.00e+00,4.00e-02,
1,1.20e-03,0.00e+00,
2,0.00e+00,4.00e-02,
3,1.20e-03,0.00e+00,
4,1.20e-03,4.00e-02,
5,0.00e+00,0.00e+00,
6,1.20e-03,2.00e-02,
7,0.00e+00,4.00e-02,
8,1.20e-03,4.00e-02,
9,0.00e+00,0.00e+00,
10,1.20e-03,4.00e-02,
11,4.00e-04,0.00e+00,
12,2.00e-03,4.00e-02,
13,4.00e-04,2.00e-02,
14,0.00e+00,4.00e-02,
15,1.20e-03,0.00e+00,
16,4.00e-04,4.00e-02,
17,1.20e-03,0.00e+00,
18,1.20e-03,4.00e-02,
19,0.00e+00,2.00e-02,
20,4.00e-04,0.00e+00,
21,1.20e-03,4.00e-02,
22,1.20e-03,4.00e-02,
23,0.00e+00,2.00e-02,
24,0.00e+00,4.00e-02,
25,1.20e-03,0.00e+00,
26,-4.00e-04,4.00e-02,
27,1.20e-03,0.00e+00,
28,1.20e-03,4.00e-02,
29,0.00e+00,2.00e-02,
30,0.00e+00,4.00e-02,
31,1.20e-03,0.00e+00,
32,1.20e-03,4.00e-02,
33,0.00e+00,0.00e+00,
34,4.00e-04,4.00e-02,
35,1.20e-03,0.00e+00,
36,1.20e-03,4.00e-02,
37,0.00e+00,0.00e+00,
38,0.00e+00,4.00e-02,
39,1.20e-03,2.00e-02,
40,4.00e-04,2.00e-02,
41,1.20e-03,4.00e-02,
42,1.20e-03,4.00e-02,
43,0.00e+00,0.00e+00,
44,1.20e-03,4.00e-02,
45,0.00e+00,0.00e+00,
46,4.00e-04,4.00e-02,
47,1.20e-03,0.00e+00,
48,0.00e+00,4.00e-02,
49,1.20e-03,0.00e+00,
50,-8.00e-04,4.00e-02,
51,1.20e-03,2.00e-02,
52,8.00e-04,4.00e-02,
53,-4.00e-04,0.00e+00,
54,0.00e+00,2.00e-02,
55,5.60e-03,1.64e+00,
56,5.20e-03,1.60e-01,
57,-2.96e-02,8.00e-02,
58,1.68e-02,1.20e-01,
59,-1.56e-02,8.00e-02,
60,8.00e-03,1.00e-01,
61,-8.40e-03,6.00e-02,
62,4.00e-03,1.00e-01,
63,-2.40e-03,6.00e-02,
64,-2.80e-03,6.00e-02,
65,2.80e-03,1.00e-01,
66,3.20e-03,6.00e-02,
67,-1.60e-03,8.00e-02,
68,-1.20e-03,8.00e-02,
69,2.40e-03,6.00e-02,
70,2.40e-03,6.00e-02,
71,-1.20e-03,8.00e-02,
72,2.00e-03,8.00e-02,
73,-1.20e-03,6.00e-02,
74,8.00e-04,6.00e-02,
75,7.60e-03,1.90e+00,
76,6.40e-03,1.60e-01,
77,-8.40e-03,1.20e-01,
78,-8.40e-03,1.20e-01,
79,6.80e-03,8.00e-02,
80,4.40e-03,1.00e-01,
81,-1.60e-03,6.00e-02,
82,-8.00e-04,1.00e-01,
83,2.00e-03,6.00e-02,
84,-1.20e-03,6.00e-02,
85,2.40e-03,1.00e-01,
86,2.00e-03,6.00e-02,
87,-1.20e-03,8.00e-02,
88,-3.60e-03,8.00e-02,
89,6.80e-03,6.00e-02,
90,1.00e-02,6.00e-02,
91,-1.04e-02,8.00e-02,
92,-1.60e-02,6.00e-02,
93,2.24e-02,8.00e-02,
94,-2.24e-02,6.00e-02,
95,2.48e-02,8.00e-02,
96,-2.08e-02,8.00e-02,
97,2.04e-02,2.00e-02,
98,1.28e-02,6.00e-02,
99,-1.00e-02,8.00e-02,
100,-6.00e-03,8.00e-02,
101,5.60e-03,2.00e-02,
102,3.60e-03,8.00e-02,
103,-1.20e-03,2.00e-02,
104,-1.20e-03,2.00e-02,
105,2.40e-03,8.00e-02,
106,2.40e-03,2.00e-02,
107,-8.00e-04,8.00e-02,
108,-8.00e-04,2.00e-02,
109,2.40e-03,8.00e-02,
110,-8.00e-04,2.00e-02,
111,1.60e-03,8.00e-02,
112,2.00e-03,2.00e-02,
113,0.00e+00,8.00e-02,
114,4.00e-04,2.00e-02,
115,7.20e-03,1.98e+00,
116,6.80e-03,1.60e-01,
117,8.00e-04,1.00e-01,
118,3.60e-03,1.40e-01,
119,0.00e+00,8.00e-02,
120,-8.00e-04,1.00e-01,
121,2.00e-03,6.00e-02,
122,2.40e-03,1.00e-01,
123,-8.00e-04,6.00e-02,
124,-4.00e-04,6.00e-02,
125,1.60e-03,1.00e-01,
126,2.40e-03,8.00e-02,
127,-1.60e-03,6.00e-02,
128,-4.00e-03,6.00e-02,
129,5.20e-03,8.00e-02,
130,8.40e-03,6.00e-02,
131,-6.40e-03,8.00e-02,
132,1.36e-02,6.00e-02,
133,-1.44e-02,8.00e-02,
134,-1.76e-02,8.00e-02,
135,1.88e-02,2.00e-02,
136,-1.44e-02,8.00e-02,
137,1.36e-02,4.00e-02,
138,8.00e-03,8.00e-02,
139,-6.00e-03,4.00e-02,
140,-3.60e-03,8.00e-02,
141,4.00e-03,4.00e-02,
142,2.40e-03,8.00e-02,
143,-1.20e-03,2.00e-02,
144,2.00e-03,8.00e-02,
145,-1.20e-03,2.00e-02,
146,2.40e-03,8.00e-02,
147,-4.00e-04,2.00e-02,
148,0.00e+00,2.00e-02,
149,2.80e-03,8.00e-02,
150,3.20e-03,2.00e-02,
151,-2.40e-03,8.00e-02,
152,-4.40e-03,8.00e-02,
153,4.80e-03,2.00e-02,
154,1.60e-03,2.00e+00,
155,7.20e-03,-6.00e-02,
156,6.40e-03,1.60e-01,
157,4.00e-04,1.00e-01,
158,2.80e-03,1.40e-01,
159,0.00e+00,8.00e-02,
160,1.60e-03,1.00e-01,
161,0.00e+00,6.00e-02,
162,2.40e-03,1.00e-01,
163,0.00e+00,6.00e-02,
164,-8.00e-04,6.00e-02,
165,2.00e-03,1.00e-01,
166,-8.00e-04,6.00e-02,
167,2.40e-03,8.00e-02,
168,3.60e-03,6.00e-02,
169,-3.60e-03,8.00e-02,
170,-5.60e-03,8.00e-02,
171,8.00e-03,6.00e-02,
172,1.28e-02,6.00e-02,
173,-1.44e-02,8.00e-02,
174,1.80e-02,6.00e-02,
175,-1.68e-02,8.00e-02,
176,-1.40e-02,8.00e-02,
177,1.32e-02,6.00e-02,
178,9.20e-03,8.00e-02,
179,-6.00e-03,2.00e-02,
180,-4.00e-03,8.00e-02,
181,4.00e-03,2.00e-02,
182,2.00e-03,8.00e-02,
183,-1.60e-03,2.00e-02,
184,2.00e-03,8.00e-02,
185,-1.20e-03,2.00e-02,
186,2.00e-03,8.00e-02,
187,-8.00e-04,2.00e-02,
188,-8.00e-04,2.00e-02,
189,2.40e-03,8.00e-02,
190,2.40e-03,2.00e-02,
191,-1.20e-03,8.00e-02,
192,-3.60e-03,2.00e-02,
193,5.20e-03,8.00e-02,
194,3.20e-03,2.00e-02,
195,8.00e-03,1.88e+00,
196,6.80e-03,1.60e-01,
197,-1.20e-03,8.00e-02,
198,-1.20e-03,1.20e-01,
199,2.80e-03,8.00e-02,
200,2.40e-03,8.00e-02,
201,0.00e+00,1.00e-01,
202,0.00e+00,1.00e-01,
203,2.40e-03,6.00e-02,
204,2.40e-03,6.00e-02,
205,-1.20e-03,8.00e-02,
206,2.40e-03,6.00e-02,
207,-8.00e-04,8.00e-02,
208,3.60e-03,8.00e-02,
209,-2.00e-03,6.00e-02,
210,-4.40e-03,6.00e-02,
211,6.40e-03,8.00e-02,
212,8.40e-03,6.00e-02,
213,-9.60e-03,8.00e-02,
214,-1.48e-02,6.00e-02,
215,1.52e-02,8.00e-02,
216,-1.32e-02,6.00e-02,
217,1.24e-02,8.00e-02,
218,8.00e-03,8.00e-02,
219,-5.20e-03,6.00e-02,
220,-2.80e-03,8.00e-02,
221,4.00e-03,2.00e-02,
222,2.40e-03,8.00e-02,
223,0.00e+00,2.00e-02,
224,0.00e+00,8.00e-02,
225,2.00e-03,2.00e-02,
226,1.60e-03,8.00e-02,
227,0.00e+00,2.00e-02,
228,-4.00e-04,2.00e-02,
229,1.60e-03,8.00e-02,
230,2.00e-03,8.00e-02,
231,-8.00e-04,2.00e-02,
232,-1.60e-03,2.00e-02,
233,3.60e-03,8.00e-02,
234,2.80e-03,1.84e+00,
235,7.20e-03,0.00e+00,
236,6.80e-03,1.60e-01,
237,-4.00e-04,1.00e-01,
238,2.80e-03,1.20e-01,
239,-4.00e-04,8.00e-02,
240,2.00e-03,1.00e-01,
241,4.00e-04,6.00e-02,
242,2.00e-03,1.00e-01,
243,-8.00e-04,6.00e-02,
244,-8.00e-04,6.00e-02,
245,1.60e-03,1.00e-01,
246,0.00e+00,6.00e-02,
247,2.40e-03,8.00e-02,
248,-2.80e-03,8.00e-02,
249,4.40e-03,6.00e-02,
250,8.00e-03,8.00e-02,
251,-5.20e-03,6.00e-02,
252,1.00e-02,6.00e-02,
253,-1.12e-02,8.00e-02,
254,-1.44e-02,8.00e-02,
255,1.64e-02,2.00e-02,
256,-1.32e-02,8.00e-02,
257,1.08e-02,4.00e-02,
258,6.80e-03,2.00e-02,
259,-4.00e-03,8.00e-02,
260,-2.80e-03,8.00e-02,
261,3.20e-03,2.00e-02,
262,-8.00e-04,8.00e-02,
263,2.00e-03,2.00e-02,
264,-1.20e-03,2.00e-02,
265,2.00e-03,8.00e-02,
266,-8.00e-04,8.00e-02,
267,2.40e-03,2.00e-02,
268,-4.00e-04,2.00e-02,
269,2.00e-03,8.00e-02,
270,1.60e-03,2.00e-02,
271,-1.20e-03,8.00e-02,
272,-1.60e-03,8.00e-02,
273,4.40e-03,2.00e-02,
274,3.20e-03,1.94e+00,
275,7.60e-03,-4.00e-02,
276,6.80e-03,1.60e-01,
277,4.00e-04,1.00e-01,
278,3.60e-03,1.20e-01,
279,0.00e+00,8.00e-02,
280,0.00e+00,1.00e-01,
281,1.60e-03,6.00e-02,
282,0.00e+00,1.00e-01,
283,2.00e-03,6.00e-02,
284,2.00e-03,6.00e-02,
285,-8.00e-04,8.00e-02,
286,2.00e-03,6.00e-02,
287,-8.00e-04,8.00e-02,
288,-1.60e-03,6.00e-02,
289,2.80e-03,8.00e-02,
290,-3.20e-03,6.00e-02,
291,6.00e-03,8.00e-02,
292,9.60e-03,8.00e-02,
293,-9.20e-03,6.00e-02,
294,1.36e-02,6.00e-02,
295,-1.40e-02,8.00e-02,
296,-1.04e-02,8.00e-02,
297,9.60e-03,4.00e-02,
298,7.60e-03,8.00e-02,
299,-4.00e-03,2.00e-02,
300,-2.80e-03,8.00e-02,
301,2.80e-03,2.00e-02,
302,2.40e-03,8.00e-02,
303,-1.20e-03,2.00e-02,
304,-8.00e-04,8.00e-02,
305,2.00e-03,2.00e-02,
306,2.40e-03,8.00e-02,
307,-8.00e-04,2.00e-02,
308,-1.20e-03,2.00e-02,
309,1.20e-03,8.00e-02,
310,2.40e-03,2.00e-02,
311,-8.00e-04,8.00e-02,
312,-2.40e-03,2.00e-02,
313,4.00e-03,8.00e-02,
314,2.80e-03,2.00e-02,
315,7.20e-03,1.78e+00,
316,6.80e-03,1.60e-01,
317,0.00e+00,8.00e-02,
318,2.80e-03,8.00e-02,
319,-8.00e-04,1.40e-01,
320,0.00e+00,1.00e-01,
321,2.40e-03,6.00e-02,
322,2.40e-03,1.00e-01,
323,-8.00e-04,6.00e-02,
324,-1.20e-03,8.00e-02,
325,2.40e-03,6.00e-02,
326,-1.20e-03,6.00e-02,
327,2.40e-03,8.00e-02,
328,2.80e-03,6.00e-02,
329,-1.60e-03,8.00e-02,
330,-4.00e-03,6.00e-02,
331,5.60e-03,8.00e-02,
332,8.00e-03,8.00e-02,
333,-8.80e-03,6.00e-02,
334,-1.24e-02,8.00e-02,
335,1.36e-02,4.00e-02,
336,-1.12e-02,8.00e-02,
337,9.60e-03,2.00e-02,
338,6.80e-03,8.00e-02,
339,-4.40e-03,2.00e-02,
340,-2.80e-03,8.00e-02,
341,3.60e-03,2.00e-02,
342,2.40e-03,8.00e-02,
343,-8.00e-04,2.00e-02,
344,0.00e+00,8.00e-02,
345,2.00e-03,2.00e-02,
346,1.60e-03,2.00e-02,
347,-8.00e-04,8.00e-02,
348,-4.00e-04,2.00e-02,
349,1.60e-03,8.00e-02,
350,2.40e-03,8.00e-02,
351,-1.20e-03,2.00e-02,
352,-2.40e-03,8.00e-02,
353,4.40e-03,2.00e-02,
354,3.60e-03,2.00e-02,
355,7.20e-03,1.88e+00,
356,6.80e-03,1.60e-01,
357,0.00e+00,8.00e-02,
358,3.20e-03,1.20e-01,
359,-4.00e-04,8.00e-02,
360,1.20e-03,1.00e-01,
361,-8.00e-04,6.00e-02,
362,-1.20e-03,1.00e-01,
363,2.00e-03,6.00e-02,
364,-8.00e-04,8.00e-02,
365,2.40e-03,6.00e-02,
366,2.00e-03,6.00e-02,
367,-8.00e-04,8.00e-02,
368,-1.60e-03,6.00e-02,
369,3.20e-03,8.00e-02,
370,-4.00e-03,6.00e-02,
371,6.40e-03,8.00e-02,
372,8.40e-03,6.00e-02,
373,-8.80e-03,8.00e-02,
374,-1.16e-02,6.00e-02,
375,1.28e-02,8.00e-02,
376,-1.12e-02,8.00e-02,
377,9.20e-03,2.00e-02,
378,5.60e-03,8.00e-02,
379,-3.20e-03,2.00e-02,
380,-1.60e-03,8.00e-02,
381,2.80e-03,2.00e-02,
382,1.60e-03,8.00e-02,
383,-8.00e-04,2.00e-02,
384,1.60e-03,8.00e-02,
385,-8.00e-04,2.00e-02,
386,-8.00e-04,8.00e-02,
387,1.60e-03,2.00e-02,
388,0.00e+00,2.00e-02,
389,1.20e-03,8.00e-02,
390,2.40e-03,6.00e-02,
391,-8.00e-04,2.00e-02,
392,-1.60e-03,2.00e-02,
393,4.40e-03,6.00e-02,
394,4.00e-03,1.84e+00,
395,8.00e-03,-2.00e-02,
396,6.80e-03,1.60e-01,
397,4.00e-04,8.00e-02,
398,2.80e-03,1.20e-01,
399,-8.00e-04,8.00e-02,
400,0.00e+00,1.00e-01,
401,2.00e-03,6.00e-02,
402,-4.00e-04,1.00e-01,
403,2.40e-03,6.00e-02,
404,2.40e-03,6.00e-02,
405,0.00e+00,8.00e-02,
406,0.00e+00,6.00e-02,
407,2.40e-03,8.00e-02,
408,-1.60e-03,6.00e-02,
409,2.40e-03,8.00e-02,
410,-2.80e-03,6.00e-02,
411,5.60e-03,8.00e-02,
412,7.20e-03,8.00e-02,
413,-8.40e-03,6.00e-02,
414,-1.04e-02,6.00e-02,
415,1.24e-02,8.00e-02,
416,-8.40e-03,8.00e-02,
417,9.20e-03,4.00e-02,
418,6.00e-03,8.00e-02,
419,-3.60e-03,2.00e-02,
420,-2.40e-03,2.00e-02,
421,3.60e-03,8.00e-02,
422,2.00e-03,2.00e-02,
423,-1.20e-03,8.00e-02,
424,-8.00e-04,8.00e-02,
425,1.60e-03,2.00e-02,
426,2.00e-03,2.00e-02,
427,-8.00e-04,8.00e-02,
428,-8.00e-04,2.00e-02,
429,2.00e-03,8.00e-02,
430,2.00e-03,6.00e-02,
431,-1.60e-03,2.00e-02,
432,-2.80e-03,4.00e-02,
433,2.80e-03,2.00e-02,
434,2.80e-03,2.00e-02,
435,7.20e-03,1.88e+00,
436,6.80e-03,1.60e-01,
437,1.20e-03,8.00e-02,
438,4.00e-03,1.20e-01,
439,-4.00e-04,8.00e-02,
440,2.40e-03,1.00e-01,
441,-4.00e-04,6.00e-02,
442,2.80e-03,1.00e-01,
443,4.00e-04,6.00e-02,
444,0.00e+00,8.00e-02,
445,2.40e-03,6.00e-02,
446,2.00e-03,6.00e-02,
447,-4.00e-04,8.00e-02,
448,-1.20e-03,6.00e-02,
449,2.80e-03,8.00e-02,
450,-2.80e-03,6.00e-02,
451,5.20e-03,8.00e-02,
452,7.20e-03,8.00e-02,
453,-8.00e-03,6.00e-02,
454,-1.08e-02,6.00e-02,
455,1.16e-02,8.00e-02,
456,-8.80e-03,8.00e-02,
457,8.80e-03,6.00e-02,
458,6.40e-03,8.00e-02,
459,-2.80e-03,4.00e-02,
460,-2.40e-03,8.00e-02,
461,2.80e-03,2.00e-02,
462,2.00e-03,2.00e-02,
463,-4.00e-04,8.00e-02,
464,-4.00e-04,2.00e-02,
465,2.00e-03,8.00e-02,
466,2.00e-03,8.00e-02,
467,-8.00e-04,2.00e-02,
468,-8.00e-04,8.00e-02,
469,2.00e-03,2.00e-02,
470,-8.00e-04,8.00e-02,
471,2.40e-03,2.00e-02,
472,3.20e-03,2.00e-02,
473,-2.40e-03,8.00e-02,
474,3.20e-03,2.00e+00,
475,7.60e-03,0.00e+00,
476,6.80e-03,1.60e-01,
477,4.00e-04,1.00e-01,
478,3.20e-03,1.20e-01,
479,-4.00e-04,8.00e-02,
480,1.60e-03,1.00e-01,
481,-8.00e-04,6.00e-02,
482,2.40e-03,6.00e-02,
483,-1.20e-03,1.00e-01,
484,-8.00e-04,1.00e-01,
485,2.00e-03,6.00e-02,
486,-8.00e-04,6.00e-02,
487,2.00e-03,8.00e-02,
488,2.80e-03,8.00e-02,
489,-2.00e-03,6.00e-02,
490,-4.00e-03,6.00e-02,
491,5.20e-03,8.00e-02,
492,8.00e-03,6.00e-02,
493,-7.20e-03,8.00e-02,
494,-8.00e-03,8.00e-02,
495,1.12e-02,2.00e-02,
496,-8.00e-03,8.00e-02,
497,8.00e-03,2.00e-02,
498,5.60e-03,8.00e-02,
499,-2.80e-03,2.00e-02,
500,-1.60e-03,8.00e-02,
501,2.80e-03,2.00e-02,
502,2.40e-03,8.00e-02,
503,0.00e+00,2.00e-02,
504,-8.00e-04,2.00e-02,
505,2.00e-03,8.00e-02,
506,-1.20e-03,8.00e-02,
507,2.00e-03,2.00e-02,
508,-8.00e-04,2.00e-02,
509,1.60e-03,8.00e-02,
510,2.00e-03,8.00e-02,
511,-8.00e-04,2.00e-02,
512,-1.60e-03,2.00e-02,
513,4.00e-03,6.00e-02,
514,4.00e-03,1.90e+00,
515,7.60e-03,-2.00e-02,
516,6.80e-03,1.60e-01,
517,4.00e-04,8.00e-02,
518,4.00e-03,1.20e-01,
519,0.00e+00,8.00e-02,
520,2.40e-03,1.00e-01,
521,-4.00e-04,6.00e-02,
522,2.40e-03,6.00e-02,
523,-8.00e-04,1.00e-01,
524,-8.00e-04,6.00e-02,
525,2.80e-03,8.00e-02,
526,2.00e-03,6.00e-02,
527,-1.20e-03,8.00e-02,
528,2.40e-03,6.00e-02,
529,-1.60e-03,8.00e-02,
530,-2.80e-03,6.00e-02,
531,4.80e-03,8.00e-02,
532,6.80e-03,8.00e-02,
533,-7.20e-03,6.00e-02,
534,-1.00e-02,8.00e-02,
535,1.00e-02,2.00e-02,
536,-8.00e-03,8.00e-02,
537,7.20e-03,4.00e-02,
538,5.20e-03,2.00e-02,
539,-2.80e-03,8.00e-02,
540,-1.60e-03,8.00e-02,
541,2.80e-03,2.00e-02,
542,2.40e-03,2.00e-02,
543,0.00e+00,8.00e-02,
544,2.40e-03,2.00e-02,
545,-8.00e-04,8.00e-02,
546,-8.00e-04,2.00e-02,
547,2.40e-03,8.00e-02,
548,2.40e-03,2.00e-02,
549,-8.00e-04,8.00e-02,
550,2.00e-03,6.00e-02,
551,-1.20e-03,2.00e-02,
552,-2.80e-03,2.00e-02,
553,4.00e-03,6.00e-02,
554,4.00e-03,2.00e-02,
555,8.00e-03,1.92e+00,
556,6.80e-03,1.60e-01,
557,8.00e-04,8.00e-02,
558,4.00e-03,8.00e-02,
559,-1.20e-03,1.20e-01,
560,2.00e-03,1.00e-01,
561,-1.20e-03,6.00e-02,
562,2.80e-03,1.00e-01,
563,-4.00e-04,6.00e-02,
564,-8.00e-04,6.00e-02,
565,2.40e-03,8.00e-02,
566,2.00e-03,6.00e-02,
567,0.00e+00,8.00e-02,
568,2.40e-03,6.00e-02,
569,-1.60e-03,8.00e-02,
570,-2.40e-03,8.00e-02,
571,4.40e-03,6.00e-02,
572,6.40e-03,8.00e-02,
573,-6.00e-03,4.00e-02,
574,-8.80e-03,8.00e-02,
575,8.80e-03,6.00e-02,
576,-7.20e-03,8.00e-02,
577,7.60e-03,4.00e-02,
578,5.20e-03,8.00e-02,
579,-2.80e-03,4.00e-02,
580,-2.40e-03,2.00e-02,
581,2.40e-03,8.00e-02,
582,1.60e-03,8.00e-02,
583,-8.00e-04,2.00e-02,
584,-1.20e-03,8.00e-02,
585,2.00e-03,2.00e-02,
586,-8.00e-04,8.00e-02,
587,1.60e-03,2.00e-02,
588,-8.00e-04,8.00e-02,
589,2.00e-03,2.00e-02,
590,2.00e-03,6.00e-02,
591,-1.20e-03,2.00e-02,
592,-2.80e-03,4.00e-02,
593,4.00e-03,2.00e-02,
594,4.00e-03,2.00e-02,
595,7.20e-03,1.80e+00,
596,6.80e-03,1.60e-01,
597,4.00e-04,8.00e-02,
598,4.00e-03,1.20e-01,
599,-1.60e-03,8.00e-02,
600,2.00e-03,1.00e-01,
601,-4.00e-04,6.00e-02,
602,2.40e-03,1.00e-01,
603,-8.00e-04,6.00e-02,
604,-8.00e-04,6.00e-02,
605,1.60e-03,8.00e-02,
606,1.60e-03,6.00e-02,
607,-4.00e-04,8.00e-02,
608,2.40e-03,6.00e-02,
609,-1.60e-03,8.00e-02,
610,-3.60e-03,6.00e-02,
611,4.80e-03,8.00e-02,
612,6.40e-03,8.00e-02,
613,-6.80e-03,6.00e-02,
614,-8.40e-03,6.00e-02,
615,9.60e-03,8.00e-02,
616,-7.20e-03,8.00e-02,
617,6.80e-03,2.00e-02,
618,4.80e-03,4.00e-02,
619,-2.80e-03,8.00e-02,
620,-1.60e-03,8.00e-02,
621,2.40e-03,2.00e-02,
622,2.00e-03,8.00e-02,
623,-8.00e-04,2.00e-02,
624,-8.00e-04,8.00e-02,
625,2.40e-03,2.00e-02,
626,2.40e-03,2.00e-02,
627,-8.00e-04,8.00e-02,
628,-8.00e-04,2.00e-02,
629,2.00e-03,6.00e-02,
630,2.40e-03,2.00e-02,
631,-1.20e-03,8.00e-02,
632,-2.80e-03,4.00e-02,
633,4.00e-03,2.00e-02,
634,4.00e-03,2.00e+00,
635,8.00e-03,-4.00e-02,
636,6.80e-03,1.60e-01,
637,4.00e-04,8.00e-02,
638,4.00e-03,1.20e-01,
639,-8.00e-04,8.00e-02,
640,2.00e-03,1.00e-01,
641,-8.00e-04,6.00e-02,
642,2.40e-03,6.00e-02,
643,-8.00e-04,1.00e-01,
644,-8.00e-04,6.00e-02,
645,2.00e-03,1.00e-01,
646,-8.00e-04,6.00e-02,
647,2.00e-03,8.00e-02,
648,2.40e-03,6.00e-02,
649,-1.20e-03,8.00e-02,
650,-2.40e-03,6.00e-02,
651,4.00e-03,8.00e-02,
652,6.40e-03,8.00e-02,
653,-6.00e-03,2.00e-02,
654,-8.40e-03,8.00e-02,
655,8.80e-03,4.00e-02,
656,-6.00e-03,8.00e-02,
657,6.40e-03,2.00e-02,
658,4.80e-03,8.00e-02,
659,-2.80e-03,2.00e-02,
660,-1.60e-03,8.00e-02,
661,2.80e-03,2.00e-02,
662,2.40e-03,2.00e-02,
663,0.00e+00,8.00e-02,
664,1.20e-03,2.00e-02,
665,-8.00e-04,8.00e-02,
666,2.00e-03,8.00e-02,
667,-8.00e-04,2.00e-02,
668,2.00e-03,8.00e-02,
669,-1.20e-03,2.00e-02,
670,-8.00e-04,2.00e-02,
671,2.40e-03,8.00e-02,
672,-2.40e-03,2.00e-02,
673,4.00e-03,8.00e-02,
674,4.00e-03,2.00e-02,
675,7.20e-03,1.92e+00,
676,6.80e-03,1.60e-01,
677,4.00e-04,1.20e-01,
678,4.00e-03,8.00e-02,
679,-8.00e-04,1.20e-01,
680,-8.00e-04,1.00e-01,
681,2.00e-03,8.00e-02,
682,2.40e-03,1.00e-01,
683,-8.00e-04,6.00e-02,
684,-4.00e-04,6.00e-02,
685,2.40e-03,8.00e-02,
686,2.00e-03,6.00e-02,
687,0.00e+00,8.00e-02,
688,-1.20e-03,6.00e-02,
689,2.00e-03,8.00e-02,
690,-2.00e-03,6.00e-02,
691,4.00e-03,8.00e-02,
692,4.80e-03,6.00e-02,
693,-4.80e-03,8.00e-02,
694,-7.20e-03,6.00e-02,
695,8.40e-03,8.00e-02,
696,-6.40e-03,8.00e-02,
697,6.40e-03,4.00e-02,
698,4.00e-03,8.00e-02,
699,-2.40e-03,4.00e-02,
700,-1.60e-03,8.00e-02,
701,2.40e-03,2.00e-02,
702,1.20e-03,8.00e-02,
703,-1.20e-03,2.00e-02,
704,-4.00e-04,8.00e-02,
705,1.60e-03,2.00e-02,
706,-8.00e-04,8.00e-02,
707,2.00e-03,2.00e-02,
708,1.20e-03,2.00e-02,
709,-1.20e-03,8.00e-02,
710,2.40e-03,2.00e-02,
711,-1.20e-03,8.00e-02,
712,-2.80e-03,2.00e-02,
713,3.60e-03,8.00e-02,
714,3.60e-03,1.92e+00,
715,7.60e-03,0.00e+00,
716,7.20e-03,1.60e-01,
717,4.00e-04,1.20e-01,
718,4.00e-03,8.00e-02,
719,-1.20e-03,1.40e-01,
720,-8.00e-04,1.00e-01,
721,2.40e-03,6.00e-02,
722,2.40e-03,1.00e-01,
723,-8.00e-04,6.00e-02,
724,-4.00e-04,6.00e-02,
725,2.40e-03,1.00e-01,
726,2.00e-03,6.00e-02,
727,-8.00e-04,8.00e-02,
728,2.40e-03,6.00e-02,
729,-1.60e-03,8.00e-02,
730,-2.40e-03,8.00e-02,
731,4.00e-03,6.00e-02,
732,5.20e-03,6.00e-02,
733,-5.60e-03,8.00e-02,
734,-7.20e-03,8.00e-02,
735,8.40e-03,6.00e-02,
736,-5.60e-03,8.00e-02,
737,6.40e-03,4.00e-02,
738,4.00e-03,8.00e-02,
739,-2.00e-03,2.00e-02,
740,-1.20e-03,4.00e-02,
741,2.00e-03,8.00e-02,
742,1.60e-03,8.00e-02,
743,-8.00e-04,2.00e-02,
744,-8.00e-04,2.00e-02,
745,1.60e-03,8.00e-02,
746,2.40e-03,2.00e-02,
747,-8.00e-04,8.00e-02,
748,-8.00e-04,2.00e-02,
749,2.40e-03,8.00e-02,
750,-8.00e-04,8.00e-02,
751,2.80e-03,2.00e-02,
752,3.20e-03,2.00e-02,
753,-3.20e-03,8.00e-02,
754,3.20e-03,2.00e-02,
755,7.60e-03,1.98e+00,
756,6.80e-03,1.60e-01,
757,8.00e-04,8.00e-02,
758,4.80e-03,1.20e-01,
759,-8.00e-04,8.00e-02,
760,-8.00e-04,1.00e-01,
761,2.40e-03,6.00e-02,
762,2.40e-03,1.00e-01,
763,-8.00e-04,6.00e-02,
764,2.00e-03,6.00e-02,
765,-8.00e-04,1.00e-01,
766,1.20e-03,6.00e-02,
767,-8.00e-04,8.00e-02,
768,2.00e-03,6.00e-02,
769,-8.00e-04,8.00e-02,
770,-1.20e-03,8.00e-02,
771,3.60e-03,6.00e-02,
772,5.20e-03,8.00e-02,
773,-4.40e-03,6.00e-02,
774,-6.00e-03,6.00e-02,
775,8.00e-03,8.00e-02,
776,-5.20e-03,6.00e-02,
777,5.60e-03,8.00e-02,
778,4.00e-03,8.00e-02,
779,-2.40e-03,4.00e-02,
780,-1.20e-03,2.00e-02,
781,2.40e-03,8.00e-02,
782,0.00e+00,8.00e-02,
783,2.40e-03,2.00e-02,
784,-8.00e-04,2.00e-02,
785,2.00e-03,8.00e-02,
786,0.00e+00,2.00e-02,
787,2.80e-03,8.00e-02,
788,0.00e+00,2.00e-02,
789,2.40e-03,8.00e-02,
790,-8.00e-04,2.00e-02,
791,2.80e-03,8.00e-02,
792,4.00e-03,2.00e-02,
793,-3.60e-03,8.00e-02,
794,3.60e-03,2.00e-02,
795,8.00e-03,1.78e+00,
796,7.60e-03,1.60e-01,
797,4.00e-04,1.20e-01,
798,4.40e-03,1.40e-01,
799,-1.20e-03,8.00e-02,
800,-1.20e-03,1.00e-01,
801,2.80e-03,6.00e-02,
802,2.40e-03,1.00e-01,
803,-8.00e-04,6.00e-02,
804,-8.00e-04,6.00e-02,
805,2.00e-03,1.00e-01,
806,-4.00e-04,8.00e-02,
807,2.40e-03,6.00e-02,
808,-8.00e-04,8.00e-02,
809,2.40e-03,6.00e-02,
810,-1.60e-03,6.00e-02,
811,3.60e-03,8.00e-02,
812,5.20e-03,6.00e-02,
813,-4.40e-03,8.00e-02,
814,7.60e-03,6.00e-02,
815,-5.60e-03,8.00e-02,
816,-4.40e-03,8.00e-02,
817,5.20e-03,4.00e-02,
818,4.00e-03,8.00e-02,
819,-2.40e-03,2.00e-02,
820,-1.20e-03,8.00e-02,
821,2.00e-03,2.00e-02,
822,-8.00e-04,8.00e-02,
823,2.00e-03,2.00e-02,
824,-4.00e-04,8.00e-02,
825,2.00e-03,2.00e-02,
826,2.00e-03,2.00e-02,
827,-8.00e-04,8.00e-02,
828,-1.20e-03,2.00e-02,
829,2.00e-03,8.00e-02,
830,2.40e-03,8.00e-02,
831,-1.60e-03,2.00e-02,
832,3.60e-03,8.00e-02,
833,-2.80e-03,2.00e-02,
834,3.60e-03,2.00e-02,
835,7.20e-03,1.94e+00,
836,6.80e-03,1.60e-01,
837,4.00e-04,1.20e-01,
838,4.80e-03,8.00e-02,
839,-1.20e-03,1.40e-01,
840,-1.20e-03,1.00e-01,
841,2.00e-03,6.00e-02,
842,2.40e-03,1.00e-01,
843,-8.00e-04,6.00e-02,
844,-8.00e-04,6.00e-02,
845,2.00e-03,1.00e-01,
846,-8.00e-04,8.00e-02,
847,2.40e-03,6.00e-02,
848,2.40e-03,6.00e-02,
849,-1.20e-03,8.00e-02,
850,4.00e-03,6.00e-02,
851,-1.60e-03,8.00e-02,
852,4.40e-03,6.00e-02,
853,-5.20e-03,8.00e-02,
854,-4.80e-03,8.00e-02,
855,6.80e-03,6.00e-02,
