CarrPurc_P1-19_P2-38_tauVary/Gly88/NewFile4.csv

X,CH1,CH2,Start,Increment,
Sequence,Volt,Volt,-5.000000e-03,1.000000e-04
0,0.00e+00,4.00e-02,
1,1.20e-03,2.00e-02,
2,8.00e-04,4.00e-02,
3,0.00e+00,0.00e+00,
4,0.00e+00,4.00e-02,
5,8.00e-04,0.00e+00,
6,0.00e+00,4.00e-02,
7,1.20e-03,0.00e+00,
8,1.20e-03,4.00e-02,
9,0.00e+00,0.00e+00,
10,1.20e-03,4.00e-02,
11,0.00e+00,0.00e+00,
12,0.00e+00,4.00e-02,
13,1.20e-03,0.00e+00,
14,0.00e+00,4.00e-02,
15,1.20e-03,0.00e+00,
16,1.20e-03,4.00e-02,
17,0.00e+00,0.00e+00,
18,1.20e-03,4.00e-02,
19,4.00e-04,0.00e+00,
20,4.00e-04,4.00e-02,
21,1.20e-03,0.00e+00,
22,0.00e+00,4.00e-02,
23,1.20e-03,0.00e+00,
24,0.00e+00,4.00e-02,
25,1.20e-03,0.00e+00,
26,1.60e-03,4.00e-02,
27,4.00e-04,0.00e+00,
28,0.00e+00,0.00e+00,
29,1.20e-03,4.00e-02,
30,-4.00e-04,0.00e+00,
31,1.20e-03,4.00e-02,
32,1.20e-03,4.00e-02,
33,0.00e+00,0.00e+00,
34,0.00e+00,4.00e-02,
35,1.20e-03,0.00e+00,
36,1.20e-03,4.00e-02,
37,4.00e-04,0.00e+00,
38,1.20e-03,4.00e-02,
39,0.00e+00,0.00e+00,
40,2.00e-03,0.00e+00,
41,4.00e-04,4.00e-02,
42,1.20e-03,4.00e-02,
43,0.00e+00,0.00e+00,
44,1.20e-03,4.00e-02,
45,0.00e+00,0.00e+00,
46,8.00e-04,4.00e-02,
47,0.00e+00,0.00e+00,
48,1.20e-03,4.00e-02,
49,0.00e+00,0.00e+00,
50,1.20e-03,4.00e-02,
51,0.00e+00,0.00e+00,
52,0.00e+00,4.00e-02,
53,1.20e-03,0.00e+00,
54,4.00e-04,1.82e+00,
55,5.60e-03,-6.00e-02,
56,5.60e-03,1.60e-01,
57,-2.76e-02,8.00e-02,
58,1.44e-02,1.20e-01,
59,-1.48e-02,8.00e-02,
60,-8.00e-03,1.00e-01,
61,6.40e-03,6.00e-02,
62,-2.40e-03,6.00e-02,
63,5.20e-03,1.00e-01,
64,-1.60e-03,6.00e-02,
65,3.60e-03,8.00e-02,
66,2.80e-03,6.00e-02,
67,-1.60e-03,8.00e-02,
68,-1.20e-03,8.00e-02,
69,2.40e-03,6.00e-02,
70,2.40e-03,6.00e-02,
71,-8.00e-04,8.00e-02,
72,-4.00e-04,8.00e-02,
73,2.40e-03,6.00e-02,
74,8.00e-04,1.98e+00,
75,7.60e-03,2.00e-02,
76,6.80e-03,1.60e-01,
77,-6.40e-03,8.00e-02,
78,-6.40e-03,1.20e-01,
79,6.80e-03,8.00e-02,
80,4.00e-03,1.00e-01,
81,-1.20e-03,8.00e-02,
82,-4.00e-04,1.00e-01,
83,2.80e-03,6.00e-02,
84,2.00e-03,8.00e-02,
85,-8.00e-04,6.00e-02,
86,1.60e-03,6.00e-02,
87,-1.20e-03,8.00e-02,
88,-2.80e-03,8.00e-02,
89,5.60e-03,6.00e-02,
90,9.60e-03,6.00e-02,
91,-1.00e-02,8.00e-02,
92,-1.52e-02,6.00e-02,
93,1.88e-02,8.00e-02,
94,-2.20e-02,6.00e-02,
95,2.28e-02,8.00e-02,
96,-1.84e-02,8.00e-02,
97,1.96e-02,4.00e-02,
98,1.32e-02,4.00e-02,
99,-8.80e-03,8.00e-02,
100,-5.60e-03,8.00e-02,
101,5.20e-03,2.00e-02,
102,3.20e-03,8.00e-02,
103,-1.20e-03,2.00e-02,
104,-8.00e-04,8.00e-02,
105,2.40e-03,2.00e-02,
106,-1.20e-03,2.00e-02,
107,2.40e-03,8.00e-02,
108,2.40e-03,8.00e-02,
109,-8.00e-04,2.00e-02,
110,-8.00e-04,2.00e-02,
111,2.00e-03,8.00e-02,
112,4.00e-04,8.00e-02,
113,2.00e-03,2.00e-02,
114,8.00e-04,2.00e-02,
115,7.20e-03,1.80e+00,
116,6.80e-03,1.60e-01,
117,1.20e-03,1.00e-01,
118,2.80e-03,1.40e-01,
119,4.00e-04,8.00e-02,
120,0.00e+00,1.00e-01,
121,2.00e-03,6.00e-02,
122,-8.00e-04,6.00e-02,
123,2.80e-03,1.00e-01,
124,1.20e-03,6.00e-02,
125,0.00e+00,8.00e-02,
126,2.80e-03,8.00e-02,
127,-1.60e-03,6.00e-02,
128,-3.20e-03,6.00e-02,
129,4.80e-03,8.00e-02,
130,-6.40e-03,6.00e-02,
131,8.00e-03,8.00e-02,
132,1.24e-02,8.00e-02,
133,-1.44e-02,2.00e-02,
134,-1.76e-02,6.00e-02,
135,1.80e-02,8.00e-02,
136,-1.48e-02,8.00e-02,
137,1.28e-02,2.00e-02,
138,8.40e-03,8.00e-02,
139,-5.60e-03,2.00e-02,
140,-3.60e-03,8.00e-02,
141,4.00e-03,2.00e-02,
142,2.40e-03,2.00e-02,
143,-1.20e-03,8.00e-02,
144,-1.20e-03,8.00e-02,
145,2.00e-03,2.00e-02,
146,2.40e-03,8.00e-02,
147,-8.00e-04,2.00e-02,
148,-8.00e-04,2.00e-02,
149,2.00e-03,8.00e-02,
150,2.80e-03,2.00e-02,
151,-2.40e-03,8.00e-02,
152,-3.60e-03,2.00e-02,
153,4.80e-03,8.00e-02,
154,2.00e-03,2.00e-02,
155,7.20e-03,1.84e+00,
156,6.80e-03,1.60e-01,
157,4.00e-04,8.00e-02,
158,2.80e-03,1.20e-01,
159,0.00e+00,8.00e-02,
160,0.00e+00,1.00e-01,
161,2.00e-03,6.00e-02,
162,2.00e-03,6.00e-02,
163,-1.20e-03,1.00e-01,
164,-8.00e-04,6.00e-02,
165,2.40e-03,8.00e-02,
166,-8.00e-04,6.00e-02,
167,2.80e-03,8.00e-02,
168,4.00e-03,6.00e-02,
169,-3.20e-03,8.00e-02,
170,-4.80e-03,8.00e-02,
171,8.00e-03,6.00e-02,
172,1.20e-02,6.00e-02,
173,-1.40e-02,8.00e-02,
174,1.80e-02,4.00e-02,
175,-1.64e-02,8.00e-02,
176,-1.40e-02,8.00e-02,
177,1.12e-02,4.00e-02,
178,8.40e-03,8.00e-02,
179,-6.80e-03,2.00e-02,
180,-3.60e-03,8.00e-02,
181,4.00e-03,2.00e-02,
182,-4.00e-04,8.00e-02,
183,2.40e-03,2.00e-02,
184,-8.00e-04,8.00e-02,
185,2.40e-03,2.00e-02,
186,2.40e-03,2.00e-02,
187,-4.00e-04,8.00e-02,
188,0.00e+00,8.00e-02,
189,2.00e-03,2.00e-02,
190,2.40e-03,2.00e-02,
191,-1.60e-03,8.00e-02,
192,-2.80e-03,2.00e-02,
193,5.60e-03,8.00e-02,
194,3.60e-03,2.00e-02,
195,8.00e-03,1.94e+00,
196,6.80e-03,1.60e-01,
197,-8.00e-04,8.00e-02,
198,-8.00e-04,8.00e-02,
199,4.00e-03,1.40e-01,
200,2.00e-03,8.00e-02,
201,0.00e+00,1.00e-01,
202,-8.00e-04,1.00e-01,
203,2.40e-03,6.00e-02,
204,-1.20e-03,1.00e-01,
205,2.80e-03,6.00e-02,
206,-8.00e-04,6.00e-02,
207,2.40e-03,8.00e-02,
208,-1.60e-03,8.00e-02,
209,4.00e-03,6.00e-02,
210,6.80e-03,6.00e-02,
211,-4.00e-03,8.00e-02,
212,8.40e-03,6.00e-02,
213,-9.20e-03,8.00e-02,
214,1.48e-02,8.00e-02,
215,-1.44e-02,2.00e-02,
216,-1.40e-02,8.00e-02,
217,1.16e-02,2.00e-02,
218,7.20e-03,8.00e-02,
219,-5.60e-03,2.00e-02,
220,-3.60e-03,8.00e-02,
221,4.00e-03,2.00e-02,
222,2.40e-03,2.00e-02,
223,-8.00e-04,8.00e-02,
224,-8.00e-04,8.00e-02,
225,2.00e-03,2.00e-02,
226,1.60e-03,8.00e-02,
227,-8.00e-04,2.00e-02,
228,-8.00e-04,2.00e-02,
229,2.00e-03,8.00e-02,
230,2.40e-03,2.00e-02,
231,-1.20e-03,8.00e-02,
232,-2.00e-03,2.00e-02,
233,4.00e-03,8.00e-02,
234,2.80e-03,2.00e-02,
235,7.60e-03,1.82e+00,
236,6.80e-03,1.60e-01,
237,0.00e+00,8.00e-02,
238,2.80e-03,1.40e-01,
239,-8.00e-04,8.00e-02,
240,2.00e-03,1.00e-01,
241,0.00e+00,6.00e-02,
242,2.00e-03,6.00e-02,
243,0.00e+00,1.00e-01,
244,-8.00e-04,6.00e-02,
245,1.60e-03,8.00e-02,
246,2.00e-03,6.00e-02,
247,-1.20e-03,8.00e-02,
248,4.00e-03,8.00e-02,
249,-1.60e-03,6.00e-02,
250,-4.40e-03,8.00e-02,
251,7.20e-03,6.00e-02,
252,9.60e-03,8.00e-02,
253,-1.04e-02,4.00e-02,
254,-1.36e-02,8.00e-02,
255,1.44e-02,4.00e-02,
256,-1.24e-02,8.00e-02,
257,1.00e-02,2.00e-02,
258,6.40e-03,2.00e-02,
259,-4.00e-03,8.00e-02,
260,-2.40e-03,8.00e-02,
261,2.80e-03,2.00e-02,
262,2.40e-03,8.00e-02,
263,-8.00e-04,2.00e-02,
264,-1.20e-03,2.00e-02,
265,2.40e-03,8.00e-02,
266,2.40e-03,2.00e-02,
267,-8.00e-04,8.00e-02,
268,-8.00e-04,2.00e-02,
269,2.00e-03,8.00e-02,
270,2.00e-03,2.00e-02,
271,-1.20e-03,8.00e-02,
272,-2.00e-03,8.00e-02,
273,4.00e-03,2.00e-02,
274,3.20e-03,2.00e-02,
275,7.60e-03,1.80e+00,
276,6.80e-03,1.60e-01,
277,4.00e-04,1.00e-01,
278,2.40e-03,1.20e-01,
279,0.00e+00,8.00e-02,
280,1.20e-03,1.00e-01,
281,-4.00e-04,6.00e-02,
282,0.00e+00,6.00e-02,
283,1.60e-03,1.00e-01,
284,1.20e-03,6.00e-02,
285,-8.00e-04,1.00e-01,
286,2.00e-03,6.00e-02,
287,-8.00e-04,8.00e-02,
288,-1.60e-03,6.00e-02,
289,2.40e-03,8.00e-02,
290,-4.40e-03,6.00e-02,
291,6.00e-03,8.00e-02,
292,9.60e-03,8.00e-02,
293,-1.00e-02,4.00e-02,
294,-1.28e-02,8.00e-02,
295,1.40e-02,4.00e-02,
296,-1.04e-02,8.00e-02,
297,9.60e-03,2.00e-02,
298,7.60e-03,8.00e-02,
299,-4.40e-03,2.00e-02,
300,-2.80e-03,8.00e-02,
301,4.00e-03,2.00e-02,
302,2.80e-03,2.00e-02,
303,-8.00e-04,8.00e-02,
304,-8.00e-04,8.00e-02,
305,2.00e-03,2.00e-02,
306,2.00e-03,2.00e-02,
307,-8.00e-04,8.00e-02,
308,0.00e+00,2.00e-02,
309,2.00e-03,8.00e-02,
310,2.00e-03,2.00e-02,
311,-1.60e-03,8.00e-02,
312,-2.40e-03,2.00e-02,
313,4.80e-03,6.00e-02,
314,3.60e-03,2.00e-02,
315,7.60e-03,1.90e+00,
316,6.80e-03,1.60e-01,
317,0.00e+00,8.00e-02,
318,3.60e-03,1.20e-01,
319,-8.00e-04,8.00e-02,
320,0.00e+00,1.00e-01,
321,2.00e-03,6.00e-02,
322,2.40e-03,1.00e-01,
323,-8.00e-04,6.00e-02,
324,-1.20e-03,8.00e-02,
325,2.40e-03,6.00e-02,
326,2.40e-03,6.00e-02,
327,-8.00e-04,8.00e-02,
328,2.40e-03,6.00e-02,
329,-1.60e-03,8.00e-02,
330,-3.60e-03,6.00e-02,
331,5.20e-03,8.00e-02,
332,7.20e-03,8.00e-02,
333,-8.80e-03,6.00e-02,
334,-1.04e-02,6.00e-02,
335,1.28e-02,8.00e-02,
336,-9.60e-03,6.00e-02,
337,9.60e-03,8.00e-02,
338,6.80e-03,8.00e-02,
339,-4.40e-03,2.00e-02,
340,-2.80e-03,8.00e-02,
341,3.20e-03,2.00e-02,
342,2.00e-03,8.00e-02,
343,-8.00e-04,2.00e-02,
344,2.40e-03,8.00e-02,
345,0.00e+00,2.00e-02,
346,2.00e-03,8.00e-02,
347,0.00e+00,2.00e-02,
348,-4.00e-04,2.00e-02,
349,2.00e-03,8.00e-02,
350,2.40e-03,8.00e-02,
351,-8.00e-04,2.00e-02,
352,-2.80e-03,8.00e-02,
353,4.00e-03,2.00e-02,
354,3.60e-03,2.00e-02,
355,7.20e-03,1.96e+00,
356,6.80e-03,1.60e-01,
357,4.00e-04,1.20e-01,
358,3.20e-03,1.40e-01,
359,0.00e+00,8.00e-02,
360,2.00e-03,1.00e-01,
361,0.00e+00,6.00e-02,
362,1.60e-03,1.00e-01,
363,-8.00e-04,6.00e-02,
364,-1.20e-03,8.00e-02,
365,2.40e-03,6.00e-02,
366,2.40e-03,6.00e-02,
367,-8.00e-04,8.00e-02,
368,3.60e-03,6.00e-02,
369,-1.60e-03,8.00e-02,
370,-4.00e-03,6.00e-02,
371,6.00e-03,8.00e-02,
372,8.00e-03,6.00e-02,
373,-9.60e-03,8.00e-02,
374,-1.04e-02,6.00e-02,
375,1.24e-02,8.00e-02,
376,-8.80e-03,8.00e-02,
377,8.00e-03,4.00e-02,
378,6.00e-03,8.00e-02,
379,-3.20e-03,4.00e-02,
380,-2.40e-03,4.00e-02,
381,2.80e-03,8.00e-02,
382,2.40e-03,8.00e-02,
383,-8.00e-04,2.00e-02,
384,1.60e-03,8.00e-02,
385,-8.00e-04,2.00e-02,
386,1.60e-03,8.00e-02,
387,-8.00e-04,2.00e-02,
388,0.00e+00,2.00e-02,
389,2.00e-03,8.00e-02,
390,2.40e-03,2.00e-02,
391,-1.20e-03,8.00e-02,
392,-2.00e-03,8.00e-02,
393,4.40e-03,2.00e-02,
394,4.40e-03,2.00e-02,
395,8.00e-03,1.88e+00,
396,6.80e-03,1.60e-01,
397,0.00e+00,8.00e-02,
398,2.80e-03,8.00e-02,
399,-8.00e-04,1.40e-01,
400,2.00e-03,1.00e-01,
401,-8.00e-04,8.00e-02,
402,0.00e+00,1.00e-01,
403,2.00e-03,6.00e-02,
404,-8.00e-04,6.00e-02,
405,2.00e-03,1.00e-01,
406,2.00e-03,6.00e-02,
407,0.00e+00,8.00e-02,
408,2.40e-03,6.00e-02,
409,-1.60e-03,8.00e-02,
410,-3.60e-03,6.00e-02,
411,5.20e-03,8.00e-02,
412,7.60e-03,8.00e-02,
413,-7.60e-03,6.00e-02,
414,1.08e-02,6.00e-02,
415,-1.00e-02,8.00e-02,
416,-8.80e-03,8.00e-02,
417,8.00e-03,4.00e-02,
418,5.20e-03,8.00e-02,
419,-4.00e-03,4.00e-02,
420,-2.40e-03,2.00e-02,
421,2.40e-03,8.00e-02,
422,2.40e-03,2.00e-02,
423,0.00e+00,8.00e-02,
424,0.00e+00,8.00e-02,
425,2.40e-03,2.00e-02,
426,2.40e-03,8.00e-02,
427,-4.00e-04,2.00e-02,
428,0.00e+00,8.00e-02,
429,2.40e-03,2.00e-02,
430,2.00e-03,2.00e-02,
431,-1.20e-03,8.00e-02,
432,-2.80e-03,8.00e-02,
433,3.60e-03,2.00e-02,
434,2.80e-03,2.00e-02,
435,7.20e-03,1.92e+00,
436,6.80e-03,1.60e-01,
437,0.00e+00,1.00e-01,
438,3.60e-03,1.20e-01,
439,-8.00e-04,8.00e-02,
440,2.00e-03,8.00e-02,
441,-8.00e-04,1.00e-01,
442,2.80e-03,1.00e-01,
443,-8.00e-04,6.00e-02,
444,-8.00e-04,1.00e-01,
445,2.00e-03,6.00e-02,
446,2.00e-03,6.00e-02,
447,-8.00e-04,8.00e-02,
448,-1.20e-03,6.00e-02,
449,2.80e-03,8.00e-02,
450,-2.40e-03,6.00e-02,
451,5.20e-03,8.00e-02,
452,7.20e-03,8.00e-02,
453,-6.80e-03,6.00e-02,
454,-9.60e-03,6.00e-02,
455,1.08e-02,8.00e-02,
456,-1.00e-02,8.00e-02,
457,8.00e-03,6.00e-02,
458,5.60e-03,8.00e-02,
459,-3.60e-03,4.00e-02,
460,-2.40e-03,8.00e-02,
461,2.40e-03,2.00e-02,
462,2.00e-03,8.00e-02,
463,-1.20e-03,2.00e-02,
464,1.20e-03,4.00e-02,
465,-8.00e-04,8.00e-02,
466,0.00e+00,8.00e-02,
467,2.40e-03,2.00e-02,
468,1.20e-03,8.00e-02,
469,-8.00e-04,2.00e-02,
470,2.40e-03,8.00e-02,
471,-1.60e-03,2.00e-02,
472,-2.00e-03,8.00e-02,
473,4.00e-03,2.00e-02,
474,3.60e-03,1.74e+00,
475,7.60e-03,0.00e+00,
476,6.80e-03,1.60e-01,
477,4.00e-04,1.20e-01,
478,3.60e-03,1.40e-01,
479,-8.00e-04,8.00e-02,
480,-8.00e-04,1.00e-01,
481,2.00e-03,8.00e-02,
482,2.40e-03,1.00e-01,
483,-4.00e-04,6.00e-02,
484,1.20e-03,1.00e-01,
485,-8.00e-04,6.00e-02,
486,-8.00e-04,6.00e-02,
487,2.40e-03,8.00e-02,
488,3.20e-03,8.00e-02,
489,-1.20e-03,6.00e-02,
490,-3.20e-03,6.00e-02,
491,4.80e-03,8.00e-02,
492,6.80e-03,6.00e-02,
493,-6.80e-03,8.00e-02,
494,1.00e-02,6.00e-02,
495,-8.80e-03,8.00e-02,
496,-8.00e-03,6.00e-02,
497,6.80e-03,8.00e-02,
498,5.20e-03,8.00e-02,
499,-2.40e-03,2.00e-02,
500,-1.20e-03,8.00e-02,
501,2.40e-03,2.00e-02,
502,2.40e-03,8.00e-02,
503,0.00e+00,2.00e-02,
504,0.00e+00,8.00e-02,
505,1.60e-03,4.00e-02,
506,2.40e-03,8.00e-02,
507,-8.00e-04,2.00e-02,
508,-4.00e-04,2.00e-02,
509,1.60e-03,8.00e-02,
510,-4.00e-04,8.00e-02,
511,2.40e-03,2.00e-02,
512,-2.40e-03,8.00e-02,
513,3.60e-03,2.00e-02,
514,3.20e-03,2.00e-02,
515,7.20e-03,1.92e+00,
516,6.40e-03,1.60e-01,
517,4.00e-04,8.00e-02,
518,4.00e-03,1.20e-01,
519,-8.00e-04,8.00e-02,
520,2.00e-03,1.00e-01,
521,-8.00e-04,6.00e-02,
522,0.00e+00,1.00e-01,
523,2.00e-03,6.00e-02,
524,-8.00e-04,1.00e-01,
525,2.00e-03,6.00e-02,
526,4.00e-04,6.00e-02,
527,2.40e-03,8.00e-02,
528,2.40e-03,6.00e-02,
529,-1.20e-03,8.00e-02,
530,-1.60e-03,6.00e-02,
531,4.80e-03,8.00e-02,
532,6.80e-03,8.00e-02,
533,-6.40e-03,6.00e-02,
534,-7.60e-03,8.00e-02,
535,1.08e-02,6.00e-02,
536,-6.00e-03,8.00e-02,
537,8.40e-03,2.00e-02,
538,5.20e-03,8.00e-02,
539,-3.60e-03,2.00e-02,
540,-1.60e-03,2.00e-02,
541,2.40e-03,8.00e-02,
542,0.00e+00,8.00e-02,
543,2.00e-03,2.00e-02,
544,0.00e+00,8.00e-02,
545,2.00e-03,2.00e-02,
546,2.40e-03,8.00e-02,
547,-8.00e-04,2.00e-02,
548,2.00e-03,2.00e-02,
549,-8.00e-04,8.00e-02,
550,2.00e-03,2.00e-02,
551,-1.60e-03,8.00e-02,
552,-2.80e-03,8.00e-02,
553,4.00e-03,2.00e-02,
554,4.40e-03,2.00e-02,
555,8.00e-03,2.00e+00,
556,6.80e-03,1.60e-01,
557,8.00e-04,1.20e-01,
558,4.00e-03,1.20e-01,
559,0.00e+00,8.00e-02,
560,-8.00e-04,1.00e-01,
561,2.40e-03,6.00e-02,
562,-1.20e-03,1.00e-01,
563,2.00e-03,6.00e-02,
564,-8.00e-04,6.00e-02,
565,2.40e-03,8.00e-02,
566,2.40e-03,6.00e-02,
567,0.00e+00,8.00e-02,
568,2.40e-03,6.00e-02,
569,-1.60e-03,8.00e-02,
570,-2.80e-03,8.00e-02,
571,4.00e-03,6.00e-02,
572,6.40e-03,6.00e-02,
573,-6.00e-03,8.00e-02,
574,-7.60e-03,8.00e-02,
575,9.60e-03,6.00e-02,
576,-6.80e-03,8.00e-02,
577,7.20e-03,2.00e-02,
578,5.20e-03,8.00e-02,
579,-3.60e-03,2.00e-02,
580,-1.60e-03,8.00e-02,
581,2.40e-03,2.00e-02,
582,2.00e-03,8.00e-02,
583,-8.00e-04,2.00e-02,
584,-8.00e-04,8.00e-02,
585,2.00e-03,2.00e-02,
586,2.40e-03,8.00e-02,
587,0.00e+00,2.00e-02,
588,-8.00e-04,8.00e-02,
589,2.00e-03,2.00e-02,
590,2.80e-03,8.00e-02,
591,-8.00e-04,2.00e-02,
592,3.60e-03,8.00e-02,
593,-2.80e-03,2.00e-02,
594,3.60e-03,2.00e-02,
595,7.20e-03,1.92e+00,
596,6.80e-03,1.60e-01,
597,4.00e-04,1.20e-01,
598,4.00e-03,1.40e-01,
599,-4.00e-04,8.00e-02,
600,-4.00e-04,8.00e-02,
601,2.00e-03,1.00e-01,
602,2.40e-03,1.00e-01,
603,0.00e+00,6.00e-02,
604,-4.00e-04,6.00e-02,
605,2.00e-03,1.00e-01,
606,2.40e-03,6.00e-02,
607,0.00e+00,8.00e-02,
608,2.40e-03,6.00e-02,
609,-1.20e-03,8.00e-02,
610,-2.80e-03,6.00e-02,
611,4.40e-03,8.00e-02,
612,5.20e-03,8.00e-02,
613,-6.00e-03,6.00e-02,
614,8.40e-03,6.00e-02,
615,-8.00e-03,8.00e-02,
616,-6.40e-03,6.00e-02,
617,6.00e-03,8.00e-02,
618,4.80e-03,8.00e-02,
619,-2.40e-03,4.00e-02,
620,-1.60e-03,8.00e-02,
621,3.20e-03,2.00e-02,
622,2.40e-03,8.00e-02,
623,0.00e+00,2.00e-02,
624,1.20e-03,8.00e-02,
625,-8.00e-04,2.00e-02,
626,-8.00e-04,2.00e-02,
627,2.00e-03,8.00e-02,
628,-8.00e-04,2.00e-02,
629,2.00e-03,8.00e-02,
630,-8.00e-04,2.00e-02,
631,2.40e-03,8.00e-02,
632,-2.80e-03,8.00e-02,
633,4.00e-03,2.00e-02,
634,4.40e-03,2.00e-02,
635,8.00e-03,1.86e+00,
636,6.80e-03,1.60e-01,
637,8.00e-04,1.20e-01,
638,4.00e-03,8.00e-02,
639,-4.00e-04,1.40e-01,
640,2.00e-03,8.00e-02,
641,-1.20e-03,1.00e-01,
642,-1.20e-03,1.00e-01,
643,2.00e-03,6.00e-02,
644,-8.00e-04,1.00e-01,
645,2.00e-03,6.00e-02,
646,2.00e-03,6.00e-02,
647,-8.00e-04,8.00e-02,
648,2.00e-03,6.00e-02,
649,-1.20e-03,8.00e-02,
650,-1.60e-03,6.00e-02,
651,4.00e-03,8.00e-02,
652,5.60e-03,6.00e-02,
653,-5.60e-03,8.00e-02,
654,-7.60e-03,8.00e-02,
655,8.40e-03,4.00e-02,
656,-6.00e-03,8.00e-02,
657,6.40e-03,4.00e-02,
658,4.00e-03,8.00e-02,
659,-2.40e-03,2.00e-02,
660,2.40e-03,8.00e-02,
661,-1.20e-03,4.00e-02,
662,-8.00e-04,8.00e-02,
663,1.60e-03,2.00e-02,
664,1.20e-03,2.00e-02,
665,-8.00e-04,8.00e-02,
666,2.00e-03,8.00e-02,
667,-8.00e-04,2.00e-02,
668,-1.20e-03,8.00e-02,
669,1.20e-03,2.00e-02,
670,-1.20e-03,2.00e-02,
671,2.80e-03,8.00e-02,
672,3.60e-03,2.00e-02,
673,-3.60e-03,8.00e-02,
674,3.20e-03,2.00e-02,
675,7.20e-03,1.94e+00,
676,6.80e-03,1.60e-01,
677,4.00e-04,1.20e-01,
678,4.80e-03,1.40e-01,
679,-8.00e-04,8.00e-02,
680,-8.00e-04,1.00e-01,
681,2.00e-03,8.00e-02,
682,2.40e-03,1.00e-01,
683,-8.00e-04,6.00e-02,
684,-8.00e-04,6.00e-02,
685,1.20e-03,1.00e-01,
686,1.20e-03,6.00e-02,
687,-8.00e-04,8.00e-02,
688,-1.20e-03,6.00e-02,
689,1.60e-03,8.00e-02,
690,-2.40e-03,6.00e-02,
691,3.60e-03,8.00e-02,
692,5.20e-03,6.00e-02,
693,-4.40e-03,8.00e-02,
694,-6.80e-03,6.00e-02,
695,8.40e-03,8.00e-02,
696,-6.40e-03,6.00e-02,
697,5.20e-03,8.00e-02,
698,4.00e-03,6.00e-02,
699,-2.40e-03,8.00e-02,
700,-1.20e-03,8.00e-02,
701,2.40e-03,4.00e-02,
702,2.00e-03,8.00e-02,
703,-4.00e-04,4.00e-02,
704,-8.00e-04,8.00e-02,
705,1.20e-03,2.00e-02,
706,2.00e-03,8.00e-02,
707,0.00e+00,2.00e-02,
708,1.60e-03,2.00e-02,
709,-8.00e-04,8.00e-02,
710,-8.00e-04,2.00e-02,
711,2.80e-03,8.00e-02,
712,-3.20e-03,2.00e-02,
713,3.60e-03,8.00e-02,
714,4.00e-03,1.94e+00,
715,8.00e-03,-2.00e-02,
716,6.80e-03,1.60e-01,
717,4.00e-04,1.20e-01,
718,4.00e-03,1.20e-01,
719,-1.20e-03,8.00e-02,
720,-8.00e-04,1.00e-01,
721,2.40e-03,8.00e-02,
722,2.40e-03,1.00e-01,
723,-1.20e-03,6.00e-02,
724,-1.20e-03,1.00e-01,
725,2.00e-03,6.00e-02,
726,0.00e+00,6.00e-02,
727,2.00e-03,8.00e-02,
728,2.40e-03,6.00e-02,
729,-1.20e-03,8.00e-02,
730,-1.60e-03,8.00e-02,
731,3.60e-03,6.00e-02,
732,5.20e-03,6.00e-02,
733,-4.40e-03,8.00e-02,
734,-6.40e-03,8.00e-02,
735,8.00e-03,6.00e-02,
736,-5.20e-03,8.00e-02,
737,5.60e-03,6.00e-02,
738,4.00e-03,8.00e-02,
739,-1.60e-03,4.00e-02,
740,-1.60e-03,4.00e-02,
741,2.40e-03,8.00e-02,
742,-8.00e-04,8.00e-02,
743,2.00e-03,2.00e-02,
744,-8.00e-04,8.00e-02,
745,2.00e-03,2.00e-02,
746,1.60e-03,8.00e-02,
747,-1.20e-03,2.00e-02,
748,-1.20e-03,2.00e-02,
749,1.60e-03,8.00e-02,
750,2.40e-03,2.00e-02,
751,-8.00e-04,8.00e-02,
752,3.20e-03,2.00e-02,
753,-2.80e-03,8.00e-02,
754,3.20e-03,2.00e-02,
755,7.60e-03,1.86e+00,
756,6.80e-03,1.60e-01,
757,4.00e-04,1.20e-01,
758,4.00e-03,1.20e-01,
759,-8.00e-04,8.00e-02,
760,-1.20e-03,1.00e-01,
761,2.40e-03,6.00e-02,
762,2.40e-03,1.00e-01,
763,-8.00e-04,6.00e-02,
764,-8.00e-04,6.00e-02,
765,1.20e-03,8.00e-02,
766,0.00e+00,6.00e-02,
767,1.20e-03,8.00e-02,
768,-8.00e-04,6.00e-02,
769,2.40e-03,8.00e-02,
770,2.80e-03,8.00e-02,
771,-2.00e-03,6.00e-02,
772,5.20e-03,8.00e-02,
773,-4.40e-03,6.00e-02,
774,-5.60e-03,6.00e-02,
775,7.60e-03,8.00e-02,
776,-5.60e-03,6.00e-02,
777,5.60e-03,8.00e-02,
778,4.00e-03,8.00e-02,
779,-2.40e-03,4.00e-02,
780,-1.60e-03,8.00e-02,
781,2.80e-03,2.00e-02,
782,2.00e-03,8.00e-02,
783,-8.00e-04,2.00e-02,
784,-1.20e-03,2.00e-02,
785,1.20e-03,8.00e-02,
786,2.40e-03,2.00e-02,
787,0.00e+00,8.00e-02,
788,2.40e-03,8.00e-02,
789,-1.20e-03,2.00e-02,
790,-1.20e-03,2.00e-02,
791,2.40e-03,8.00e-02,
792,4.00e-03,2.00e-02,
793,-3.60e-03,8.00e-02,
794,2.80e-03,2.00e-02,
795,8.00e-03,1.90e+00,
796,6.80e-03,1.60e-01,
797,4.00e-04,8.00e-02,
798,4.80e-03,1.40e-01,
799,-1.20e-03,8.00e-02,
800,2.40e-03,1.00e-01,
801,-1.60e-03,6.00e-02,
802,-8.00e-04,6.00e-02,
803,2.00e-03,1.00e-01,
804,-1.20e-03,6.00e-02,
805,2.00e-03,1.00e-01,
806,0.00e+00,8.00e-02,
807,2.40e-03,6.00e-02,
808,2.40e-03,8.00e-02,
809,-8.00e-04,6.00e-02,
810,-1.20e-03,6.00e-02,
811,3.60e-03,8.00e-02,
812,4.40e-03,6.00e-02,
813,-4.40e-03,8.00e-02,
814,-6.00e-03,6.00e-02,
815,6.80e-03,8.00e-02,
816,-4.80e-03,8.00e-02,
817,5.20e-03,2.00e-02,
818,3.60e-03,8.00e-02,
819,-1.60e-03,6.00e-02,
820,-4.00e-04,2.00e-02,
821,2.80e-03,8.00e-02,
822,1.60e-03,8.00e-02,
823,-8.00e-04,2.00e-02,
824,0.00e+00,8.00e-02,
825,2.00e-03,2.00e-02,
826,1.20e-03,8.00e-02,
827,-1.20e-03,2.00e-02,
828,-1.20e-03,2.00e-02,
829,1.20e-03,8.00e-02,
830,-1.20e-03,8.00e-02,
831,2.40e-03,2.00e-02,
832,3.20e-03,8.00e-02,
833,-3.20e-03,2.00e-02,
834,2.80e-03,2.00e-02,
835,7.20e-03,1.78e+00,
836,6.80e-03,1.60e-01,
837,1.20e-03,8.00e-02,
838,4.00e-03,8.00e-02,
839,-1.20e-03,1.40e-01,
840,-8.00e-04,1.00e-01,
841,2.00e-03,6.00e-02,
842,0.00e+00,1.00e-01,
843,2.40e-03,6.00e-02,
844,-4.00e-04,6.00e-02,
845,2.00e-03,1.00e-01,
846,2.00e-03,8.00e-02,
847,0.00e+00,6.00e-02,
848,2.40e-03,6.00e-02,
849,-8.00e-04,8.00e-02,
850,-1.60e-03,8.00e-02,
851,3.60e-03,4.00e-02,
852,4.40e-03,6.00e-02,
853,-4.00e-03,8.00e-02,
854,6.40e-03,8.00e-02,
855,-4.80e-03,6.00e-02,
856,-4.40e-03,8.00e-02,
