CarrPurc_P1-19_P2-38_tauVary/Gly91/NewFile7.csv

X,CH1,CH2,Start,Increment,
Sequence,Volt,Volt,-5.000000e-03,1.000000e-04
0,1.20e-03,4.00e-02,
1,0.00e+00,2.00e-02,
2,4.00e-04,4.00e-02,
3,1.20e-03,0.00e+00,
4,4.00e-04,4.00e-02,
5,1.20e-03,0.00e+00,
6,8.00e-04,2.00e-02,
7,0.00e+00,4.00e-02,
8,8.00e-04,4.00e-02,
9,0.00e+00,2.00e-02,
10,8.00e-04,4.00e-02,
11,0.00e+00,2.00e-02,
12,8.00e-04,4.00e-02,
13,0.00e+00,0.00e+00,
14,4.00e-04,4.00e-02,
15,1.20e-03,2.00e-02,
16,8.00e-04,4.00e-02,
17,0.00e+00,2.00e-02,
18,0.00e+00,4.00e-02,
19,1.20e-03,2.00e-02,
20,1.20e-03,4.00e-02,
21,0.00e+00,0.00e+00,
22,0.00e+00,4.00e-02,
23,1.20e-03,2.00e-02,
24,0.00e+00,4.00e-02,
25,1.20e-03,2.00e-02,
26,8.00e-04,4.00e-02,
27,0.00e+00,2.00e-02,
28,4.00e-04,4.00e-02,
29,1.20e-03,2.00e-02,
30,1.20e-03,2.00e-02,
31,0.00e+00,4.00e-02,
32,4.00e-04,4.00e-02,
33,1.20e-03,2.00e-02,
34,1.20e-03,4.00e-02,
35,0.00e+00,2.00e-02,
36,4.00e-04,4.00e-02,
37,8.00e-04,2.00e-02,
38,0.00e+00,4.00e-02,
39,1.20e-03,2.00e-02,
40,0.00e+00,4.00e-02,
41,1.20e-03,0.00e+00,
42,1.20e-03,4.00e-02,
43,4.00e-04,2.00e-02,
44,8.00e-04,4.00e-02,
45,0.00e+00,2.00e-02,
46,0.00e+00,4.00e-02,
47,8.00e-04,2.00e-02,
48,0.00e+00,4.00e-02,
49,1.20e-03,2.00e-02,
50,4.00e-04,4.00e-02,
51,1.20e-03,0.00e+00,
52,1.20e-03,2.00e-02,
53,0.00e+00,4.00e-02,
54,0.00e+00,2.00e-02,
55,5.60e-03,1.62e+00,
56,5.60e-03,1.60e-01,
57,-2.72e-02,1.00e-01,
58,1.32e-02,1.20e-01,
59,-1.48e-02,8.00e-02,
60,7.20e-03,1.00e-01,
61,-7.20e-03,8.00e-02,
62,-1.60e-03,1.00e-01,
63,3.60e-03,6.00e-02,
64,-1.60e-03,6.00e-02,
65,3.20e-03,8.00e-02,
66,-1.60e-03,6.00e-02,
67,3.20e-03,8.00e-02,
68,-8.00e-04,8.00e-02,
69,2.40e-03,6.00e-02,
70,2.40e-03,6.00e-02,
71,-8.00e-04,8.00e-02,
72,2.00e-03,8.00e-02,
73,-8.00e-04,6.00e-02,
74,8.00e-04,6.00e-02,
75,7.60e-03,2.00e+00,
76,6.80e-03,1.60e-01,
77,-7.60e-03,1.20e-01,
78,-7.60e-03,1.20e-01,
79,6.00e-03,8.00e-02,
80,3.60e-03,1.00e-01,
81,-8.00e-04,8.00e-02,
82,0.00e+00,1.00e-01,
83,3.20e-03,6.00e-02,
84,-8.00e-04,8.00e-02,
85,2.40e-03,6.00e-02,
86,2.00e-03,6.00e-02,
87,-4.00e-04,8.00e-02,
88,-2.80e-03,8.00e-02,
89,5.60e-03,6.00e-02,
90,8.00e-03,6.00e-02,
91,-9.20e-03,8.00e-02,
92,-1.36e-02,6.00e-02,
93,2.00e-02,8.00e-02,
94,-2.00e-02,6.00e-02,
95,2.12e-02,8.00e-02,
96,-1.92e-02,6.00e-02,
97,1.80e-02,8.00e-02,
98,1.12e-02,8.00e-02,
99,-8.40e-03,4.00e-02,
100,-5.60e-03,8.00e-02,
101,4.80e-03,2.00e-02,
102,2.40e-03,8.00e-02,
103,-8.00e-04,2.00e-02,
104,-1.20e-03,2.00e-02,
105,2.00e-03,8.00e-02,
106,-4.00e-04,2.00e-02,
107,2.40e-03,8.00e-02,
108,2.40e-03,2.00e-02,
109,-4.00e-04,8.00e-02,
110,0.00e+00,2.00e-02,
111,2.00e-03,8.00e-02,
112,2.00e-03,2.00e-02,
113,0.00e+00,8.00e-02,
114,8.00e-04,2.00e-02,
115,6.80e-03,1.80e+00,
116,6.40e-03,1.60e-01,
117,1.20e-03,1.20e-01,
118,3.60e-03,1.40e-01,
119,0.00e+00,8.00e-02,
120,2.00e-03,1.00e-01,
121,-8.00e-04,6.00e-02,
122,2.40e-03,1.00e-01,
123,0.00e+00,6.00e-02,
124,0.00e+00,6.00e-02,
125,2.40e-03,1.00e-01,
126,2.40e-03,8.00e-02,
127,-1.20e-03,6.00e-02,
128,-3.20e-03,6.00e-02,
129,4.40e-03,8.00e-02,
130,-5.20e-03,6.00e-02,
131,8.00e-03,8.00e-02,
132,1.00e-02,6.00e-02,
133,-1.24e-02,8.00e-02,
134,-1.56e-02,6.00e-02,
135,1.64e-02,8.00e-02,
136,-1.16e-02,6.00e-02,
137,1.08e-02,8.00e-02,
138,7.20e-03,8.00e-02,
139,-5.20e-03,4.00e-02,
140,-2.80e-03,8.00e-02,
141,3.60e-03,2.00e-02,
142,2.40e-03,8.00e-02,
143,-1.20e-03,2.00e-02,
144,2.40e-03,8.00e-02,
145,-8.00e-04,2.00e-02,
146,2.40e-03,8.00e-02,
147,0.00e+00,2.00e-02,
148,0.00e+00,2.00e-02,
149,2.00e-03,8.00e-02,
150,2.80e-03,2.00e-02,
151,-1.60e-03,8.00e-02,
152,-2.80e-03,2.00e-02,
153,5.20e-03,8.00e-02,
154,2.00e-03,1.90e+00,
155,7.60e-03,-2.00e-02,
156,6.80e-03,1.60e-01,
157,1.60e-03,1.20e-01,
158,3.60e-03,1.40e-01,
159,4.00e-04,8.00e-02,
160,1.20e-03,1.00e-01,
161,-4.00e-04,6.00e-02,
162,2.00e-03,1.00e-01,
163,-8.00e-04,6.00e-02,
164,-8.00e-04,6.00e-02,
165,2.00e-03,8.00e-02,
166,-8.00e-04,6.00e-02,
167,2.40e-03,8.00e-02,
168,3.60e-03,6.00e-02,
169,-2.40e-03,8.00e-02,
170,-4.80e-03,8.00e-02,
171,7.20e-03,6.00e-02,
172,1.12e-02,6.00e-02,
173,-1.32e-02,8.00e-02,
174,-1.56e-02,6.00e-02,
175,1.56e-02,8.00e-02,
176,-1.20e-02,8.00e-02,
177,1.08e-02,6.00e-02,
178,8.00e-03,8.00e-02,
179,-4.40e-03,6.00e-02,
180,-2.80e-03,8.00e-02,
181,3.60e-03,4.00e-02,
182,2.00e-03,8.00e-02,
183,-1.20e-03,4.00e-02,
184,-8.00e-04,8.00e-02,
185,2.00e-03,2.00e-02,
186,2.00e-03,8.00e-02,
187,-8.00e-04,4.00e-02,
188,-8.00e-04,8.00e-02,
189,1.20e-03,2.00e-02,
190,2.00e-03,8.00e-02,
191,-1.60e-03,2.00e-02,
192,-3.60e-03,8.00e-02,
193,5.60e-03,2.00e-02,
194,3.60e-03,2.00e-02,
195,8.00e-03,1.98e+00,
196,6.80e-03,1.60e-01,
197,0.00e+00,1.00e-01,
198,4.00e-03,8.00e-02,
199,-8.00e-04,1.40e-01,
200,2.00e-03,8.00e-02,
201,0.00e+00,1.00e-01,
202,2.00e-03,1.00e-01,
203,-8.00e-04,6.00e-02,
204,-8.00e-04,6.00e-02,
205,2.40e-03,8.00e-02,
206,2.40e-03,6.00e-02,
207,-8.00e-04,8.00e-02,
208,-1.60e-03,8.00e-02,
209,3.20e-03,6.00e-02,
210,5.60e-03,6.00e-02,
211,-3.20e-03,8.00e-02,
212,7.20e-03,6.00e-02,
213,-8.00e-03,8.00e-02,
214,-1.24e-02,6.00e-02,
215,1.32e-02,8.00e-02,
216,-1.08e-02,8.00e-02,
217,1.08e-02,4.00e-02,
218,6.80e-03,8.00e-02,
219,-4.00e-03,2.00e-02,
220,-2.40e-03,8.00e-02,
221,2.80e-03,2.00e-02,
222,2.00e-03,8.00e-02,
223,0.00e+00,2.00e-02,
224,0.00e+00,2.00e-02,
225,1.60e-03,8.00e-02,
226,1.20e-03,8.00e-02,
227,0.00e+00,2.00e-02,
228,0.00e+00,2.00e-02,
229,1.20e-03,8.00e-02,
230,2.40e-03,6.00e-02,
231,-8.00e-04,2.00e-02,
232,-2.00e-03,4.00e-02,
233,3.60e-03,2.00e-02,
234,2.80e-03,2.00e-02,
235,7.60e-03,1.82e+00,
236,6.80e-03,1.60e-01,
237,4.00e-04,1.20e-01,
238,2.80e-03,1.40e-01,
239,0.00e+00,8.00e-02,
240,1.60e-03,1.00e-01,
241,0.00e+00,8.00e-02,
242,1.60e-03,1.00e-01,
243,-4.00e-04,6.00e-02,
244,-4.00e-04,6.00e-02,
245,2.00e-03,1.00e-01,
246,2.00e-03,6.00e-02,
247,-8.00e-04,8.00e-02,
248,-1.60e-03,8.00e-02,
249,3.60e-03,6.00e-02,
250,-4.00e-03,8.00e-02,
251,6.00e-03,6.00e-02,
252,8.40e-03,6.00e-02,
253,-8.40e-03,8.00e-02,
254,-1.12e-02,8.00e-02,
255,1.28e-02,6.00e-02,
256,-9.60e-03,8.00e-02,
257,9.20e-03,6.00e-02,
258,5.60e-03,6.00e-02,
259,-3.60e-03,8.00e-02,
260,-1.60e-03,8.00e-02,
261,2.80e-03,4.00e-02,
262,2.80e-03,8.00e-02,
263,0.00e+00,4.00e-02,
264,-8.00e-04,8.00e-02,
265,2.00e-03,2.00e-02,
266,-8.00e-04,8.00e-02,
267,2.00e-03,4.00e-02,
268,-8.00e-04,4.00e-02,
269,1.20e-03,8.00e-02,
270,2.00e-03,2.00e-02,
271,-1.20e-03,8.00e-02,
272,-1.60e-03,4.00e-02,
273,4.00e-03,8.00e-02,
274,3.20e-03,1.92e+00,
275,7.60e-03,-2.00e-02,
276,6.80e-03,1.60e-01,
277,8.00e-04,1.20e-01,
278,3.20e-03,1.20e-01,
279,0.00e+00,8.00e-02,
280,2.00e-03,1.00e-01,
281,-8.00e-04,8.00e-02,
282,1.60e-03,1.00e-01,
283,0.00e+00,6.00e-02,
284,-8.00e-04,1.00e-01,
285,1.20e-03,6.00e-02,
286,0.00e+00,6.00e-02,
287,2.00e-03,8.00e-02,
288,2.40e-03,6.00e-02,
289,-1.60e-03,8.00e-02,
290,-3.60e-03,6.00e-02,
291,5.20e-03,8.00e-02,
292,7.20e-03,8.00e-02,
293,-8.40e-03,6.00e-02,
294,-1.04e-02,6.00e-02,
295,1.20e-02,8.00e-02,
296,-8.40e-03,8.00e-02,
297,8.00e-03,6.00e-02,
298,5.60e-03,8.00e-02,
299,-3.60e-03,6.00e-02,
300,-2.40e-03,8.00e-02,
301,2.40e-03,6.00e-02,
302,-8.00e-04,6.00e-02,
303,2.40e-03,8.00e-02,
304,-8.00e-04,6.00e-02,
305,2.40e-03,8.00e-02,
306,-8.00e-04,8.00e-02,
307,2.00e-03,4.00e-02,
308,-8.00e-04,8.00e-02,
309,1.20e-03,2.00e-02,
310,2.00e-03,4.00e-02,
311,-1.20e-03,8.00e-02,
312,-1.60e-03,8.00e-02,
313,4.00e-03,2.00e-02,
314,3.20e-03,2.00e-02,
315,7.60e-03,1.90e+00,
316,6.80e-03,1.60e-01,
317,4.00e-04,1.00e-01,
318,3.20e-03,1.40e-01,
319,-8.00e-04,8.00e-02,
320,2.40e-03,1.00e-01,
321,-8.00e-04,8.00e-02,
322,2.40e-03,1.00e-01,
323,-8.00e-04,6.00e-02,
324,2.00e-03,1.00e-01,
325,-1.20e-03,6.00e-02,
326,-8.00e-04,6.00e-02,
327,2.00e-03,8.00e-02,
328,2.80e-03,6.00e-02,
329,-1.20e-03,8.00e-02,
330,-2.80e-03,6.00e-02,
331,5.20e-03,8.00e-02,
332,6.80e-03,8.00e-02,
333,-7.20e-03,6.00e-02,
334,-9.60e-03,6.00e-02,
335,1.04e-02,8.00e-02,
336,-8.00e-03,6.00e-02,
337,8.00e-03,8.00e-02,
338,4.40e-03,8.00e-02,
339,-4.00e-03,4.00e-02,
340,-2.40e-03,8.00e-02,
341,2.40e-03,4.00e-02,
342,2.00e-03,8.00e-02,
343,0.00e+00,2.00e-02,
344,1.20e-03,8.00e-02,
345,0.00e+00,4.00e-02,
346,1.20e-03,8.00e-02,
347,0.00e+00,2.00e-02,
348,0.00e+00,8.00e-02,
349,1.20e-03,2.00e-02,
350,2.40e-03,8.00e-02,
351,-8.00e-04,2.00e-02,
352,-1.60e-03,4.00e-02,
353,4.00e-03,2.00e-02,
354,3.60e-03,2.00e-02,
355,7.20e-03,1.82e+00,
356,6.80e-03,1.60e-01,
357,1.20e-03,1.20e-01,
358,4.00e-03,1.40e-01,
359,0.00e+00,8.00e-02,
360,2.00e-03,1.00e-01,
361,-8.00e-04,8.00e-02,
362,2.00e-03,1.00e-01,
363,-4.00e-04,6.00e-02,
364,-4.00e-04,1.00e-01,
365,2.00e-03,6.00e-02,
366,2.00e-03,6.00e-02,
367,-8.00e-04,8.00e-02,
368,-1.60e-03,6.00e-02,
369,2.80e-03,8.00e-02,
370,-2.80e-03,6.00e-02,
371,5.20e-03,8.00e-02,
372,6.80e-03,6.00e-02,
373,-6.80e-03,8.00e-02,
374,9.60e-03,6.00e-02,
375,-8.80e-03,8.00e-02,
376,-7.20e-03,6.00e-02,
377,6.40e-03,8.00e-02,
378,5.20e-03,8.00e-02,
379,-2.40e-03,2.00e-02,
380,-1.20e-03,6.00e-02,
381,2.40e-03,8.00e-02,
382,1.20e-03,8.00e-02,
383,0.00e+00,4.00e-02,
384,-4.00e-04,8.00e-02,
385,2.00e-03,4.00e-02,
386,0.00e+00,8.00e-02,
387,1.60e-03,2.00e-02,
388,1.20e-03,2.00e-02,
389,-8.00e-04,8.00e-02,
390,2.00e-03,8.00e-02,
391,-1.20e-03,2.00e-02,
392,-2.40e-03,8.00e-02,
393,4.00e-03,2.00e-02,
394,3.60e-03,1.94e+00,
395,8.00e-03,-4.00e-02,
396,6.80e-03,1.60e-01,
397,1.20e-03,1.20e-01,
398,3.60e-03,1.40e-01,
399,-8.00e-04,8.00e-02,
400,0.00e+00,1.00e-01,
401,1.60e-03,8.00e-02,
402,2.40e-03,1.00e-01,
403,0.00e+00,6.00e-02,
404,0.00e+00,1.00e-01,
405,2.00e-03,6.00e-02,
406,2.00e-03,6.00e-02,
407,4.00e-04,8.00e-02,
408,-1.20e-03,6.00e-02,
409,2.80e-03,8.00e-02,
410,-1.60e-03,6.00e-02,
411,4.80e-03,8.00e-02,
412,5.60e-03,8.00e-02,
413,-6.00e-03,6.00e-02,
414,-8.00e-03,6.00e-02,
415,8.80e-03,8.00e-02,
416,-7.20e-03,6.00e-02,
417,6.40e-03,8.00e-02,
418,4.00e-03,8.00e-02,
419,-2.80e-03,6.00e-02,
420,-1.20e-03,6.00e-02,
421,2.40e-03,8.00e-02,
422,2.00e-03,6.00e-02,
423,-8.00e-04,8.00e-02,
424,1.60e-03,6.00e-02,
425,-8.00e-04,8.00e-02,
426,1.20e-03,8.00e-02,
427,-8.00e-04,4.00e-02,
428,-1.20e-03,8.00e-02,
429,2.00e-03,2.00e-02,
430,-4.00e-04,2.00e-02,
431,2.40e-03,8.00e-02,
432,-2.40e-03,8.00e-02,
433,4.00e-03,2.00e-02,
434,3.60e-03,2.00e-02,
435,7.60e-03,1.86e+00,
436,6.80e-03,1.60e-01,
437,8.00e-04,1.20e-01,
438,4.00e-03,1.20e-01,
439,0.00e+00,8.00e-02,
440,2.40e-03,8.00e-02,
441,-8.00e-04,1.00e-01,
442,2.40e-03,1.00e-01,
443,-8.00e-04,6.00e-02,
444,-8.00e-04,6.00e-02,
445,2.00e-03,1.00e-01,
446,2.00e-03,6.00e-02,
447,0.00e+00,8.00e-02,
448,-8.00e-04,6.00e-02,
449,2.40e-03,8.00e-02,
450,-1.60e-03,6.00e-02,
451,4.00e-03,8.00e-02,
452,5.20e-03,8.00e-02,
453,-5.60e-03,6.00e-02,
454,-7.20e-03,6.00e-02,
455,9.20e-03,8.00e-02,
456,-6.40e-03,8.00e-02,
457,6.80e-03,6.00e-02,
458,4.40e-03,6.00e-02,
459,-2.80e-03,8.00e-02,
460,-1.60e-03,8.00e-02,
461,2.40e-03,2.00e-02,
462,1.20e-03,8.00e-02,
463,-1.20e-03,4.00e-02,
464,-8.00e-04,8.00e-02,
465,1.20e-03,4.00e-02,
466,1.20e-03,8.00e-02,
467,-8.00e-04,4.00e-02,
468,-8.00e-04,8.00e-02,
469,1.60e-03,2.00e-02,
470,-8.00e-04,8.00e-02,
471,2.00e-03,2.00e-02,
472,-2.00e-03,8.00e-02,
473,3.20e-03,2.00e-02,
474,3.20e-03,2.00e-02,
475,7.60e-03,1.80e+00,
476,6.80e-03,1.60e-01,
477,1.20e-03,1.20e-01,
478,4.40e-03,1.40e-01,
479,-8.00e-04,8.00e-02,
480,2.40e-03,1.00e-01,
481,-8.00e-04,8.00e-02,
482,2.40e-03,1.00e-01,
483,-4.00e-04,6.00e-02,
484,1.20e-03,1.00e-01,
485,-8.00e-04,6.00e-02,
486,0.00e+00,6.00e-02,
487,2.00e-03,8.00e-02,
488,2.00e-03,8.00e-02,
489,-1.60e-03,6.00e-02,
490,-2.40e-03,6.00e-02,
491,4.00e-03,8.00e-02,
492,5.20e-03,6.00e-02,
493,-4.40e-03,8.00e-02,
494,7.60e-03,6.00e-02,
495,-7.20e-03,8.00e-02,
496,-5.60e-03,6.00e-02,
497,5.60e-03,8.00e-02,
498,4.00e-03,6.00e-02,
499,-2.40e-03,8.00e-02,
500,-1.20e-03,6.00e-02,
501,2.40e-03,8.00e-02,
502,2.00e-03,8.00e-02,
503,0.00e+00,4.00e-02,
504,-8.00e-04,8.00e-02,
505,1.20e-03,4.00e-02,
506,-8.00e-04,8.00e-02,
507,2.00e-03,2.00e-02,
508,0.00e+00,8.00e-02,
509,1.60e-03,2.00e-02,
510,-8.00e-04,8.00e-02,
511,2.40e-03,2.00e-02,
512,-2.40e-03,8.00e-02,
513,3.60e-03,2.00e-02,
514,3.60e-03,2.00e+00,
515,7.60e-03,-2.00e-02,
516,6.80e-03,1.60e-01,
517,8.00e-04,1.20e-01,
518,4.00e-03,1.20e-01,
519,0.00e+00,8.00e-02,
520,1.20e-03,1.00e-01,
521,-8.00e-04,8.00e-02,
522,2.00e-03,1.00e-01,
523,-8.00e-04,6.00e-02,
524,-8.00e-04,6.00e-02,
525,2.00e-03,1.00e-01,
526,0.00e+00,6.00e-02,
527,2.00e-03,8.00e-02,
528,2.00e-03,6.00e-02,
529,-1.20e-03,8.00e-02,
530,-1.60e-03,6.00e-02,
531,3.60e-03,8.00e-02,
532,5.20e-03,8.00e-02,
533,-5.20e-03,6.00e-02,
534,8.00e-03,8.00e-02,
535,-5.60e-03,6.00e-02,
536,-5.20e-03,6.00e-02,
537,5.60e-03,8.00e-02,
538,3.60e-03,8.00e-02,
539,-1.60e-03,2.00e-02,
540,-1.60e-03,8.00e-02,
541,2.00e-03,4.00e-02,
542,1.60e-03,8.00e-02,
543,-8.00e-04,2.00e-02,
544,-8.00e-04,8.00e-02,
545,2.00e-03,2.00e-02,
546,-8.00e-04,8.00e-02,
547,2.00e-03,2.00e-02,
548,2.00e-03,8.00e-02,
549,-8.00e-04,2.00e-02,
550,-8.00e-04,2.00e-02,
551,2.40e-03,8.00e-02,
552,-2.40e-03,4.00e-02,
553,3.20e-03,2.00e-02,
554,3.20e-03,2.00e-02,
555,8.00e-03,1.74e+00,
556,6.80e-03,1.60e-01,
557,8.00e-04,1.20e-01,
558,4.00e-03,1.40e-01,
559,-8.00e-04,8.00e-02,
560,2.40e-03,1.00e-01,
561,-1.20e-03,8.00e-02,
562,2.00e-03,1.00e-01,
563,-8.00e-04,6.00e-02,
564,2.00e-03,6.00e-02,
565,-8.00e-04,8.00e-02,
566,0.00e+00,6.00e-02,
567,2.00e-03,8.00e-02,
568,2.40e-03,6.00e-02,
569,-8.00e-04,8.00e-02,
570,-1.60e-03,8.00e-02,
571,3.60e-03,6.00e-02,
572,4.40e-03,6.00e-02,
573,-4.40e-03,8.00e-02,
574,-4.80e-03,8.00e-02,
575,8.00e-03,6.00e-02,
576,-4.40e-03,8.00e-02,
577,5.20e-03,6.00e-02,
578,3.60e-03,6.00e-02,
579,-1.60e-03,8.00e-02,
580,-1.20e-03,6.00e-02,
581,1.60e-03,8.00e-02,
582,2.00e-03,8.00e-02,
583,0.00e+00,2.00e-02,
584,-8.00e-04,8.00e-02,
585,1.60e-03,2.00e-02,
586,-8.00e-04,8.00e-02,
587,2.00e-03,2.00e-02,
588,2.00e-03,8.00e-02,
589,-4.00e-04,2.00e-02,
590,-8.00e-04,8.00e-02,
591,2.40e-03,2.00e-02,
592,3.60e-03,8.00e-02,
593,-2.40e-03,2.00e-02,
594,3.60e-03,2.00e-02,
595,7.60e-03,1.92e+00,
596,6.80e-03,1.60e-01,
597,1.20e-03,1.20e-01,
598,4.80e-03,1.40e-01,
599,-4.00e-04,8.00e-02,
600,2.00e-03,8.00e-02,
601,-8.00e-04,1.00e-01,
602,2.40e-03,1.00e-01,
603,-8.00e-04,6.00e-02,
604,-8.00e-04,6.00e-02,
605,2.00e-03,8.00e-02,
606,1.20e-03,6.00e-02,
607,0.00e+00,8.00e-02,
608,-8.00e-04,6.00e-02,
609,2.00e-03,8.00e-02,
610,-1.20e-03,6.00e-02,
611,3.60e-03,8.00e-02,
612,5.20e-03,8.00e-02,
613,-4.00e-03,6.00e-02,
614,6.40e-03,6.00e-02,
615,-5.60e-03,8.00e-02,
616,-4.00e-03,6.00e-02,
617,5.20e-03,8.00e-02,
618,3.20e-03,6.00e-02,
619,-1.60e-03,8.00e-02,
620,-1.20e-03,6.00e-02,
621,2.00e-03,8.00e-02,
622,2.00e-03,8.00e-02,
623,-4.00e-04,4.00e-02,
624,1.60e-03,2.00e-02,
625,-8.00e-04,8.00e-02,
626,1.20e-03,8.00e-02,
627,-8.00e-04,4.00e-02,
628,-8.00e-04,8.00e-02,
629,1.20e-03,2.00e-02,
630,-1.20e-03,8.00e-02,
631,2.40e-03,4.00e-02,
632,3.20e-03,8.00e-02,
633,-2.80e-03,2.00e-02,
634,2.80e-03,-8.00e-02,
635,7.20e-03,2.00e+00,
636,6.80e-03,1.60e-01,
637,1.20e-03,1.20e-01,
638,4.00e-03,1.40e-01,
639,-1.20e-03,8.00e-02,
640,2.40e-03,8.00e-02,
641,-8.00e-04,1.00e-01,
642,2.40e-03,1.00e-01,
643,-8.00e-04,6.00e-02,
644,-8.00e-04,6.00e-02,
645,2.00e-03,1.00e-01,
646,0.00e+00,6.00e-02,
647,2.00e-03,8.00e-02,
648,2.00e-03,6.00e-02,
649,-8.00e-04,8.00e-02,
650,-1.60e-03,6.00e-02,
651,3.60e-03,8.00e-02,
652,4.80e-03,6.00e-02,
653,-3.60e-03,8.00e-02,
654,6.40e-03,6.00e-02,
655,-4.80e-03,8.00e-02,
656,-4.00e-03,8.00e-02,
657,4.40e-03,6.00e-02,
658,2.80e-03,6.00e-02,
659,-1.60e-03,8.00e-02,
660,-8.00e-04,6.00e-02,
661,2.40e-03,8.00e-02,
662,2.00e-03,8.00e-02,
663,0.00e+00,4.00e-02,
664,1.20e-03,8.00e-02,
665,-8.00e-04,4.00e-02,
666,1.20e-03,8.00e-02,
667,-8.00e-04,2.00e-02,
668,-8.00e-04,8.00e-02,
669,2.00e-03,2.00e-02,
670,-1.20e-03,2.00e-02,
671,2.40e-03,8.00e-02,
672,2.80e-03,2.00e-02,
673,-3.60e-03,8.00e-02,
674,2.80e-03,2.00e-02,
675,7.60e-03,1.96e+00,
676,6.80e-03,1.60e-01,
677,4.00e-04,1.20e-01,
678,4.40e-03,1.40e-01,
679,-8.00e-04,8.00e-02,
680,-8.00e-04,1.00e-01,
681,2.40e-03,8.00e-02,
682,2.40e-03,1.00e-01,
683,-8.00e-04,6.00e-02,
684,2.00e-03,6.00e-02,
685,-8.00e-04,1.00e-01,
686,1.20e-03,6.00e-02,
687,0.00e+00,8.00e-02,
688,2.00e-03,6.00e-02,
689,-1.60e-03,8.00e-02,
690,-1.20e-03,6.00e-02,
691,2.80e-03,8.00e-02,
692,4.00e-03,6.00e-02,
693,-3.20e-03,8.00e-02,
694,5.20e-03,6.00e-02,
695,-4.80e-03,8.00e-02,
696,-4.00e-03,6.00e-02,
697,4.00e-03,8.00e-02,
698,2.80e-03,6.00e-02,
699,-1.60e-03,8.00e-02,
700,-1.20e-03,8.00e-02,
701,2.40e-03,4.00e-02,
702,2.40e-03,8.00e-02,
703,0.00e+00,2.00e-02,
704,2.00e-03,8.00e-02,
705,-8.00e-04,2.00e-02,
706,1.60e-03,8.00e-02,
707,-8.00e-04,2.00e-02,
708,2.00e-03,2.00e-02,
709,-8.00e-04,8.00e-02,
710,-1.20e-03,2.00e-02,
711,2.40e-03,8.00e-02,
712,3.60e-03,8.00e-02,
713,-2.80e-03,2.00e-02,
714,2.80e-03,2.00e-02,
715,7.60e-03,1.82e+00,
716,6.80e-03,1.60e-01,
717,8.00e-04,1.20e-01,
718,4.80e-03,8.00e-02,
719,-8.00e-04,1.40e-01,
720,2.40e-03,1.00e-01,
721,-1.20e-03,8.00e-02,
722,2.40e-03,1.00e-01,
723,-8.00e-04,6.00e-02,
724,0.00e+00,6.00e-02,
725,2.00e-03,1.00e-01,
726,2.00e-03,6.00e-02,
727,-8.00e-04,8.00e-02,
728,1.20e-03,6.00e-02,
729,-1.20e-03,8.00e-02,
730,-1.20e-03,8.00e-02,
731,3.60e-03,6.00e-02,
732,3.60e-03,6.00e-02,
733,-2.80e-03,8.00e-02,
734,5.60e-03,8.00e-02,
735,-4.00e-03,6.00e-02,
736,-3.60e-03,8.00e-02,
737,4.80e-03,6.00e-02,
738,2.80e-03,6.00e-02,
739,-1.20e-03,8.00e-02,
740,-8.00e-04,8.00e-02,
741,2.00e-03,4.00e-02,
742,1.20e-03,8.00e-02,
743,-8.00e-04,2.00e-02,
744,-8.00e-04,8.00e-02,
745,1.20e-03,2.00e-02,
746,-4.00e-04,8.00e-02,
747,2.00e-03,2.00e-02,
748,-8.00e-04,2.00e-02,
749,2.00e-03,8.00e-02,
750,-1.20e-03,8.00e-02,
751,2.80e-03,2.00e-02,
752,3.20e-03,2.00e-02,
753,-3.60e-03,8.00e-02,
754,2.80e-03,2.00e-02,
755,8.00e-03,1.86e+00,
756,6.80e-03,1.60e-01,
757,1.60e-03,1.20e-01,
758,5.20e-03,1.20e-01,
759,-8.00e-04,8.00e-02,
760,-4.00e-04,1.00e-01,
761,2.80e-03,6.00e-02,
762,2.40e-03,1.00e-01,
763,-8.00e-04,6.00e-02,
764,-8.00e-04,6.00e-02,
765,2.00e-03,1.00e-01,
766,-8.00e-04,6.00e-02,
767,1.20e-03,8.00e-02,
768,0.00e+00,6.00e-02,
769,1.20e-03,8.00e-02,
770,2.40e-03,8.00e-02,
771,-8.00e-04,6.00e-02,
772,3.20e-03,8.00e-02,
773,-2.80e-03,6.00e-02,
774,5.20e-03,6.00e-02,
775,-3.60e-03,8.00e-02,
776,-3.20e-03,6.00e-02,
777,3.60e-03,8.00e-02,
778,2.80e-03,6.00e-02,
779,-1.20e-03,8.00e-02,
780,-1.20e-03,6.00e-02,
781,2.00e-03,8.00e-02,
782,2.00e-03,8.00e-02,
783,-4.00e-04,4.00e-02,
784,1.20e-03,8.00e-02,
785,0.00e+00,2.00e-02,
786,-8.00e-04,8.00e-02,
787,2.00e-03,4.00e-02,
788,2.00e-03,8.00e-02,
789,-1.20e-03,4.00e-02,
790,2.40e-03,8.00e-02,
791,-1.20e-03,2.00e-02,
792,4.00e-03,2.00e-02,
793,-3.60e-03,8.00e-02,
794,3.20e-03,2.00e-02,
795,8.00e-03,1.98e+00,
796,6.80e-03,1.60e-01,
797,8.00e-04,1.20e-01,
798,4.80e-03,1.40e-01,
799,-1.20e-03,8.00e-02,
800,2.40e-03,1.00e-01,
801,-8.00e-04,8.00e-02,
802,2.40e-03,1.00e-01,
803,-8.00e-04,6.00e-02,
804,2.00e-03,6.00e-02,
805,0.00e+00,1.00e-01,
806,1.20e-03,8.00e-02,
807,-4.00e-04,6.00e-02,
808,2.00e-03,8.00e-02,
809,-1.20e-03,6.00e-02,
810,-1.20e-03,6.00e-02,
811,2.40e-03,8.00e-02,
812,2.80e-03,6.00e-02,
813,-2.80e-03,8.00e-02,
814,-3.60e-03,6.00e-02,
815,5.20e-03,8.00e-02,
816,-2.80e-03,6.00e-02,
817,3.20e-03,8.00e-02,
818,-1.20e-03,8.00e-02,
819,2.80e-03,6.00e-02,
820,-4.00e-04,6.00e-02,
821,2.00e-03,8.00e-02,
822,2.00e-03,6.00e-02,
823,-8.00e-04,8.00e-02,
824,-8.00e-04,8.00e-02,
825,1.20e-03,6.00e-02,
826,-1.20e-03,8.00e-02,
827,2.00e-03,4.00e-02,
828,2.00e-03,2.00e-02,
829,-1.20e-03,8.00e-02,
830,-1.60e-03,8.00e-02,
831,2.80e-03,2.00e-02,
832,4.00e-03,8.00e-02,
833,-3.20e-03,2.00e-02,
834,2.40e-03,2.00e-02,
835,8.00e-03,1.90e+00,
836,6.80e-03,1.60e-01,
837,1.20e-03,1.20e-01,
838,5.20e-03,1.40e-01,
839,-1.20e-03,8.00e-02,
840,-1.20e-03,8.00e-02,
841,2.00e-03,1.00e-01,
842,2.40e-03,1.00e-01,
843,-1.20e-03,6.00e-02,
844,-8.00e-04,1.00e-01,
845,2.00e-03,6.00e-02,
846,0.00e+00,8.00e-02,
847,2.00e-03,6.00e-02,
848,-8.00e-04,6.00e-02,
849,1.60e-03,8.00e-02,
850,2.40e-03,6.00e-02,
851,-1.20e-03,8.00e-02,
852,2.80e-03,6.00e-02,
853,-2.40e-03,8.00e-02,
854,4.80e-03,8.00e-02,
855,-3.20e-03,6.00e-02,
856,-3.20e-03,8.00e-02,
