CarrPurc_P1-19_P2-38_tauVary/Gly91/NewFile9.csv

X,CH1,CH2,Start,Increment,
Sequence,Volt,Volt,-5.000000e-03,1.000000e-04
0,0.00e+00,4.00e-02,
1,1.20e-03,0.00e+00,
2,4.00e-04,4.00e-02,
3,1.20e-03,0.00e+00,
4,0.00e+00,4.00e-02,
5,1.20e-03,0.00e+00,
6,4.00e-04,4.00e-02,
7,1.20e-03,0.00e+00,
8,8.00e-04,4.00e-02,
9,0.00e+00,0.00e+00,
10,4.00e-04,4.00e-02,
11,1.20e-03,0.00e+00,
12,4.00e-04,4.00e-02,
13,1.20e-03,0.00e+00,
14,1.20e-03,0.00e+00,
15,4.00e-04,4.00e-02,
16,1.20e-03,4.00e-02,
17,0.00e+00,0.00e+00,
18,1.20e-03,4.00e-02,
19,4.00e-04,0.00e+00,
20,0.00e+00,4.00e-02,
21,1.20e-03,0.00e+00,
22,1.60e-03,4.00e-02,
23,0.00e+00,0.00e+00,
24,0.00e+00,4.00e-02,
25,1.20e-03,0.00e+00,
26,1.20e-03,4.00e-02,
27,0.00e+00,0.00e+00,
28,0.00e+00,0.00e+00,
29,8.00e-04,4.00e-02,
30,0.00e+00,0.00e+00,
31,8.00e-04,4.00e-02,
32,1.20e-03,4.00e-02,
33,0.00e+00,0.00e+00,
34,4.00e-04,4.00e-02,
35,1.20e-03,0.00e+00,
36,1.20e-03,0.00e+00,
37,0.00e+00,4.00e-02,
38,0.00e+00,4.00e-02,
39,1.20e-03,0.00e+00,
40,1.20e-03,0.00e+00,
41,0.00e+00,4.00e-02,
42,1.20e-03,4.00e-02,
43,0.00e+00,0.00e+00,
44,1.20e-03,4.00e-02,
45,0.00e+00,0.00e+00,
46,1.20e-03,4.00e-02,
47,0.00e+00,0.00e+00,
48,1.20e-03,4.00e-02,
49,0.00e+00,0.00e+00,
50,1.20e-03,4.00e-02,
51,0.00e+00,0.00e+00,
52,0.00e+00,4.00e-02,
53,1.20e-03,0.00e+00,
54,0.00e+00,0.00e+00,
55,5.60e-03,1.68e+00,
56,5.20e-03,1.60e-01,
57,-2.76e-02,8.00e-02,
58,1.44e-02,1.20e-01,
59,-1.40e-02,8.00e-02,
60,6.80e-03,1.00e-01,
61,-7.20e-03,6.00e-02,
62,-1.60e-03,1.00e-01,
63,4.00e-03,6.00e-02,
64,-1.60e-03,6.00e-02,
65,2.80e-03,1.00e-01,
66,3.20e-03,6.00e-02,
67,-1.20e-03,8.00e-02,
68,-1.60e-03,8.00e-02,
69,2.40e-03,6.00e-02,
70,2.40e-03,6.00e-02,
71,-8.00e-04,8.00e-02,
72,-4.00e-04,8.00e-02,
73,2.00e-03,4.00e-02,
74,1.60e-03,6.00e-02,
75,7.60e-03,1.70e+00,
76,6.80e-03,1.60e-01,
77,-7.60e-03,1.00e-01,
78,-7.60e-03,1.20e-01,
79,6.40e-03,8.00e-02,
80,4.00e-03,1.00e-01,
81,-8.00e-04,8.00e-02,
82,-8.00e-04,1.00e-01,
83,2.00e-03,6.00e-02,
84,-1.20e-03,8.00e-02,
85,2.40e-03,6.00e-02,
86,1.20e-03,6.00e-02,
87,-1.20e-03,8.00e-02,
88,-3.20e-03,8.00e-02,
89,5.20e-03,6.00e-02,
90,8.80e-03,6.00e-02,
91,-1.00e-02,8.00e-02,
92,-1.52e-02,6.00e-02,
93,1.84e-02,8.00e-02,
94,-2.04e-02,8.00e-02,
95,2.24e-02,4.00e-02,
96,-1.96e-02,8.00e-02,
97,1.84e-02,2.00e-02,
98,1.16e-02,8.00e-02,
99,-8.40e-03,2.00e-02,
100,-5.20e-03,8.00e-02,
101,5.20e-03,2.00e-02,
102,3.20e-03,8.00e-02,
103,-8.00e-04,2.00e-02,
104,-8.00e-04,2.00e-02,
105,2.40e-03,8.00e-02,
106,-8.00e-04,2.00e-02,
107,2.40e-03,8.00e-02,
108,2.40e-03,2.00e-02,
109,-8.00e-04,8.00e-02,
110,2.00e-03,2.00e-02,
111,-8.00e-04,8.00e-02,
112,0.00e+00,2.00e-02,
113,1.20e-03,8.00e-02,
114,4.00e-04,2.00e-02,
115,7.20e-03,1.84e+00,
116,6.80e-03,1.60e-01,
117,1.20e-03,8.00e-02,
118,2.80e-03,8.00e-02,
119,0.00e+00,1.20e-01,
120,2.00e-03,1.00e-01,
121,-8.00e-04,6.00e-02,
122,1.20e-03,1.00e-01,
123,-1.20e-03,6.00e-02,
124,-8.00e-04,6.00e-02,
125,1.20e-03,8.00e-02,
126,2.40e-03,8.00e-02,
127,-1.60e-03,6.00e-02,
128,-2.40e-03,6.00e-02,
129,4.80e-03,8.00e-02,
130,-5.60e-03,6.00e-02,
131,8.00e-03,8.00e-02,
132,1.12e-02,6.00e-02,
133,-1.32e-02,8.00e-02,
134,1.68e-02,6.00e-02,
135,-1.64e-02,8.00e-02,
136,-1.32e-02,8.00e-02,
137,1.16e-02,2.00e-02,
138,8.40e-03,8.00e-02,
139,-5.20e-03,2.00e-02,
140,-3.20e-03,8.00e-02,
141,3.60e-03,2.00e-02,
142,2.40e-03,8.00e-02,
143,-1.20e-03,2.00e-02,
144,-1.20e-03,8.00e-02,
145,2.00e-03,2.00e-02,
146,2.00e-03,2.00e-02,
147,-4.00e-04,8.00e-02,
148,-8.00e-04,2.00e-02,
149,2.40e-03,8.00e-02,
150,2.80e-03,2.00e-02,
151,-1.60e-03,8.00e-02,
152,-3.60e-03,2.00e-02,
153,5.20e-03,8.00e-02,
154,2.00e-03,1.98e+00,
155,7.20e-03,-2.00e-02,
156,6.80e-03,1.60e-01,
157,8.00e-04,1.00e-01,
158,2.80e-03,1.20e-01,
159,0.00e+00,8.00e-02,
160,1.60e-03,1.00e-01,
161,-8.00e-04,6.00e-02,
162,2.00e-03,1.00e-01,
163,-8.00e-04,6.00e-02,
164,1.20e-03,1.00e-01,
165,-8.00e-04,6.00e-02,
166,2.00e-03,6.00e-02,
167,-8.00e-04,8.00e-02,
168,2.80e-03,6.00e-02,
169,-3.20e-03,8.00e-02,
170,-5.20e-03,8.00e-02,
171,7.60e-03,6.00e-02,
172,1.12e-02,6.00e-02,
173,-1.24e-02,8.00e-02,
174,1.60e-02,6.00e-02,
175,-1.56e-02,8.00e-02,
176,-1.20e-02,8.00e-02,
177,1.16e-02,6.00e-02,
178,7.20e-03,8.00e-02,
179,-5.60e-03,4.00e-02,
180,-3.20e-03,8.00e-02,
181,3.60e-03,2.00e-02,
182,2.00e-03,8.00e-02,
183,-4.00e-04,2.00e-02,
184,-8.00e-04,8.00e-02,
185,1.20e-03,2.00e-02,
186,2.00e-03,8.00e-02,
187,-8.00e-04,2.00e-02,
188,-8.00e-04,8.00e-02,
189,1.20e-03,2.00e-02,
190,2.40e-03,2.00e-02,
191,-1.20e-03,8.00e-02,
192,-3.60e-03,8.00e-02,
193,4.80e-03,2.00e-02,
194,2.80e-03,2.00e-02,
195,8.00e-03,1.98e+00,
196,6.80e-03,1.60e-01,
197,-8.00e-04,1.20e-01,
198,-8.00e-04,8.00e-02,
199,2.80e-03,1.40e-01,
200,2.00e-03,8.00e-02,
201,0.00e+00,1.00e-01,
202,-8.00e-04,6.00e-02,
203,2.40e-03,1.00e-01,
204,-8.00e-04,1.00e-01,
205,2.40e-03,6.00e-02,
206,-1.20e-03,6.00e-02,
207,2.40e-03,8.00e-02,
208,-2.00e-03,8.00e-02,
209,3.20e-03,6.00e-02,
210,-3.60e-03,6.00e-02,
211,6.40e-03,8.00e-02,
212,8.00e-03,6.00e-02,
213,-8.80e-03,8.00e-02,
214,-1.28e-02,8.00e-02,
215,1.32e-02,4.00e-02,
216,-1.08e-02,8.00e-02,
217,1.08e-02,2.00e-02,
218,6.80e-03,8.00e-02,
219,-4.40e-03,2.00e-02,
220,-3.20e-03,8.00e-02,
221,2.80e-03,2.00e-02,
222,0.00e+00,8.00e-02,
223,2.00e-03,2.00e-02,
224,0.00e+00,8.00e-02,
225,1.20e-03,2.00e-02,
226,1.20e-03,8.00e-02,
227,-4.00e-04,2.00e-02,
228,-8.00e-04,8.00e-02,
229,2.00e-03,2.00e-02,
230,-8.00e-04,2.00e-02,
231,2.00e-03,8.00e-02,
232,-1.60e-03,6.00e-02,
233,3.20e-03,2.00e-02,
234,2.40e-03,2.00e-02,
235,7.20e-03,1.80e+00,
236,6.80e-03,1.60e-01,
237,0.00e+00,8.00e-02,
238,2.80e-03,8.00e-02,
239,0.00e+00,1.40e-01,
240,1.20e-03,1.00e-01,
241,-4.00e-04,6.00e-02,
242,0.00e+00,6.00e-02,
243,2.00e-03,1.00e-01,
244,-8.00e-04,6.00e-02,
245,1.60e-03,8.00e-02,
246,2.00e-03,6.00e-02,
247,-8.00e-04,8.00e-02,
248,-2.40e-03,8.00e-02,
249,4.00e-03,6.00e-02,
250,-4.00e-03,8.00e-02,
251,6.80e-03,6.00e-02,
252,9.20e-03,6.00e-02,
253,-9.60e-03,8.00e-02,
254,1.36e-02,8.00e-02,
255,-1.28e-02,4.00e-02,
256,-1.12e-02,8.00e-02,
257,1.00e-02,2.00e-02,
258,6.80e-03,8.00e-02,
259,-4.00e-03,4.00e-02,
260,-2.40e-03,8.00e-02,
261,2.80e-03,2.00e-02,
262,2.00e-03,8.00e-02,
263,-8.00e-04,2.00e-02,
264,-8.00e-04,2.00e-02,
265,2.00e-03,8.00e-02,
266,2.00e-03,8.00e-02,
267,-8.00e-04,2.00e-02,
268,-4.00e-04,2.00e-02,
269,1.20e-03,8.00e-02,
270,-8.00e-04,2.00e-02,
271,2.00e-03,8.00e-02,
272,-1.20e-03,8.00e-02,
273,3.60e-03,2.00e-02,
274,2.80e-03,2.00e+00,
275,7.60e-03,-2.00e-02,
276,6.80e-03,1.60e-01,
277,8.00e-04,1.00e-01,
278,3.20e-03,8.00e-02,
279,-8.00e-04,1.20e-01,
280,1.60e-03,1.00e-01,
281,-8.00e-04,6.00e-02,
282,-8.00e-04,1.00e-01,
283,2.00e-03,6.00e-02,
284,1.20e-03,6.00e-02,
285,-4.00e-04,8.00e-02,
286,2.00e-03,6.00e-02,
287,-8.00e-04,8.00e-02,
288,2.40e-03,6.00e-02,
289,-2.40e-03,8.00e-02,
290,-4.00e-03,6.00e-02,
291,5.20e-03,8.00e-02,
292,8.40e-03,8.00e-02,
293,-8.80e-03,6.00e-02,
294,1.24e-02,8.00e-02,
295,-1.16e-02,4.00e-02,
296,-8.80e-03,8.00e-02,
297,8.40e-03,4.00e-02,
298,5.60e-03,8.00e-02,
299,-4.00e-03,2.00e-02,
300,-2.40e-03,8.00e-02,
301,2.40e-03,2.00e-02,
302,2.40e-03,2.00e-02,
303,-8.00e-04,8.00e-02,
304,-8.00e-04,8.00e-02,
305,1.60e-03,2.00e-02,
306,2.40e-03,2.00e-02,
307,-8.00e-04,8.00e-02,
308,0.00e+00,2.00e-02,
309,2.00e-03,8.00e-02,
310,2.00e-03,2.00e-02,
311,-1.20e-03,8.00e-02,
312,-2.40e-03,2.00e-02,
313,4.00e-03,8.00e-02,
314,3.20e-03,2.00e-02,
315,7.20e-03,1.96e+00,
316,6.80e-03,1.60e-01,
317,4.00e-04,8.00e-02,
318,2.80e-03,1.20e-01,
319,-8.00e-04,8.00e-02,
320,0.00e+00,1.00e-01,
321,2.00e-03,6.00e-02,
322,2.40e-03,1.00e-01,
323,-8.00e-04,6.00e-02,
324,2.40e-03,8.00e-02,
325,-8.00e-04,6.00e-02,
326,-8.00e-04,6.00e-02,
327,2.40e-03,8.00e-02,
328,2.80e-03,6.00e-02,
329,-1.60e-03,8.00e-02,
330,-2.80e-03,6.00e-02,
331,5.20e-03,8.00e-02,
332,7.20e-03,8.00e-02,
333,-8.00e-03,6.00e-02,
334,-1.00e-02,8.00e-02,
335,1.16e-02,4.00e-02,
336,-8.80e-03,8.00e-02,
337,8.40e-03,2.00e-02,
338,6.00e-03,8.00e-02,
339,-4.00e-03,2.00e-02,
340,-2.40e-03,8.00e-02,
341,2.80e-03,2.00e-02,
342,2.00e-03,8.00e-02,
343,0.00e+00,2.00e-02,
344,1.20e-03,2.00e-02,
345,-8.00e-04,8.00e-02,
346,0.00e+00,8.00e-02,
347,1.60e-03,2.00e-02,
348,1.20e-03,8.00e-02,
349,-8.00e-04,2.00e-02,
350,2.40e-03,8.00e-02,
351,-8.00e-04,2.00e-02,
352,-2.40e-03,2.00e-02,
353,3.60e-03,8.00e-02,
354,2.80e-03,2.00e-02,
355,8.00e-03,1.70e+00,
356,6.80e-03,1.60e-01,
357,8.00e-04,8.00e-02,
358,3.20e-03,8.00e-02,
359,0.00e+00,1.40e-01,
360,4.00e-04,1.00e-01,
361,2.40e-03,6.00e-02,
362,2.00e-03,6.00e-02,
363,0.00e+00,1.00e-01,
364,2.00e-03,6.00e-02,
365,-8.00e-04,1.00e-01,
366,2.00e-03,6.00e-02,
367,-8.00e-04,8.00e-02,
368,2.80e-03,6.00e-02,
369,-1.60e-03,8.00e-02,
370,-3.20e-03,6.00e-02,
371,4.40e-03,8.00e-02,
372,6.80e-03,8.00e-02,
373,-6.80e-03,4.00e-02,
374,-8.80e-03,8.00e-02,
375,1.08e-02,4.00e-02,
376,-7.20e-03,8.00e-02,
377,8.00e-03,2.00e-02,
378,5.20e-03,8.00e-02,
379,-2.80e-03,2.00e-02,
380,-1.20e-03,8.00e-02,
381,2.40e-03,2.00e-02,
382,2.00e-03,8.00e-02,
383,0.00e+00,2.00e-02,
384,1.60e-03,2.00e-02,
385,-8.00e-04,8.00e-02,
386,2.00e-03,6.00e-02,
387,-8.00e-04,2.00e-02,
388,1.20e-03,2.00e-02,
389,-8.00e-04,8.00e-02,
390,1.60e-03,2.00e-02,
391,-1.20e-03,8.00e-02,
392,-2.00e-03,4.00e-02,
393,2.80e-03,2.00e-02,
394,2.80e-03,-1.40e-01,
395,7.20e-03,1.96e+00,
396,6.80e-03,1.60e-01,
397,4.00e-04,8.00e-02,
398,3.20e-03,1.20e-01,
399,-8.00e-04,8.00e-02,
400,2.00e-03,1.00e-01,
401,0.00e+00,6.00e-02,
402,2.00e-03,1.00e-01,
403,0.00e+00,6.00e-02,
404,0.00e+00,6.00e-02,
405,2.00e-03,1.00e-01,
406,2.00e-03,6.00e-02,
407,-8.00e-04,8.00e-02,
408,2.00e-03,6.00e-02,
409,-1.60e-03,8.00e-02,
410,-2.80e-03,6.00e-02,
411,4.00e-03,8.00e-02,
412,6.40e-03,8.00e-02,
413,-6.80e-03,6.00e-02,
414,-8.40e-03,6.00e-02,
415,9.60e-03,8.00e-02,
416,-8.00e-03,8.00e-02,
417,7.60e-03,4.00e-02,
418,4.40e-03,8.00e-02,
419,-3.60e-03,2.00e-02,
420,-1.60e-03,8.00e-02,
421,2.40e-03,2.00e-02,
422,2.40e-03,2.00e-02,
423,-8.00e-04,8.00e-02,
424,2.00e-03,8.00e-02,
425,-8.00e-04,2.00e-02,
426,2.00e-03,8.00e-02,
427,-4.00e-04,2.00e-02,
428,-8.00e-04,8.00e-02,
429,1.20e-03,2.00e-02,
430,1.60e-03,6.00e-02,
431,-1.20e-03,2.00e-02,
432,-2.40e-03,8.00e-02,
433,3.60e-03,2.00e-02,
434,3.20e-03,2.00e-02,
435,8.00e-03,2.00e+00,
436,6.80e-03,1.60e-01,
437,8.00e-04,1.00e-01,
438,4.00e-03,1.20e-01,
439,-8.00e-04,8.00e-02,
440,2.80e-03,8.00e-02,
441,-8.00e-04,1.00e-01,
442,-8.00e-04,6.00e-02,
443,2.40e-03,1.00e-01,
444,-8.00e-04,8.00e-02,
445,2.00e-03,6.00e-02,
446,-8.00e-04,6.00e-02,
447,2.00e-03,8.00e-02,
448,2.40e-03,6.00e-02,
449,-1.60e-03,8.00e-02,
450,-2.40e-03,6.00e-02,
451,4.00e-03,8.00e-02,
452,6.40e-03,8.00e-02,
453,-6.00e-03,6.00e-02,
454,-8.40e-03,6.00e-02,
455,9.60e-03,8.00e-02,
456,-7.60e-03,8.00e-02,
457,7.20e-03,6.00e-02,
458,5.20e-03,6.00e-02,
459,-3.20e-03,8.00e-02,
460,-1.60e-03,8.00e-02,
461,2.40e-03,2.00e-02,
462,2.00e-03,8.00e-02,
463,-4.00e-04,2.00e-02,
464,-8.00e-04,2.00e-02,
465,1.60e-03,8.00e-02,
466,1.20e-03,2.00e-02,
467,-1.20e-03,8.00e-02,
468,-4.00e-04,8.00e-02,
469,2.00e-03,2.00e-02,
470,2.00e-03,6.00e-02,
471,-1.20e-03,2.00e-02,
472,-2.40e-03,2.00e-02,
473,3.20e-03,8.00e-02,
474,3.20e-03,2.00e-02,
475,7.20e-03,1.80e+00,
476,6.40e-03,1.60e-01,
477,1.20e-03,1.00e-01,
478,4.00e-03,8.00e-02,
479,-8.00e-04,1.40e-01,
480,2.40e-03,1.00e-01,
481,-8.00e-04,6.00e-02,
482,2.00e-03,6.00e-02,
483,-8.00e-04,1.00e-01,
484,-8.00e-04,8.00e-02,
485,1.20e-03,6.00e-02,
486,-8.00e-04,6.00e-02,
487,2.00e-03,8.00e-02,
488,-1.20e-03,8.00e-02,
489,2.40e-03,6.00e-02,
490,-2.40e-03,6.00e-02,
491,4.80e-03,8.00e-02,
492,5.60e-03,6.00e-02,
493,-5.60e-03,8.00e-02,
494,-7.60e-03,8.00e-02,
495,8.80e-03,2.00e-02,
496,-5.60e-03,8.00e-02,
497,6.40e-03,4.00e-02,
498,4.00e-03,8.00e-02,
499,-2.40e-03,2.00e-02,
500,-1.20e-03,8.00e-02,
501,2.40e-03,2.00e-02,
502,-4.00e-04,8.00e-02,
503,2.00e-03,2.00e-02,
504,2.00e-03,2.00e-02,
505,0.00e+00,8.00e-02,
506,2.40e-03,8.00e-02,
507,-8.00e-04,2.00e-02,
508,1.60e-03,8.00e-02,
509,-8.00e-04,2.00e-02,
510,-8.00e-04,2.00e-02,
511,2.40e-03,8.00e-02,
512,-1.60e-03,8.00e-02,
513,4.00e-03,2.00e-02,
514,3.60e-03,2.00e-02,
515,8.00e-03,1.98e+00,
516,6.80e-03,1.60e-01,
517,8.00e-04,8.00e-02,
518,4.00e-03,1.20e-01,
519,-8.00e-04,8.00e-02,
520,-8.00e-04,1.00e-01,
521,2.00e-03,6.00e-02,
522,2.40e-03,6.00e-02,
523,-4.00e-04,1.00e-01,
524,-8.00e-04,6.00e-02,
525,2.00e-03,1.00e-01,
526,-8.00e-04,6.00e-02,
527,2.00e-03,8.00e-02,
528,-8.00e-04,6.00e-02,
529,2.00e-03,8.00e-02,
530,-1.20e-03,6.00e-02,
531,4.80e-03,8.00e-02,
532,5.60e-03,8.00e-02,
533,-5.60e-03,6.00e-02,
534,-6.80e-03,8.00e-02,
535,8.00e-03,4.00e-02,
536,-5.60e-03,8.00e-02,
537,5.20e-03,2.00e-02,
538,4.00e-03,8.00e-02,
539,-2.40e-03,2.00e-02,
540,-1.60e-03,2.00e-02,
541,2.00e-03,8.00e-02,
542,1.20e-03,2.00e-02,
543,0.00e+00,8.00e-02,
544,-8.00e-04,8.00e-02,
545,1.20e-03,2.00e-02,
546,1.60e-03,2.00e-02,
547,-8.00e-04,8.00e-02,
548,-8.00e-04,2.00e-02,
549,2.00e-03,8.00e-02,
550,2.40e-03,2.00e-02,
551,-8.00e-04,6.00e-02,
552,-1.60e-03,2.00e-02,
553,3.20e-03,8.00e-02,
554,3.20e-03,2.00e-02,
555,7.20e-03,1.86e+00,
556,6.40e-03,1.60e-01,
557,8.00e-04,1.00e-01,
558,4.40e-03,1.40e-01,
559,-1.20e-03,8.00e-02,
560,2.40e-03,1.00e-01,
561,-8.00e-04,6.00e-02,
562,-8.00e-04,1.00e-01,
563,2.40e-03,6.00e-02,
564,0.00e+00,6.00e-02,
565,2.40e-03,1.00e-01,
566,1.20e-03,6.00e-02,
567,-8.00e-04,8.00e-02,
568,2.00e-03,6.00e-02,
569,-8.00e-04,8.00e-02,
570,-2.80e-03,8.00e-02,
571,3.60e-03,6.00e-02,
572,4.40e-03,6.00e-02,
573,-4.40e-03,8.00e-02,
574,6.80e-03,8.00e-02,
575,-6.00e-03,6.00e-02,
576,-4.80e-03,8.00e-02,
577,6.00e-03,4.00e-02,
578,4.00e-03,2.00e-02,
579,-2.40e-03,8.00e-02,
580,-1.60e-03,8.00e-02,
581,2.40e-03,4.00e-02,
582,2.00e-03,8.00e-02,
583,-4.00e-04,2.00e-02,
584,1.60e-03,8.00e-02,
585,-4.00e-04,2.00e-02,
586,2.00e-03,2.00e-02,
587,-8.00e-04,8.00e-02,
588,-8.00e-04,8.00e-02,
589,1.20e-03,2.00e-02,
590,-1.20e-03,2.00e-02,
591,2.40e-03,8.00e-02,
592,3.60e-03,2.00e-02,
593,-2.80e-03,6.00e-02,
594,2.80e-03,2.00e-02,
595,8.00e-03,1.66e+00,
596,6.80e-03,1.60e-01,
597,8.00e-04,8.00e-02,
598,4.00e-03,1.40e-01,
599,-8.00e-04,8.00e-02,
600,-8.00e-04,1.00e-01,
601,2.40e-03,6.00e-02,
602,2.40e-03,1.00e-01,
603,-4.00e-04,6.00e-02,
604,-8.00e-04,6.00e-02,
605,2.00e-03,8.00e-02,
606,-4.00e-04,6.00e-02,
607,2.00e-03,8.00e-02,
608,-1.20e-03,6.00e-02,
609,2.00e-03,8.00e-02,
610,-1.60e-03,6.00e-02,
611,4.00e-03,8.00e-02,
612,5.20e-03,8.00e-02,
613,-4.40e-03,6.00e-02,
614,-6.00e-03,6.00e-02,
615,7.60e-03,8.00e-02,
616,-4.80e-03,8.00e-02,
617,5.20e-03,2.00e-02,
618,3.60e-03,8.00e-02,
619,-1.60e-03,4.00e-02,
620,-1.20e-03,8.00e-02,
621,2.00e-03,2.00e-02,
622,0.00e+00,8.00e-02,
623,2.00e-03,2.00e-02,
624,0.00e+00,2.00e-02,
625,1.60e-03,8.00e-02,
626,-4.00e-04,2.00e-02,
627,2.00e-03,8.00e-02,
628,-1.20e-03,8.00e-02,
629,1.60e-03,2.00e-02,
630,2.00e-03,8.00e-02,
631,-1.20e-03,2.00e-02,
632,4.00e-03,6.00e-02,
633,-2.80e-03,2.00e-02,
634,3.60e-03,2.00e-02,
635,7.20e-03,1.86e+00,
636,6.80e-03,1.60e-01,
637,8.00e-04,1.00e-01,
638,4.00e-03,1.20e-01,
639,-8.00e-04,8.00e-02,
640,-4.00e-04,1.00e-01,
641,2.40e-03,6.00e-02,
642,2.40e-03,1.00e-01,
643,-8.00e-04,6.00e-02,
644,0.00e+00,6.00e-02,
645,2.00e-03,1.00e-01,
646,0.00e+00,6.00e-02,
647,1.60e-03,8.00e-02,
648,2.40e-03,6.00e-02,
649,-1.20e-03,8.00e-02,
650,-1.60e-03,6.00e-02,
651,3.60e-03,8.00e-02,
652,4.40e-03,6.00e-02,
653,-4.40e-03,8.00e-02,
654,-5.20e-03,8.00e-02,
655,7.20e-03,4.00e-02,
656,-4.40e-03,8.00e-02,
657,5.60e-03,2.00e-02,
658,4.00e-03,8.00e-02,
659,-1.20e-03,2.00e-02,
660,2.40e-03,8.00e-02,
661,-1.60e-03,2.00e-02,
662,2.00e-03,8.00e-02,
663,-8.00e-04,2.00e-02,
664,-8.00e-04,2.00e-02,
665,1.20e-03,8.00e-02,
666,-8.00e-04,8.00e-02,
667,2.40e-03,2.00e-02,
668,2.00e-03,2.00e-02,
669,-1.20e-03,8.00e-02,
670,-1.20e-03,2.00e-02,
671,2.80e-03,8.00e-02,
672,4.00e-03,2.00e-02,
673,-3.60e-03,8.00e-02,
674,3.20e-03,1.92e+00,
675,7.60e-03,0.00e+00,
676,6.80e-03,1.60e-01,
677,8.00e-04,8.00e-02,
678,4.80e-03,8.00e-02,
679,-8.00e-04,1.40e-01,
680,-8.00e-04,1.00e-01,
681,2.40e-03,6.00e-02,
682,2.40e-03,1.00e-01,
683,-8.00e-04,6.00e-02,
684,-4.00e-04,6.00e-02,
685,2.00e-03,8.00e-02,
686,2.00e-03,6.00e-02,
687,-8.00e-04,8.00e-02,
688,2.40e-03,6.00e-02,
689,-8.00e-04,8.00e-02,
690,-1.20e-03,6.00e-02,
691,3.60e-03,8.00e-02,
692,4.40e-03,6.00e-02,
693,-3.60e-03,8.00e-02,
694,6.40e-03,8.00e-02,
695,-4.40e-03,4.00e-02,
696,-4.00e-03,8.00e-02,
697,4.80e-03,2.00e-02,
698,3.20e-03,8.00e-02,
699,-1.60e-03,2.00e-02,
700,-1.20e-03,2.00e-02,
701,1.20e-03,8.00e-02,
702,1.20e-03,8.00e-02,
703,-4.00e-04,2.00e-02,
704,2.00e-03,2.00e-02,
705,-4.00e-04,8.00e-02,
706,2.00e-03,2.00e-02,
707,-8.00e-04,8.00e-02,
708,-8.00e-04,2.00e-02,
709,1.60e-03,8.00e-02,
710,2.40e-03,2.00e-02,
711,-1.20e-03,8.00e-02,
712,3.60e-03,6.00e-02,
713,-2.80e-03,2.00e-02,
714,2.80e-03,2.00e-02,
715,7.60e-03,1.98e+00,
716,6.80e-03,1.60e-01,
717,8.00e-04,1.20e-01,
718,4.80e-03,1.20e-01,
719,-8.00e-04,8.00e-02,
720,-8.00e-04,1.00e-01,
721,2.00e-03,6.00e-02,
722,2.00e-03,1.00e-01,
723,-8.00e-04,6.00e-02,
724,-8.00e-04,6.00e-02,
725,1.60e-03,8.00e-02,
726,4.00e-04,6.00e-02,
727,2.00e-03,8.00e-02,
728,2.00e-03,6.00e-02,
729,-1.20e-03,8.00e-02,
730,-1.60e-03,8.00e-02,
731,2.80e-03,6.00e-02,
732,3.60e-03,6.00e-02,
733,-3.60e-03,8.00e-02,
734,-4.40e-03,8.00e-02,
735,5.60e-03,6.00e-02,
736,-3.60e-03,8.00e-02,
737,4.00e-03,2.00e-02,
738,2.40e-03,8.00e-02,
739,-1.20e-03,2.00e-02,
740,-8.00e-04,8.00e-02,
741,2.00e-03,2.00e-02,
742,2.00e-03,2.00e-02,
743,0.00e+00,8.00e-02,
744,-8.00e-04,2.00e-02,
745,1.20e-03,8.00e-02,
746,-4.00e-04,2.00e-02,
747,2.00e-03,8.00e-02,
748,-4.00e-04,2.00e-02,
749,2.00e-03,8.00e-02,
750,2.40e-03,2.00e-02,
751,-1.20e-03,8.00e-02,
752,3.60e-03,2.00e-02,
753,-2.80e-03,4.00e-02,
754,2.80e-03,2.00e-02,
755,8.00e-03,1.86e+00,
756,6.80e-03,1.60e-01,
757,1.20e-03,8.00e-02,
758,4.40e-03,8.00e-02,
759,-8.00e-04,1.20e-01,
760,2.80e-03,1.00e-01,
761,-8.00e-04,6.00e-02,
762,2.40e-03,1.00e-01,
763,-4.00e-04,6.00e-02,
764,-8.00e-04,6.00e-02,
765,2.00e-03,8.00e-02,
766,2.00e-03,6.00e-02,
767,0.00e+00,8.00e-02,
768,1.60e-03,6.00e-02,
769,-8.00e-04,8.00e-02,
770,-8.00e-04,8.00e-02,
771,2.80e-03,6.00e-02,
772,4.00e-03,8.00e-02,
773,-2.80e-03,6.00e-02,
774,-4.00e-03,8.00e-02,
775,5.60e-03,4.00e-02,
776,-2.40e-03,8.00e-02,
777,4.00e-03,2.00e-02,
778,2.80e-03,8.00e-02,
779,-1.60e-03,2.00e-02,
780,-8.00e-04,8.00e-02,
781,2.00e-03,2.00e-02,
782,2.00e-03,8.00e-02,
783,0.00e+00,2.00e-02,
784,-8.00e-04,2.00e-02,
785,2.00e-03,8.00e-02,
786,-8.00e-04,2.00e-02,
787,2.00e-03,8.00e-02,
788,2.00e-03,2.00e-02,
789,-1.20e-03,8.00e-02,
790,-1.20e-03,2.00e-02,
791,2.40e-03,6.00e-02,
792,3.60e-03,2.00e-02,
793,-2.80e-03,6.00e-02,
794,2.00e-03,1.94e+00,
795,7.20e-03,-2.00e-02,
796,6.40e-03,1.60e-01,
797,4.00e-04,1.00e-01,
798,4.80e-03,1.40e-01,
799,-8.00e-04,8.00e-02,
800,-8.00e-04,1.00e-01,
801,2.40e-03,6.00e-02,
802,2.40e-03,1.00e-01,
803,0.00e+00,6.00e-02,
804,-8.00e-04,6.00e-02,
805,2.00e-03,8.00e-02,
806,2.00e-03,8.00e-02,
807,-4.00e-04,6.00e-02,
808,2.00e-03,8.00e-02,
809,-8.00e-04,6.00e-02,
810,-1.20e-03,6.00e-02,
811,2.40e-03,8.00e-02,
812,3.60e-03,8.00e-02,
813,-2.80e-03,4.00e-02,
814,-3.60e-03,8.00e-02,
815,5.60e-03,2.00e-02,
816,-2.80e-03,2.00e-02,
817,4.40e-03,8.00e-02,
818,3.20e-03,8.00e-02,
819,-8.00e-04,2.00e-02,
820,-8.00e-04,8.00e-02,
821,2.00e-03,2.00e-02,
822,0.00e+00,2.00e-02,
823,2.00e-03,8.00e-02,
824,-4.00e-04,2.00e-02,
825,2.00e-03,8.00e-02,
826,-8.00e-04,2.00e-02,
827,2.00e-03,8.00e-02,
828,-1.20e-03,2.00e-02,
829,1.60e-03,8.00e-02,
830,2.40e-03,2.00e-02,
831,-1.60e-03,6.00e-02,
832,4.00e-03,4.00e-02,
833,-4.00e-03,2.00e-02,
834,2.40e-03,2.00e-02,
835,8.00e-03,2.00e+00,
836,6.80e-03,1.60e-01,
837,1.20e-03,8.00e-02,
838,5.20e-03,1.20e-01,
839,-1.20e-03,8.00e-02,
840,-8.00e-04,1.00e-01,
841,2.80e-03,6.00e-02,
842,2.40e-03,1.00e-01,
843,-1.20e-03,6.00e-02,
844,-8.00e-04,6.00e-02,
845,2.00e-03,8.00e-02,
846,0.00e+00,8.00e-02,
847,2.00e-03,6.00e-02,
848,2.00e-03,6.00e-02,
849,-1.20e-03,8.00e-02,
850,-1.60e-03,6.00e-02,
851,2.80e-03,8.00e-02,
852,3.60e-03,6.00e-02,
853,-3.20e-03,8.00e-02,
854,4.80e-03,8.00e-02,
855,-4.40e-03,4.00e-02,
