CarrPurc_P1-19_P2-38_tauVary/Gly91/NewFile6.csv

X,CH1,CH2,Start,Increment,
Sequence,Volt,Volt,-5.000000e-03,1.000000e-04
0,0.00e+00,4.00e-02,
1,1.20e-03,0.00e+00,
2,4.00e-04,4.00e-02,
3,1.20e-03,0.00e+00,
4,0.00e+00,4.00e-02,
5,1.20e-03,0.00e+00,
6,4.00e-04,2.00e-02,
7,1.20e-03,4.00e-02,
8,1.20e-03,4.00e-02,
9,0.00e+00,0.00e+00,
10,0.00e+00,4.00e-02,
11,1.20e-03,0.00e+00,
12,1.20e-03,4.00e-02,
13,4.00e-04,0.00e+00,
14,1.20e-03,4.00e-02,
15,0.00e+00,0.00e+00,
16,0.00e+00,4.00e-02,
17,1.20e-03,0.00e+00,
18,1.20e-03,4.00e-02,
19,4.00e-04,0.00e+00,
20,1.20e-03,4.00e-02,
21,4.00e-04,0.00e+00,
22,1.20e-03,4.00e-02,
23,0.00e+00,0.00e+00,
24,4.00e-04,4.00e-02,
25,1.20e-03,0.00e+00,
26,4.00e-04,4.00e-02,
27,1.20e-03,0.00e+00,
28,4.00e-04,4.00e-02,
29,1.20e-03,0.00e+00,
30,4.00e-04,4.00e-02,
31,1.20e-03,0.00e+00,
32,1.20e-03,4.00e-02,
33,0.00e+00,0.00e+00,
34,4.00e-04,4.00e-02,
35,1.20e-03,2.00e-02,
36,1.20e-03,4.00e-02,
37,0.00e+00,0.00e+00,
38,1.20e-03,4.00e-02,
39,0.00e+00,0.00e+00,
40,0.00e+00,4.00e-02,
41,1.20e-03,0.00e+00,
42,1.20e-03,4.00e-02,
43,0.00e+00,0.00e+00,
44,0.00e+00,4.00e-02,
45,1.20e-03,0.00e+00,
46,8.00e-04,4.00e-02,
47,0.00e+00,0.00e+00,
48,0.00e+00,4.00e-02,
49,1.20e-03,0.00e+00,
50,4.00e-04,4.00e-02,
51,1.20e-03,0.00e+00,
52,4.00e-04,4.00e-02,
53,1.20e-03,0.00e+00,
54,4.00e-04,1.82e+00,
55,5.60e-03,-6.00e-02,
56,5.20e-03,1.60e-01,
57,-2.76e-02,8.00e-02,
58,1.72e-02,1.20e-01,
59,-1.40e-02,8.00e-02,
60,6.80e-03,1.00e-01,
61,-7.20e-03,6.00e-02,
62,-1.60e-03,6.00e-02,
63,4.00e-03,1.00e-01,
64,2.80e-03,6.00e-02,
65,-2.00e-03,1.00e-01,
66,2.80e-03,6.00e-02,
67,-2.40e-03,8.00e-02,
68,-8.00e-04,8.00e-02,
69,2.80e-03,6.00e-02,
70,2.40e-03,6.00e-02,
71,-8.00e-04,8.00e-02,
72,-8.00e-04,8.00e-02,
73,2.40e-03,6.00e-02,
74,2.00e-03,2.00e+00,
75,6.80e-03,2.00e-02,
76,6.80e-03,1.60e-01,
77,-7.20e-03,1.00e-01,
78,-7.20e-03,1.20e-01,
79,6.80e-03,8.00e-02,
80,4.00e-03,1.00e-01,
81,-8.00e-04,6.00e-02,
82,-8.00e-04,1.00e-01,
83,2.00e-03,6.00e-02,
84,-1.20e-03,1.00e-01,
85,2.00e-03,6.00e-02,
86,2.00e-03,6.00e-02,
87,-1.20e-03,8.00e-02,
88,-2.80e-03,8.00e-02,
89,5.60e-03,6.00e-02,
90,9.20e-03,6.00e-02,
91,-9.20e-03,8.00e-02,
92,-1.48e-02,6.00e-02,
93,1.96e-02,8.00e-02,
94,-2.00e-02,6.00e-02,
95,2.28e-02,8.00e-02,
96,-1.84e-02,6.00e-02,
97,1.88e-02,8.00e-02,
98,1.20e-02,8.00e-02,
99,-8.80e-03,2.00e-02,
100,-5.20e-03,8.00e-02,
101,5.60e-03,4.00e-02,
102,2.80e-03,8.00e-02,
103,0.00e+00,2.00e-02,
104,2.40e-03,8.00e-02,
105,-4.00e-04,2.00e-02,
106,-1.20e-03,2.00e-02,
107,1.60e-03,8.00e-02,
108,2.00e-03,8.00e-02,
109,-4.00e-04,2.00e-02,
110,-4.00e-04,2.00e-02,
111,1.60e-03,8.00e-02,
112,-8.00e-04,2.00e-02,
113,2.00e-03,8.00e-02,
114,4.00e-04,2.00e-02,
115,7.20e-03,1.80e+00,
116,6.80e-03,1.60e-01,
117,1.20e-03,8.00e-02,
118,2.80e-03,1.40e-01,
119,4.00e-04,8.00e-02,
120,2.00e-03,1.00e-01,
121,-8.00e-04,6.00e-02,
122,2.40e-03,6.00e-02,
123,0.00e+00,1.00e-01,
124,-8.00e-04,6.00e-02,
125,2.00e-03,1.00e-01,
126,2.80e-03,8.00e-02,
127,-1.60e-03,6.00e-02,
128,-2.80e-03,6.00e-02,
129,4.80e-03,8.00e-02,
130,-5.20e-03,6.00e-02,
131,8.40e-03,8.00e-02,
132,1.24e-02,6.00e-02,
133,-1.40e-02,8.00e-02,
134,1.72e-02,6.00e-02,
135,-1.56e-02,8.00e-02,
136,-1.48e-02,8.00e-02,
137,1.08e-02,4.00e-02,
138,7.60e-03,8.00e-02,
139,-5.60e-03,4.00e-02,
140,-3.20e-03,8.00e-02,
141,4.00e-03,2.00e-02,
142,2.80e-03,8.00e-02,
143,-8.00e-04,2.00e-02,
144,2.00e-03,8.00e-02,
145,-8.00e-04,2.00e-02,
146,2.00e-03,8.00e-02,
147,-8.00e-04,2.00e-02,
148,-4.00e-04,2.00e-02,
149,2.00e-03,8.00e-02,
150,2.80e-03,2.00e-02,
151,-2.40e-03,8.00e-02,
152,-3.60e-03,2.00e-02,
153,5.60e-03,8.00e-02,
154,2.80e-03,2.00e-02,
155,7.60e-03,1.90e+00,
156,6.80e-03,1.60e-01,
157,4.00e-04,1.00e-01,
158,2.80e-03,8.00e-02,
159,0.00e+00,1.40e-01,
160,1.60e-03,1.00e-01,
161,-8.00e-04,8.00e-02,
162,-8.00e-04,1.00e-01,
163,2.40e-03,6.00e-02,
164,2.40e-03,6.00e-02,
165,-8.00e-04,1.00e-01,
166,-8.00e-04,6.00e-02,
167,2.40e-03,8.00e-02,
168,3.60e-03,6.00e-02,
169,-3.60e-03,8.00e-02,
170,-5.20e-03,8.00e-02,
171,6.80e-03,6.00e-02,
172,1.16e-02,6.00e-02,
173,-1.32e-02,8.00e-02,
174,1.64e-02,6.00e-02,
175,-1.60e-02,8.00e-02,
176,-1.28e-02,8.00e-02,
177,1.16e-02,6.00e-02,
178,8.00e-03,8.00e-02,
179,-5.60e-03,2.00e-02,
180,-3.60e-03,8.00e-02,
181,4.00e-03,2.00e-02,
182,2.40e-03,8.00e-02,
183,-8.00e-04,2.00e-02,
184,2.40e-03,8.00e-02,
185,-1.20e-03,2.00e-02,
186,2.00e-03,8.00e-02,
187,-8.00e-04,2.00e-02,
188,0.00e+00,8.00e-02,
189,2.00e-03,2.00e-02,
190,2.40e-03,2.00e-02,
191,-1.60e-03,8.00e-02,
192,-3.60e-03,2.00e-02,
193,5.20e-03,8.00e-02,
194,2.80e-03,2.00e-02,
195,7.20e-03,1.92e+00,
196,6.80e-03,1.60e-01,
197,-8.00e-04,1.00e-01,
198,-8.00e-04,1.20e-01,
199,3.60e-03,8.00e-02,
200,1.20e-03,8.00e-02,
201,-8.00e-04,1.00e-01,
202,-8.00e-04,1.00e-01,
203,2.40e-03,6.00e-02,
204,-8.00e-04,6.00e-02,
205,2.40e-03,8.00e-02,
206,2.40e-03,6.00e-02,
207,-1.20e-03,8.00e-02,
208,-1.60e-03,8.00e-02,
209,4.00e-03,6.00e-02,
210,-4.00e-03,6.00e-02,
211,5.60e-03,8.00e-02,
212,8.40e-03,6.00e-02,
213,-9.60e-03,8.00e-02,
214,-1.32e-02,6.00e-02,
215,1.60e-02,8.00e-02,
216,-1.20e-02,8.00e-02,
217,1.00e-02,2.00e-02,
218,6.80e-03,8.00e-02,
219,-4.80e-03,4.00e-02,
220,-2.80e-03,8.00e-02,
221,3.60e-03,2.00e-02,
222,2.00e-03,8.00e-02,
223,-1.20e-03,2.00e-02,
224,0.00e+00,8.00e-02,
225,1.20e-03,2.00e-02,
226,1.20e-03,8.00e-02,
227,0.00e+00,2.00e-02,
228,0.00e+00,2.00e-02,
229,1.60e-03,8.00e-02,
230,2.40e-03,8.00e-02,
231,-1.20e-03,2.00e-02,
232,-1.60e-03,2.00e-02,
233,4.00e-03,6.00e-02,
234,3.20e-03,1.78e+00,
235,7.60e-03,-2.00e-02,
236,6.80e-03,1.60e-01,
237,-8.00e-04,1.20e-01,
238,-4.00e-04,1.40e-01,
239,3.60e-03,8.00e-02,
240,2.00e-03,1.00e-01,
241,0.00e+00,6.00e-02,
242,0.00e+00,6.00e-02,
243,2.00e-03,1.00e-01,
244,-8.00e-04,6.00e-02,
245,2.00e-03,1.00e-01,
246,2.00e-03,6.00e-02,
247,-1.20e-03,8.00e-02,
248,-2.40e-03,8.00e-02,
249,4.00e-03,6.00e-02,
250,-4.00e-03,8.00e-02,
251,6.40e-03,6.00e-02,
252,8.40e-03,6.00e-02,
253,-9.60e-03,8.00e-02,
254,-1.20e-02,8.00e-02,
255,1.28e-02,6.00e-02,
256,-1.00e-02,8.00e-02,
257,1.00e-02,6.00e-02,
258,5.60e-03,2.00e-02,
259,-3.60e-03,8.00e-02,
260,-2.40e-03,8.00e-02,
261,2.80e-03,4.00e-02,
262,2.80e-03,8.00e-02,
263,0.00e+00,2.00e-02,
264,2.00e-03,2.00e-02,
265,-8.00e-04,8.00e-02,
266,2.00e-03,8.00e-02,
267,0.00e+00,2.00e-02,
268,-8.00e-04,2.00e-02,
269,2.40e-03,8.00e-02,
270,2.40e-03,2.00e-02,
271,-1.20e-03,8.00e-02,
272,-1.60e-03,8.00e-02,
273,4.40e-03,2.00e-02,
274,3.60e-03,2.00e-02,
275,7.60e-03,1.78e+00,
276,6.80e-03,1.60e-01,
277,4.00e-04,1.00e-01,
278,3.20e-03,1.20e-01,
279,-8.00e-04,8.00e-02,
280,0.00e+00,1.00e-01,
281,1.60e-03,6.00e-02,
282,-8.00e-04,1.00e-01,
283,2.00e-03,6.00e-02,
284,-8.00e-04,6.00e-02,
285,2.00e-03,8.00e-02,
286,0.00e+00,6.00e-02,
287,2.00e-03,8.00e-02,
288,2.40e-03,6.00e-02,
289,-1.60e-03,8.00e-02,
290,-3.60e-03,6.00e-02,
291,5.20e-03,8.00e-02,
292,8.40e-03,8.00e-02,
293,-8.80e-03,6.00e-02,
294,-1.20e-02,6.00e-02,
295,1.28e-02,8.00e-02,
296,-1.00e-02,8.00e-02,
297,9.20e-03,4.00e-02,
298,6.40e-03,8.00e-02,
299,-4.00e-03,2.00e-02,
300,-2.80e-03,8.00e-02,
301,2.40e-03,2.00e-02,
302,1.20e-03,2.00e-02,
303,-1.20e-03,8.00e-02,
304,1.60e-03,2.00e-02,
305,-8.00e-04,8.00e-02,
306,2.00e-03,8.00e-02,
307,-8.00e-04,2.00e-02,
308,1.20e-03,2.00e-02,
309,-8.00e-04,8.00e-02,
310,-8.00e-04,2.00e-02,
311,2.00e-03,8.00e-02,
312,-1.60e-03,2.00e-02,
313,4.00e-03,8.00e-02,
314,3.60e-03,2.00e-02,
315,7.20e-03,1.94e+00,
316,6.80e-03,1.60e-01,
317,8.00e-04,8.00e-02,
318,3.60e-03,1.20e-01,
319,-8.00e-04,8.00e-02,
320,-8.00e-04,1.00e-01,
321,2.40e-03,8.00e-02,
322,2.40e-03,1.00e-01,
323,-8.00e-04,6.00e-02,
324,2.40e-03,6.00e-02,
325,-8.00e-04,1.00e-01,
326,-8.00e-04,6.00e-02,
327,2.00e-03,8.00e-02,
328,2.40e-03,6.00e-02,
329,-1.60e-03,8.00e-02,
330,-2.80e-03,6.00e-02,
331,4.40e-03,8.00e-02,
332,7.20e-03,8.00e-02,
333,-6.80e-03,6.00e-02,
334,-1.00e-02,6.00e-02,
335,1.24e-02,8.00e-02,
336,-8.40e-03,8.00e-02,
337,8.40e-03,4.00e-02,
338,5.20e-03,8.00e-02,
339,-3.20e-03,4.00e-02,
340,-1.60e-03,2.00e-02,
341,2.80e-03,8.00e-02,
342,2.40e-03,8.00e-02,
343,-4.00e-04,2.00e-02,
344,0.00e+00,8.00e-02,
345,2.00e-03,2.00e-02,
346,1.20e-03,8.00e-02,
347,-8.00e-04,2.00e-02,
348,0.00e+00,8.00e-02,
349,1.20e-03,2.00e-02,
350,1.20e-03,8.00e-02,
351,-1.20e-03,2.00e-02,
352,-2.40e-03,2.00e-02,
353,4.00e-03,6.00e-02,
354,3.60e-03,2.00e-02,
355,7.20e-03,1.88e+00,
356,6.80e-03,1.60e-01,
357,4.00e-04,8.00e-02,
358,3.60e-03,1.40e-01,
359,0.00e+00,8.00e-02,
360,-8.00e-04,1.00e-01,
361,2.00e-03,6.00e-02,
362,2.40e-03,6.00e-02,
363,-8.00e-04,1.00e-01,
364,-8.00e-04,1.00e-01,
365,2.40e-03,6.00e-02,
366,2.00e-03,6.00e-02,
367,-8.00e-04,8.00e-02,
368,2.40e-03,6.00e-02,
369,-1.60e-03,8.00e-02,
370,-3.60e-03,6.00e-02,
371,5.20e-03,8.00e-02,
372,6.40e-03,6.00e-02,
373,-7.60e-03,8.00e-02,
374,-8.80e-03,6.00e-02,
375,1.08e-02,8.00e-02,
376,-7.60e-03,8.00e-02,
377,8.40e-03,4.00e-02,
378,4.80e-03,8.00e-02,
379,-3.20e-03,2.00e-02,
380,-1.60e-03,8.00e-02,
381,2.80e-03,4.00e-02,
382,0.00e+00,4.00e-02,
383,2.40e-03,8.00e-02,
384,1.60e-03,8.00e-02,
385,-8.00e-04,2.00e-02,
386,2.00e-03,2.00e-02,
387,-4.00e-04,8.00e-02,
388,-8.00e-04,2.00e-02,
389,1.20e-03,8.00e-02,
390,2.40e-03,8.00e-02,
391,-1.60e-03,2.00e-02,
392,-2.80e-03,8.00e-02,
393,4.00e-03,2.00e-02,
394,3.60e-03,2.00e-02,
395,8.00e-03,1.76e+00,
396,6.80e-03,1.60e-01,
397,1.20e-03,8.00e-02,
398,4.00e-03,8.00e-02,
399,-8.00e-04,1.40e-01,
400,0.00e+00,1.00e-01,
401,2.00e-03,6.00e-02,
402,2.00e-03,6.00e-02,
403,0.00e+00,1.00e-01,
404,-8.00e-04,1.00e-01,
405,2.40e-03,6.00e-02,
406,2.00e-03,6.00e-02,
407,-8.00e-04,8.00e-02,
408,-1.20e-03,6.00e-02,
409,2.40e-03,8.00e-02,
410,-2.40e-03,6.00e-02,
411,4.80e-03,8.00e-02,
412,6.40e-03,8.00e-02,
413,-6.00e-03,6.00e-02,
414,-8.40e-03,8.00e-02,
415,1.00e-02,2.00e-02,
416,-7.20e-03,8.00e-02,
417,6.80e-03,2.00e-02,
418,5.20e-03,8.00e-02,
419,-2.40e-03,2.00e-02,
420,-1.60e-03,2.00e-02,
421,2.40e-03,8.00e-02,
422,2.00e-03,2.00e-02,
423,-8.00e-04,8.00e-02,
424,-8.00e-04,8.00e-02,
425,1.60e-03,2.00e-02,
426,2.00e-03,2.00e-02,
427,-8.00e-04,8.00e-02,
428,2.00e-03,8.00e-02,
429,-8.00e-04,2.00e-02,
430,2.00e-03,2.00e-02,
431,-1.20e-03,8.00e-02,
432,-2.80e-03,2.00e-02,
433,4.00e-03,8.00e-02,
434,3.60e-03,2.00e-02,
435,7.20e-03,1.96e+00,
436,6.80e-03,1.60e-01,
437,4.00e-04,8.00e-02,
438,4.00e-03,1.20e-01,
439,-8.00e-04,8.00e-02,
440,-8.00e-04,1.00e-01,
441,2.00e-03,6.00e-02,
442,2.40e-03,1.00e-01,
443,-8.00e-04,6.00e-02,
444,-8.00e-04,8.00e-02,
445,2.00e-03,6.00e-02,
446,-8.00e-04,6.00e-02,
447,2.00e-03,8.00e-02,
448,-8.00e-04,6.00e-02,
449,2.40e-03,8.00e-02,
450,-1.60e-03,6.00e-02,
451,4.40e-03,8.00e-02,
452,5.20e-03,8.00e-02,
453,-6.80e-03,4.00e-02,
454,-8.80e-03,6.00e-02,
455,8.80e-03,8.00e-02,
456,-8.00e-03,8.00e-02,
457,6.80e-03,4.00e-02,
458,4.40e-03,8.00e-02,
459,-3.20e-03,2.00e-02,
460,-1.60e-03,8.00e-02,
461,2.40e-03,2.00e-02,
462,2.00e-03,2.00e-02,
463,-8.00e-04,8.00e-02,
464,-8.00e-04,2.00e-02,
465,2.00e-03,8.00e-02,
466,-8.00e-04,2.00e-02,
467,2.00e-03,8.00e-02,
468,-4.00e-04,2.00e-02,
469,2.40e-03,8.00e-02,
470,2.40e-03,2.00e-02,
471,-1.20e-03,8.00e-02,
472,-2.00e-03,2.00e-02,
473,4.00e-03,8.00e-02,
474,3.60e-03,1.82e+00,
475,7.60e-03,-2.00e-02,
476,6.80e-03,1.60e-01,
477,1.20e-03,8.00e-02,
478,4.40e-03,1.20e-01,
479,-8.00e-04,8.00e-02,
480,-8.00e-04,1.00e-01,
481,1.60e-03,6.00e-02,
482,2.00e-03,1.00e-01,
483,-8.00e-04,6.00e-02,
484,2.00e-03,6.00e-02,
485,-8.00e-04,1.00e-01,
486,-4.00e-04,6.00e-02,
487,2.00e-03,8.00e-02,
488,-1.20e-03,8.00e-02,
489,2.40e-03,6.00e-02,
490,-2.40e-03,6.00e-02,
491,4.00e-03,8.00e-02,
492,5.60e-03,6.00e-02,
493,-5.60e-03,8.00e-02,
494,-6.40e-03,6.00e-02,
495,8.80e-03,8.00e-02,
496,-6.00e-03,8.00e-02,
497,6.00e-03,4.00e-02,
498,4.00e-03,8.00e-02,
499,-2.80e-03,4.00e-02,
500,-1.60e-03,8.00e-02,
501,2.00e-03,2.00e-02,
502,2.00e-03,8.00e-02,
503,0.00e+00,2.00e-02,
504,0.00e+00,8.00e-02,
505,1.20e-03,2.00e-02,
506,2.00e-03,8.00e-02,
507,0.00e+00,2.00e-02,
508,0.00e+00,2.00e-02,
509,2.00e-03,8.00e-02,
510,-1.20e-03,8.00e-02,
511,2.40e-03,2.00e-02,
512,-2.40e-03,2.00e-02,
513,4.00e-03,8.00e-02,
514,4.00e-03,2.00e-02,
515,7.60e-03,1.76e+00,
516,6.80e-03,1.60e-01,
517,8.00e-04,1.00e-01,
518,4.80e-03,8.00e-02,
519,-8.00e-04,1.20e-01,
520,-8.00e-04,1.00e-01,
521,2.40e-03,6.00e-02,
522,2.00e-03,6.00e-02,
523,-8.00e-04,1.00e-01,
524,-8.00e-04,6.00e-02,
525,2.00e-03,8.00e-02,
526,-8.00e-04,6.00e-02,
527,2.00e-03,8.00e-02,
528,2.00e-03,6.00e-02,
529,-1.20e-03,8.00e-02,
530,-2.40e-03,6.00e-02,
531,3.60e-03,8.00e-02,
532,5.60e-03,8.00e-02,
533,-5.20e-03,6.00e-02,
534,-6.80e-03,8.00e-02,
535,8.40e-03,6.00e-02,
536,-5.60e-03,8.00e-02,
537,5.60e-03,4.00e-02,
538,4.00e-03,8.00e-02,
539,-2.40e-03,2.00e-02,
540,-1.20e-03,8.00e-02,
541,2.00e-03,2.00e-02,
542,2.40e-03,8.00e-02,
543,-8.00e-04,2.00e-02,
544,1.60e-03,8.00e-02,
545,-4.00e-04,2.00e-02,
546,-1.20e-03,8.00e-02,
547,2.40e-03,2.00e-02,
548,2.00e-03,2.00e-02,
549,-8.00e-04,8.00e-02,
550,2.40e-03,2.00e-02,
551,-1.60e-03,8.00e-02,
552,-2.40e-03,8.00e-02,
553,3.60e-03,2.00e-02,
554,4.00e-03,2.00e-02,
555,8.00e-03,1.94e+00,
556,7.20e-03,1.60e-01,
557,0.00e+00,8.00e-02,
558,4.40e-03,1.40e-01,
559,-8.00e-04,8.00e-02,
560,-8.00e-04,1.00e-01,
561,2.40e-03,6.00e-02,
562,2.40e-03,6.00e-02,
563,-4.00e-04,1.00e-01,
564,-8.00e-04,6.00e-02,
565,2.00e-03,8.00e-02,
566,2.00e-03,6.00e-02,
567,0.00e+00,8.00e-02,
568,2.40e-03,6.00e-02,
569,-8.00e-04,8.00e-02,
570,2.80e-03,8.00e-02,
571,-2.00e-03,6.00e-02,
572,5.20e-03,6.00e-02,
573,-4.40e-03,8.00e-02,
574,-6.00e-03,8.00e-02,
575,8.40e-03,6.00e-02,
576,-4.40e-03,8.00e-02,
577,5.60e-03,2.00e-02,
578,4.00e-03,8.00e-02,
579,-1.60e-03,2.00e-02,
580,-1.60e-03,8.00e-02,
581,1.60e-03,2.00e-02,
582,2.40e-03,8.00e-02,
583,0.00e+00,2.00e-02,
584,-8.00e-04,8.00e-02,
585,2.00e-03,2.00e-02,
586,-4.00e-04,8.00e-02,
587,2.40e-03,2.00e-02,
588,-8.00e-04,2.00e-02,
589,2.00e-03,8.00e-02,
590,2.40e-03,8.00e-02,
591,-1.20e-03,2.00e-02,
592,3.60e-03,2.00e-02,
593,-2.80e-03,8.00e-02,
594,3.20e-03,2.00e-02,
595,7.20e-03,1.76e+00,
596,6.80e-03,1.60e-01,
597,1.20e-03,1.00e-01,
598,4.80e-03,1.40e-01,
599,-8.00e-04,8.00e-02,
600,-8.00e-04,1.00e-01,
601,2.40e-03,6.00e-02,
602,2.00e-03,1.00e-01,
603,0.00e+00,6.00e-02,
604,0.00e+00,6.00e-02,
605,2.00e-03,8.00e-02,
606,2.40e-03,6.00e-02,
607,0.00e+00,8.00e-02,
608,-8.00e-04,6.00e-02,
609,2.00e-03,8.00e-02,
610,-1.60e-03,6.00e-02,
611,3.60e-03,8.00e-02,
612,4.80e-03,8.00e-02,
613,-4.00e-03,6.00e-02,
614,-6.00e-03,6.00e-02,
615,7.20e-03,8.00e-02,
616,-4.40e-03,4.00e-02,
617,5.20e-03,8.00e-02,
618,3.60e-03,8.00e-02,
619,-2.40e-03,2.00e-02,
620,-1.20e-03,8.00e-02,
621,2.00e-03,2.00e-02,
622,1.20e-03,8.00e-02,
623,-8.00e-04,2.00e-02,
624,0.00e+00,2.00e-02,
625,1.60e-03,8.00e-02,
626,2.00e-03,2.00e-02,
627,-8.00e-04,8.00e-02,
628,-8.00e-04,2.00e-02,
629,2.00e-03,8.00e-02,
630,2.40e-03,8.00e-02,
631,-1.20e-03,2.00e-02,
632,3.60e-03,8.00e-02,
633,-3.60e-03,2.00e-02,
634,3.60e-03,2.00e-02,
635,8.00e-03,1.88e+00,
636,6.80e-03,1.60e-01,
637,4.00e-04,8.00e-02,
638,5.20e-03,1.20e-01,
639,-1.20e-03,8.00e-02,
640,-8.00e-04,1.00e-01,
641,2.40e-03,6.00e-02,
642,2.00e-03,6.00e-02,
643,-8.00e-04,1.00e-01,
644,0.00e+00,6.00e-02,
645,2.00e-03,1.00e-01,
646,1.20e-03,6.00e-02,
647,0.00e+00,8.00e-02,
648,1.20e-03,6.00e-02,
649,-1.20e-03,8.00e-02,
650,-1.60e-03,6.00e-02,
651,3.20e-03,8.00e-02,
652,4.80e-03,6.00e-02,
653,-4.00e-03,8.00e-02,
654,-5.20e-03,6.00e-02,
655,6.80e-03,8.00e-02,
656,-5.20e-03,8.00e-02,
657,4.00e-03,4.00e-02,
658,3.60e-03,8.00e-02,
659,-1.60e-03,2.00e-02,
660,-1.20e-03,8.00e-02,
661,2.00e-03,2.00e-02,
662,-8.00e-04,8.00e-02,
663,1.20e-03,4.00e-02,
664,-8.00e-04,8.00e-02,
665,1.20e-03,2.00e-02,
666,-4.00e-04,8.00e-02,
667,2.00e-03,2.00e-02,
668,-8.00e-04,8.00e-02,
669,2.40e-03,2.00e-02,
670,-1.60e-03,2.00e-02,
671,2.40e-03,8.00e-02,
672,3.20e-03,2.00e-02,
673,-3.60e-03,8.00e-02,
674,2.80e-03,2.00e-02,
675,7.20e-03,2.00e+00,
676,6.80e-03,1.60e-01,
677,4.00e-04,1.00e-01,
678,4.40e-03,8.00e-02,
679,-1.20e-03,1.40e-01,
680,-1.20e-03,1.00e-01,
681,2.40e-03,6.00e-02,
682,2.40e-03,1.00e-01,
683,0.00e+00,6.00e-02,
684,1.20e-03,6.00e-02,
685,-8.00e-04,8.00e-02,
686,0.00e+00,6.00e-02,
687,2.00e-03,8.00e-02,
688,2.40e-03,6.00e-02,
689,-4.00e-04,8.00e-02,
690,2.80e-03,6.00e-02,
691,-1.60e-03,8.00e-02,
692,4.00e-03,6.00e-02,
693,-4.00e-03,8.00e-02,
694,-5.60e-03,6.00e-02,
695,6.00e-03,8.00e-02,
696,-4.40e-03,8.00e-02,
697,4.80e-03,2.00e-02,
698,3.60e-03,8.00e-02,
699,-1.20e-03,2.00e-02,
700,-8.00e-04,4.00e-02,
701,2.00e-03,8.00e-02,
702,1.60e-03,8.00e-02,
703,-4.00e-04,2.00e-02,
704,-1.20e-03,8.00e-02,
705,2.00e-03,2.00e-02,
706,-8.00e-04,2.00e-02,
707,2.00e-03,8.00e-02,
708,1.60e-03,2.00e-02,
709,-8.00e-04,6.00e-02,
710,-1.60e-03,2.00e-02,
711,2.80e-03,8.00e-02,
712,4.00e-03,2.00e-02,
713,-3.60e-03,8.00e-02,
714,2.80e-03,1.78e+00,
715,8.00e-03,-2.00e-02,
716,6.80e-03,1.60e-01,
717,4.00e-04,8.00e-02,
718,4.80e-03,8.00e-02,
719,-8.00e-04,1.40e-01,
720,3.20e-03,1.00e-01,
721,-8.00e-04,6.00e-02,
722,2.40e-03,1.00e-01,
723,-8.00e-04,6.00e-02,
724,2.00e-03,6.00e-02,
725,-8.00e-04,1.00e-01,
726,2.00e-03,6.00e-02,
727,0.00e+00,8.00e-02,
728,2.40e-03,6.00e-02,
729,-8.00e-04,8.00e-02,
730,-1.20e-03,8.00e-02,
731,3.20e-03,6.00e-02,
732,3.60e-03,6.00e-02,
733,-4.00e-03,8.00e-02,
734,-4.80e-03,8.00e-02,
735,6.40e-03,6.00e-02,
736,-4.00e-03,8.00e-02,
737,4.80e-03,6.00e-02,
738,3.20e-03,8.00e-02,
739,-1.20e-03,2.00e-02,
740,-8.00e-04,8.00e-02,
741,1.20e-03,2.00e-02,
742,0.00e+00,2.00e-02,
743,2.00e-03,8.00e-02,
744,0.00e+00,2.00e-02,
745,2.40e-03,8.00e-02,
746,2.00e-03,2.00e-02,
747,-1.20e-03,8.00e-02,
748,1.20e-03,2.00e-02,
749,-1.60e-03,8.00e-02,
750,-1.20e-03,8.00e-02,
751,2.80e-03,2.00e-02,
752,3.20e-03,2.00e-02,
753,-4.00e-03,8.00e-02,
754,1.60e-03,2.00e-02,
755,7.20e-03,1.86e+00,
756,6.40e-03,1.60e-01,
757,0.00e+00,1.20e-01,
758,4.40e-03,1.20e-01,
759,-1.60e-03,8.00e-02,
760,-8.00e-04,1.00e-01,
761,2.40e-03,8.00e-02,
762,2.00e-03,1.00e-01,
763,-1.20e-03,6.00e-02,
764,-8.00e-04,6.00e-02,
765,2.00e-03,1.00e-01,
766,2.40e-03,6.00e-02,
767,4.00e-04,8.00e-02,
768,-8.00e-04,6.00e-02,
769,1.20e-03,8.00e-02,
770,-1.20e-03,8.00e-02,
771,2.80e-03,6.00e-02,
772,3.20e-03,8.00e-02,
773,-2.80e-03,6.00e-02,
774,-4.40e-03,6.00e-02,
775,5.60e-03,8.00e-02,
776,-3.20e-03,6.00e-02,
777,4.40e-03,8.00e-02,
778,2.40e-03,6.00e-02,
779,-1.60e-03,8.00e-02,
780,-1.20e-03,8.00e-02,
781,2.40e-03,2.00e-02,
782,2.00e-03,8.00e-02,
783,0.00e+00,2.00e-02,
784,-8.00e-04,4.00e-02,
785,1.20e-03,8.00e-02,
786,-8.00e-04,8.00e-02,
787,2.00e-03,2.00e-02,
788,2.00e-03,8.00e-02,
789,-1.20e-03,2.00e-02,
790,2.40e-03,2.00e-02,
791,-1.60e-03,8.00e-02,
792,4.00e-03,2.00e-02,
793,-4.00e-03,8.00e-02,
794,2.80e-03,2.00e-02,
795,8.00e-03,1.94e+00,
796,6.80e-03,1.60e-01,
797,8.00e-04,1.20e-01,
798,5.20e-03,1.40e-01,
799,-1.20e-03,8.00e-02,
800,-8.00e-04,1.00e-01,
801,2.40e-03,6.00e-02,
802,2.40e-03,1.00e-01,
803,-8.00e-04,6.00e-02,
804,1.20e-03,6.00e-02,
805,-8.00e-04,1.00e-01,
806,1.20e-03,8.00e-02,
807,-4.00e-04,6.00e-02,
808,-8.00e-04,8.00e-02,
809,1.60e-03,6.00e-02,
810,2.80e-03,6.00e-02,
811,-8.00e-04,8.00e-02,
812,4.00e-03,6.00e-02,
813,-2.80e-03,8.00e-02,
814,-3.60e-03,6.00e-02,
815,5.60e-03,8.00e-02,
816,-3.20e-03,6.00e-02,
817,4.00e-03,8.00e-02,
818,2.40e-03,8.00e-02,
819,-1.60e-03,4.00e-02,
820,-8.00e-04,2.00e-02,
821,2.00e-03,8.00e-02,
822,0.00e+00,2.00e-02,
823,2.00e-03,8.00e-02,
824,0.00e+00,2.00e-02,
825,1.60e-03,8.00e-02,
826,2.40e-03,2.00e-02,
827,0.00e+00,8.00e-02,
828,2.40e-03,2.00e-02,
829,-8.00e-04,8.00e-02,
830,-1.20e-03,8.00e-02,
831,3.20e-03,2.00e-02,
832,4.00e-03,4.00e-02,
833,-4.00e-03,2.00e-02,
834,2.00e-03,2.00e-02,
835,7.20e-03,1.98e+00,
836,6.80e-03,1.60e-01,
837,4.00e-04,8.00e-02,
838,5.60e-03,1.20e-01,
839,-8.00e-04,8.00e-02,
840,-8.00e-04,1.00e-01,
841,2.80e-03,6.00e-02,
842,2.40e-03,1.00e-01,
843,-8.00e-04,6.00e-02,
844,-8.00e-04,6.00e-02,
845,2.00e-03,8.00e-02,
846,2.00e-03,8.00e-02,
847,-8.00e-04,6.00e-02,
848,-8.00e-04,6.00e-02,
849,2.00e-03,8.00e-02,
850,-8.00e-04,8.00e-02,
851,2.40e-03,4.00e-02,
852,3.60e-03,6.00e-02,
853,-2.40e-03,8.00e-02,
854,-4.00e-03,8.00e-02,
855,4.80e-03,6.00e-02,
856,-2.80e-03,8.00e-02,
