CarrPurc_P1-19_P2-38_tauVary/Gly91/NewFile2.csv

X,CH1,CH2,Start,Increment,
Sequence,Volt,Volt,-5.000000e-03,1.000000e-04
0,0.00e+00,4.00e-02,
1,8.00e-04,2.00e-02,
2,0.00e+00,4.00e-02,
3,1.20e-03,2.00e-02,
4,0.00e+00,4.00e-02,
5,8.00e-04,2.00e-02,
6,8.00e-04,2.00e-02,
7,0.00e+00,4.00e-02,
8,1.20e-03,4.00e-02,
9,0.00e+00,2.00e-02,
10,0.00e+00,4.00e-02,
11,8.00e-04,2.00e-02,
12,1.20e-03,4.00e-02,
13,0.00e+00,2.00e-02,
14,8.00e-04,4.00e-02,
15,0.00e+00,2.00e-02,
16,0.00e+00,4.00e-02,
17,1.20e-03,2.00e-02,
18,0.00e+00,4.00e-02,
19,8.00e-04,2.00e-02,
20,0.00e+00,2.00e-02,
21,1.20e-03,4.00e-02,
22,4.00e-04,4.00e-02,
23,1.20e-03,2.00e-02,
24,1.20e-03,4.00e-02,
25,4.00e-04,2.00e-02,
26,0.00e+00,4.00e-02,
27,1.20e-03,2.00e-02,
28,1.20e-03,4.00e-02,
29,4.00e-04,2.00e-02,
30,1.20e-03,2.00e-02,
31,0.00e+00,4.00e-02,
32,4.00e-04,4.00e-02,
33,1.20e-03,2.00e-02,
34,1.20e-03,4.00e-02,
35,0.00e+00,2.00e-02,
36,8.00e-04,4.00e-02,
37,0.00e+00,2.00e-02,
38,4.00e-04,4.00e-02,
39,1.20e-03,2.00e-02,
40,8.00e-04,2.00e-02,
41,0.00e+00,4.00e-02,
42,8.00e-04,4.00e-02,
43,0.00e+00,2.00e-02,
44,8.00e-04,4.00e-02,
45,0.00e+00,2.00e-02,
46,8.00e-04,4.00e-02,
47,-4.00e-04,2.00e-02,
48,0.00e+00,4.00e-02,
49,8.00e-04,2.00e-02,
50,0.00e+00,4.00e-02,
51,1.20e-03,2.00e-02,
52,1.20e-03,2.00e-02,
53,0.00e+00,4.00e-02,
54,4.00e-04,2.00e-02,
55,5.60e-03,1.64e+00,
56,5.60e-03,1.60e-01,
57,-2.76e-02,8.00e-02,
58,1.56e-02,1.20e-01,
59,-1.44e-02,8.00e-02,
60,7.20e-03,1.00e-01,
61,-8.00e-03,8.00e-02,
62,-2.40e-03,1.00e-01,
63,4.00e-03,6.00e-02,
64,-2.00e-03,6.00e-02,
65,2.80e-03,1.00e-01,
66,2.80e-03,6.00e-02,
67,-1.20e-03,8.00e-02,
68,-1.20e-03,8.00e-02,
69,2.00e-03,6.00e-02,
70,-4.00e-04,6.00e-02,
71,2.40e-03,8.00e-02,
72,-4.00e-04,8.00e-02,
73,2.00e-03,6.00e-02,
74,8.00e-04,6.00e-02,
75,7.60e-03,1.94e+00,
76,6.80e-03,1.60e-01,
77,-6.80e-03,1.20e-01,
78,-7.20e-03,1.20e-01,
79,5.60e-03,8.00e-02,
80,4.00e-03,1.00e-01,
81,-1.20e-03,8.00e-02,
82,-4.00e-04,1.00e-01,
83,2.00e-03,6.00e-02,
84,-8.00e-04,1.00e-01,
85,2.00e-03,6.00e-02,
86,1.60e-03,6.00e-02,
87,-8.00e-04,8.00e-02,
88,-2.40e-03,8.00e-02,
89,5.60e-03,6.00e-02,
90,9.20e-03,6.00e-02,
91,-8.80e-03,8.00e-02,
92,-1.52e-02,6.00e-02,
93,1.80e-02,8.00e-02,
94,-2.00e-02,6.00e-02,
95,2.16e-02,8.00e-02,
96,-1.92e-02,6.00e-02,
97,1.80e-02,8.00e-02,
98,1.16e-02,6.00e-02,
99,-8.80e-03,8.00e-02,
100,-5.60e-03,8.00e-02,
101,4.00e-03,6.00e-02,
102,2.80e-03,6.00e-02,
103,-1.20e-03,8.00e-02,
104,2.00e-03,8.00e-02,
105,-8.00e-04,4.00e-02,
106,1.60e-03,8.00e-02,
107,-1.20e-03,2.00e-02,
108,2.00e-03,8.00e-02,
109,-1.20e-03,2.00e-02,
110,-8.00e-04,2.00e-02,
111,2.00e-03,8.00e-02,
112,0.00e+00,8.00e-02,
113,2.00e-03,2.00e-02,
114,8.00e-04,2.00e-02,
115,7.20e-03,1.78e+00,
116,6.40e-03,1.60e-01,
117,1.20e-03,1.20e-01,
118,2.80e-03,1.40e-01,
119,4.00e-04,8.00e-02,
120,1.60e-03,8.00e-02,
121,-8.00e-04,1.00e-01,
122,2.00e-03,1.00e-01,
123,-8.00e-04,6.00e-02,
124,-8.00e-04,6.00e-02,
125,1.20e-03,1.00e-01,
126,2.40e-03,8.00e-02,
127,-1.60e-03,6.00e-02,
128,-3.20e-03,6.00e-02,
129,5.20e-03,8.00e-02,
130,-5.60e-03,6.00e-02,
131,8.00e-03,8.00e-02,
132,1.12e-02,6.00e-02,
133,-1.28e-02,8.00e-02,
134,-1.72e-02,6.00e-02,
135,1.76e-02,8.00e-02,
136,-1.32e-02,6.00e-02,
137,1.24e-02,8.00e-02,
138,8.00e-03,8.00e-02,
139,-5.60e-03,6.00e-02,
140,-2.80e-03,6.00e-02,
141,4.00e-03,8.00e-02,
142,2.40e-03,6.00e-02,
143,-8.00e-04,8.00e-02,
144,-8.00e-04,8.00e-02,
145,2.40e-03,4.00e-02,
146,2.40e-03,8.00e-02,
147,-8.00e-04,2.00e-02,
148,-8.00e-04,8.00e-02,
149,2.40e-03,2.00e-02,
150,2.00e-03,2.00e-02,
151,-2.40e-03,8.00e-02,
152,-3.60e-03,2.00e-02,
153,5.20e-03,8.00e-02,
154,2.80e-03,1.88e+00,
155,7.60e-03,-6.00e-02,
156,6.80e-03,1.60e-01,
157,4.00e-04,1.20e-01,
158,2.80e-03,1.40e-01,
159,0.00e+00,8.00e-02,
160,0.00e+00,1.00e-01,
161,2.00e-03,8.00e-02,
162,2.00e-03,1.00e-01,
163,-8.00e-04,6.00e-02,
164,1.20e-03,6.00e-02,
165,-8.00e-04,1.00e-01,
166,-8.00e-04,6.00e-02,
167,2.40e-03,8.00e-02,
168,4.00e-03,6.00e-02,
169,-2.80e-03,8.00e-02,
170,-5.20e-03,8.00e-02,
171,8.00e-03,6.00e-02,
172,1.16e-02,6.00e-02,
173,-1.32e-02,8.00e-02,
174,-1.64e-02,6.00e-02,
175,1.68e-02,8.00e-02,
176,-1.16e-02,8.00e-02,
177,1.24e-02,6.00e-02,
178,7.20e-03,8.00e-02,
179,-6.00e-03,6.00e-02,
180,-3.20e-03,8.00e-02,
181,3.60e-03,6.00e-02,
182,2.80e-03,8.00e-02,
183,-1.20e-03,6.00e-02,
184,2.00e-03,8.00e-02,
185,-1.20e-03,2.00e-02,
186,-8.00e-04,8.00e-02,
187,2.40e-03,2.00e-02,
188,0.00e+00,8.00e-02,
189,2.00e-03,2.00e-02,
190,2.40e-03,2.00e-02,
191,-1.20e-03,8.00e-02,
192,-2.80e-03,2.00e-02,
193,5.20e-03,8.00e-02,
194,3.20e-03,2.00e-02,
195,7.20e-03,1.84e+00,
196,6.40e-03,1.60e-01,
197,-8.00e-04,1.20e-01,
198,-8.00e-04,8.00e-02,
199,2.80e-03,1.40e-01,
200,2.00e-03,8.00e-02,
201,0.00e+00,1.00e-01,
202,-8.00e-04,1.00e-01,
203,2.40e-03,6.00e-02,
204,-1.20e-03,6.00e-02,
205,2.40e-03,8.00e-02,
206,-8.00e-04,6.00e-02,
207,2.40e-03,8.00e-02,
208,-2.00e-03,8.00e-02,
209,3.20e-03,6.00e-02,
210,-3.60e-03,6.00e-02,
211,5.60e-03,8.00e-02,
212,8.40e-03,6.00e-02,
213,-8.00e-03,8.00e-02,
214,-1.28e-02,6.00e-02,
215,1.48e-02,8.00e-02,
216,-1.16e-02,6.00e-02,
217,1.12e-02,8.00e-02,
218,6.80e-03,8.00e-02,
219,-5.20e-03,6.00e-02,
220,-3.20e-03,6.00e-02,
221,2.80e-03,8.00e-02,
222,2.00e-03,8.00e-02,
223,-8.00e-04,4.00e-02,
224,2.00e-03,6.00e-02,
225,0.00e+00,8.00e-02,
226,1.20e-03,8.00e-02,
227,-4.00e-04,2.00e-02,
228,0.00e+00,8.00e-02,
229,2.00e-03,2.00e-02,
230,-8.00e-04,8.00e-02,
231,2.00e-03,2.00e-02,
232,-2.40e-03,2.00e-02,
233,4.00e-03,8.00e-02,
234,3.20e-03,1.88e+00,
235,8.00e-03,0.00e+00,
236,6.80e-03,1.60e-01,
237,0.00e+00,1.20e-01,
238,3.20e-03,1.40e-01,
239,-4.00e-04,8.00e-02,
240,2.00e-03,1.00e-01,
241,0.00e+00,6.00e-02,
242,-8.00e-04,1.00e-01,
243,2.40e-03,6.00e-02,
244,0.00e+00,6.00e-02,
245,1.60e-03,8.00e-02,
246,-8.00e-04,6.00e-02,
247,2.40e-03,8.00e-02,
248,3.60e-03,8.00e-02,
249,-2.40e-03,6.00e-02,
250,-4.00e-03,8.00e-02,
251,6.40e-03,6.00e-02,
252,8.40e-03,6.00e-02,
253,-9.60e-03,8.00e-02,
254,1.24e-02,8.00e-02,
255,-1.20e-02,6.00e-02,
256,-1.08e-02,8.00e-02,
257,9.60e-03,6.00e-02,
258,5.60e-03,6.00e-02,
259,-3.60e-03,8.00e-02,
260,-2.00e-03,8.00e-02,
261,3.20e-03,4.00e-02,
262,2.00e-03,8.00e-02,
263,-8.00e-04,2.00e-02,
264,-4.00e-04,8.00e-02,
265,2.40e-03,2.00e-02,
266,2.00e-03,8.00e-02,
267,-8.00e-04,2.00e-02,
268,0.00e+00,8.00e-02,
269,2.00e-03,2.00e-02,
270,2.40e-03,2.00e-02,
271,-1.20e-03,8.00e-02,
272,-1.60e-03,8.00e-02,
273,3.60e-03,2.00e-02,
274,3.20e-03,1.96e+00,
275,7.60e-03,-4.00e-02,
276,6.80e-03,1.60e-01,
277,4.00e-04,1.00e-01,
278,3.20e-03,1.20e-01,
279,0.00e+00,8.00e-02,
280,2.40e-03,1.00e-01,
281,0.00e+00,8.00e-02,
282,1.60e-03,1.00e-01,
283,-4.00e-04,6.00e-02,
284,1.20e-03,6.00e-02,
285,-8.00e-04,1.00e-01,
286,0.00e+00,6.00e-02,
287,2.00e-03,8.00e-02,
288,2.40e-03,6.00e-02,
289,-1.60e-03,8.00e-02,
290,-3.60e-03,6.00e-02,
291,5.20e-03,8.00e-02,
292,8.00e-03,8.00e-02,
293,-8.80e-03,6.00e-02,
294,-1.08e-02,6.00e-02,
295,1.24e-02,8.00e-02,
296,-9.60e-03,8.00e-02,
297,8.40e-03,6.00e-02,
298,6.40e-03,8.00e-02,
299,-3.60e-03,6.00e-02,
300,-2.80e-03,8.00e-02,
301,2.80e-03,6.00e-02,
302,2.00e-03,8.00e-02,
303,-1.20e-03,4.00e-02,
304,-1.20e-03,8.00e-02,
305,1.60e-03,4.00e-02,
306,2.00e-03,2.00e-02,
307,-8.00e-04,8.00e-02,
308,-8.00e-04,2.00e-02,
309,1.20e-03,8.00e-02,
310,2.40e-03,8.00e-02,
311,-1.20e-03,2.00e-02,
312,-1.60e-03,2.00e-02,
313,4.00e-03,8.00e-02,
314,3.20e-03,2.00e-02,
315,7.60e-03,1.90e+00,
316,6.80e-03,1.60e-01,
317,4.00e-04,1.20e-01,
318,2.80e-03,1.40e-01,
319,-8.00e-04,8.00e-02,
320,2.40e-03,1.00e-01,
321,-1.20e-03,8.00e-02,
322,-8.00e-04,1.00e-01,
323,2.00e-03,6.00e-02,
324,2.40e-03,8.00e-02,
325,-8.00e-04,6.00e-02,
326,2.40e-03,6.00e-02,
327,-4.00e-04,8.00e-02,
328,-1.20e-03,6.00e-02,
329,2.40e-03,8.00e-02,
330,-2.80e-03,6.00e-02,
331,4.40e-03,8.00e-02,
332,6.80e-03,8.00e-02,
333,-8.00e-03,6.00e-02,
334,-1.04e-02,6.00e-02,
335,1.16e-02,8.00e-02,
336,-8.80e-03,6.00e-02,
337,7.60e-03,8.00e-02,
338,6.00e-03,8.00e-02,
339,-3.60e-03,6.00e-02,
340,-2.80e-03,6.00e-02,
341,2.40e-03,8.00e-02,
342,1.20e-03,6.00e-02,
343,-8.00e-04,8.00e-02,
344,-8.00e-04,8.00e-02,
345,1.20e-03,2.00e-02,
346,2.00e-03,4.00e-02,
347,0.00e+00,8.00e-02,
348,0.00e+00,8.00e-02,
349,2.00e-03,2.00e-02,
350,2.00e-03,8.00e-02,
351,-8.00e-04,2.00e-02,
352,-2.40e-03,8.00e-02,
353,4.40e-03,2.00e-02,
354,3.60e-03,2.00e-02,
355,7.20e-03,1.96e+00,
356,6.40e-03,1.60e-01,
357,4.00e-04,1.20e-01,
358,3.60e-03,1.40e-01,
359,-4.00e-04,8.00e-02,
360,-4.00e-04,1.00e-01,
361,2.00e-03,8.00e-02,
362,2.40e-03,1.00e-01,
363,0.00e+00,6.00e-02,
364,0.00e+00,1.00e-01,
365,2.40e-03,6.00e-02,
366,2.00e-03,6.00e-02,
367,-8.00e-04,8.00e-02,
368,2.80e-03,6.00e-02,
369,-1.60e-03,8.00e-02,
370,-2.80e-03,6.00e-02,
371,5.20e-03,8.00e-02,
372,6.40e-03,6.00e-02,
373,-6.80e-03,8.00e-02,
374,-9.60e-03,6.00e-02,
375,1.00e-02,8.00e-02,
376,-7.60e-03,6.00e-02,
377,7.20e-03,8.00e-02,
378,5.20e-03,8.00e-02,
379,-2.80e-03,4.00e-02,
380,-1.60e-03,6.00e-02,
381,2.40e-03,8.00e-02,
382,1.60e-03,4.00e-02,
383,-8.00e-04,8.00e-02,
384,-4.00e-04,8.00e-02,
385,1.20e-03,2.00e-02,
386,2.00e-03,8.00e-02,
387,-4.00e-04,2.00e-02,
388,-8.00e-04,8.00e-02,
389,1.20e-03,2.00e-02,
390,-8.00e-04,8.00e-02,
391,2.00e-03,2.00e-02,
392,-2.80e-03,8.00e-02,
393,4.00e-03,2.00e-02,
394,3.20e-03,1.96e+00,
395,8.00e-03,-4.00e-02,
396,6.80e-03,1.60e-01,
397,8.00e-04,1.20e-01,
398,4.00e-03,1.40e-01,
399,0.00e+00,8.00e-02,
400,0.00e+00,1.00e-01,
401,2.00e-03,8.00e-02,
402,2.00e-03,1.00e-01,
403,-4.00e-04,6.00e-02,
404,0.00e+00,6.00e-02,
405,2.00e-03,8.00e-02,
406,2.00e-03,6.00e-02,
407,-8.00e-04,8.00e-02,
408,2.40e-03,6.00e-02,
409,-1.20e-03,8.00e-02,
410,-2.40e-03,6.00e-02,
411,4.80e-03,8.00e-02,
412,6.80e-03,8.00e-02,
413,-5.60e-03,6.00e-02,
414,-7.60e-03,6.00e-02,
415,9.60e-03,8.00e-02,
416,-7.20e-03,6.00e-02,
417,6.80e-03,8.00e-02,
418,5.20e-03,8.00e-02,
419,-3.60e-03,6.00e-02,
420,-1.60e-03,4.00e-02,
421,2.40e-03,8.00e-02,
422,2.40e-03,8.00e-02,
423,-8.00e-04,4.00e-02,
424,-4.00e-04,8.00e-02,
425,1.60e-03,2.00e-02,
426,-4.00e-04,8.00e-02,
427,2.00e-03,4.00e-02,
428,2.00e-03,8.00e-02,
429,-8.00e-04,2.00e-02,
430,2.00e-03,2.00e-02,
431,-1.20e-03,8.00e-02,
432,-1.60e-03,2.00e-02,
433,4.40e-03,6.00e-02,
434,4.00e-03,2.00e-02,
435,7.20e-03,1.86e+00,
436,6.80e-03,1.60e-01,
437,0.00e+00,1.00e-01,
438,3.60e-03,1.20e-01,
439,-4.00e-04,8.00e-02,
440,2.00e-03,8.00e-02,
441,-8.00e-04,1.00e-01,
442,-8.00e-04,1.00e-01,
443,2.40e-03,6.00e-02,
444,-8.00e-04,8.00e-02,
445,2.40e-03,6.00e-02,
446,2.00e-03,6.00e-02,
447,-8.00e-04,8.00e-02,
448,2.40e-03,6.00e-02,
449,-1.20e-03,8.00e-02,
450,-1.60e-03,6.00e-02,
451,4.00e-03,8.00e-02,
452,5.60e-03,8.00e-02,
453,-5.60e-03,6.00e-02,
454,-8.00e-03,6.00e-02,
455,9.20e-03,8.00e-02,
456,-6.80e-03,8.00e-02,
457,6.80e-03,6.00e-02,
458,4.40e-03,6.00e-02,
459,-2.80e-03,8.00e-02,
460,-1.60e-03,6.00e-02,
461,2.40e-03,8.00e-02,
462,2.40e-03,8.00e-02,
463,-8.00e-04,4.00e-02,
464,-8.00e-04,8.00e-02,
465,2.00e-03,4.00e-02,
466,2.40e-03,8.00e-02,
467,-8.00e-04,2.00e-02,
468,-8.00e-04,8.00e-02,
469,2.00e-03,2.00e-02,
470,2.40e-03,8.00e-02,
471,-1.20e-03,2.00e-02,
472,-2.40e-03,2.00e-02,
473,4.00e-03,8.00e-02,
474,3.60e-03,1.84e+00,
475,7.60e-03,0.00e+00,
476,7.20e-03,1.60e-01,
477,4.00e-04,1.20e-01,
478,4.40e-03,1.20e-01,
479,-8.00e-04,8.00e-02,
480,-8.00e-04,1.00e-01,
481,1.60e-03,8.00e-02,
482,0.00e+00,1.00e-01,
483,2.40e-03,6.00e-02,
484,1.20e-03,8.00e-02,
485,-1.20e-03,6.00e-02,
486,-4.00e-04,6.00e-02,
487,2.40e-03,8.00e-02,
488,2.40e-03,8.00e-02,
489,-1.20e-03,6.00e-02,
490,-2.80e-03,6.00e-02,
491,4.00e-03,8.00e-02,
492,5.20e-03,6.00e-02,
493,-5.60e-03,8.00e-02,
494,-6.80e-03,6.00e-02,
495,8.40e-03,8.00e-02,
496,-6.00e-03,6.00e-02,
497,5.60e-03,8.00e-02,
498,4.00e-03,6.00e-02,
499,-2.40e-03,8.00e-02,
500,-1.20e-03,4.00e-02,
501,2.00e-03,8.00e-02,
502,0.00e+00,8.00e-02,
503,2.00e-03,2.00e-02,
504,-4.00e-04,8.00e-02,
505,2.00e-03,2.00e-02,
506,2.00e-03,2.00e-02,
507,-8.00e-04,8.00e-02,
508,-4.00e-04,2.00e-02,
509,2.00e-03,8.00e-02,
510,2.00e-03,8.00e-02,
511,-1.60e-03,2.00e-02,
512,2.80e-03,2.00e-02,
513,-2.40e-03,8.00e-02,
514,3.20e-03,-6.00e-02,
515,7.60e-03,1.90e+00,
516,6.80e-03,1.60e-01,
517,8.00e-04,1.00e-01,
518,4.00e-03,8.00e-02,
519,-8.00e-04,1.40e-01,
520,1.60e-03,1.00e-01,
521,-8.00e-04,8.00e-02,
522,2.00e-03,1.00e-01,
523,-4.00e-04,6.00e-02,
524,-8.00e-04,6.00e-02,
525,2.00e-03,8.00e-02,
526,-4.00e-04,6.00e-02,
527,2.00e-03,8.00e-02,
528,2.40e-03,6.00e-02,
529,-8.00e-04,8.00e-02,
530,3.60e-03,6.00e-02,
531,-1.20e-03,8.00e-02,
532,5.20e-03,8.00e-02,
533,-5.20e-03,6.00e-02,
534,-6.40e-03,8.00e-02,
535,8.00e-03,6.00e-02,
536,-5.60e-03,8.00e-02,
537,5.20e-03,4.00e-02,
538,4.00e-03,8.00e-02,
539,-2.40e-03,4.00e-02,
540,-1.60e-03,8.00e-02,
541,2.00e-03,4.00e-02,
542,2.00e-03,8.00e-02,
543,0.00e+00,2.00e-02,
544,2.00e-03,8.00e-02,
545,-4.00e-04,2.00e-02,
546,2.00e-03,8.00e-02,
547,-8.00e-04,2.00e-02,
548,2.00e-03,2.00e-02,
549,-8.00e-04,8.00e-02,
550,-8.00e-04,2.00e-02,
551,2.40e-03,8.00e-02,
552,3.60e-03,8.00e-02,
553,-2.80e-03,2.00e-02,
554,3.20e-03,2.00e-02,
555,8.00e-03,1.68e+00,
556,7.20e-03,1.60e-01,
557,8.00e-04,1.00e-01,
558,4.40e-03,1.40e-01,
559,-4.00e-04,8.00e-02,
560,-8.00e-04,1.00e-01,
561,2.40e-03,8.00e-02,
562,2.40e-03,1.00e-01,
563,-8.00e-04,6.00e-02,
564,2.40e-03,6.00e-02,
565,-8.00e-04,8.00e-02,
566,0.00e+00,6.00e-02,
567,2.00e-03,8.00e-02,
568,2.40e-03,6.00e-02,
569,-1.20e-03,8.00e-02,
570,-1.60e-03,8.00e-02,
571,3.60e-03,6.00e-02,
572,4.40e-03,6.00e-02,
573,-5.20e-03,8.00e-02,
574,-6.00e-03,8.00e-02,
575,7.20e-03,6.00e-02,
576,-5.60e-03,8.00e-02,
577,6.00e-03,6.00e-02,
578,4.80e-03,6.00e-02,
579,-1.20e-03,8.00e-02,
580,-1.20e-03,6.00e-02,
581,2.00e-03,8.00e-02,
582,2.00e-03,8.00e-02,
583,-4.00e-04,6.00e-02,
584,1.60e-03,6.00e-02,
585,-4.00e-04,8.00e-02,
586,2.00e-03,8.00e-02,
587,-8.00e-04,4.00e-02,
588,-8.00e-04,8.00e-02,
589,2.00e-03,2.00e-02,
590,-1.20e-03,8.00e-02,
591,2.40e-03,2.00e-02,
592,3.60e-03,8.00e-02,
593,-3.20e-03,2.00e-02,
594,3.20e-03,2.00e-02,
595,7.20e-03,1.82e+00,
596,6.80e-03,1.60e-01,
597,8.00e-04,1.20e-01,
598,4.80e-03,1.40e-01,
599,-4.00e-04,8.00e-02,
600,2.40e-03,8.00e-02,
601,-8.00e-04,1.00e-01,
602,2.40e-03,1.00e-01,
603,-4.00e-04,6.00e-02,
604,1.60e-03,6.00e-02,
605,-8.00e-04,8.00e-02,
606,0.00e+00,6.00e-02,
607,2.00e-03,8.00e-02,
608,-8.00e-04,6.00e-02,
609,2.00e-03,8.00e-02,
610,-1.20e-03,6.00e-02,
611,3.60e-03,8.00e-02,
612,5.20e-03,8.00e-02,
613,-4.00e-03,6.00e-02,
614,6.80e-03,6.00e-02,
615,-5.60e-03,8.00e-02,
616,-4.40e-03,6.00e-02,
617,4.40e-03,8.00e-02,
618,3.60e-03,6.00e-02,
619,-1.60e-03,8.00e-02,
620,-1.20e-03,8.00e-02,
621,2.00e-03,4.00e-02,
622,0.00e+00,8.00e-02,
623,2.00e-03,2.00e-02,
624,1.20e-03,8.00e-02,
625,-8.00e-04,4.00e-02,
626,0.00e+00,8.00e-02,
627,2.00e-03,2.00e-02,
628,2.00e-03,8.00e-02,
629,-1.20e-03,2.00e-02,
630,-8.00e-04,8.00e-02,
631,2.40e-03,2.00e-02,
632,4.00e-03,8.00e-02,
633,-2.40e-03,2.00e-02,
634,3.60e-03,2.00e-02,
635,8.00e-03,2.00e+00,
636,6.80e-03,1.60e-01,
637,8.00e-04,1.20e-01,
638,4.00e-03,1.20e-01,
639,-8.00e-04,8.00e-02,
640,-8.00e-04,8.00e-02,
641,2.00e-03,1.00e-01,
642,2.00e-03,1.00e-01,
643,-8.00e-04,6.00e-02,
644,-8.00e-04,6.00e-02,
645,1.60e-03,1.00e-01,
646,0.00e+00,6.00e-02,
647,2.00e-03,8.00e-02,
648,-8.00e-04,6.00e-02,
649,2.40e-03,8.00e-02,
650,-1.20e-03,6.00e-02,
651,3.60e-03,8.00e-02,
652,4.80e-03,6.00e-02,
653,-4.00e-03,8.00e-02,
654,-5.60e-03,6.00e-02,
655,6.40e-03,8.00e-02,
656,-4.40e-03,8.00e-02,
657,5.20e-03,6.00e-02,
658,4.00e-03,8.00e-02,
659,-1.60e-03,2.00e-02,
660,2.00e-03,8.00e-02,
661,-8.00e-04,2.00e-02,
662,1.60e-03,8.00e-02,
663,0.00e+00,4.00e-02,
664,1.60e-03,8.00e-02,
665,-8.00e-04,4.00e-02,
666,-8.00e-04,8.00e-02,
667,2.00e-03,2.00e-02,
668,-8.00e-04,8.00e-02,
669,1.60e-03,2.00e-02,
670,-8.00e-04,8.00e-02,
671,2.40e-03,2.00e-02,
672,3.60e-03,2.00e-02,
673,-2.80e-03,8.00e-02,
674,4.00e-03,2.00e-02,
675,7.60e-03,1.84e+00,
676,6.80e-03,1.60e-01,
677,1.20e-03,1.20e-01,
678,5.20e-03,1.40e-01,
679,-8.00e-04,8.00e-02,
680,-8.00e-04,1.00e-01,
681,2.40e-03,8.00e-02,
682,-8.00e-04,1.00e-01,
683,2.40e-03,6.00e-02,
684,0.00e+00,6.00e-02,
685,2.00e-03,1.00e-01,
686,2.00e-03,6.00e-02,
687,0.00e+00,8.00e-02,
688,1.60e-03,6.00e-02,
689,-4.00e-04,8.00e-02,
690,-1.60e-03,6.00e-02,
691,2.80e-03,8.00e-02,
692,4.00e-03,6.00e-02,
693,-3.60e-03,8.00e-02,
694,-5.60e-03,6.00e-02,
695,5.60e-03,8.00e-02,
696,-4.40e-03,6.00e-02,
697,4.40e-03,8.00e-02,
698,3.60e-03,6.00e-02,
699,-1.60e-03,8.00e-02,
700,-8.00e-04,6.00e-02,
701,2.40e-03,8.00e-02,
702,2.00e-03,6.00e-02,
703,0.00e+00,8.00e-02,
704,0.00e+00,6.00e-02,
705,2.00e-03,8.00e-02,
706,-8.00e-04,8.00e-02,
707,2.00e-03,4.00e-02,
708,-4.00e-04,8.00e-02,
709,2.00e-03,4.00e-02,
710,-8.00e-04,8.00e-02,
711,2.80e-03,2.00e-02,
712,3.20e-03,2.00e-02,
713,-3.60e-03,8.00e-02,
714,3.20e-03,2.00e-02,
715,8.00e-03,1.90e+00,
716,6.80e-03,1.60e-01,
717,8.00e-04,1.20e-01,
718,5.20e-03,8.00e-02,
719,-1.20e-03,1.40e-01,
720,-8.00e-04,1.00e-01,
721,2.40e-03,8.00e-02,
722,2.40e-03,1.00e-01,
723,-8.00e-04,6.00e-02,
724,-8.00e-04,6.00e-02,
725,2.40e-03,8.00e-02,
726,2.00e-03,6.00e-02,
727,0.00e+00,8.00e-02,
728,-4.00e-04,6.00e-02,
729,2.00e-03,8.00e-02,
730,-1.60e-03,8.00e-02,
731,3.20e-03,6.00e-02,
732,4.00e-03,6.00e-02,
733,-3.60e-03,8.00e-02,
734,-4.40e-03,8.00e-02,
735,5.60e-03,6.00e-02,
736,-3.60e-03,8.00e-02,
737,4.80e-03,6.00e-02,
738,3.20e-03,6.00e-02,
739,-1.20e-03,8.00e-02,
740,2.40e-03,6.00e-02,
741,-4.00e-04,8.00e-02,
742,1.20e-03,6.00e-02,
743,-8.00e-04,8.00e-02,
744,-8.00e-04,8.00e-02,
745,2.00e-03,4.00e-02,
746,2.40e-03,8.00e-02,
747,-4.00e-04,4.00e-02,
748,-1.20e-03,8.00e-02,
749,2.00e-03,4.00e-02,
750,-1.20e-03,8.00e-02,
751,2.40e-03,2.00e-02,
752,3.20e-03,8.00e-02,
753,-3.60e-03,2.00e-02,
754,2.80e-03,1.94e+00,
755,7.60e-03,0.00e+00,
756,6.80e-03,1.60e-01,
757,8.00e-04,1.20e-01,
758,5.20e-03,8.00e-02,
759,-1.20e-03,1.40e-01,
760,-1.20e-03,1.00e-01,
761,2.40e-03,8.00e-02,
762,2.00e-03,1.00e-01,
763,-8.00e-04,6.00e-02,
764,-8.00e-04,1.00e-01,
765,2.00e-03,6.00e-02,
766,0.00e+00,6.00e-02,
767,2.00e-03,1.00e-01,
768,-8.00e-04,6.00e-02,
769,1.20e-03,8.00e-02,
770,-1.20e-03,8.00e-02,
771,2.40e-03,6.00e-02,
772,3.20e-03,8.00e-02,
773,-2.80e-03,6.00e-02,
774,5.20e-03,6.00e-02,
775,-4.00e-03,8.00e-02,
776,-2.80e-03,6.00e-02,
777,4.40e-03,8.00e-02,
778,2.80e-03,6.00e-02,
779,-1.60e-03,8.00e-02,
780,-1.20e-03,6.00e-02,
781,2.00e-03,8.00e-02,
782,0.00e+00,8.00e-02,
783,2.00e-03,6.00e-02,
784,-8.00e-04,2.00e-02,
785,1.20e-03,8.00e-02,
786,-8.00e-04,8.00e-02,
787,2.40e-03,4.00e-02,
788,1.20e-03,8.00e-02,
789,-1.20e-03,2.00e-02,
790,-1.20e-03,8.00e-02,
791,2.80e-03,4.00e-02,
792,4.00e-03,2.00e-02,
793,-3.60e-03,8.00e-02,
794,2.80e-03,2.00e-02,
795,8.00e-03,1.98e+00,
796,6.80e-03,1.60e-01,
797,8.00e-04,1.20e-01,
798,5.20e-03,1.40e-01,
799,-1.20e-03,8.00e-02,
800,2.80e-03,1.00e-01,
801,-1.20e-03,8.00e-02,
802,-8.00e-04,1.00e-01,
803,2.00e-03,6.00e-02,
804,1.20e-03,6.00e-02,
805,-8.00e-04,1.00e-01,
806,0.00e+00,8.00e-02,
807,2.00e-03,6.00e-02,
808,0.00e+00,8.00e-02,
809,2.00e-03,6.00e-02,
810,-1.20e-03,6.00e-02,
811,2.80e-03,8.00e-02,
812,3.60e-03,6.00e-02,
813,-2.80e-03,8.00e-02,
814,-4.00e-03,6.00e-02,
815,5.20e-03,8.00e-02,
816,-2.80e-03,6.00e-02,
817,4.00e-03,8.00e-02,
818,2.80e-03,8.00e-02,
819,-8.00e-04,6.00e-02,
820,1.20e-03,6.00e-02,
821,-8.00e-04,8.00e-02,
822,1.20e-03,6.00e-02,
823,-8.00e-04,8.00e-02,
824,0.00e+00,8.00e-02,
825,2.00e-03,2.00e-02,
826,2.00e-03,2.00e-02,
827,0.00e+00,8.00e-02,
828,2.00e-03,2.00e-02,
829,-1.20e-03,8.00e-02,
830,-1.20e-03,8.00e-02,
831,2.40e-03,2.00e-02,
832,4.00e-03,2.00e-02,
833,-2.80e-03,8.00e-02,
834,2.40e-03,2.00e-02,
835,7.60e-03,1.90e+00,
836,6.80e-03,1.60e-01,
837,1.60e-03,1.20e-01,
838,5.20e-03,1.20e-01,
839,-1.20e-03,8.00e-02,
840,2.00e-03,8.00e-02,
841,-1.20e-03,1.00e-01,
842,2.40e-03,1.00e-01,
843,-1.20e-03,6.00e-02,
844,1.20e-03,6.00e-02,
845,-8.00e-04,1.00e-01,
846,-8.00e-04,8.00e-02,
847,2.00e-03,6.00e-02,
848,2.00e-03,6.00e-02,
849,-8.00e-04,8.00e-02,
850,-1.60e-03,6.00e-02,
851,2.40e-03,8.00e-02,
852,3.20e-03,6.00e-02,
853,-2.80e-03,8.00e-02,
854,4.00e-03,8.00e-02,
855,-3.20e-03,6.00e-02,
