CarrPurc_P1-19_P2-38_tauVary/Gly91/NewFile1.csv

X,CH1,CH2,Start,Increment,
Sequence,Volt,Volt,-5.000000e-03,1.000000e-04
0,8.00e-04,4.00e-02,
1,0.00e+00,2.00e-02,
2,4.00e-04,4.00e-02,
3,1.20e-03,2.00e-02,
4,0.00e+00,4.00e-02,
5,8.00e-04,2.00e-02,
6,0.00e+00,2.00e-02,
7,8.00e-04,4.00e-02,
8,0.00e+00,4.00e-02,
9,1.20e-03,2.00e-02,
10,8.00e-04,4.00e-02,
11,0.00e+00,2.00e-02,
12,4.00e-04,4.00e-02,
13,1.20e-03,2.00e-02,
14,4.00e-04,4.00e-02,
15,1.20e-03,2.00e-02,
16,0.00e+00,4.00e-02,
17,1.20e-03,2.00e-02,
18,4.00e-04,4.00e-02,
19,1.20e-03,2.00e-02,
20,8.00e-04,2.00e-02,
21,0.00e+00,4.00e-02,
22,0.00e+00,4.00e-02,
23,8.00e-04,2.00e-02,
24,0.00e+00,4.00e-02,
25,1.20e-03,2.00e-02,
26,1.20e-03,4.00e-02,
27,4.00e-04,0.00e+00,
28,4.00e-04,4.00e-02,
29,1.20e-03,2.00e-02,
30,0.00e+00,2.00e-02,
31,1.20e-03,4.00e-02,
32,1.20e-03,4.00e-02,
33,4.00e-04,2.00e-02,
34,1.20e-03,4.00e-02,
35,0.00e+00,2.00e-02,
36,0.00e+00,4.00e-02,
37,8.00e-04,2.00e-02,
38,8.00e-04,4.00e-02,
39,0.00e+00,2.00e-02,
40,0.00e+00,2.00e-02,
41,8.00e-04,4.00e-02,
42,0.00e+00,4.00e-02,
43,8.00e-04,2.00e-02,
44,0.00e+00,4.00e-02,
45,8.00e-04,2.00e-02,
46,8.00e-04,4.00e-02,
47,0.00e+00,2.00e-02,
48,4.00e-04,4.00e-02,
49,1.20e-03,2.00e-02,
50,1.20e-03,4.00e-02,
51,0.00e+00,2.00e-02,
52,0.00e+00,2.00e-02,
53,8.00e-04,4.00e-02,
54,0.00e+00,1.78e+00,
55,5.20e-03,-6.00e-02,
56,5.20e-03,1.60e-01,
57,-2.64e-02,8.00e-02,
58,-1.32e-02,1.40e-01,
59,1.52e-02,8.00e-02,
60,7.20e-03,1.00e-01,
61,-7.20e-03,8.00e-02,
62,-1.60e-03,1.00e-01,
63,4.00e-03,6.00e-02,
64,-1.60e-03,6.00e-02,
65,3.60e-03,8.00e-02,
66,2.80e-03,6.00e-02,
67,-1.20e-03,8.00e-02,
68,-1.20e-03,8.00e-02,
69,2.40e-03,6.00e-02,
70,2.00e-03,6.00e-02,
71,-1.20e-03,8.00e-02,
72,-1.20e-03,8.00e-02,
73,1.20e-03,6.00e-02,
74,8.00e-04,6.00e-02,
75,6.80e-03,1.92e+00,
76,6.40e-03,1.60e-01,
77,-7.60e-03,1.20e-01,
78,-7.60e-03,1.20e-01,
79,5.60e-03,8.00e-02,
80,4.00e-03,1.00e-01,
81,-8.00e-04,8.00e-02,
82,1.60e-03,1.00e-01,
83,-4.00e-04,6.00e-02,
84,-1.60e-03,1.00e-01,
85,2.00e-03,6.00e-02,
86,2.00e-03,6.00e-02,
87,-4.00e-04,8.00e-02,
88,-2.80e-03,8.00e-02,
89,5.60e-03,6.00e-02,
90,9.20e-03,6.00e-02,
91,-1.00e-02,8.00e-02,
92,-1.48e-02,6.00e-02,
93,2.00e-02,8.00e-02,
94,-2.20e-02,6.00e-02,
95,2.28e-02,8.00e-02,
96,-1.84e-02,6.00e-02,
97,1.84e-02,8.00e-02,
98,1.20e-02,6.00e-02,
99,-8.40e-03,8.00e-02,
100,-5.20e-03,8.00e-02,
101,5.20e-03,6.00e-02,
102,2.80e-03,6.00e-02,
103,-1.60e-03,8.00e-02,
104,2.00e-03,8.00e-02,
105,-8.00e-04,4.00e-02,
106,-1.20e-03,2.00e-02,
107,1.60e-03,8.00e-02,
108,-1.20e-03,8.00e-02,
109,2.00e-03,2.00e-02,
110,2.40e-03,2.00e-02,
111,-8.00e-04,8.00e-02,
112,2.00e-03,8.00e-02,
113,0.00e+00,2.00e-02,
114,4.00e-04,2.00e-02,
115,7.20e-03,1.84e+00,
116,6.80e-03,1.60e-01,
117,8.00e-04,1.20e-01,
118,2.80e-03,1.40e-01,
119,0.00e+00,8.00e-02,
120,-8.00e-04,1.00e-01,
121,2.00e-03,6.00e-02,
122,2.40e-03,1.00e-01,
123,-8.00e-04,6.00e-02,
124,-8.00e-04,6.00e-02,
125,2.00e-03,1.00e-01,
126,2.40e-03,8.00e-02,
127,-1.60e-03,6.00e-02,
128,-3.60e-03,6.00e-02,
129,4.80e-03,8.00e-02,
130,-5.60e-03,6.00e-02,
131,8.00e-03,8.00e-02,
132,1.20e-02,6.00e-02,
133,-1.40e-02,8.00e-02,
134,-1.64e-02,6.00e-02,
135,1.72e-02,8.00e-02,
136,-1.36e-02,6.00e-02,
137,1.28e-02,8.00e-02,
138,8.00e-03,8.00e-02,
139,-5.60e-03,6.00e-02,
140,-3.20e-03,8.00e-02,
141,3.60e-03,2.00e-02,
142,2.40e-03,8.00e-02,
143,-8.00e-04,4.00e-02,
144,-8.00e-04,8.00e-02,
145,2.40e-03,4.00e-02,
146,1.20e-03,8.00e-02,
147,-1.20e-03,2.00e-02,
148,1.20e-03,8.00e-02,
149,-8.00e-04,2.00e-02,
150,2.80e-03,8.00e-02,
151,-2.00e-03,2.00e-02,
152,-3.60e-03,8.00e-02,
153,4.80e-03,2.00e-02,
154,2.80e-03,2.00e-02,
155,7.20e-03,1.78e+00,
156,6.40e-03,1.60e-01,
157,1.20e-03,1.20e-01,
158,2.80e-03,1.40e-01,
159,-8.00e-04,8.00e-02,
160,1.60e-03,1.00e-01,
161,-8.00e-04,8.00e-02,
162,1.60e-03,1.00e-01,
163,-8.00e-04,6.00e-02,
164,-8.00e-04,1.00e-01,
165,1.20e-03,6.00e-02,
166,0.00e+00,6.00e-02,
167,2.40e-03,8.00e-02,
168,2.80e-03,6.00e-02,
169,-2.80e-03,8.00e-02,
170,-5.20e-03,8.00e-02,
171,7.20e-03,6.00e-02,
172,1.12e-02,6.00e-02,
173,-1.32e-02,8.00e-02,
174,1.64e-02,6.00e-02,
175,-1.64e-02,8.00e-02,
176,-1.32e-02,8.00e-02,
177,1.12e-02,6.00e-02,
178,8.00e-03,8.00e-02,
179,-5.60e-03,6.00e-02,
180,-4.00e-03,8.00e-02,
181,3.60e-03,4.00e-02,
182,2.00e-03,8.00e-02,
183,-1.20e-03,6.00e-02,
184,-8.00e-04,8.00e-02,
185,2.40e-03,2.00e-02,
186,2.00e-03,8.00e-02,
187,-8.00e-04,4.00e-02,
188,-8.00e-04,8.00e-02,
189,1.20e-03,2.00e-02,
190,1.20e-03,8.00e-02,
191,-1.60e-03,2.00e-02,
192,-2.80e-03,8.00e-02,
193,5.20e-03,2.00e-02,
194,3.60e-03,2.00e-02,
195,8.00e-03,1.98e+00,
196,6.80e-03,1.60e-01,
197,-8.00e-04,1.20e-01,
198,-8.00e-04,1.40e-01,
199,2.80e-03,8.00e-02,
200,1.20e-03,8.00e-02,
201,0.00e+00,1.00e-01,
202,-8.00e-04,1.00e-01,
203,2.40e-03,6.00e-02,
204,2.00e-03,1.00e-01,
205,-1.20e-03,6.00e-02,
206,2.40e-03,6.00e-02,
207,-8.00e-04,8.00e-02,
208,-2.80e-03,8.00e-02,
209,3.20e-03,6.00e-02,
210,-3.60e-03,6.00e-02,
211,6.00e-03,8.00e-02,
212,8.00e-03,6.00e-02,
213,-9.20e-03,8.00e-02,
214,-1.32e-02,6.00e-02,
215,1.48e-02,8.00e-02,
216,-1.20e-02,6.00e-02,
217,1.08e-02,8.00e-02,
218,7.20e-03,8.00e-02,
219,-4.80e-03,6.00e-02,
220,-2.80e-03,6.00e-02,
221,3.60e-03,8.00e-02,
222,2.00e-03,8.00e-02,
223,-8.00e-04,4.00e-02,
224,0.00e+00,8.00e-02,
225,1.20e-03,2.00e-02,
226,1.20e-03,8.00e-02,
227,0.00e+00,2.00e-02,
228,1.20e-03,2.00e-02,
229,-4.00e-04,8.00e-02,
230,1.60e-03,8.00e-02,
231,-8.00e-04,2.00e-02,
232,-1.60e-03,8.00e-02,
233,4.00e-03,2.00e-02,
234,3.20e-03,1.78e+00,
235,7.20e-03,-2.00e-02,
236,6.80e-03,1.60e-01,
237,-4.00e-04,1.20e-01,
238,0.00e+00,1.40e-01,
239,2.80e-03,8.00e-02,
240,4.00e-04,1.00e-01,
241,2.00e-03,8.00e-02,
242,2.00e-03,1.00e-01,
243,-8.00e-04,6.00e-02,
244,-8.00e-04,6.00e-02,
245,1.20e-03,1.00e-01,
246,2.00e-03,6.00e-02,
247,-1.20e-03,8.00e-02,
248,-2.40e-03,8.00e-02,
249,4.00e-03,6.00e-02,
250,-4.40e-03,8.00e-02,
251,6.40e-03,6.00e-02,
252,9.60e-03,6.00e-02,
253,-9.60e-03,8.00e-02,
254,-1.28e-02,8.00e-02,
255,1.40e-02,6.00e-02,
256,-1.08e-02,8.00e-02,
257,9.60e-03,6.00e-02,
258,5.60e-03,6.00e-02,
259,-3.60e-03,8.00e-02,
260,-2.40e-03,8.00e-02,
261,2.80e-03,2.00e-02,
262,2.00e-03,8.00e-02,
263,0.00e+00,2.00e-02,
264,2.00e-03,8.00e-02,
265,-8.00e-04,2.00e-02,
266,2.00e-03,8.00e-02,
267,-8.00e-04,2.00e-02,
268,-8.00e-04,8.00e-02,
269,2.00e-03,2.00e-02,
270,2.40e-03,2.00e-02,
271,-1.20e-03,8.00e-02,
272,-2.00e-03,8.00e-02,
273,3.60e-03,2.00e-02,
274,2.80e-03,4.00e-02,
275,8.00e-03,1.78e+00,
276,6.80e-03,1.60e-01,
277,8.00e-04,1.20e-01,
278,3.60e-03,1.20e-01,
279,-8.00e-04,8.00e-02,
280,1.60e-03,1.00e-01,
281,0.00e+00,8.00e-02,
282,-4.00e-04,1.00e-01,
283,2.00e-03,6.00e-02,
284,1.20e-03,6.00e-02,
285,-8.00e-04,1.00e-01,
286,1.20e-03,6.00e-02,
287,-4.00e-04,8.00e-02,
288,2.80e-03,6.00e-02,
289,-1.60e-03,8.00e-02,
290,-2.80e-03,6.00e-02,
291,5.20e-03,8.00e-02,
292,9.20e-03,8.00e-02,
293,-1.00e-02,6.00e-02,
294,-1.12e-02,6.00e-02,
295,1.24e-02,8.00e-02,
296,-1.00e-02,8.00e-02,
297,9.20e-03,6.00e-02,
298,6.80e-03,8.00e-02,
299,-4.40e-03,6.00e-02,
300,-2.80e-03,8.00e-02,
301,2.80e-03,4.00e-02,
302,2.40e-03,4.00e-02,
303,-8.00e-04,8.00e-02,
304,1.20e-03,8.00e-02,
305,-1.20e-03,2.00e-02,
306,2.00e-03,8.00e-02,
307,-8.00e-04,4.00e-02,
308,0.00e+00,8.00e-02,
309,2.00e-03,2.00e-02,
310,2.00e-03,2.00e-02,
311,-1.60e-03,8.00e-02,
312,-2.40e-03,2.00e-02,
313,4.00e-03,8.00e-02,
314,3.20e-03,2.00e-02,
315,7.20e-03,1.96e+00,
316,6.80e-03,1.60e-01,
317,1.20e-03,1.20e-01,
318,3.60e-03,1.20e-01,
319,-8.00e-04,8.00e-02,
320,2.40e-03,1.00e-01,
321,-1.20e-03,8.00e-02,
322,2.00e-03,1.00e-01,
323,-1.20e-03,6.00e-02,
324,2.00e-03,6.00e-02,
325,-8.00e-04,1.00e-01,
326,-4.00e-04,6.00e-02,
327,2.00e-03,8.00e-02,
328,2.40e-03,6.00e-02,
329,-1.60e-03,8.00e-02,
330,-3.60e-03,6.00e-02,
331,4.40e-03,8.00e-02,
332,6.80e-03,8.00e-02,
333,-7.20e-03,6.00e-02,
334,-1.00e-02,6.00e-02,
335,1.12e-02,8.00e-02,
336,-8.80e-03,6.00e-02,
337,8.40e-03,8.00e-02,
338,5.20e-03,8.00e-02,
339,-4.00e-03,6.00e-02,
340,-2.80e-03,6.00e-02,
341,2.80e-03,8.00e-02,
342,2.00e-03,8.00e-02,
343,-8.00e-04,2.00e-02,
344,-8.00e-04,8.00e-02,
345,1.20e-03,2.00e-02,
346,0.00e+00,8.00e-02,
347,2.00e-03,2.00e-02,
348,1.20e-03,8.00e-02,
349,-4.00e-04,2.00e-02,
350,-8.00e-04,8.00e-02,
351,2.00e-03,2.00e-02,
352,-2.40e-03,8.00e-02,
353,3.60e-03,2.00e-02,
354,2.80e-03,2.00e-02,
355,8.00e-03,1.72e+00,
356,6.80e-03,1.60e-01,
357,4.00e-04,1.20e-01,
358,4.00e-03,1.40e-01,
359,0.00e+00,8.00e-02,
360,1.20e-03,1.00e-01,
361,-8.00e-04,8.00e-02,
362,-1.20e-03,1.00e-01,
363,1.60e-03,6.00e-02,
364,-8.00e-04,8.00e-02,
365,2.00e-03,6.00e-02,
366,2.00e-03,6.00e-02,
367,-8.00e-04,8.00e-02,
368,2.40e-03,6.00e-02,
369,-1.60e-03,8.00e-02,
370,-2.80e-03,6.00e-02,
371,5.60e-03,8.00e-02,
372,6.80e-03,6.00e-02,
373,-8.00e-03,8.00e-02,
374,-1.00e-02,6.00e-02,
375,1.12e-02,8.00e-02,
376,-8.80e-03,6.00e-02,
377,7.60e-03,8.00e-02,
378,5.20e-03,8.00e-02,
379,-3.20e-03,6.00e-02,
380,-1.60e-03,6.00e-02,
381,2.40e-03,8.00e-02,
382,2.00e-03,8.00e-02,
383,0.00e+00,4.00e-02,
384,-8.00e-04,8.00e-02,
385,2.00e-03,4.00e-02,
386,1.60e-03,8.00e-02,
387,-8.00e-04,2.00e-02,
388,-8.00e-04,2.00e-02,
389,1.20e-03,8.00e-02,
390,2.00e-03,8.00e-02,
391,-8.00e-04,2.00e-02,
392,-1.60e-03,8.00e-02,
393,4.00e-03,2.00e-02,
394,3.20e-03,2.00e-02,
395,7.20e-03,1.92e+00,
396,6.80e-03,1.60e-01,
397,1.20e-03,8.00e-02,
398,3.60e-03,1.20e-01,
399,4.00e-04,8.00e-02,
400,0.00e+00,1.00e-01,
401,2.00e-03,8.00e-02,
402,2.00e-03,1.00e-01,
403,-4.00e-04,6.00e-02,
404,1.20e-03,6.00e-02,
405,0.00e+00,1.00e-01,
406,2.00e-03,6.00e-02,
407,-8.00e-04,8.00e-02,
408,2.40e-03,6.00e-02,
409,-1.20e-03,8.00e-02,
410,-2.40e-03,6.00e-02,
411,5.20e-03,8.00e-02,
412,6.80e-03,8.00e-02,
413,-7.20e-03,6.00e-02,
414,-8.80e-03,6.00e-02,
415,9.60e-03,8.00e-02,
416,-7.20e-03,6.00e-02,
417,7.60e-03,8.00e-02,
418,5.20e-03,8.00e-02,
419,-2.40e-03,6.00e-02,
420,-1.60e-03,6.00e-02,
421,2.80e-03,8.00e-02,
422,1.20e-03,8.00e-02,
423,-8.00e-04,2.00e-02,
424,-8.00e-04,8.00e-02,
425,2.00e-03,4.00e-02,
426,2.00e-03,8.00e-02,
427,-8.00e-04,2.00e-02,
428,1.20e-03,8.00e-02,
429,-1.20e-03,2.00e-02,
430,2.00e-03,2.00e-02,
431,-1.20e-03,8.00e-02,
432,-1.60e-03,8.00e-02,
433,4.00e-03,2.00e-02,
434,4.00e-03,2.00e-02,
435,8.00e-03,1.92e+00,
436,6.80e-03,1.60e-01,
437,4.00e-04,1.20e-01,
438,4.00e-03,1.20e-01,
439,0.00e+00,8.00e-02,
440,2.00e-03,8.00e-02,
441,-8.00e-04,1.00e-01,
442,2.40e-03,1.00e-01,
443,-8.00e-04,6.00e-02,
444,-8.00e-04,8.00e-02,
445,2.00e-03,6.00e-02,
446,-8.00e-04,6.00e-02,
447,2.00e-03,8.00e-02,
448,-1.60e-03,6.00e-02,
449,2.40e-03,8.00e-02,
450,-2.80e-03,6.00e-02,
451,4.40e-03,8.00e-02,
452,5.60e-03,8.00e-02,
453,-6.80e-03,6.00e-02,
454,9.60e-03,6.00e-02,
455,-8.80e-03,8.00e-02,
456,-8.00e-03,8.00e-02,
457,7.20e-03,6.00e-02,
458,5.20e-03,6.00e-02,
459,-3.60e-03,8.00e-02,
460,-1.60e-03,8.00e-02,
461,2.40e-03,4.00e-02,
462,-8.00e-04,6.00e-02,
463,2.00e-03,8.00e-02,
464,-8.00e-04,8.00e-02,
465,1.20e-03,4.00e-02,
466,2.00e-03,8.00e-02,
467,-8.00e-04,4.00e-02,
468,-8.00e-04,8.00e-02,
469,1.20e-03,2.00e-02,
470,2.00e-03,8.00e-02,
471,-1.20e-03,2.00e-02,
472,-2.40e-03,8.00e-02,
473,3.20e-03,2.00e-02,
474,3.20e-03,1.82e+00,
475,7.60e-03,0.00e+00,
476,6.80e-03,1.60e-01,
477,1.20e-03,1.20e-01,
478,4.00e-03,8.00e-02,
479,-1.20e-03,1.40e-01,
480,-8.00e-04,1.00e-01,
481,2.00e-03,8.00e-02,
482,2.00e-03,1.00e-01,
483,-8.00e-04,6.00e-02,
484,-4.00e-04,1.00e-01,
485,2.00e-03,6.00e-02,
486,-8.00e-04,6.00e-02,
487,2.00e-03,8.00e-02,
488,2.40e-03,8.00e-02,
489,-1.20e-03,6.00e-02,
490,-2.40e-03,6.00e-02,
491,4.00e-03,8.00e-02,
492,5.60e-03,6.00e-02,
493,-6.80e-03,8.00e-02,
494,-7.20e-03,6.00e-02,
495,8.80e-03,8.00e-02,
496,-6.00e-03,6.00e-02,
497,5.60e-03,8.00e-02,
498,4.00e-03,6.00e-02,
499,-2.80e-03,8.00e-02,
500,-1.60e-03,6.00e-02,
501,2.40e-03,8.00e-02,
502,2.40e-03,8.00e-02,
503,-8.00e-04,4.00e-02,
504,-8.00e-04,8.00e-02,
505,1.20e-03,2.00e-02,
506,2.00e-03,8.00e-02,
507,-4.00e-04,2.00e-02,
508,-8.00e-04,8.00e-02,
509,1.20e-03,2.00e-02,
510,2.00e-03,8.00e-02,
511,-1.20e-03,2.00e-02,
512,-2.40e-03,8.00e-02,
513,3.60e-03,2.00e-02,
514,3.60e-03,2.00e-02,
515,7.60e-03,1.90e+00,
516,6.80e-03,1.60e-01,
517,8.00e-04,1.20e-01,
518,4.80e-03,8.00e-02,
519,-8.00e-04,1.40e-01,
520,2.00e-03,1.00e-01,
521,-8.00e-04,8.00e-02,
522,-4.00e-04,1.00e-01,
523,2.40e-03,6.00e-02,
524,-8.00e-04,6.00e-02,
525,1.60e-03,1.00e-01,
526,1.60e-03,6.00e-02,
527,-1.20e-03,8.00e-02,
528,-1.60e-03,6.00e-02,
529,1.60e-03,8.00e-02,
530,-2.80e-03,6.00e-02,
531,3.20e-03,8.00e-02,
532,5.20e-03,8.00e-02,
533,-5.60e-03,6.00e-02,
534,-7.20e-03,8.00e-02,
535,8.00e-03,6.00e-02,
536,-6.00e-03,6.00e-02,
537,5.60e-03,8.00e-02,
538,4.00e-03,8.00e-02,
539,-2.80e-03,6.00e-02,
540,-1.60e-03,8.00e-02,
541,2.00e-03,4.00e-02,
542,1.20e-03,8.00e-02,
543,-1.20e-03,4.00e-02,
544,1.60e-03,8.00e-02,
545,-8.00e-04,4.00e-02,
546,2.40e-03,8.00e-02,
547,-4.00e-04,2.00e-02,
548,-8.00e-04,8.00e-02,
549,1.60e-03,2.00e-02,
550,2.40e-03,2.00e-02,
551,-1.60e-03,8.00e-02,
552,2.80e-03,8.00e-02,
553,-2.80e-03,2.00e-02,
554,2.80e-03,2.00e-02,
555,7.20e-03,1.92e+00,
556,6.80e-03,1.60e-01,
557,4.00e-04,1.20e-01,
558,4.00e-03,1.40e-01,
559,-1.20e-03,8.00e-02,
560,-8.00e-04,1.00e-01,
561,2.00e-03,8.00e-02,
562,2.00e-03,1.00e-01,
563,-1.20e-03,6.00e-02,
564,-8.00e-04,6.00e-02,
565,1.20e-03,8.00e-02,
566,2.00e-03,6.00e-02,
567,-8.00e-04,8.00e-02,
568,-8.00e-04,6.00e-02,
569,2.40e-03,8.00e-02,
570,-1.60e-03,8.00e-02,
571,4.00e-03,6.00e-02,
572,5.20e-03,6.00e-02,
573,-4.40e-03,8.00e-02,
574,-6.00e-03,8.00e-02,
575,8.00e-03,6.00e-02,
576,-5.20e-03,8.00e-02,
577,5.20e-03,6.00e-02,
578,3.60e-03,6.00e-02,
579,-2.40e-03,8.00e-02,
580,-1.20e-03,8.00e-02,
581,1.60e-03,4.00e-02,
582,1.60e-03,8.00e-02,
583,-4.00e-04,4.00e-02,
584,-1.20e-03,8.00e-02,
585,1.20e-03,2.00e-02,
586,1.60e-03,8.00e-02,
587,-8.00e-04,2.00e-02,
588,0.00e+00,8.00e-02,
589,2.40e-03,2.00e-02,
590,2.40e-03,8.00e-02,
591,-8.00e-04,2.00e-02,
592,3.60e-03,2.00e-02,
593,-2.40e-03,8.00e-02,
594,3.20e-03,2.00e-02,
595,8.00e-03,1.94e+00,
596,6.80e-03,1.60e-01,
597,8.00e-04,1.20e-01,
598,4.80e-03,1.40e-01,
599,-8.00e-04,8.00e-02,
600,2.40e-03,8.00e-02,
601,-8.00e-04,1.00e-01,
602,2.40e-03,1.00e-01,
603,-8.00e-04,6.00e-02,
604,-8.00e-04,6.00e-02,
605,2.00e-03,8.00e-02,
606,1.20e-03,6.00e-02,
607,-8.00e-04,8.00e-02,
608,2.00e-03,6.00e-02,
609,-1.20e-03,8.00e-02,
610,-1.60e-03,6.00e-02,
611,4.00e-03,8.00e-02,
612,5.20e-03,8.00e-02,
613,-5.20e-03,6.00e-02,
614,-6.00e-03,6.00e-02,
615,8.00e-03,8.00e-02,
616,-5.20e-03,6.00e-02,
617,5.20e-03,8.00e-02,
618,4.00e-03,6.00e-02,
619,-1.60e-03,8.00e-02,
620,-1.60e-03,8.00e-02,
621,2.00e-03,2.00e-02,
622,2.00e-03,8.00e-02,
623,0.00e+00,2.00e-02,
624,1.60e-03,8.00e-02,
625,-8.00e-04,2.00e-02,
626,-8.00e-04,2.00e-02,
627,2.00e-03,8.00e-02,
628,-8.00e-04,8.00e-02,
629,2.00e-03,2.00e-02,
630,-8.00e-04,2.00e-02,
631,2.80e-03,8.00e-02,
632,4.00e-03,2.00e-02,
633,-3.20e-03,6.00e-02,
634,3.60e-03,2.00e-02,
635,8.00e-03,1.88e+00,
636,6.80e-03,1.60e-01,
637,4.00e-04,1.20e-01,
638,4.00e-03,1.20e-01,
639,-1.20e-03,8.00e-02,
640,-8.00e-04,8.00e-02,
641,2.40e-03,1.00e-01,
642,2.40e-03,1.00e-01,
643,-8.00e-04,6.00e-02,
644,-1.20e-03,6.00e-02,
645,1.20e-03,8.00e-02,
646,-8.00e-04,6.00e-02,
647,1.60e-03,8.00e-02,
648,2.40e-03,6.00e-02,
649,-8.00e-04,8.00e-02,
650,-1.60e-03,6.00e-02,
651,3.60e-03,8.00e-02,
652,4.00e-03,6.00e-02,
653,-4.80e-03,8.00e-02,
654,6.40e-03,6.00e-02,
655,-6.00e-03,8.00e-02,
656,-5.20e-03,8.00e-02,
657,5.20e-03,6.00e-02,
658,3.60e-03,8.00e-02,
659,-1.60e-03,2.00e-02,
660,-1.20e-03,8.00e-02,
661,2.00e-03,4.00e-02,
662,0.00e+00,8.00e-02,
663,2.00e-03,2.00e-02,
664,-8.00e-04,2.00e-02,
665,1.60e-03,8.00e-02,
666,2.00e-03,8.00e-02,
667,-8.00e-04,2.00e-02,
668,-8.00e-04,8.00e-02,
669,2.00e-03,2.00e-02,
670,-8.00e-04,2.00e-02,
671,2.40e-03,8.00e-02,
672,3.60e-03,2.00e-02,
673,-3.20e-03,8.00e-02,
674,3.20e-03,2.00e-02,
675,7.60e-03,1.98e+00,
676,6.80e-03,1.60e-01,
677,4.00e-04,1.20e-01,
678,4.00e-03,1.40e-01,
679,-1.20e-03,8.00e-02,
680,2.40e-03,1.00e-01,
681,-1.20e-03,6.00e-02,
682,2.00e-03,1.00e-01,
683,-1.20e-03,6.00e-02,
684,-4.00e-04,6.00e-02,
685,2.00e-03,8.00e-02,
686,-8.00e-04,6.00e-02,
687,1.60e-03,8.00e-02,
688,-8.00e-04,6.00e-02,
689,2.40e-03,8.00e-02,
690,-1.60e-03,6.00e-02,
691,3.20e-03,8.00e-02,
692,4.00e-03,6.00e-02,
693,-4.00e-03,8.00e-02,
694,-5.20e-03,6.00e-02,
695,6.80e-03,8.00e-02,
696,-4.40e-03,6.00e-02,
697,5.20e-03,8.00e-02,
698,3.60e-03,6.00e-02,
699,-1.60e-03,8.00e-02,
700,-1.60e-03,8.00e-02,
701,1.60e-03,4.00e-02,
702,1.60e-03,6.00e-02,
703,-4.00e-04,8.00e-02,
704,0.00e+00,8.00e-02,
705,2.00e-03,4.00e-02,
706,-8.00e-04,8.00e-02,
707,2.40e-03,2.00e-02,
708,2.40e-03,2.00e-02,
709,-8.00e-04,8.00e-02,
710,2.40e-03,2.00e-02,
711,-1.20e-03,8.00e-02,
712,3.20e-03,8.00e-02,
713,-3.60e-03,2.00e-02,
714,2.80e-03,2.00e+00,
715,7.60e-03,0.00e+00,
716,6.80e-03,1.60e-01,
717,8.00e-04,1.20e-01,
718,4.80e-03,8.00e-02,
719,-1.20e-03,1.40e-01,
720,2.40e-03,1.00e-01,
721,-1.20e-03,6.00e-02,
722,2.00e-03,1.00e-01,
723,-8.00e-04,6.00e-02,
724,0.00e+00,6.00e-02,
725,2.00e-03,8.00e-02,
726,2.00e-03,6.00e-02,
727,-8.00e-04,8.00e-02,
728,2.00e-03,6.00e-02,
729,-8.00e-04,8.00e-02,
730,-2.00e-03,8.00e-02,
731,3.20e-03,6.00e-02,
732,4.00e-03,6.00e-02,
733,-3.60e-03,8.00e-02,
734,-4.40e-03,8.00e-02,
735,6.40e-03,6.00e-02,
736,-4.00e-03,8.00e-02,
737,4.00e-03,6.00e-02,
738,2.80e-03,6.00e-02,
739,-1.20e-03,8.00e-02,
740,-1.20e-03,8.00e-02,
741,2.00e-03,2.00e-02,
742,1.20e-03,8.00e-02,
743,-8.00e-04,4.00e-02,
744,-8.00e-04,8.00e-02,
745,1.20e-03,4.00e-02,
746,2.00e-03,8.00e-02,
747,-4.00e-04,4.00e-02,
748,-8.00e-04,2.00e-02,
749,2.00e-03,8.00e-02,
750,-1.20e-03,8.00e-02,
751,2.40e-03,2.00e-02,
752,2.80e-03,2.00e-02,
753,-3.20e-03,8.00e-02,
754,2.80e-03,2.00e-02,
755,7.60e-03,1.82e+00,
756,6.80e-03,1.60e-01,
757,4.00e-04,1.20e-01,
758,4.40e-03,1.20e-01,
759,-1.20e-03,8.00e-02,
760,-1.20e-03,1.00e-01,
761,2.40e-03,8.00e-02,
762,2.40e-03,1.00e-01,
763,-8.00e-04,6.00e-02,
764,-8.00e-04,6.00e-02,
765,2.00e-03,1.00e-01,
766,2.00e-03,6.00e-02,
767,0.00e+00,8.00e-02,
768,1.20e-03,6.00e-02,
769,-1.20e-03,8.00e-02,
770,2.40e-03,8.00e-02,
771,-1.60e-03,6.00e-02,
772,3.20e-03,8.00e-02,
773,-3.60e-03,6.00e-02,
774,5.60e-03,6.00e-02,
775,-5.20e-03,8.00e-02,
776,-4.00e-03,6.00e-02,
777,4.00e-03,8.00e-02,
778,2.40e-03,8.00e-02,
779,-1.60e-03,4.00e-02,
780,-1.60e-03,6.00e-02,
781,2.40e-03,8.00e-02,
782,1.60e-03,8.00e-02,
783,0.00e+00,4.00e-02,
784,-4.00e-04,8.00e-02,
785,1.20e-03,2.00e-02,
786,-8.00e-04,8.00e-02,
787,2.00e-03,2.00e-02,
788,-8.00e-04,4.00e-02,
789,2.00e-03,8.00e-02,
790,2.40e-03,8.00e-02,
791,-1.20e-03,2.00e-02,
792,3.20e-03,8.00e-02,
793,-4.00e-03,2.00e-02,
794,1.60e-03,2.00e+00,
795,8.00e-03,0.00e+00,
796,6.80e-03,1.60e-01,
797,1.20e-03,1.20e-01,
798,5.20e-03,1.40e-01,
799,0.00e+00,8.00e-02,
800,2.40e-03,1.00e-01,
801,-8.00e-04,8.00e-02,
802,2.40e-03,1.00e-01,
803,-8.00e-04,6.00e-02,
804,-8.00e-04,6.00e-02,
805,2.00e-03,8.00e-02,
806,1.20e-03,8.00e-02,
807,-8.00e-04,6.00e-02,
808,2.00e-03,8.00e-02,
809,-8.00e-04,6.00e-02,
810,-1.20e-03,6.00e-02,
811,2.80e-03,8.00e-02,
812,3.60e-03,6.00e-02,
813,-2.80e-03,8.00e-02,
814,5.20e-03,6.00e-02,
815,-4.00e-03,8.00e-02,
816,-4.00e-03,6.00e-02,
817,3.20e-03,8.00e-02,
818,2.80e-03,8.00e-02,
819,-1.20e-03,4.00e-02,
820,1.60e-03,6.00e-02,
821,-8.00e-04,8.00e-02,
822,1.20e-03,8.00e-02,
823,-8.00e-04,4.00e-02,
824,0.00e+00,8.00e-02,
825,2.40e-03,2.00e-02,
826,2.00e-03,2.00e-02,
827,-8.00e-04,8.00e-02,
828,1.20e-03,8.00e-02,
829,-1.60e-03,2.00e-02,
830,-1.20e-03,8.00e-02,
831,2.80e-03,2.00e-02,
832,4.00e-03,8.00e-02,
833,-3.60e-03,2.00e-02,
834,2.40e-03,2.00e-02,
835,7.20e-03,2.00e+00,
836,6.80e-03,1.60e-01,
837,4.00e-04,1.20e-01,
838,5.20e-03,8.00e-02,
839,-1.20e-03,1.40e-01,
840,-1.20e-03,8.00e-02,
841,2.40e-03,1.00e-01,
842,2.40e-03,1.00e-01,
843,-8.00e-04,6.00e-02,
844,-1.20e-03,1.00e-01,
845,1.20e-03,6.00e-02,
846,1.60e-03,8.00e-02,
847,-4.00e-04,6.00e-02,
848,-8.00e-04,6.00e-02,
849,2.00e-03,8.00e-02,
850,2.40e-03,6.00e-02,
851,-1.20e-03,8.00e-02,
852,2.80e-03,6.00e-02,
853,-3.60e-03,8.00e-02,
854,4.80e-03,8.00e-02,
855,-4.40e-03,6.00e-02,
