CarrPurc_P1-19_P2-38_tauVary/Gly91/NewFile5.csv

X,CH1,CH2,Start,Increment,
Sequence,Volt,Volt,-5.000000e-03,1.000000e-04
0,8.00e-04,4.00e-02,
1,0.00e+00,2.00e-02,
2,8.00e-04,4.00e-02,
3,0.00e+00,2.00e-02,
4,4.00e-04,4.00e-02,
5,1.20e-03,2.00e-02,
6,4.00e-04,2.00e-02,
7,1.20e-03,4.00e-02,
8,8.00e-04,4.00e-02,
9,0.00e+00,2.00e-02,
10,1.20e-03,4.00e-02,
11,0.00e+00,2.00e-02,
12,1.20e-03,4.00e-02,
13,4.00e-04,2.00e-02,
14,1.20e-03,4.00e-02,
15,0.00e+00,2.00e-02,
16,0.00e+00,4.00e-02,
17,1.20e-03,2.00e-02,
18,4.00e-04,4.00e-02,
19,1.20e-03,2.00e-02,
20,8.00e-04,2.00e-02,
21,0.00e+00,4.00e-02,
22,0.00e+00,4.00e-02,
23,1.20e-03,2.00e-02,
24,1.20e-03,4.00e-02,
25,0.00e+00,2.00e-02,
26,0.00e+00,4.00e-02,
27,1.20e-03,2.00e-02,
28,0.00e+00,4.00e-02,
29,1.20e-03,2.00e-02,
30,1.20e-03,2.00e-02,
31,0.00e+00,4.00e-02,
32,0.00e+00,4.00e-02,
33,1.20e-03,2.00e-02,
34,0.00e+00,4.00e-02,
35,1.20e-03,2.00e-02,
36,4.00e-04,4.00e-02,
37,1.20e-03,0.00e+00,
38,8.00e-04,4.00e-02,
39,0.00e+00,2.00e-02,
40,0.00e+00,2.00e-02,
41,1.20e-03,4.00e-02,
42,0.00e+00,4.00e-02,
43,8.00e-04,2.00e-02,
44,1.20e-03,4.00e-02,
45,0.00e+00,2.00e-02,
46,4.00e-04,4.00e-02,
47,1.20e-03,2.00e-02,
48,8.00e-04,4.00e-02,
49,0.00e+00,2.00e-02,
50,0.00e+00,4.00e-02,
51,1.20e-03,2.00e-02,
52,4.00e-04,2.00e-02,
53,1.20e-03,4.00e-02,
54,8.00e-04,2.00e-02,
55,5.20e-03,1.64e+00,
56,5.20e-03,1.60e-01,
57,-2.72e-02,1.00e-01,
58,1.52e-02,1.20e-01,
59,-1.40e-02,8.00e-02,
60,6.80e-03,1.00e-01,
61,-7.20e-03,8.00e-02,
62,-1.60e-03,1.00e-01,
63,4.00e-03,6.00e-02,
64,2.80e-03,6.00e-02,
65,-2.00e-03,1.00e-01,
66,2.80e-03,6.00e-02,
67,-1.60e-03,8.00e-02,
68,-1.60e-03,8.00e-02,
69,2.40e-03,6.00e-02,
70,2.00e-03,6.00e-02,
71,-1.20e-03,8.00e-02,
72,-8.00e-04,8.00e-02,
73,2.00e-03,6.00e-02,
74,8.00e-04,6.00e-02,
75,7.60e-03,1.90e+00,
76,6.40e-03,1.60e-01,
77,-7.20e-03,1.20e-01,
78,-7.20e-03,1.20e-01,
79,6.00e-03,8.00e-02,
80,4.00e-03,1.00e-01,
81,-1.20e-03,8.00e-02,
82,2.00e-03,1.00e-01,
83,0.00e+00,6.00e-02,
84,-8.00e-04,1.00e-01,
85,2.00e-03,6.00e-02,
86,2.00e-03,6.00e-02,
87,-1.20e-03,8.00e-02,
88,-2.40e-03,8.00e-02,
89,5.20e-03,6.00e-02,
90,9.20e-03,6.00e-02,
91,-9.60e-03,8.00e-02,
92,-1.52e-02,6.00e-02,
93,1.84e-02,8.00e-02,
94,-2.16e-02,6.00e-02,
95,2.16e-02,8.00e-02,
96,-1.96e-02,6.00e-02,
97,1.76e-02,8.00e-02,
98,1.20e-02,6.00e-02,
99,-8.40e-03,8.00e-02,
100,-5.20e-03,8.00e-02,
101,5.20e-03,6.00e-02,
102,2.80e-03,6.00e-02,
103,-1.20e-03,8.00e-02,
104,2.00e-03,6.00e-02,
105,-1.20e-03,8.00e-02,
106,-1.20e-03,6.00e-02,
107,1.60e-03,8.00e-02,
108,2.00e-03,8.00e-02,
109,-8.00e-04,4.00e-02,
110,-8.00e-04,8.00e-02,
111,2.00e-03,2.00e-02,
112,2.00e-03,8.00e-02,
113,0.00e+00,4.00e-02,
114,4.00e-04,2.00e-02,
115,7.20e-03,1.88e+00,
116,6.80e-03,1.60e-01,
117,1.20e-03,1.20e-01,
118,2.80e-03,1.40e-01,
119,0.00e+00,8.00e-02,
120,2.00e-03,8.00e-02,
121,-8.00e-04,1.00e-01,
122,2.40e-03,1.00e-01,
123,-8.00e-04,6.00e-02,
124,-8.00e-04,6.00e-02,
125,2.00e-03,1.00e-01,
126,2.40e-03,8.00e-02,
127,-1.60e-03,6.00e-02,
128,-3.60e-03,6.00e-02,
129,5.60e-03,8.00e-02,
130,-6.00e-03,6.00e-02,
131,8.00e-03,8.00e-02,
132,1.20e-02,6.00e-02,
133,-1.32e-02,8.00e-02,
134,-1.76e-02,6.00e-02,
135,1.76e-02,8.00e-02,
136,-1.40e-02,6.00e-02,
137,1.20e-02,8.00e-02,
138,8.40e-03,8.00e-02,
139,-5.60e-03,6.00e-02,
140,-3.20e-03,6.00e-02,
141,3.60e-03,8.00e-02,
142,2.40e-03,6.00e-02,
143,-8.00e-04,8.00e-02,
144,2.40e-03,8.00e-02,
145,-1.60e-03,2.00e-02,
146,2.40e-03,8.00e-02,
147,-8.00e-04,4.00e-02,
148,1.20e-03,8.00e-02,
149,-8.00e-04,2.00e-02,
150,2.80e-03,2.00e-02,
151,-2.80e-03,8.00e-02,
152,-3.60e-03,8.00e-02,
153,5.60e-03,2.00e-02,
154,2.80e-03,1.98e+00,
155,7.20e-03,-6.00e-02,
156,6.40e-03,1.60e-01,
157,4.00e-04,1.20e-01,
158,2.80e-03,1.40e-01,
159,0.00e+00,8.00e-02,
160,1.20e-03,1.00e-01,
161,-8.00e-04,8.00e-02,
162,2.40e-03,1.00e-01,
163,-8.00e-04,6.00e-02,
164,2.00e-03,6.00e-02,
165,-8.00e-04,1.00e-01,
166,2.00e-03,6.00e-02,
167,-4.00e-04,8.00e-02,
168,3.20e-03,6.00e-02,
169,-2.80e-03,8.00e-02,
170,-5.60e-03,8.00e-02,
171,8.00e-03,6.00e-02,
172,1.20e-02,6.00e-02,
173,-1.36e-02,8.00e-02,
174,-1.68e-02,6.00e-02,
175,1.84e-02,8.00e-02,
176,-1.24e-02,8.00e-02,
177,1.28e-02,6.00e-02,
178,8.40e-03,8.00e-02,
179,-6.00e-03,6.00e-02,
180,-3.20e-03,8.00e-02,
181,3.60e-03,6.00e-02,
182,2.40e-03,8.00e-02,
183,-8.00e-04,4.00e-02,
184,2.00e-03,8.00e-02,
185,-1.20e-03,2.00e-02,
186,2.00e-03,8.00e-02,
187,-8.00e-04,2.00e-02,
188,-8.00e-04,8.00e-02,
189,1.20e-03,2.00e-02,
190,2.00e-03,2.00e-02,
191,-1.20e-03,8.00e-02,
192,-2.80e-03,2.00e-02,
193,5.20e-03,8.00e-02,
194,3.20e-03,2.00e-02,
195,8.00e-03,1.88e+00,
196,6.80e-03,1.60e-01,
197,-8.00e-04,1.00e-01,
198,0.00e+00,1.40e-01,
199,2.80e-03,8.00e-02,
200,2.00e-03,8.00e-02,
201,0.00e+00,1.00e-01,
202,-8.00e-04,1.00e-01,
203,2.40e-03,6.00e-02,
204,-8.00e-04,1.00e-01,
205,2.40e-03,6.00e-02,
206,2.40e-03,6.00e-02,
207,-1.20e-03,8.00e-02,
208,-1.60e-03,8.00e-02,
209,4.00e-03,6.00e-02,
210,-3.20e-03,6.00e-02,
211,6.40e-03,8.00e-02,
212,8.00e-03,6.00e-02,
213,-8.80e-03,8.00e-02,
214,-1.32e-02,6.00e-02,
215,1.48e-02,8.00e-02,
216,-1.20e-02,6.00e-02,
217,1.12e-02,8.00e-02,
218,6.80e-03,8.00e-02,
219,-5.20e-03,6.00e-02,
220,-2.80e-03,8.00e-02,
221,3.60e-03,4.00e-02,
222,2.00e-03,6.00e-02,
223,-8.00e-04,8.00e-02,
224,0.00e+00,6.00e-02,
225,1.20e-03,8.00e-02,
226,1.20e-03,8.00e-02,
227,-4.00e-04,6.00e-02,
228,-8.00e-04,8.00e-02,
229,1.20e-03,4.00e-02,
230,-8.00e-04,8.00e-02,
231,1.60e-03,4.00e-02,
232,-1.60e-03,2.00e-02,
233,3.60e-03,8.00e-02,
234,2.80e-03,2.00e-02,
235,7.20e-03,1.68e+00,
236,6.40e-03,1.60e-01,
237,0.00e+00,1.20e-01,
238,2.40e-03,1.40e-01,
239,-8.00e-04,8.00e-02,
240,1.20e-03,1.00e-01,
241,-8.00e-04,8.00e-02,
242,1.20e-03,1.00e-01,
243,-8.00e-04,6.00e-02,
244,-8.00e-04,1.00e-01,
245,2.00e-03,6.00e-02,
246,2.00e-03,6.00e-02,
247,-8.00e-04,8.00e-02,
248,-2.80e-03,8.00e-02,
249,4.00e-03,6.00e-02,
250,-4.40e-03,8.00e-02,
251,7.20e-03,6.00e-02,
252,9.60e-03,6.00e-02,
253,-1.00e-02,8.00e-02,
254,-1.28e-02,8.00e-02,
255,1.40e-02,6.00e-02,
256,-1.24e-02,8.00e-02,
257,9.60e-03,6.00e-02,
258,6.40e-03,6.00e-02,
259,-4.00e-03,8.00e-02,
260,-2.80e-03,6.00e-02,
261,2.40e-03,8.00e-02,
262,2.00e-03,8.00e-02,
263,-1.20e-03,6.00e-02,
264,-8.00e-04,8.00e-02,
265,2.00e-03,4.00e-02,
266,2.40e-03,8.00e-02,
267,-8.00e-04,6.00e-02,
268,-4.00e-04,8.00e-02,
269,2.00e-03,4.00e-02,
270,0.00e+00,8.00e-02,
271,2.00e-03,2.00e-02,
272,-1.60e-03,8.00e-02,
273,3.20e-03,2.00e-02,
274,2.80e-03,1.96e+00,
275,8.00e-03,-2.00e-02,
276,6.80e-03,1.60e-01,
277,8.00e-04,1.20e-01,
278,2.80e-03,1.20e-01,
279,0.00e+00,8.00e-02,
280,-4.00e-04,1.00e-01,
281,1.60e-03,8.00e-02,
282,2.00e-03,1.00e-01,
283,-4.00e-04,6.00e-02,
284,-1.20e-03,1.00e-01,
285,1.20e-03,6.00e-02,
286,-8.00e-04,6.00e-02,
287,2.00e-03,8.00e-02,
288,3.60e-03,6.00e-02,
289,-1.60e-03,8.00e-02,
290,-4.00e-03,6.00e-02,
291,5.20e-03,8.00e-02,
292,8.40e-03,8.00e-02,
293,-9.20e-03,6.00e-02,
294,-1.20e-02,6.00e-02,
295,1.28e-02,8.00e-02,
296,-1.00e-02,8.00e-02,
297,1.00e-02,6.00e-02,
298,6.80e-03,8.00e-02,
299,-4.00e-03,6.00e-02,
300,-3.20e-03,8.00e-02,
301,2.40e-03,6.00e-02,
302,2.00e-03,6.00e-02,
303,-8.00e-04,8.00e-02,
304,-8.00e-04,6.00e-02,
305,2.00e-03,8.00e-02,
306,-8.00e-04,8.00e-02,
307,2.40e-03,2.00e-02,
308,1.20e-03,8.00e-02,
309,-8.00e-04,2.00e-02,
310,2.40e-03,8.00e-02,
311,-1.20e-03,2.00e-02,
312,-1.60e-03,2.00e-02,
313,3.60e-03,8.00e-02,
314,2.80e-03,2.00e-02,
315,7.20e-03,1.88e+00,
316,6.40e-03,1.60e-01,
317,4.00e-04,1.20e-01,
318,3.60e-03,8.00e-02,
319,-8.00e-04,1.40e-01,
320,-8.00e-04,1.00e-01,
321,2.00e-03,8.00e-02,
322,2.40e-03,1.00e-01,
323,-1.20e-03,6.00e-02,
324,-8.00e-04,1.00e-01,
325,2.00e-03,6.00e-02,
326,-8.00e-04,6.00e-02,
327,2.40e-03,8.00e-02,
328,2.80e-03,6.00e-02,
329,-1.60e-03,8.00e-02,
330,-3.20e-03,6.00e-02,
331,5.60e-03,8.00e-02,
332,8.00e-03,8.00e-02,
333,-8.40e-03,6.00e-02,
334,1.16e-02,6.00e-02,
335,-1.04e-02,8.00e-02,
336,-9.60e-03,6.00e-02,
337,9.20e-03,8.00e-02,
338,6.00e-03,8.00e-02,
339,-4.00e-03,6.00e-02,
340,-2.80e-03,8.00e-02,
341,2.40e-03,4.00e-02,
342,2.40e-03,8.00e-02,
343,0.00e+00,4.00e-02,
344,1.20e-03,8.00e-02,
345,-8.00e-04,2.00e-02,
346,1.20e-03,8.00e-02,
347,-8.00e-04,2.00e-02,
348,1.20e-03,8.00e-02,
349,-4.00e-04,2.00e-02,
350,2.40e-03,8.00e-02,
351,-1.60e-03,2.00e-02,
352,-2.40e-03,8.00e-02,
353,4.00e-03,2.00e-02,
354,3.20e-03,2.00e-02,
355,8.00e-03,1.84e+00,
356,6.80e-03,1.60e-01,
357,4.00e-04,1.20e-01,
358,3.60e-03,1.40e-01,
359,-4.00e-04,8.00e-02,
360,2.00e-03,1.00e-01,
361,-8.00e-04,8.00e-02,
362,-4.00e-04,1.00e-01,
363,2.40e-03,6.00e-02,
364,2.00e-03,1.00e-01,
365,-8.00e-04,6.00e-02,
366,2.00e-03,6.00e-02,
367,-8.00e-04,8.00e-02,
368,2.40e-03,6.00e-02,
369,-2.00e-03,8.00e-02,
370,-3.20e-03,6.00e-02,
371,5.20e-03,8.00e-02,
372,7.20e-03,6.00e-02,
373,-8.00e-03,8.00e-02,
374,-1.04e-02,6.00e-02,
375,1.16e-02,8.00e-02,
376,-8.40e-03,6.00e-02,
377,8.40e-03,8.00e-02,
378,5.20e-03,8.00e-02,
379,-3.60e-03,6.00e-02,
380,-1.60e-03,6.00e-02,
381,2.40e-03,8.00e-02,
382,2.00e-03,6.00e-02,
383,-8.00e-04,8.00e-02,
384,-8.00e-04,8.00e-02,
385,1.20e-03,4.00e-02,
386,-4.00e-04,8.00e-02,
387,1.60e-03,2.00e-02,
388,-8.00e-04,4.00e-02,
389,1.60e-03,8.00e-02,
390,-8.00e-04,8.00e-02,
391,2.40e-03,2.00e-02,
392,-2.40e-03,8.00e-02,
393,4.00e-03,2.00e-02,
394,3.20e-03,1.96e+00,
395,7.20e-03,-2.00e-02,
396,6.40e-03,1.60e-01,
397,0.00e+00,1.20e-01,
398,3.60e-03,1.40e-01,
399,0.00e+00,8.00e-02,
400,1.60e-03,1.00e-01,
401,-8.00e-04,8.00e-02,
402,-8.00e-04,1.00e-01,
403,2.00e-03,6.00e-02,
404,0.00e+00,1.00e-01,
405,2.00e-03,6.00e-02,
406,-4.00e-04,6.00e-02,
407,2.00e-03,8.00e-02,
408,2.40e-03,6.00e-02,
409,-1.20e-03,8.00e-02,
410,-3.60e-03,6.00e-02,
411,4.00e-03,8.00e-02,
412,6.80e-03,8.00e-02,
413,-7.20e-03,6.00e-02,
414,-9.60e-03,6.00e-02,
415,1.00e-02,8.00e-02,
416,-7.60e-03,6.00e-02,
417,8.00e-03,8.00e-02,
418,5.20e-03,8.00e-02,
419,-2.80e-03,6.00e-02,
420,-2.40e-03,6.00e-02,
421,2.40e-03,8.00e-02,
422,2.00e-03,6.00e-02,
423,-8.00e-04,8.00e-02,
424,-8.00e-04,8.00e-02,
425,2.00e-03,4.00e-02,
426,2.00e-03,8.00e-02,
427,-8.00e-04,2.00e-02,
428,-8.00e-04,8.00e-02,
429,2.00e-03,2.00e-02,
430,2.40e-03,2.00e-02,
431,-1.60e-03,8.00e-02,
432,-2.40e-03,8.00e-02,
433,3.60e-03,2.00e-02,
434,3.20e-03,2.00e-02,
435,8.00e-03,1.86e+00,
436,6.80e-03,1.60e-01,
437,8.00e-04,1.20e-01,
438,4.00e-03,1.40e-01,
439,-4.00e-04,8.00e-02,
440,-8.00e-04,8.00e-02,
441,2.00e-03,1.00e-01,
442,2.40e-03,1.00e-01,
443,-8.00e-04,6.00e-02,
444,-8.00e-04,1.00e-01,
445,2.00e-03,6.00e-02,
446,-4.00e-04,6.00e-02,
447,2.00e-03,8.00e-02,
448,-1.60e-03,6.00e-02,
449,2.40e-03,8.00e-02,
450,-2.40e-03,6.00e-02,
451,4.00e-03,8.00e-02,
452,5.20e-03,8.00e-02,
453,-6.00e-03,6.00e-02,
454,-8.40e-03,6.00e-02,
455,9.20e-03,8.00e-02,
456,-8.00e-03,8.00e-02,
457,6.80e-03,6.00e-02,
458,4.80e-03,6.00e-02,
459,-2.80e-03,8.00e-02,
460,-2.40e-03,8.00e-02,
461,2.40e-03,4.00e-02,
462,2.00e-03,4.00e-02,
463,0.00e+00,8.00e-02,
464,0.00e+00,6.00e-02,
465,2.00e-03,8.00e-02,
466,2.00e-03,8.00e-02,
467,-8.00e-04,4.00e-02,
468,-8.00e-04,4.00e-02,
469,1.20e-03,8.00e-02,
470,2.00e-03,8.00e-02,
471,-8.00e-04,2.00e-02,
472,-2.40e-03,8.00e-02,
473,3.60e-03,2.00e-02,
474,3.20e-03,2.00e-02,
475,7.20e-03,1.74e+00,
476,6.80e-03,1.60e-01,
477,1.20e-03,1.20e-01,
478,4.00e-03,1.40e-01,
479,0.00e+00,8.00e-02,
480,-8.00e-04,1.00e-01,
481,2.00e-03,8.00e-02,
482,-1.20e-03,6.00e-02,
483,2.40e-03,1.00e-01,
484,0.00e+00,1.00e-01,
485,2.40e-03,6.00e-02,
486,1.60e-03,6.00e-02,
487,-8.00e-04,8.00e-02,
488,2.00e-03,8.00e-02,
489,-1.60e-03,6.00e-02,
490,-2.80e-03,6.00e-02,
491,4.00e-03,8.00e-02,
492,6.40e-03,6.00e-02,
493,-6.00e-03,8.00e-02,
494,-8.80e-03,6.00e-02,
495,8.80e-03,8.00e-02,
496,-6.80e-03,6.00e-02,
497,6.80e-03,8.00e-02,
498,4.80e-03,6.00e-02,
499,-2.40e-03,8.00e-02,
500,-1.60e-03,6.00e-02,
501,2.40e-03,8.00e-02,
502,2.00e-03,6.00e-02,
503,0.00e+00,8.00e-02,
504,2.00e-03,8.00e-02,
505,-8.00e-04,4.00e-02,
506,-8.00e-04,8.00e-02,
507,2.00e-03,4.00e-02,
508,-8.00e-04,8.00e-02,
509,1.20e-03,2.00e-02,
510,-1.20e-03,8.00e-02,
511,2.40e-03,2.00e-02,
512,3.60e-03,8.00e-02,
513,-2.80e-03,2.00e-02,
514,3.20e-03,1.92e+00,
515,8.00e-03,-2.00e-02,
516,6.80e-03,1.60e-01,
517,4.00e-04,1.20e-01,
518,3.60e-03,1.40e-01,
519,-1.20e-03,8.00e-02,
520,2.00e-03,1.00e-01,
521,-8.00e-04,8.00e-02,
522,2.40e-03,1.00e-01,
523,-4.00e-04,6.00e-02,
524,-8.00e-04,1.00e-01,
525,1.20e-03,6.00e-02,
526,1.20e-03,6.00e-02,
527,-8.00e-04,8.00e-02,
528,2.00e-03,6.00e-02,
529,-1.20e-03,8.00e-02,
530,-1.60e-03,6.00e-02,
531,4.00e-03,8.00e-02,
532,6.40e-03,8.00e-02,
533,-5.20e-03,6.00e-02,
534,-8.00e-03,8.00e-02,
535,9.20e-03,6.00e-02,
536,-5.60e-03,6.00e-02,
537,6.00e-03,8.00e-02,
538,4.00e-03,8.00e-02,
539,-2.80e-03,6.00e-02,
540,-1.60e-03,6.00e-02,
541,2.40e-03,8.00e-02,
542,2.00e-03,8.00e-02,
543,-8.00e-04,6.00e-02,
544,-8.00e-04,6.00e-02,
545,1.20e-03,8.00e-02,
546,2.00e-03,8.00e-02,
547,-1.20e-03,2.00e-02,
548,-8.00e-04,8.00e-02,
549,2.00e-03,2.00e-02,
550,2.40e-03,8.00e-02,
551,-1.20e-03,4.00e-02,
552,-2.80e-03,8.00e-02,
553,3.20e-03,2.00e-02,
554,4.00e-03,2.00e-02,
555,7.20e-03,1.88e+00,
556,6.80e-03,1.60e-01,
557,8.00e-04,1.20e-01,
558,4.40e-03,1.40e-01,
559,-8.00e-04,8.00e-02,
560,-1.20e-03,1.00e-01,
561,2.00e-03,8.00e-02,
562,2.00e-03,1.00e-01,
563,-1.20e-03,6.00e-02,
564,-8.00e-04,1.00e-01,
565,2.40e-03,6.00e-02,
566,-4.00e-04,6.00e-02,
567,1.60e-03,8.00e-02,
568,2.00e-03,6.00e-02,
569,-1.20e-03,8.00e-02,
570,-2.40e-03,8.00e-02,
571,4.00e-03,6.00e-02,
572,5.20e-03,6.00e-02,
573,-5.20e-03,8.00e-02,
574,-6.80e-03,8.00e-02,
575,8.00e-03,6.00e-02,
576,-6.00e-03,8.00e-02,
577,6.00e-03,6.00e-02,
578,4.80e-03,6.00e-02,
579,-1.60e-03,8.00e-02,
580,-1.20e-03,6.00e-02,
581,2.40e-03,8.00e-02,
582,1.60e-03,8.00e-02,
583,-8.00e-04,6.00e-02,
584,-8.00e-04,6.00e-02,
585,1.20e-03,8.00e-02,
586,0.00e+00,8.00e-02,
587,2.00e-03,2.00e-02,
588,-4.00e-04,8.00e-02,
589,1.60e-03,2.00e-02,
590,2.40e-03,8.00e-02,
591,-1.20e-03,2.00e-02,
592,3.60e-03,8.00e-02,
593,-3.20e-03,2.00e-02,
594,3.20e-03,2.00e-02,
595,8.00e-03,1.80e+00,
596,6.80e-03,1.60e-01,
597,4.00e-04,1.20e-01,
598,4.80e-03,1.40e-01,
599,-8.00e-04,8.00e-02,
600,-8.00e-04,8.00e-02,
601,2.00e-03,1.00e-01,
602,2.40e-03,1.00e-01,
603,-8.00e-04,6.00e-02,
604,-8.00e-04,1.00e-01,
605,1.20e-03,6.00e-02,
606,1.20e-03,6.00e-02,
607,-8.00e-04,8.00e-02,
608,2.40e-03,6.00e-02,
609,-1.60e-03,8.00e-02,
610,-1.60e-03,6.00e-02,
611,4.00e-03,8.00e-02,
612,5.20e-03,8.00e-02,
613,-5.60e-03,6.00e-02,
614,-6.40e-03,6.00e-02,
615,8.00e-03,8.00e-02,
616,-5.20e-03,6.00e-02,
617,5.20e-03,8.00e-02,
618,4.00e-03,6.00e-02,
619,-2.40e-03,8.00e-02,
620,-1.20e-03,6.00e-02,
621,2.40e-03,8.00e-02,
622,2.00e-03,6.00e-02,
623,-8.00e-04,8.00e-02,
624,-8.00e-04,2.00e-02,
625,1.60e-03,8.00e-02,
626,-8.00e-04,8.00e-02,
627,2.00e-03,2.00e-02,
628,-8.00e-04,8.00e-02,
629,2.00e-03,2.00e-02,
630,2.40e-03,2.00e-02,
631,-8.00e-04,8.00e-02,
632,3.20e-03,8.00e-02,
633,-2.80e-03,2.00e-02,
634,3.60e-03,2.00e-02,
635,7.20e-03,1.92e+00,
636,6.80e-03,1.60e-01,
637,8.00e-04,1.20e-01,
638,4.80e-03,1.40e-01,
639,-8.00e-04,8.00e-02,
640,-8.00e-04,8.00e-02,
641,2.40e-03,1.00e-01,
642,2.40e-03,1.00e-01,
643,-8.00e-04,6.00e-02,
644,-8.00e-04,6.00e-02,
645,1.60e-03,1.00e-01,
646,2.00e-03,6.00e-02,
647,0.00e+00,8.00e-02,
648,-8.00e-04,6.00e-02,
649,2.40e-03,8.00e-02,
650,-2.40e-03,6.00e-02,
651,3.20e-03,8.00e-02,
652,4.00e-03,6.00e-02,
653,-4.40e-03,8.00e-02,
654,6.40e-03,6.00e-02,
655,-6.00e-03,8.00e-02,
656,-5.60e-03,8.00e-02,
657,4.40e-03,6.00e-02,
658,3.60e-03,6.00e-02,
659,-1.20e-03,8.00e-02,
660,2.00e-03,6.00e-02,
661,-1.60e-03,8.00e-02,
662,-8.00e-04,8.00e-02,
663,2.00e-03,6.00e-02,
664,1.60e-03,8.00e-02,
665,-8.00e-04,2.00e-02,
666,2.00e-03,8.00e-02,
667,-8.00e-04,2.00e-02,
668,-1.20e-03,8.00e-02,
669,1.60e-03,2.00e-02,
670,-8.00e-04,4.00e-02,
671,2.80e-03,8.00e-02,
672,2.80e-03,8.00e-02,
673,-3.60e-03,2.00e-02,
674,3.20e-03,2.00e-02,
675,7.60e-03,1.94e+00,
676,6.80e-03,1.60e-01,
677,4.00e-04,1.20e-01,
678,4.80e-03,1.40e-01,
679,-8.00e-04,8.00e-02,
680,-1.20e-03,1.00e-01,
681,2.40e-03,8.00e-02,
682,2.80e-03,1.00e-01,
683,-8.00e-04,6.00e-02,
684,-8.00e-04,1.00e-01,
685,2.00e-03,6.00e-02,
686,-8.00e-04,6.00e-02,
687,1.60e-03,8.00e-02,
688,-8.00e-04,6.00e-02,
689,2.40e-03,8.00e-02,
690,-1.60e-03,6.00e-02,
691,3.60e-03,8.00e-02,
692,4.80e-03,6.00e-02,
693,-4.00e-03,8.00e-02,
694,-5.60e-03,6.00e-02,
695,6.40e-03,8.00e-02,
696,-4.40e-03,6.00e-02,
697,5.20e-03,8.00e-02,
698,3.60e-03,6.00e-02,
699,-1.60e-03,8.00e-02,
700,-8.00e-04,8.00e-02,
701,2.40e-03,4.00e-02,
702,-4.00e-04,6.00e-02,
703,2.00e-03,8.00e-02,
704,2.00e-03,6.00e-02,
705,-4.00e-04,8.00e-02,
706,-8.00e-04,8.00e-02,
707,2.00e-03,6.00e-02,
708,1.60e-03,8.00e-02,
709,-8.00e-04,2.00e-02,
710,2.40e-03,2.00e-02,
711,-1.20e-03,8.00e-02,
712,3.60e-03,8.00e-02,
713,-3.20e-03,4.00e-02,
714,2.80e-03,2.00e-02,
715,7.60e-03,1.80e+00,
716,6.80e-03,1.60e-01,
717,4.00e-04,1.20e-01,
718,4.00e-03,1.20e-01,
719,-1.60e-03,8.00e-02,
720,-8.00e-04,1.00e-01,
721,2.40e-03,8.00e-02,
722,2.40e-03,1.00e-01,
723,-8.00e-04,6.00e-02,
724,1.20e-03,6.00e-02,
725,-8.00e-04,1.00e-01,
726,0.00e+00,6.00e-02,
727,1.60e-03,8.00e-02,
728,2.00e-03,6.00e-02,
729,-1.20e-03,8.00e-02,
730,-1.20e-03,8.00e-02,
731,3.20e-03,6.00e-02,
732,4.00e-03,6.00e-02,
733,-4.00e-03,8.00e-02,
734,-5.60e-03,8.00e-02,
735,5.60e-03,6.00e-02,
736,-4.00e-03,8.00e-02,
737,4.80e-03,6.00e-02,
738,3.20e-03,6.00e-02,
739,-1.20e-03,8.00e-02,
740,-1.20e-03,6.00e-02,
741,2.00e-03,8.00e-02,
742,0.00e+00,6.00e-02,
743,2.00e-03,8.00e-02,
744,1.60e-03,8.00e-02,
745,-1.20e-03,4.00e-02,
746,-1.20e-03,8.00e-02,
747,2.00e-03,2.00e-02,
748,2.40e-03,2.00e-02,
749,-8.00e-04,8.00e-02,
750,2.40e-03,8.00e-02,
751,-1.20e-03,2.00e-02,
752,3.20e-03,8.00e-02,
753,-4.00e-03,2.00e-02,
754,2.00e-03,2.00e-02,
755,8.00e-03,1.92e+00,
756,6.80e-03,1.60e-01,
757,4.00e-04,1.20e-01,
758,5.20e-03,1.40e-01,
759,-1.20e-03,8.00e-02,
760,-1.20e-03,1.00e-01,
761,2.40e-03,8.00e-02,
762,-8.00e-04,1.00e-01,
763,2.40e-03,6.00e-02,
764,-8.00e-04,6.00e-02,
765,2.00e-03,1.00e-01,
766,1.20e-03,6.00e-02,
767,-8.00e-04,8.00e-02,
768,-8.00e-04,6.00e-02,
769,1.20e-03,8.00e-02,
770,-1.20e-03,8.00e-02,
771,2.80e-03,6.00e-02,
772,3.60e-03,8.00e-02,
773,-3.60e-03,6.00e-02,
774,-5.20e-03,6.00e-02,
775,6.40e-03,8.00e-02,
776,-4.00e-03,6.00e-02,
777,4.40e-03,8.00e-02,
778,2.80e-03,6.00e-02,
779,-1.60e-03,8.00e-02,
780,-1.20e-03,6.00e-02,
781,2.00e-03,8.00e-02,
782,1.20e-03,8.00e-02,
783,-4.00e-04,2.00e-02,
784,1.20e-03,8.00e-02,
785,-8.00e-04,2.00e-02,
786,0.00e+00,8.00e-02,
787,2.00e-03,2.00e-02,
788,2.00e-03,8.00e-02,
789,-1.20e-03,4.00e-02,
790,-1.20e-03,2.00e-02,
791,2.80e-03,8.00e-02,
792,3.60e-03,8.00e-02,
793,-4.00e-03,4.00e-02,
794,2.00e-03,2.00e-02,
795,7.20e-03,1.94e+00,
796,6.80e-03,1.60e-01,
797,8.00e-04,1.20e-01,
798,5.20e-03,1.40e-01,
799,-1.20e-03,8.00e-02,
800,-1.20e-03,1.00e-01,
801,2.40e-03,8.00e-02,
802,2.40e-03,1.00e-01,
803,-8.00e-04,6.00e-02,
804,-8.00e-04,1.00e-01,
805,2.00e-03,6.00e-02,
806,0.00e+00,8.00e-02,
807,2.00e-03,6.00e-02,
808,2.00e-03,8.00e-02,
809,-8.00e-04,6.00e-02,
810,-8.00e-04,6.00e-02,
811,2.80e-03,8.00e-02,
812,3.60e-03,6.00e-02,
813,-3.20e-03,8.00e-02,
814,5.20e-03,6.00e-02,
815,-4.00e-03,8.00e-02,
816,-4.00e-03,8.00e-02,
817,3.20e-03,2.00e-02,
818,3.60e-03,8.00e-02,
819,-1.20e-03,6.00e-02,
820,-4.00e-04,8.00e-02,
821,2.40e-03,4.00e-02,
822,2.00e-03,8.00e-02,
823,0.00e+00,2.00e-02,
824,0.00e+00,8.00e-02,
825,1.60e-03,2.00e-02,
826,0.00e+00,2.00e-02,
827,2.40e-03,8.00e-02,
828,-8.00e-04,2.00e-02,
829,2.40e-03,8.00e-02,
830,2.00e-03,2.00e-02,
831,-1.20e-03,8.00e-02,
832,3.60e-03,2.00e-02,
833,-3.20e-03,8.00e-02,
834,2.80e-03,2.00e-02,
835,8.00e-03,1.74e+00,
836,6.80e-03,1.60e-01,
837,4.00e-04,1.20e-01,
838,4.80e-03,1.20e-01,
839,-1.60e-03,8.00e-02,
840,-1.20e-03,8.00e-02,
841,2.40e-03,1.00e-01,
842,2.80e-03,1.00e-01,
843,-8.00e-04,6.00e-02,
844,1.20e-03,1.00e-01,
845,-8.00e-04,6.00e-02,
846,-8.00e-04,8.00e-02,
847,2.00e-03,6.00e-02,
848,-8.00e-04,6.00e-02,
849,1.20e-03,8.00e-02,
850,-8.00e-04,6.00e-02,
851,2.80e-03,8.00e-02,
852,2.80e-03,6.00e-02,
853,-3.60e-03,8.00e-02,
854,5.20e-03,8.00e-02,
855,-4.00e-03,6.00e-02,
