CarrPurc_P1-19_P2-38_tauVary/Gly70/NewFile1.csv

X,CH1,CH2,Start,Increment,
Sequence,Volt,Volt,-3.600000e-03,2.000000e-04
0,1.20e-03,4.00e-02,
1,-8.00e-04,2.00e-02,
2,0.00e+00,4.00e-02,
3,1.20e-03,2.00e-02,
4,1.20e-03,4.00e-02,
5,0.00e+00,2.00e-02,
6,0.00e+00,2.00e-02,
7,2.00e-03,4.00e-02,
8,1.20e-03,4.00e-02,
9,0.00e+00,2.00e-02,
10,1.20e-03,4.00e-02,
11,0.00e+00,2.00e-02,
12,1.60e-03,4.00e-02,
13,0.00e+00,2.00e-02,
14,1.20e-03,4.00e-02,
15,0.00e+00,2.00e-02,
16,1.20e-03,4.00e-02,
17,0.00e+00,2.00e-02,
18,1.20e-03,4.00e-02,
19,0.00e+00,2.00e-02,
20,6.40e-03,2.00e-02,
21,-3.32e-02,1.88e+00,
22,2.20e-02,1.20e-01,
23,-1.76e-02,8.00e-02,
24,5.20e-03,1.00e-01,
25,-3.20e-03,6.00e-02,
26,3.60e-03,6.00e-02,
27,-2.80e-03,8.00e-02,
28,-1.20e-03,6.00e-02,
29,2.80e-03,8.00e-02,
30,2.40e-03,6.00e-02,
31,-1.20e-03,8.00e-02,
32,2.00e-03,8.00e-02,
33,-8.00e-04,6.00e-02,
34,-8.00e-04,6.00e-02,
35,8.40e-03,2.04e+00,
36,-1.00e-02,1.60e-01,
37,8.40e-03,8.00e-02,
38,6.40e-03,1.00e-01,
39,-3.20e-03,6.00e-02,
40,-8.00e-04,6.00e-02,
41,2.80e-03,1.00e-01,
42,-1.60e-03,6.00e-02,
43,2.80e-03,8.00e-02,
44,-1.60e-03,6.00e-02,
45,2.40e-03,8.00e-02,
46,-4.40e-03,6.00e-02,
47,8.40e-03,8.00e-02,
48,-2.20e-02,8.00e-02,
49,2.76e-02,4.00e-02,
50,-2.92e-02,8.00e-02,
51,3.20e-02,2.00e-02,
52,1.76e-02,8.00e-02,
53,-1.28e-02,4.00e-02,
54,3.60e-03,8.00e-02,
55,-1.60e-03,2.00e-02,
56,-1.60e-03,8.00e-02,
57,2.40e-03,2.00e-02,
58,2.40e-03,2.00e-02,
59,-1.20e-03,8.00e-02,
60,-1.20e-03,2.00e-02,
61,1.60e-03,8.00e-02,
62,-8.00e-04,2.00e-02,
63,1.60e-03,8.00e-02,
64,-8.00e-04,2.00e-02,
65,8.00e-03,2.18e+00,
66,7.60e-03,1.60e-01,
67,0.00e+00,8.00e-02,
68,-4.00e-04,1.00e-01,
69,2.00e-03,6.00e-02,
70,2.00e-03,1.00e-01,
71,-1.20e-03,6.00e-02,
72,2.40e-03,1.00e-01,
73,-4.00e-04,6.00e-02,
74,-1.60e-03,6.00e-02,
75,2.40e-03,8.00e-02,
76,-4.40e-03,6.00e-02,
77,8.00e-03,8.00e-02,
78,-1.92e-02,6.00e-02,
79,1.92e-02,8.00e-02,
80,-2.48e-02,8.00e-02,
81,2.72e-02,6.00e-02,
82,1.24e-02,8.00e-02,
83,-8.80e-03,4.00e-02,
84,2.80e-03,8.00e-02,
85,-1.20e-03,2.00e-02,
86,3.20e-03,8.00e-02,
87,-1.60e-03,2.00e-02,
88,2.40e-03,8.00e-02,
89,-8.00e-04,2.00e-02,
90,-1.20e-03,2.00e-02,
91,2.40e-03,8.00e-02,
92,3.60e-03,4.00e-02,
93,-3.20e-03,2.00e-02,
94,-4.40e-03,2.00e-02,
95,8.00e-03,2.12e+00,
96,7.60e-03,1.60e-01,
97,-4.00e-04,8.00e-02,
98,-4.00e-04,1.00e-01,
99,2.40e-03,6.00e-02,
100,0.00e+00,1.00e-01,
101,2.00e-03,6.00e-02,
102,2.40e-03,6.00e-02,
103,-8.00e-04,8.00e-02,
104,-8.00e-04,6.00e-02,
105,2.40e-03,8.00e-02,
106,-4.40e-03,6.00e-02,
107,6.00e-03,8.00e-02,
108,1.84e-02,6.00e-02,
109,-2.12e-02,8.00e-02,
110,2.52e-02,8.00e-02,
111,-2.72e-02,2.00e-02,
112,1.44e-02,8.00e-02,
113,-8.80e-03,2.00e-02,
114,3.20e-03,2.00e-02,
115,-1.20e-03,8.00e-02,
116,4.00e-03,8.00e-02,
117,-1.60e-03,2.00e-02,
118,2.40e-03,8.00e-02,
119,-8.00e-04,2.00e-02,
120,-8.00e-04,2.00e-02,
121,2.40e-03,8.00e-02,
122,3.60e-03,6.00e-02,
123,-3.60e-03,2.00e-02,
124,-3.60e-03,2.00e-02,
125,8.40e-03,1.98e+00,
126,7.60e-03,1.60e-01,
127,-2.80e-03,8.00e-02,
128,4.00e-03,1.00e-01,
129,-8.00e-04,6.00e-02,
130,2.00e-03,6.00e-02,
131,-4.00e-04,1.00e-01,
132,2.40e-03,6.00e-02,
133,-1.20e-03,8.00e-02,
134,2.40e-03,6.00e-02,
135,-1.60e-03,8.00e-02,
136,-3.20e-03,6.00e-02,
137,5.60e-03,8.00e-02,
138,-1.48e-02,8.00e-02,
139,1.44e-02,2.00e-02,
140,-2.04e-02,8.00e-02,
141,2.32e-02,2.00e-02,
142,1.08e-02,8.00e-02,
143,-7.60e-03,2.00e-02,
144,3.60e-03,8.00e-02,
145,-1.20e-03,2.00e-02,
146,-4.00e-04,8.00e-02,
147,2.40e-03,2.00e-02,
148,2.40e-03,2.00e-02,
149,-4.00e-04,8.00e-02,
150,1.20e-03,2.00e-02,
151,0.00e+00,8.00e-02,
152,2.40e-03,8.00e-02,
153,-8.00e-04,2.00e-02,
154,-1.60e-03,2.00e-02,
155,8.40e-03,2.12e+00,
156,8.00e-03,1.60e-01,
157,-1.20e-03,8.00e-02,
158,2.40e-03,1.00e-01,
159,-8.00e-04,6.00e-02,
160,2.00e-03,1.00e-01,
161,-1.20e-03,6.00e-02,
162,2.40e-03,6.00e-02,
163,-1.20e-03,8.00e-02,
164,-8.00e-04,6.00e-02,
165,2.00e-03,8.00e-02,
166,-4.40e-03,6.00e-02,
167,7.20e-03,8.00e-02,
168,-1.56e-02,8.00e-02,
169,1.60e-02,4.00e-02,
170,-2.16e-02,8.00e-02,
171,2.40e-02,4.00e-02,
172,1.00e-02,8.00e-02,
173,-6.80e-03,2.00e-02,
174,3.60e-03,8.00e-02,
175,-1.20e-03,2.00e-02,
176,2.40e-03,8.00e-02,
177,-8.00e-04,2.00e-02,
178,2.00e-03,8.00e-02,
179,0.00e+00,2.00e-02,
180,2.00e-03,2.00e-02,
181,-8.00e-04,8.00e-02,
182,2.40e-03,8.00e-02,
183,-1.60e-03,2.00e-02,
184,-2.00e-03,2.00e-02,
185,8.00e-03,2.04e+00,
186,7.20e-03,1.60e-01,
187,0.00e+00,8.00e-02,
188,2.40e-03,1.00e-01,
189,0.00e+00,6.00e-02,
190,0.00e+00,1.00e-01,
191,1.60e-03,6.00e-02,
192,0.00e+00,6.00e-02,
193,2.00e-03,8.00e-02,
194,3.20e-03,6.00e-02,
195,0.00e+00,8.00e-02,
196,-3.20e-03,6.00e-02,
197,6.00e-03,8.00e-02,
198,1.48e-02,6.00e-02,
199,-1.56e-02,8.00e-02,
200,-2.08e-02,6.00e-02,
201,2.12e-02,8.00e-02,
202,1.08e-02,8.00e-02,
203,-7.60e-03,2.00e-02,
204,3.60e-03,2.00e-02,
205,-1.60e-03,8.00e-02,
206,-1.20e-03,2.00e-02,
207,2.80e-03,8.00e-02,
208,2.00e-03,8.00e-02,
209,-8.00e-04,2.00e-02,
210,2.00e-03,2.00e-02,
211,-8.00e-04,8.00e-02,
212,4.40e-03,2.00e-02,
213,-2.40e-03,8.00e-02,
214,-3.60e-03,2.00e-02,
215,8.00e-03,2.08e+00,
216,7.60e-03,1.60e-01,
217,-8.00e-04,8.00e-02,
218,2.40e-03,1.00e-01,
219,0.00e+00,6.00e-02,
220,0.00e+00,1.00e-01,
221,2.00e-03,6.00e-02,
222,-8.00e-04,6.00e-02,
223,2.40e-03,8.00e-02,
224,2.80e-03,6.00e-02,
225,-8.00e-04,8.00e-02,
226,-3.20e-03,8.00e-02,
227,5.60e-03,6.00e-02,
228,-1.44e-02,8.00e-02,
229,1.44e-02,2.00e-02,
230,-1.88e-02,8.00e-02,
231,2.08e-02,4.00e-02,
232,1.04e-02,8.00e-02,
233,-7.60e-03,2.00e-02,
234,2.80e-03,8.00e-02,
235,-8.00e-04,2.00e-02,
236,2.00e-03,2.00e-02,
237,0.00e+00,8.00e-02,
238,-1.20e-03,8.00e-02,
239,2.00e-03,2.00e-02,
240,-4.00e-04,2.00e-02,
241,1.20e-03,8.00e-02,
242,2.00e-03,2.00e-02,
243,-1.20e-03,6.00e-02,
244,-2.80e-03,2.00e-02,
245,8.40e-03,2.08e+00,
246,8.00e-03,1.60e-01,
247,-1.60e-03,8.00e-02,
248,2.80e-03,1.00e-01,
249,-8.00e-04,6.00e-02,
250,1.60e-03,1.00e-01,
251,-8.00e-04,6.00e-02,
252,2.40e-03,6.00e-02,
253,-1.20e-03,8.00e-02,
254,-4.00e-04,8.00e-02,
255,2.40e-03,6.00e-02,
256,-4.00e-03,8.00e-02,
257,7.20e-03,6.00e-02,
258,-1.40e-02,2.00e-02,
259,1.60e-02,8.00e-02,
260,1.88e-02,8.00e-02,
261,-1.88e-02,2.00e-02,
262,8.40e-03,8.00e-02,
263,-6.00e-03,2.00e-02,
264,2.40e-03,2.00e-02,
265,-1.20e-03,8.00e-02,
266,2.00e-03,8.00e-02,
267,-4.00e-04,2.00e-02,
268,1.60e-03,2.00e-02,
269,-4.00e-04,8.00e-02,
270,2.00e-03,2.00e-02,
271,-4.00e-04,6.00e-02,
272,2.00e-03,2.00e-02,
273,-8.00e-04,8.00e-02,
274,-2.80e-03,2.00e-02,
275,8.40e-03,2.14e+00,
276,8.00e-03,1.60e-01,
277,-8.00e-04,8.00e-02,
278,2.00e-03,1.00e-01,
279,-8.00e-04,6.00e-02,
280,1.60e-03,6.00e-02,
281,-8.00e-04,1.00e-01,
282,-4.00e-04,6.00e-02,
283,2.00e-03,8.00e-02,
284,0.00e+00,6.00e-02,
285,2.00e-03,8.00e-02,
286,-2.80e-03,6.00e-02,
287,4.40e-03,8.00e-02,
288,-1.40e-02,8.00e-02,
289,1.36e-02,4.00e-02,
290,-1.84e-02,6.00e-02,
291,1.96e-02,8.00e-02,
292,9.60e-03,8.00e-02,
293,-6.00e-03,2.00e-02,
294,2.40e-03,8.00e-02,
295,-1.20e-03,2.00e-02,
296,2.40e-03,8.00e-02,
297,-1.20e-03,2.00e-02,
298,2.00e-03,8.00e-02,
299,-4.00e-04,2.00e-02,
300,1.20e-03,8.00e-02,
301,-4.00e-04,2.00e-02,
302,2.40e-03,2.00e-02,
303,-2.40e-03,8.00e-02,
304,-2.40e-03,2.00e-02,
305,8.00e-03,2.14e+00,
306,7.20e-03,1.60e-01,
307,-4.00e-04,8.00e-02,
308,2.40e-03,1.00e-01,
309,0.00e+00,6.00e-02,
310,1.20e-03,1.00e-01,
311,-4.00e-04,6.00e-02,
312,1.60e-03,6.00e-02,
313,-8.00e-04,8.00e-02,
314,2.40e-03,6.00e-02,
315,-8.00e-04,8.00e-02,
316,-2.40e-03,6.00e-02,
317,5.20e-03,8.00e-02,
318,-1.28e-02,6.00e-02,
319,1.56e-02,8.00e-02,
320,-1.80e-02,6.00e-02,
321,1.96e-02,8.00e-02,
322,9.60e-03,8.00e-02,
323,-7.20e-03,2.00e-02,
324,2.40e-03,8.00e-02,
325,-1.20e-03,2.00e-02,
326,-8.00e-04,2.00e-02,
327,2.00e-03,8.00e-02,
328,2.00e-03,8.00e-02,
329,-8.00e-04,2.00e-02,
330,2.00e-03,2.00e-02,
331,-8.00e-04,8.00e-02,
332,2.40e-03,8.00e-02,
333,-1.60e-03,2.00e-02,
334,-3.20e-03,2.00e-02,
335,8.00e-03,2.16e+00,
336,8.00e-03,1.60e-01,
337,-8.00e-04,8.00e-02,
338,2.80e-03,1.00e-01,
339,0.00e+00,6.00e-02,
340,2.00e-03,1.00e-01,
341,0.00e+00,6.00e-02,
342,2.00e-03,6.00e-02,
343,-8.00e-04,8.00e-02,
344,2.40e-03,8.00e-02,
345,-8.00e-04,6.00e-02,
346,-3.60e-03,6.00e-02,
347,5.60e-03,8.00e-02,
348,-1.40e-02,8.00e-02,
349,1.52e-02,6.00e-02,
350,-1.60e-02,6.00e-02,
351,1.84e-02,8.00e-02,
352,8.00e-03,8.00e-02,
353,-5.20e-03,2.00e-02,
354,-8.00e-04,8.00e-02,
355,2.40e-03,2.00e-02,
356,2.00e-03,2.00e-02,
357,-8.00e-04,8.00e-02,
358,1.20e-03,2.00e-02,
359,-8.00e-04,8.00e-02,
360,1.60e-03,8.00e-02,
361,-1.20e-03,2.00e-02,
362,-4.00e-04,8.00e-02,
363,2.40e-03,2.00e-02,
364,-2.40e-03,2.00e-02,
365,8.80e-03,2.14e+00,
366,8.00e-03,1.60e-01,
367,-8.00e-04,8.00e-02,
368,2.40e-03,1.00e-01,
369,0.00e+00,6.00e-02,
370,-8.00e-04,6.00e-02,
371,1.20e-03,1.00e-01,
372,1.60e-03,6.00e-02,
373,-8.00e-04,8.00e-02,
374,2.40e-03,6.00e-02,
375,-8.00e-04,8.00e-02,
376,-2.80e-03,6.00e-02,
377,4.40e-03,8.00e-02,
378,-1.32e-02,8.00e-02,
379,1.44e-02,6.00e-02,
380,-1.68e-02,8.00e-02,
381,1.88e-02,4.00e-02,
382,8.80e-03,4.00e-02,
383,-6.00e-03,8.00e-02,
384,2.40e-03,8.00e-02,
385,-1.60e-03,2.00e-02,
386,2.40e-03,8.00e-02,
387,-1.20e-03,2.00e-02,
388,-4.00e-04,2.00e-02,
389,2.40e-03,8.00e-02,
390,1.20e-03,2.00e-02,
391,0.00e+00,6.00e-02,
392,2.40e-03,6.00e-02,
393,-1.20e-03,2.00e-02,
394,-2.00e-03,2.00e-02,
395,8.40e-03,2.00e+00,
396,8.00e-03,1.60e-01,
397,-8.00e-04,8.00e-02,
398,2.40e-03,1.00e-01,
399,0.00e+00,6.00e-02,
400,0.00e+00,6.00e-02,
401,2.40e-03,1.00e-01,
402,-8.00e-04,8.00e-02,
403,1.60e-03,6.00e-02,
404,2.00e-03,6.00e-02,
405,-8.00e-04,8.00e-02,
406,-2.40e-03,6.00e-02,
407,5.60e-03,8.00e-02,
408,-1.16e-02,6.00e-02,
409,1.36e-02,8.00e-02,
410,-1.68e-02,8.00e-02,
411,1.72e-02,4.00e-02,
412,8.00e-03,8.00e-02,
413,-5.60e-03,2.00e-02,
414,2.80e-03,8.00e-02,
415,-1.20e-03,2.00e-02,
416,-8.00e-04,2.00e-02,
417,2.00e-03,8.00e-02,
418,1.20e-03,8.00e-02,
419,-8.00e-04,2.00e-02,
420,1.60e-03,2.00e-02,
421,-8.00e-04,8.00e-02,
422,2.40e-03,2.00e-02,
423,-1.60e-03,8.00e-02,
424,-2.40e-03,2.00e-02,
425,8.40e-03,2.04e+00,
426,7.60e-03,1.60e-01,
427,-1.20e-03,8.00e-02,
428,1.20e-03,1.00e-01,
429,0.00e+00,6.00e-02,
430,-8.00e-04,6.00e-02,
431,1.20e-03,1.00e-01,
432,-8.00e-04,6.00e-02,
433,1.20e-03,8.00e-02,
434,2.00e-03,6.00e-02,
435,-1.20e-03,8.00e-02,
436,-3.20e-03,8.00e-02,
437,5.60e-03,6.00e-02,
438,-1.28e-02,8.00e-02,
439,1.52e-02,2.00e-02,
440,-1.60e-02,4.00e-02,
441,1.80e-02,8.00e-02,
442,6.80e-03,8.00e-02,
443,-5.20e-03,2.00e-02,
444,2.40e-03,8.00e-02,
445,-4.00e-04,2.00e-02,
446,-1.20e-03,2.00e-02,
447,2.00e-03,8.00e-02,
448,0.00e+00,8.00e-02,
449,2.00e-03,2.00e-02,
450,1.20e-03,2.00e-02,
451,-4.00e-04,8.00e-02,
452,2.40e-03,2.00e-02,
453,-1.20e-03,8.00e-02,
454,-2.00e-03,2.00e-02,
455,8.40e-03,1.94e+00,
456,8.00e-03,1.60e-01,
457,-8.00e-04,8.00e-02,
458,1.60e-03,1.00e-01,
459,-4.00e-04,6.00e-02,
460,-8.00e-04,1.00e-01,
461,1.20e-03,6.00e-02,
462,0.00e+00,6.00e-02,
463,2.00e-03,8.00e-02,
464,-8.00e-04,6.00e-02,
465,2.40e-03,8.00e-02,
466,-2.40e-03,6.00e-02,
467,4.40e-03,8.00e-02,
468,-1.16e-02,6.00e-02,
469,1.52e-02,8.00e-02,
470,1.60e-02,8.00e-02,
471,-1.56e-02,4.00e-02,
472,7.20e-03,2.00e-02,
473,-5.20e-03,8.00e-02,
474,2.40e-03,8.00e-02,
475,-1.20e-03,2.00e-02,
476,-8.00e-04,8.00e-02,
477,2.80e-03,2.00e-02,
478,2.40e-03,8.00e-02,
479,-4.00e-04,2.00e-02,
480,1.60e-03,8.00e-02,
481,0.00e+00,2.00e-02,
482,1.20e-03,2.00e-02,
483,-1.20e-03,8.00e-02,
484,-2.40e-03,2.00e-02,
485,8.80e-03,2.22e+00,
486,8.00e-03,1.60e-01,
487,-8.00e-04,8.00e-02,
488,2.00e-03,1.00e-01,
489,0.00e+00,6.00e-02,
490,1.20e-03,1.00e-01,
491,-4.00e-04,6.00e-02,
492,2.00e-03,6.00e-02,
493,-8.00e-04,8.00e-02,
494,-8.00e-04,6.00e-02,
495,2.00e-03,8.00e-02,
496,-2.40e-03,6.00e-02,
497,4.00e-03,8.00e-02,
498,-1.04e-02,6.00e-02,
499,1.44e-02,8.00e-02,
500,-1.48e-02,8.00e-02,
501,1.56e-02,4.00e-02,
502,7.20e-03,8.00e-02,
503,-6.00e-03,4.00e-02,
504,2.80e-03,8.00e-02,
505,-8.00e-04,2.00e-02,
506,1.60e-03,8.00e-02,
507,-8.00e-04,2.00e-02,
508,1.20e-03,2.00e-02,
509,-4.00e-04,8.00e-02,
510,1.60e-03,8.00e-02,
511,-4.00e-04,2.00e-02,
512,1.20e-03,8.00e-02,
513,-8.00e-04,2.00e-02,
514,-2.40e-03,2.00e-02,
515,8.00e-03,2.16e+00,
516,7.20e-03,1.60e-01,
517,-8.00e-04,8.00e-02,
518,0.00e+00,8.00e-02,
519,2.00e-03,1.00e-01,
520,-8.00e-04,6.00e-02,
521,2.00e-03,1.00e-01,
522,1.60e-03,6.00e-02,
523,-8.00e-04,8.00e-02,
524,1.60e-03,6.00e-02,
525,-4.00e-04,8.00e-02,
526,-2.80e-03,6.00e-02,
527,5.60e-03,8.00e-02,
528,-1.12e-02,6.00e-02,
529,1.40e-02,8.00e-02,
530,-1.32e-02,8.00e-02,
531,1.64e-02,4.00e-02,
532,6.80e-03,8.00e-02,
533,-4.80e-03,2.00e-02,
534,2.00e-03,8.00e-02,
535,-8.00e-04,4.00e-02,
536,-8.00e-04,8.00e-02,
537,1.60e-03,2.00e-02,
538,2.00e-03,8.00e-02,
539,0.00e+00,2.00e-02,
540,1.20e-03,2.00e-02,
541,-8.00e-04,8.00e-02,
542,2.40e-03,8.00e-02,
543,-1.20e-03,2.00e-02,
544,-3.20e-03,2.00e-02,
545,8.40e-03,1.98e+00,
546,8.00e-03,1.60e-01,
547,0.00e+00,8.00e-02,
548,2.00e-03,1.00e-01,
549,-8.00e-04,6.00e-02,
550,1.20e-03,1.00e-01,
551,0.00e+00,6.00e-02,
552,0.00e+00,6.00e-02,
553,1.20e-03,8.00e-02,
554,2.00e-03,6.00e-02,
555,-1.20e-03,8.00e-02,
556,-1.60e-03,6.00e-02,
557,4.00e-03,8.00e-02,
558,-1.08e-02,8.00e-02,
559,1.32e-02,4.00e-02,
560,-1.44e-02,8.00e-02,
561,1.56e-02,4.00e-02,
562,8.00e-03,8.00e-02,
563,-6.00e-03,2.00e-02,
564,2.40e-03,8.00e-02,
565,-8.00e-04,2.00e-02,
566,-8.00e-04,2.00e-02,
567,2.40e-03,8.00e-02,
568,2.00e-03,8.00e-02,
569,-4.00e-04,2.00e-02,
570,0.00e+00,8.00e-02,
571,2.40e-03,2.00e-02,
572,-1.20e-03,4.00e-02,
573,1.20e-03,2.00e-02,
574,-1.60e-03,2.00e-02,
575,8.80e-03,2.08e+00,
576,8.00e-03,1.60e-01,
577,-4.00e-04,8.00e-02,
578,1.20e-03,1.00e-01,
579,-8.00e-04,6.00e-02,
580,-8.00e-04,6.00e-02,
581,1.60e-03,1.00e-01,
582,2.00e-03,8.00e-02,
583,0.00e+00,6.00e-02,
584,2.40e-03,6.00e-02,
585,0.00e+00,8.00e-02,
586,-2.40e-03,8.00e-02,
587,4.00e-03,6.00e-02,
588,-1.04e-02,8.00e-02,
589,1.36e-02,6.00e-02,
590,-1.40e-02,8.00e-02,
591,1.56e-02,4.00e-02,
592,6.80e-03,8.00e-02,
593,-5.60e-03,4.00e-02,
594,0.00e+00,8.00e-02,
595,2.40e-03,2.00e-02,
596,2.40e-03,2.00e-02,
597,-4.00e-04,8.00e-02,
598,2.00e-03,8.00e-02,
599,-8.00e-04,2.00e-02,
600,-8.00e-04,8.00e-02,
601,2.00e-03,2.00e-02,
602,2.00e-03,2.00e-02,
603,-1.20e-03,8.00e-02,
604,-2.80e-03,2.00e-02,
605,8.40e-03,2.08e+00,
606,7.60e-03,1.60e-01,
607,0.00e+00,8.00e-02,
608,1.20e-03,1.00e-01,
609,-8.00e-04,6.00e-02,
610,-8.00e-04,1.00e-01,
611,1.20e-03,6.00e-02,
612,0.00e+00,8.00e-02,
613,2.00e-03,6.00e-02,
614,-8.00e-04,6.00e-02,
615,2.40e-03,8.00e-02,
616,-2.80e-03,6.00e-02,
617,5.20e-03,8.00e-02,
618,-1.00e-02,6.00e-02,
619,1.32e-02,8.00e-02,
620,1.40e-02,8.00e-02,
621,-1.32e-02,4.00e-02,
622,6.80e-03,8.00e-02,
623,-3.60e-03,2.00e-02,
624,2.40e-03,8.00e-02,
625,-8.00e-04,2.00e-02,
626,-8.00e-04,2.00e-02,
627,2.00e-03,8.00e-02,
628,1.20e-03,8.00e-02,
629,-4.00e-04,2.00e-02,
630,-8.00e-04,2.00e-02,
631,1.60e-03,8.00e-02,
632,1.20e-03,8.00e-02,
633,-1.20e-03,2.00e-02,
634,-2.80e-03,2.00e-02,
635,8.00e-03,2.10e+00,
636,7.60e-03,1.60e-01,
637,4.00e-04,8.00e-02,
638,2.00e-03,1.00e-01,
639,-4.00e-04,6.00e-02,
640,1.20e-03,6.00e-02,
641,0.00e+00,1.00e-01,
642,0.00e+00,6.00e-02,
643,2.40e-03,8.00e-02,
644,2.40e-03,6.00e-02,
645,-4.00e-04,8.00e-02,
646,-1.20e-03,6.00e-02,
647,3.60e-03,8.00e-02,
648,-9.60e-03,8.00e-02,
649,1.28e-02,2.00e-02,
650,-1.28e-02,8.00e-02,
651,1.44e-02,2.00e-02,
652,6.80e-03,8.00e-02,
653,-4.80e-03,2.00e-02,
654,2.40e-03,2.00e-02,
655,-1.20e-03,8.00e-02,
656,1.20e-03,2.00e-02,
657,-8.00e-04,8.00e-02,
658,1.20e-03,2.00e-02,
659,-8.00e-04,8.00e-02,
660,0.00e+00,4.00e-02,
661,1.60e-03,2.00e-02,
662,1.60e-03,2.00e-02,
663,-8.00e-04,6.00e-02,
664,-2.40e-03,-4.00e-02,
665,8.40e-03,2.08e+00,
666,8.00e-03,1.60e-01,
667,-8.00e-04,8.00e-02,
668,1.20e-03,1.00e-01,
669,0.00e+00,6.00e-02,
670,0.00e+00,6.00e-02,
671,1.20e-03,1.00e-01,
672,-8.00e-04,6.00e-02,
673,2.40e-03,8.00e-02,
674,-8.00e-04,8.00e-02,
675,1.60e-03,6.00e-02,
676,-1.60e-03,6.00e-02,
677,4.40e-03,8.00e-02,
678,-1.00e-02,6.00e-02,
679,1.24e-02,8.00e-02,
680,-1.28e-02,8.00e-02,
681,1.40e-02,4.00e-02,
682,5.60e-03,8.00e-02,
683,-5.20e-03,2.00e-02,
684,2.00e-03,8.00e-02,
685,0.00e+00,4.00e-02,
686,-8.00e-04,8.00e-02,
687,2.00e-03,2.00e-02,
688,0.00e+00,8.00e-02,
689,1.60e-03,2.00e-02,
690,1.20e-03,8.00e-02,
691,-8.00e-04,2.00e-02,
692,-4.00e-04,8.00e-02,
693,2.00e-03,2.00e-02,
694,-2.80e-03,2.00e-02,
695,8.80e-03,2.14e+00,
696,8.00e-03,1.60e-01,
697,4.00e-04,8.00e-02,
698,4.00e-04,1.00e-01,
699,1.60e-03,6.00e-02,
700,0.00e+00,1.00e-01,
701,2.00e-03,6.00e-02,
702,0.00e+00,6.00e-02,
703,2.00e-03,8.00e-02,
704,2.00e-03,6.00e-02,
705,-4.00e-04,8.00e-02,
706,-2.00e-03,8.00e-02,
707,4.80e-03,6.00e-02,
708,-9.60e-03,8.00e-02,
709,1.28e-02,4.00e-02,
710,-1.20e-02,8.00e-02,
711,1.40e-02,2.00e-02,
712,6.80e-03,8.00e-02,
713,-4.00e-03,2.00e-02,
714,2.00e-03,2.00e-02,
715,-8.00e-04,8.00e-02,
716,2.00e-03,8.00e-02,
717,-8.00e-04,2.00e-02,
718,2.00e-03,2.00e-02,
719,0.00e+00,8.00e-02,
720,-4.00e-04,8.00e-02,
721,2.00e-03,2.00e-02,
722,1.60e-03,8.00e-02,
723,-1.60e-03,2.00e-02,
724,-2.00e-03,2.00e-02,
725,8.00e-03,2.18e+00,
726,7.60e-03,1.60e-01,
727,0.00e+00,8.00e-02,
728,-8.00e-04,1.00e-01,
729,1.20e-03,6.00e-02,
730,2.00e-03,1.00e-01,
731,-8.00e-04,6.00e-02,
732,1.20e-03,6.00e-02,
733,0.00e+00,8.00e-02,
734,-8.00e-04,8.00e-02,
735,2.00e-03,6.00e-02,
736,-1.60e-03,8.00e-02,
737,4.00e-03,6.00e-02,
738,-9.60e-03,6.00e-02,
739,1.24e-02,8.00e-02,
740,-1.28e-02,8.00e-02,
741,1.44e-02,4.00e-02,
742,6.40e-03,6.00e-02,
743,-5.20e-03,8.00e-02,
744,2.40e-03,8.00e-02,
745,-8.00e-04,2.00e-02,
746,0.00e+00,8.00e-02,
747,2.40e-03,2.00e-02,
748,0.00e+00,2.00e-02,
749,2.00e-03,8.00e-02,
750,1.20e-03,8.00e-02,
751,-8.00e-04,2.00e-02,
752,-8.00e-04,2.00e-02,
753,2.00e-03,8.00e-02,
754,-2.40e-03,2.00e-02,
755,8.40e-03,2.20e+00,
756,7.60e-03,1.60e-01,
757,0.00e+00,8.00e-02,
758,0.00e+00,1.00e-01,
759,2.40e-03,6.00e-02,
760,-8.00e-04,1.00e-01,
761,1.20e-03,6.00e-02,
762,1.20e-03,8.00e-02,
763,0.00e+00,6.00e-02,
764,1.20e-03,6.00e-02,
765,0.00e+00,8.00e-02,
766,-1.60e-03,6.00e-02,
767,2.80e-03,8.00e-02,
768,-8.80e-03,6.00e-02,
769,1.16e-02,8.00e-02,
770,-1.20e-02,8.00e-02,
771,1.28e-02,4.00e-02,
772,5.60e-03,8.00e-02,
773,-4.00e-03,2.00e-02,
774,2.00e-03,8.00e-02,
775,-8.00e-04,2.00e-02,
776,0.00e+00,8.00e-02,
777,1.20e-03,2.00e-02,
778,0.00e+00,2.00e-02,
779,1.20e-03,8.00e-02,
780,2.00e-03,2.00e-02,
781,0.00e+00,8.00e-02,
782,2.40e-03,4.00e-02,
783,-1.20e-03,2.00e-02,
784,-2.00e-03,2.00e-02,
785,8.80e-03,2.12e+00,
786,8.00e-03,1.60e-01,
787,0.00e+00,8.00e-02,
788,0.00e+00,1.00e-01,
789,1.60e-03,6.00e-02,
790,-8.00e-04,6.00e-02,
791,1.20e-03,1.00e-01,
792,0.00e+00,6.00e-02,
793,1.60e-03,8.00e-02,
794,2.00e-03,6.00e-02,
795,-8.00e-04,8.00e-02,
796,-1.60e-03,6.00e-02,
797,4.00e-03,8.00e-02,
798,-8.80e-03,8.00e-02,
799,1.24e-02,6.00e-02,
800,-1.08e-02,6.00e-02,
801,1.28e-02,8.00e-02,
802,5.60e-03,8.00e-02,
803,-4.40e-03,2.00e-02,
804,-8.00e-04,8.00e-02,
805,2.40e-03,2.00e-02,
806,1.20e-03,8.00e-02,
807,-4.00e-04,2.00e-02,
808,1.20e-03,8.00e-02,
809,0.00e+00,2.00e-02,
810,1.20e-03,2.00e-02,
811,-8.00e-04,8.00e-02,
812,1.60e-03,4.00e-02,
813,-8.00e-04,2.00e-02,
814,-2.00e-03,2.00e-02,
815,8.80e-03,2.02e+00,
816,8.00e-03,1.60e-01,
817,-8.00e-04,8.00e-02,
818,2.00e-03,1.00e-01,
819,-8.00e-04,6.00e-02,
820,2.00e-03,1.00e-01,
821,0.00e+00,6.00e-02,
822,-8.00e-04,6.00e-02,
823,1.20e-03,8.00e-02,
824,0.00e+00,8.00e-02,
825,2.00e-03,6.00e-02,
826,-1.20e-03,6.00e-02,
827,3.60e-03,8.00e-02,
828,-7.60e-03,8.00e-02,
829,1.12e-02,4.00e-02,
830,-1.16e-02,8.00e-02,
831,1.28e-02,2.00e-02,
832,6.40e-03,8.00e-02,
833,-4.00e-03,2.00e-02,
834,2.40e-03,8.00e-02,
835,-1.60e-03,2.00e-02,
836,-4.00e-04,2.00e-02,
837,1.60e-03,6.00e-02,
838,0.00e+00,8.00e-02,
839,2.00e-03,2.00e-02,
840,1.20e-03,2.00e-02,
841,-4.00e-04,8.00e-02,
842,2.00e-03,2.00e-02,
843,-1.20e-03,6.00e-02,
844,-2.80e-03,2.00e-02,
845,8.40e-03,2.02e+00,
846,7.20e-03,1.60e-01,
847,0.00e+00,8.00e-02,
848,2.00e-03,1.00e-01,
849,0.00e+00,6.00e-02,
850,0.00e+00,6.00e-02,
851,2.00e-03,1.00e-01,
852,1.20e-03,6.00e-02,
853,0.00e+00,8.00e-02,
854,2.00e-03,8.00e-02,
855,0.00e+00,6.00e-02,
