CarrPurc_P1-19_P2-38_tauVary/Gly70/NewFile2.csv

X,CH1,CH2,Start,Increment,
Sequence,Volt,Volt,-3.600000e-03,2.000000e-04
0,1.20e-03,4.00e-02,
1,0.00e+00,0.00e+00,
2,2.00e-03,4.00e-02,
3,0.00e+00,0.00e+00,
4,0.00e+00,4.00e-02,
5,1.20e-03,0.00e+00,
6,2.00e-03,4.00e-02,
7,0.00e+00,0.00e+00,
8,1.20e-03,4.00e-02,
9,0.00e+00,0.00e+00,
10,1.20e-03,4.00e-02,
11,4.00e-04,0.00e+00,
12,1.60e-03,0.00e+00,
13,0.00e+00,4.00e-02,
14,1.20e-03,4.00e-02,
15,0.00e+00,0.00e+00,
16,4.00e-04,4.00e-02,
17,2.00e-03,0.00e+00,
18,1.20e-03,4.00e-02,
19,0.00e+00,0.00e+00,
20,6.80e-03,0.00e+00,
21,-3.24e-02,1.82e+00,
22,2.08e-02,1.00e-01,
23,-1.68e-02,6.00e-02,
24,-2.80e-03,6.00e-02,
25,5.20e-03,1.00e-01,
26,4.00e-03,6.00e-02,
27,-1.20e-03,8.00e-02,
28,2.80e-03,8.00e-02,
29,-8.00e-04,4.00e-02,
30,-1.20e-03,8.00e-02,
31,2.80e-03,2.00e-02,
32,2.40e-03,8.00e-02,
33,-8.00e-04,2.00e-02,
34,0.00e+00,2.00e-02,
35,8.00e-03,2.18e+00,
36,-7.60e-03,1.60e-01,
37,8.40e-03,8.00e-02,
38,5.60e-03,1.00e-01,
39,-3.20e-03,6.00e-02,
40,2.00e-03,6.00e-02,
41,-1.20e-03,8.00e-02,
42,2.40e-03,6.00e-02,
43,-8.00e-04,8.00e-02,
44,2.80e-03,6.00e-02,
45,-1.20e-03,8.00e-02,
46,-4.00e-03,8.00e-02,
47,8.40e-03,2.00e-02,
48,-1.84e-02,8.00e-02,
49,2.60e-02,2.00e-02,
50,-2.76e-02,8.00e-02,
51,3.12e-02,2.00e-02,
52,1.60e-02,2.00e-02,
53,-1.16e-02,8.00e-02,
54,4.00e-03,4.00e-02,
55,-1.20e-03,2.00e-02,
56,-1.20e-03,4.00e-02,
57,2.80e-03,2.00e-02,
58,2.80e-03,4.00e-02,
59,-4.00e-04,2.00e-02,
60,2.40e-03,4.00e-02,
61,-8.00e-04,2.00e-02,
62,-4.00e-04,4.00e-02,
63,2.40e-03,2.00e-02,
64,0.00e+00,2.00e-02,
65,8.40e-03,2.04e+00,
66,8.00e-03,1.60e-01,
67,0.00e+00,8.00e-02,
68,2.00e-03,1.00e-01,
69,4.00e-04,6.00e-02,
70,2.40e-03,6.00e-02,
71,-8.00e-04,8.00e-02,
72,2.40e-03,8.00e-02,
73,0.00e+00,6.00e-02,
74,0.00e+00,8.00e-02,
75,2.40e-03,4.00e-02,
76,-4.80e-03,8.00e-02,
77,6.80e-03,2.00e-02,
78,-1.88e-02,8.00e-02,
79,1.76e-02,2.00e-02,
80,-2.44e-02,2.00e-02,
81,2.60e-02,8.00e-02,
82,1.12e-02,4.00e-02,
83,-8.80e-03,2.00e-02,
84,2.80e-03,4.00e-02,
85,-1.60e-03,2.00e-02,
86,2.80e-03,2.00e-02,
87,-1.20e-03,4.00e-02,
88,2.40e-03,4.00e-02,
89,-8.00e-04,2.00e-02,
90,2.40e-03,4.00e-02,
91,-8.00e-04,2.00e-02,
92,-2.80e-03,4.00e-02,
93,3.60e-03,2.00e-02,
94,-4.40e-03,2.00e-02,
95,8.40e-03,1.92e+00,
96,8.00e-03,1.60e-01,
97,0.00e+00,8.00e-02,
98,2.00e-03,1.00e-01,
99,-4.00e-04,6.00e-02,
100,0.00e+00,8.00e-02,
101,2.40e-03,6.00e-02,
102,2.40e-03,6.00e-02,
103,-4.00e-04,8.00e-02,
104,2.40e-03,8.00e-02,
105,-8.00e-04,2.00e-02,
106,-4.80e-03,4.00e-02,
107,6.00e-03,8.00e-02,
108,1.68e-02,8.00e-02,
109,-1.92e-02,2.00e-02,
110,2.48e-02,2.00e-02,
111,-2.48e-02,8.00e-02,
112,1.20e-02,8.00e-02,
113,-8.80e-03,2.00e-02,
114,4.00e-03,2.00e-02,
115,-1.60e-03,6.00e-02,
116,2.40e-03,4.00e-02,
117,-1.20e-03,2.00e-02,
118,-1.20e-03,4.00e-02,
119,2.40e-03,2.00e-02,
120,-8.00e-04,2.00e-02,
121,2.80e-03,4.00e-02,
122,-2.40e-03,4.00e-02,
123,3.60e-03,2.00e-02,
124,-3.20e-03,2.00e-02,
125,8.00e-03,2.18e+00,
126,7.60e-03,1.60e-01,
127,-2.80e-03,8.00e-02,
128,-1.60e-03,1.00e-01,
129,3.60e-03,6.00e-02,
130,0.00e+00,6.00e-02,
131,2.00e-03,8.00e-02,
132,2.40e-03,6.00e-02,
133,-1.20e-03,8.00e-02,
134,2.80e-03,8.00e-02,
135,-1.60e-03,4.00e-02,
136,-3.20e-03,8.00e-02,
137,6.40e-03,2.00e-02,
138,-1.56e-02,8.00e-02,
139,1.56e-02,2.00e-02,
140,-2.08e-02,8.00e-02,
141,2.36e-02,2.00e-02,
142,1.12e-02,2.00e-02,
143,-8.80e-03,8.00e-02,
144,2.80e-03,4.00e-02,
145,-1.20e-03,2.00e-02,
146,2.00e-03,4.00e-02,
147,0.00e+00,2.00e-02,
148,0.00e+00,4.00e-02,
149,2.00e-03,2.00e-02,
150,0.00e+00,2.00e-02,
151,1.60e-03,4.00e-02,
152,1.60e-03,4.00e-02,
153,-4.00e-04,2.00e-02,
154,-1.60e-03,2.00e-02,
155,8.40e-03,2.16e+00,
156,8.00e-03,1.60e-01,
157,-8.00e-04,8.00e-02,
158,2.80e-03,1.00e-01,
159,-8.00e-04,6.00e-02,
160,2.00e-03,6.00e-02,
161,-8.00e-04,8.00e-02,
162,2.40e-03,6.00e-02,
163,-8.00e-04,8.00e-02,
164,-4.00e-04,8.00e-02,
165,2.40e-03,4.00e-02,
166,-4.40e-03,2.00e-02,
167,6.00e-03,8.00e-02,
168,-1.52e-02,2.00e-02,
169,1.60e-02,8.00e-02,
170,-2.12e-02,8.00e-02,
171,2.32e-02,2.00e-02,
172,1.04e-02,2.00e-02,
173,-7.20e-03,4.00e-02,
174,2.80e-03,4.00e-02,
175,-1.20e-03,2.00e-02,
176,2.40e-03,4.00e-02,
177,-8.00e-04,2.00e-02,
178,-4.00e-04,4.00e-02,
179,2.00e-03,2.00e-02,
180,0.00e+00,4.00e-02,
181,2.00e-03,2.00e-02,
182,2.40e-03,4.00e-02,
183,-1.20e-03,2.00e-02,
184,-1.60e-03,2.00e-02,
185,9.20e-03,2.14e+00,
186,8.00e-03,1.60e-01,
187,0.00e+00,8.00e-02,
188,2.00e-03,1.00e-01,
189,0.00e+00,6.00e-02,
190,0.00e+00,6.00e-02,
191,1.60e-03,8.00e-02,
192,2.40e-03,6.00e-02,
193,0.00e+00,8.00e-02,
194,2.00e-03,6.00e-02,
195,-8.00e-04,8.00e-02,
196,-2.80e-03,8.00e-02,
197,6.00e-03,2.00e-02,
198,-1.68e-02,8.00e-02,
199,1.60e-02,2.00e-02,
200,-2.24e-02,2.00e-02,
201,2.20e-02,8.00e-02,
202,1.16e-02,4.00e-02,
203,-8.40e-03,2.00e-02,
204,4.00e-03,4.00e-02,
205,-8.00e-04,2.00e-02,
206,2.40e-03,2.00e-02,
207,-1.20e-03,4.00e-02,
208,2.00e-03,4.00e-02,
209,-8.00e-04,2.00e-02,
210,2.40e-03,4.00e-02,
211,-8.00e-04,2.00e-02,
212,-1.60e-03,4.00e-02,
213,4.00e-03,2.00e-02,
214,-2.80e-03,2.00e-02,
215,7.60e-03,2.12e+00,
216,7.60e-03,1.60e-01,
217,-8.00e-04,8.00e-02,
218,2.80e-03,1.00e-01,
219,0.00e+00,6.00e-02,
220,1.60e-03,6.00e-02,
221,0.00e+00,8.00e-02,
222,2.40e-03,6.00e-02,
223,-8.00e-04,8.00e-02,
224,-8.00e-04,6.00e-02,
225,2.80e-03,8.00e-02,
226,-4.00e-03,8.00e-02,
227,6.40e-03,2.00e-02,
228,-1.72e-02,8.00e-02,
229,1.52e-02,2.00e-02,
230,-2.12e-02,2.00e-02,
231,2.24e-02,8.00e-02,
232,1.12e-02,2.00e-02,
233,-7.20e-03,6.00e-02,
234,3.20e-03,4.00e-02,
235,-8.00e-04,2.00e-02,
236,0.00e+00,4.00e-02,
237,2.40e-03,2.00e-02,
238,2.40e-03,4.00e-02,
239,-1.20e-03,2.00e-02,
240,2.00e-03,4.00e-02,
241,-8.00e-04,2.00e-02,
242,2.00e-03,4.00e-02,
243,-1.20e-03,2.00e-02,
244,-2.80e-03,2.00e-02,
245,8.40e-03,2.18e+00,
246,7.20e-03,1.60e-01,
247,-8.00e-04,8.00e-02,
248,2.40e-03,1.00e-01,
249,-8.00e-04,6.00e-02,
250,2.40e-03,8.00e-02,
251,-4.00e-04,6.00e-02,
252,2.40e-03,6.00e-02,
253,-8.00e-04,8.00e-02,
254,-8.00e-04,8.00e-02,
255,2.40e-03,6.00e-02,
256,-4.00e-03,8.00e-02,
257,6.80e-03,2.00e-02,
258,-1.56e-02,2.00e-02,
259,1.60e-02,8.00e-02,
260,-2.04e-02,8.00e-02,
261,2.16e-02,2.00e-02,
262,1.00e-02,2.00e-02,
263,-6.00e-03,8.00e-02,
264,2.40e-03,2.00e-02,
265,-8.00e-04,4.00e-02,
266,2.40e-03,4.00e-02,
267,-1.20e-03,2.00e-02,
268,2.00e-03,4.00e-02,
269,-8.00e-04,2.00e-02,
270,0.00e+00,4.00e-02,
271,2.00e-03,2.00e-02,
272,-8.00e-04,4.00e-02,
273,2.40e-03,2.00e-02,
274,-2.00e-03,2.00e-02,
275,9.20e-03,2.18e+00,
276,8.00e-03,1.60e-01,
277,0.00e+00,8.00e-02,
278,2.40e-03,1.00e-01,
279,4.00e-04,6.00e-02,
280,1.60e-03,8.00e-02,
281,-4.00e-04,6.00e-02,
282,2.00e-03,6.00e-02,
283,-4.00e-04,8.00e-02,
284,2.40e-03,6.00e-02,
285,-8.00e-04,8.00e-02,
286,-2.80e-03,8.00e-02,
287,6.00e-03,2.00e-02,
288,-1.44e-02,8.00e-02,
289,1.40e-02,2.00e-02,
290,-2.16e-02,8.00e-02,
291,1.92e-02,2.00e-02,
292,1.12e-02,8.00e-02,
293,-7.20e-03,2.00e-02,
294,4.00e-03,4.00e-02,
295,-1.20e-03,2.00e-02,
296,2.40e-03,4.00e-02,
297,-8.00e-04,2.00e-02,
298,2.00e-03,4.00e-02,
299,-4.00e-04,2.00e-02,
300,0.00e+00,4.00e-02,
301,2.40e-03,2.00e-02,
302,2.40e-03,4.00e-02,
303,-1.20e-03,2.00e-02,
304,-2.40e-03,2.00e-02,
305,8.40e-03,2.00e+00,
306,8.00e-03,1.60e-01,
307,0.00e+00,8.00e-02,
308,-4.00e-04,1.00e-01,
309,2.00e-03,6.00e-02,
310,1.20e-03,6.00e-02,
311,0.00e+00,8.00e-02,
312,0.00e+00,6.00e-02,
313,2.00e-03,8.00e-02,
314,2.00e-03,8.00e-02,
315,-8.00e-04,4.00e-02,
316,-2.80e-03,8.00e-02,
317,6.80e-03,2.00e-02,
318,-1.44e-02,4.00e-02,
319,1.56e-02,8.00e-02,
320,-2.08e-02,8.00e-02,
321,2.24e-02,2.00e-02,
322,1.00e-02,2.00e-02,
323,-7.60e-03,8.00e-02,
324,3.60e-03,2.00e-02,
325,-1.20e-03,8.00e-02,
326,-8.00e-04,4.00e-02,
327,2.80e-03,2.00e-02,
328,2.40e-03,4.00e-02,
329,-8.00e-04,2.00e-02,
330,0.00e+00,4.00e-02,
331,2.40e-03,2.00e-02,
332,2.00e-03,4.00e-02,
333,-1.60e-03,2.00e-02,
334,-1.60e-03,2.00e-02,
335,8.00e-03,2.06e+00,
336,7.20e-03,1.60e-01,
337,-4.00e-04,8.00e-02,
338,2.40e-03,1.00e-01,
339,0.00e+00,6.00e-02,
340,-8.00e-04,6.00e-02,
341,2.00e-03,8.00e-02,
342,2.00e-03,6.00e-02,
343,-4.00e-04,8.00e-02,
344,2.80e-03,8.00e-02,
345,-8.00e-04,6.00e-02,
346,-4.00e-03,8.00e-02,
347,6.40e-03,2.00e-02,
348,-1.40e-02,8.00e-02,
349,1.68e-02,2.00e-02,
350,-1.84e-02,8.00e-02,
351,2.00e-02,2.00e-02,
352,9.60e-03,8.00e-02,
353,-6.40e-03,2.00e-02,
354,2.40e-03,2.00e-02,
355,-4.00e-04,6.00e-02,
356,2.40e-03,2.00e-02,
357,-4.00e-04,4.00e-02,
358,1.20e-03,2.00e-02,
359,-4.00e-04,4.00e-02,
360,-4.00e-04,4.00e-02,
361,2.00e-03,2.00e-02,
362,-4.00e-04,4.00e-02,
363,2.40e-03,2.00e-02,
364,-2.00e-03,2.00e-02,
365,8.40e-03,2.10e+00,
366,8.00e-03,1.60e-01,
367,0.00e+00,8.00e-02,
368,2.40e-03,1.00e-01,
369,0.00e+00,6.00e-02,
370,8.00e-04,6.00e-02,
371,2.00e-03,8.00e-02,
372,2.00e-03,6.00e-02,
373,0.00e+00,8.00e-02,
374,2.40e-03,6.00e-02,
375,-4.00e-04,8.00e-02,
376,-2.80e-03,8.00e-02,
377,6.00e-03,4.00e-02,
378,-1.28e-02,8.00e-02,
379,1.76e-02,2.00e-02,
380,1.96e-02,8.00e-02,
381,-1.92e-02,2.00e-02,
382,9.60e-03,2.00e-02,
383,-6.40e-03,8.00e-02,
384,2.80e-03,2.00e-02,
385,-8.00e-04,6.00e-02,
386,-4.00e-04,4.00e-02,
387,2.00e-03,2.00e-02,
388,-4.00e-04,2.00e-02,
389,2.00e-03,4.00e-02,
390,1.60e-03,4.00e-02,
391,0.00e+00,2.00e-02,
392,-8.00e-04,4.00e-02,
393,2.00e-03,2.00e-02,
394,-1.60e-03,2.00e-02,
395,9.20e-03,2.16e+00,
396,8.40e-03,1.60e-01,
397,0.00e+00,8.00e-02,
398,0.00e+00,1.00e-01,
399,2.40e-03,6.00e-02,
400,0.00e+00,6.00e-02,
401,1.60e-03,8.00e-02,
402,2.00e-03,8.00e-02,
403,-8.00e-04,6.00e-02,
404,2.40e-03,6.00e-02,
405,-4.00e-04,8.00e-02,
406,-3.20e-03,8.00e-02,
407,5.60e-03,2.00e-02,
408,-1.28e-02,8.00e-02,
409,1.36e-02,2.00e-02,
410,-1.76e-02,8.00e-02,
411,1.96e-02,2.00e-02,
412,1.00e-02,8.00e-02,
413,-6.80e-03,2.00e-02,
414,2.40e-03,2.00e-02,
415,-1.20e-03,6.00e-02,
416,-1.20e-03,2.00e-02,
417,2.40e-03,4.00e-02,
418,1.60e-03,4.00e-02,
419,-4.00e-04,2.00e-02,
420,4.00e-04,2.00e-02,
421,2.40e-03,4.00e-02,
422,2.40e-03,4.00e-02,
423,-1.20e-03,2.00e-02,
424,-1.60e-03,2.00e-02,
425,8.40e-03,2.08e+00,
426,8.00e-03,1.60e-01,
427,0.00e+00,8.00e-02,
428,0.00e+00,1.00e-01,
429,2.00e-03,6.00e-02,
430,2.00e-03,6.00e-02,
431,0.00e+00,8.00e-02,
432,0.00e+00,6.00e-02,
433,2.80e-03,8.00e-02,
434,2.40e-03,6.00e-02,
435,0.00e+00,8.00e-02,
436,-4.00e-03,8.00e-02,
437,5.60e-03,2.00e-02,
438,-1.32e-02,8.00e-02,
439,1.64e-02,2.00e-02,
440,-1.80e-02,2.00e-02,
441,1.92e-02,8.00e-02,
442,9.60e-03,2.00e-02,
443,-6.00e-03,8.00e-02,
444,3.20e-03,8.00e-02,
445,-4.00e-04,2.00e-02,
446,2.40e-03,4.00e-02,
447,0.00e+00,2.00e-02,
448,2.00e-03,2.00e-02,
449,4.00e-04,4.00e-02,
450,2.00e-03,2.00e-02,
451,0.00e+00,4.00e-02,
452,-8.00e-04,4.00e-02,
453,2.00e-03,2.00e-02,
454,-2.00e-03,2.00e-02,
455,8.40e-03,2.06e+00,
456,8.00e-03,1.60e-01,
457,4.00e-04,8.00e-02,
458,2.40e-03,1.00e-01,
459,4.00e-04,6.00e-02,
460,1.60e-03,6.00e-02,
461,0.00e+00,8.00e-02,
462,2.00e-03,6.00e-02,
463,-4.00e-04,8.00e-02,
464,2.40e-03,6.00e-02,
465,-8.00e-04,8.00e-02,
466,-2.40e-03,8.00e-02,
467,5.60e-03,4.00e-02,
468,-1.32e-02,8.00e-02,
469,1.56e-02,2.00e-02,
470,-1.72e-02,8.00e-02,
471,1.72e-02,2.00e-02,
472,8.80e-03,2.00e-02,
473,-6.00e-03,8.00e-02,
474,2.80e-03,2.00e-02,
475,-8.00e-04,8.00e-02,
476,-8.00e-04,8.00e-02,
477,2.80e-03,2.00e-02,
478,0.00e+00,4.00e-02,
479,2.00e-03,2.00e-02,
480,0.00e+00,4.00e-02,
481,1.60e-03,2.00e-02,
482,2.00e-03,2.00e-02,
483,-4.00e-04,4.00e-02,
484,-1.60e-03,2.00e-02,
485,8.80e-03,2.12e+00,
486,8.00e-03,1.60e-01,
487,4.00e-04,8.00e-02,
488,0.00e+00,1.00e-01,
489,2.00e-03,6.00e-02,
490,-4.00e-04,6.00e-02,
491,2.00e-03,8.00e-02,
492,2.40e-03,6.00e-02,
493,-8.00e-04,8.00e-02,
494,2.00e-03,6.00e-02,
495,-8.00e-04,8.00e-02,
496,-2.80e-03,6.00e-02,
497,5.20e-03,8.00e-02,
498,-1.28e-02,8.00e-02,
499,1.44e-02,4.00e-02,
500,-1.64e-02,8.00e-02,
501,1.88e-02,2.00e-02,
502,8.00e-03,2.00e-02,
503,-7.20e-03,8.00e-02,
504,2.40e-03,2.00e-02,
505,-8.00e-04,8.00e-02,
506,2.00e-03,2.00e-02,
507,-4.00e-04,4.00e-02,
508,0.00e+00,2.00e-02,
509,2.00e-03,6.00e-02,
510,1.20e-03,4.00e-02,
511,-4.00e-04,2.00e-02,
512,-4.00e-04,4.00e-02,
513,2.00e-03,2.00e-02,
514,-1.60e-03,2.00e-02,
515,8.80e-03,2.22e+00,
516,8.00e-03,1.60e-01,
517,4.00e-04,8.00e-02,
518,2.00e-03,1.00e-01,
519,-8.00e-04,6.00e-02,
520,1.20e-03,6.00e-02,
521,0.00e+00,8.00e-02,
522,2.00e-03,6.00e-02,
523,-1.20e-03,8.00e-02,
524,-4.00e-04,8.00e-02,
525,2.40e-03,4.00e-02,
526,-2.80e-03,8.00e-02,
527,6.40e-03,4.00e-02,
528,-1.12e-02,8.00e-02,
529,1.48e-02,2.00e-02,
530,1.68e-02,2.00e-02,
531,-1.56e-02,8.00e-02,
532,8.00e-03,8.00e-02,
533,-6.00e-03,2.00e-02,
534,2.80e-03,8.00e-02,
535,-1.20e-03,2.00e-02,
536,-8.00e-04,4.00e-02,
537,2.40e-03,2.00e-02,
538,-8.00e-04,4.00e-02,
539,1.60e-03,2.00e-02,
540,0.00e+00,2.00e-02,
541,2.00e-03,4.00e-02,
542,-8.00e-04,4.00e-02,
543,2.00e-03,2.00e-02,
544,-2.40e-03,2.00e-02,
545,8.40e-03,2.18e+00,
546,7.60e-03,1.60e-01,
547,4.00e-04,8.00e-02,
548,2.40e-03,1.00e-01,
549,0.00e+00,6.00e-02,
550,1.20e-03,6.00e-02,
551,4.00e-04,8.00e-02,
552,0.00e+00,6.00e-02,
553,2.00e-03,8.00e-02,
554,2.00e-03,8.00e-02,
555,-8.00e-04,4.00e-02,
556,-2.40e-03,8.00e-02,
557,5.20e-03,2.00e-02,
558,-1.28e-02,8.00e-02,
559,1.52e-02,2.00e-02,
560,-1.56e-02,8.00e-02,
561,1.72e-02,2.00e-02,
562,8.00e-03,2.00e-02,
563,-6.00e-03,8.00e-02,
564,2.40e-03,8.00e-02,
565,0.00e+00,2.00e-02,
566,-8.00e-04,2.00e-02,
567,2.00e-03,6.00e-02,
568,2.00e-03,4.00e-02,
569,0.00e+00,2.00e-02,
570,2.00e-03,4.00e-02,
571,0.00e+00,2.00e-02,
572,2.00e-03,4.00e-02,
573,-8.00e-04,2.00e-02,
574,-1.60e-03,2.00e-02,
575,8.40e-03,2.00e+00,
576,8.00e-03,1.60e-01,
577,0.00e+00,8.00e-02,
578,2.00e-03,1.00e-01,
579,0.00e+00,6.00e-02,
580,0.00e+00,6.00e-02,
581,1.60e-03,8.00e-02,
582,2.40e-03,8.00e-02,
583,-4.00e-04,6.00e-02,
584,2.40e-03,6.00e-02,
585,-8.00e-04,8.00e-02,
586,-2.00e-03,8.00e-02,
587,5.60e-03,2.00e-02,
588,-1.16e-02,8.00e-02,
589,1.52e-02,2.00e-02,
590,-1.56e-02,8.00e-02,
591,1.76e-02,2.00e-02,
592,8.00e-03,4.00e-02,
593,-5.60e-03,2.00e-02,
594,2.40e-03,4.00e-02,
595,0.00e+00,2.00e-02,
596,2.00e-03,4.00e-02,
597,-4.00e-04,2.00e-02,
598,2.00e-03,4.00e-02,
599,-4.00e-04,2.00e-02,
600,0.00e+00,2.00e-02,
601,1.60e-03,4.00e-02,
602,1.60e-03,4.00e-02,
603,-1.20e-03,2.00e-02,
604,-1.60e-03,2.00e-02,
605,8.80e-03,2.06e+00,
606,8.00e-03,1.60e-01,
607,0.00e+00,8.00e-02,
608,2.00e-03,1.00e-01,
609,0.00e+00,6.00e-02,
610,0.00e+00,6.00e-02,
611,2.00e-03,8.00e-02,
612,2.40e-03,8.00e-02,
613,-8.00e-04,6.00e-02,
614,2.40e-03,8.00e-02,
615,-1.20e-03,2.00e-02,
616,-2.80e-03,8.00e-02,
617,4.80e-03,2.00e-02,
618,-1.16e-02,8.00e-02,
619,1.56e-02,2.00e-02,
620,-1.48e-02,2.00e-02,
621,1.64e-02,8.00e-02,
622,8.00e-03,4.00e-02,
623,-5.20e-03,2.00e-02,
624,-8.00e-04,2.00e-02,
625,2.40e-03,4.00e-02,
626,-8.00e-04,4.00e-02,
627,1.60e-03,2.00e-02,
628,2.00e-03,4.00e-02,
629,0.00e+00,2.00e-02,
630,1.20e-03,4.00e-02,
631,-4.00e-04,2.00e-02,
632,0.00e+00,4.00e-02,
633,2.00e-03,2.00e-02,
634,-1.60e-03,2.00e-02,
635,8.40e-03,1.96e+00,
636,8.00e-03,1.60e-01,
637,0.00e+00,8.00e-02,
638,1.20e-03,1.00e-01,
639,0.00e+00,6.00e-02,
640,0.00e+00,6.00e-02,
641,2.00e-03,8.00e-02,
642,2.00e-03,6.00e-02,
643,0.00e+00,8.00e-02,
644,2.00e-03,6.00e-02,
645,0.00e+00,8.00e-02,
646,-1.60e-03,8.00e-02,
647,4.40e-03,4.00e-02,
648,-1.12e-02,2.00e-02,
649,1.40e-02,8.00e-02,
650,1.56e-02,8.00e-02,
651,-1.40e-02,2.00e-02,
652,7.20e-03,6.00e-02,
653,-4.80e-03,2.00e-02,
654,4.00e-03,2.00e-02,
655,-4.00e-04,6.00e-02,
656,2.00e-03,4.00e-02,
657,-8.00e-04,2.00e-02,
658,0.00e+00,4.00e-02,
659,2.00e-03,2.00e-02,
660,-4.00e-04,4.00e-02,
661,2.00e-03,2.00e-02,
662,0.00e+00,4.00e-02,
663,2.40e-03,2.00e-02,
664,-2.40e-03,2.00e-02,
665,8.40e-03,2.16e+00,
666,7.20e-03,1.60e-01,
667,0.00e+00,8.00e-02,
668,4.00e-04,1.00e-01,
669,2.00e-03,6.00e-02,
670,0.00e+00,6.00e-02,
671,1.60e-03,8.00e-02,
672,2.00e-03,6.00e-02,
673,0.00e+00,8.00e-02,
674,-4.00e-04,8.00e-02,
675,1.60e-03,6.00e-02,
676,-2.40e-03,6.00e-02,
677,5.20e-03,8.00e-02,
678,-1.08e-02,8.00e-02,
679,1.40e-02,2.00e-02,
680,-1.36e-02,8.00e-02,
681,1.48e-02,2.00e-02,
682,8.40e-03,8.00e-02,
683,-4.40e-03,2.00e-02,
684,3.20e-03,2.00e-02,
685,-4.00e-04,8.00e-02,
686,-8.00e-04,4.00e-02,
687,2.00e-03,2.00e-02,
688,1.20e-03,2.00e-02,
689,0.00e+00,4.00e-02,
690,2.00e-03,4.00e-02,
691,0.00e+00,2.00e-02,
692,2.00e-03,4.00e-02,
693,-8.00e-04,2.00e-02,
694,-2.40e-03,2.00e-02,
695,8.80e-03,2.08e+00,
696,8.00e-03,1.60e-01,
697,0.00e+00,8.00e-02,
698,1.60e-03,1.00e-01,
699,4.00e-04,6.00e-02,
700,1.60e-03,6.00e-02,
701,0.00e+00,8.00e-02,
702,2.00e-03,6.00e-02,
703,4.00e-04,8.00e-02,
704,0.00e+00,8.00e-02,
705,2.00e-03,4.00e-02,
706,-2.00e-03,8.00e-02,
707,5.20e-03,2.00e-02,
708,-1.00e-02,2.00e-02,
709,1.44e-02,8.00e-02,
710,-1.36e-02,8.00e-02,
711,1.56e-02,2.00e-02,
712,6.80e-03,4.00e-02,
713,-4.80e-03,2.00e-02,
714,2.40e-03,4.00e-02,
715,0.00e+00,2.00e-02,
716,0.00e+00,4.00e-02,
717,2.00e-03,2.00e-02,
718,0.00e+00,4.00e-02,
719,2.00e-03,2.00e-02,
720,-4.00e-04,4.00e-02,
721,2.00e-03,2.00e-02,
722,2.00e-03,4.00e-02,
723,-8.00e-04,2.00e-02,
724,-2.40e-03,2.00e-02,
725,8.80e-03,2.08e+00,
726,8.00e-03,1.60e-01,
727,4.00e-04,8.00e-02,
728,2.00e-03,1.00e-01,
729,-4.00e-04,6.00e-02,
730,0.00e+00,8.00e-02,
731,2.00e-03,6.00e-02,
732,1.60e-03,6.00e-02,
733,-4.00e-04,8.00e-02,
734,0.00e+00,8.00e-02,
735,2.40e-03,6.00e-02,
736,-2.00e-03,8.00e-02,
737,4.00e-03,4.00e-02,
738,-1.00e-02,8.00e-02,
739,1.44e-02,2.00e-02,
740,1.44e-02,8.00e-02,
741,-1.28e-02,2.00e-02,
742,7.60e-03,2.00e-02,
743,-4.40e-03,8.00e-02,
744,2.40e-03,2.00e-02,
745,-8.00e-04,8.00e-02,
746,2.00e-03,2.00e-02,
747,-4.00e-04,6.00e-02,
748,2.00e-03,2.00e-02,
749,0.00e+00,4.00e-02,
750,0.00e+00,4.00e-02,
751,2.00e-03,2.00e-02,
752,2.00e-03,2.00e-02,
753,-4.00e-04,4.00e-02,
754,-1.60e-03,2.00e-02,
755,8.40e-03,2.10e+00,
756,7.60e-03,1.60e-01,
757,4.00e-04,8.00e-02,
758,2.00e-03,1.00e-01,
759,0.00e+00,6.00e-02,
760,4.00e-04,6.00e-02,
761,2.00e-03,8.00e-02,
762,2.00e-03,8.00e-02,
763,0.00e+00,6.00e-02,
764,2.40e-03,8.00e-02,
765,-8.00e-04,4.00e-02,
766,-2.40e-03,8.00e-02,
767,5.60e-03,2.00e-02,
768,-1.00e-02,8.00e-02,
769,1.32e-02,2.00e-02,
770,-1.32e-02,2.00e-02,
771,1.52e-02,6.00e-02,
772,7.20e-03,4.00e-02,
773,-5.60e-03,2.00e-02,
774,2.40e-03,4.00e-02,
775,-1.60e-03,2.00e-02,
776,-4.00e-04,4.00e-02,
777,1.60e-03,2.00e-02,
778,0.00e+00,4.00e-02,
779,2.00e-03,2.00e-02,
780,1.20e-03,2.00e-02,
781,4.00e-04,4.00e-02,
782,2.00e-03,4.00e-02,
783,-1.60e-03,2.00e-02,
784,-2.00e-03,2.00e-02,
785,8.80e-03,2.22e+00,
786,8.00e-03,1.60e-01,
787,4.00e-04,8.00e-02,
788,1.60e-03,1.00e-01,
789,0.00e+00,6.00e-02,
790,4.00e-04,6.00e-02,
791,1.60e-03,8.00e-02,
792,1.20e-03,6.00e-02,
793,0.00e+00,8.00e-02,
794,2.00e-03,8.00e-02,
795,0.00e+00,2.00e-02,
796,-2.40e-03,8.00e-02,
797,4.80e-03,2.00e-02,
798,-9.20e-03,8.00e-02,
799,1.36e-02,2.00e-02,
800,-1.24e-02,8.00e-02,
801,1.40e-02,2.00e-02,
802,6.80e-03,6.00e-02,
803,-4.00e-03,2.00e-02,
804,-8.00e-04,2.00e-02,
805,2.40e-03,6.00e-02,
806,0.00e+00,4.00e-02,
807,2.00e-03,2.00e-02,
808,2.00e-03,4.00e-02,
809,0.00e+00,2.00e-02,
810,2.40e-03,4.00e-02,
811,-4.00e-04,2.00e-02,
812,-8.00e-04,4.00e-02,
813,2.40e-03,2.00e-02,
814,-2.00e-03,2.00e-02,
815,8.80e-03,1.94e+00,
816,8.00e-03,1.60e-01,
817,-4.00e-04,8.00e-02,
818,0.00e+00,1.00e-01,
819,2.00e-03,6.00e-02,
820,4.00e-04,6.00e-02,
821,2.00e-03,8.00e-02,
822,2.00e-03,6.00e-02,
823,0.00e+00,8.00e-02,
824,0.00e+00,8.00e-02,
825,2.00e-03,6.00e-02,
826,-1.60e-03,8.00e-02,
827,4.00e-03,2.00e-02,
828,-8.40e-03,4.00e-02,
829,1.40e-02,8.00e-02,
830,1.36e-02,8.00e-02,
831,-1.24e-02,2.00e-02,
832,6.80e-03,8.00e-02,
833,-4.00e-03,2.00e-02,
834,2.40e-03,2.00e-02,
835,0.00e+00,8.00e-02,
836,-8.00e-04,4.00e-02,
837,2.00e-03,2.00e-02,
838,0.00e+00,4.00e-02,
839,2.00e-03,2.00e-02,
840,-4.00e-04,4.00e-02,
841,1.60e-03,2.00e-02,
842,1.60e-03,4.00e-02,
843,-1.20e-03,2.00e-02,
844,-2.00e-03,2.00e-02,
845,8.80e-03,2.06e+00,
846,8.00e-03,1.60e-01,
847,-8.00e-04,8.00e-02,
848,0.00e+00,1.00e-01,
849,2.40e-03,6.00e-02,
850,0.00e+00,6.00e-02,
851,2.00e-03,8.00e-02,
852,2.40e-03,6.00e-02,
853,0.00e+00,8.00e-02,
854,0.00e+00,8.00e-02,
855,2.00e-03,4.00e-02,
856,-1.60e-03,8.00e-02,
857,4.00e-03,4.00e-02,
