CarrPurc_P1-19_P2-38_tauVary/Gly75/NewFile3.csv

X,CH1,CH2,Start,Increment,
Sequence,Volt,Volt,-3.200000e-03,2.000000e-04
0,0.00e+00,4.00e-02,
1,1.20e-03,2.00e-02,
2,1.20e-03,4.00e-02,
3,0.00e+00,2.00e-02,
4,0.00e+00,4.00e-02,
5,1.20e-03,2.00e-02,
6,0.00e+00,2.00e-02,
7,1.20e-03,4.00e-02,
8,0.00e+00,4.00e-02,
9,1.20e-03,2.00e-02,
10,1.20e-03,4.00e-02,
11,0.00e+00,2.00e-02,
12,1.20e-03,4.00e-02,
13,0.00e+00,2.00e-02,
14,0.00e+00,4.00e-02,
15,1.20e-03,2.00e-02,
16,1.20e-03,4.00e-02,
17,-8.00e-04,2.00e-02,
18,5.60e-03,2.00e-02,
19,-3.08e-02,2.24e+00,
20,1.76e-02,8.00e-02,
21,-1.72e-02,1.40e-01,
22,4.40e-03,1.00e-01,
23,-2.80e-03,6.00e-02,
24,4.00e-03,8.00e-02,
25,-2.40e-03,6.00e-02,
26,2.40e-03,6.00e-02,
27,-8.00e-04,8.00e-02,
28,-1.20e-03,6.00e-02,
29,2.40e-03,8.00e-02,
30,2.40e-03,6.00e-02,
31,0.00e+00,8.00e-02,
32,-4.00e-04,6.00e-02,
33,8.00e-03,2.08e+00,
34,7.20e-03,1.60e-01,
35,-7.60e-03,8.00e-02,
36,5.20e-03,1.00e-01,
37,-2.80e-03,6.00e-02,
38,2.00e-03,6.00e-02,
39,-8.00e-04,1.00e-01,
40,-1.60e-03,6.00e-02,
41,2.40e-03,8.00e-02,
42,2.80e-03,6.00e-02,
43,-1.20e-03,8.00e-02,
44,-4.40e-03,6.00e-02,
45,7.20e-03,8.00e-02,
46,-1.84e-02,8.00e-02,
47,2.32e-02,4.00e-02,
48,-2.72e-02,8.00e-02,
49,2.84e-02,2.00e-02,
50,1.52e-02,8.00e-02,
51,-1.16e-02,2.00e-02,
52,3.60e-03,8.00e-02,
53,-1.60e-03,2.00e-02,
54,2.40e-03,8.00e-02,
55,-1.60e-03,2.00e-02,
56,-1.60e-03,2.00e-02,
57,1.60e-03,8.00e-02,
58,-8.00e-04,2.00e-02,
59,2.00e-03,8.00e-02,
60,0.00e+00,2.00e-02,
61,2.00e-03,8.00e-02,
62,0.00e+00,2.00e-02,
63,8.40e-03,2.16e+00,
64,6.40e-03,1.60e-01,
65,0.00e+00,8.00e-02,
66,1.20e-03,1.00e-01,
67,-4.00e-04,6.00e-02,
68,0.00e+00,6.00e-02,
69,1.60e-03,1.00e-01,
70,2.00e-03,6.00e-02,
71,-8.00e-04,8.00e-02,
72,-8.00e-04,8.00e-02,
73,2.40e-03,6.00e-02,
74,-4.40e-03,6.00e-02,
75,5.60e-03,8.00e-02,
76,1.56e-02,8.00e-02,
77,-1.72e-02,2.00e-02,
78,-2.32e-02,8.00e-02,
79,2.48e-02,4.00e-02,
80,1.08e-02,8.00e-02,
81,-8.00e-03,2.00e-02,
82,3.20e-03,2.00e-02,
83,-1.60e-03,8.00e-02,
84,-1.20e-03,8.00e-02,
85,2.80e-03,2.00e-02,
86,2.00e-03,2.00e-02,
87,-8.00e-04,4.00e-02,
88,-8.00e-04,8.00e-02,
89,2.40e-03,2.00e-02,
90,3.60e-03,4.00e-02,
91,-2.80e-03,2.00e-02,
92,-4.00e-03,2.00e-02,
93,8.80e-03,1.92e+00,
94,6.80e-03,1.60e-01,
95,0.00e+00,8.00e-02,
96,-8.00e-04,1.00e-01,
97,2.40e-03,6.00e-02,
98,1.20e-03,6.00e-02,
99,-8.00e-04,1.00e-01,
100,2.00e-03,8.00e-02,
101,-8.00e-04,6.00e-02,
102,2.40e-03,6.00e-02,
103,-1.20e-03,8.00e-02,
104,-4.40e-03,6.00e-02,
105,5.20e-03,8.00e-02,
106,1.52e-02,8.00e-02,
107,-1.76e-02,4.00e-02,
108,-2.32e-02,8.00e-02,
109,2.36e-02,2.00e-02,
110,1.12e-02,2.00e-02,
111,-8.80e-03,8.00e-02,
112,3.20e-03,2.00e-02,
113,-1.20e-03,8.00e-02,
114,-1.20e-03,2.00e-02,
115,2.80e-03,8.00e-02,
116,2.00e-03,8.00e-02,
117,-8.00e-04,2.00e-02,
118,2.00e-03,8.00e-02,
119,-4.00e-04,2.00e-02,
120,2.80e-03,2.00e-02,
121,-2.40e-03,6.00e-02,
122,-4.00e-03,2.20e+00,
123,8.40e-03,0.00e+00,
124,6.40e-03,1.60e-01,
125,-1.60e-03,8.00e-02,
126,3.20e-03,1.00e-01,
127,-4.00e-04,6.00e-02,
128,1.20e-03,6.00e-02,
129,-8.00e-04,1.00e-01,
130,2.40e-03,6.00e-02,
131,-1.20e-03,8.00e-02,
132,2.40e-03,6.00e-02,
133,-1.20e-03,8.00e-02,
134,-3.20e-03,6.00e-02,
135,5.60e-03,8.00e-02,
136,-1.44e-02,6.00e-02,
137,1.20e-02,8.00e-02,
138,-2.12e-02,8.00e-02,
139,2.28e-02,4.00e-02,
140,1.08e-02,2.00e-02,
141,-7.20e-03,8.00e-02,
142,2.80e-03,8.00e-02,
143,-8.00e-04,2.00e-02,
144,2.00e-03,8.00e-02,
145,-8.00e-04,2.00e-02,
146,1.20e-03,2.00e-02,
147,-8.00e-04,8.00e-02,
148,1.20e-03,2.00e-02,
149,0.00e+00,8.00e-02,
150,1.20e-03,2.00e-02,
151,-1.20e-03,4.00e-02,
152,-1.60e-03,2.00e-02,
153,8.40e-03,1.98e+00,
154,6.80e-03,1.60e-01,
155,-1.20e-03,8.00e-02,
156,2.40e-03,1.00e-01,
157,0.00e+00,6.00e-02,
158,2.40e-03,6.00e-02,
159,-8.00e-04,8.00e-02,
160,2.00e-03,6.00e-02,
161,-8.00e-04,8.00e-02,
162,2.00e-03,6.00e-02,
163,-1.20e-03,8.00e-02,
164,-4.40e-03,6.00e-02,
165,5.60e-03,8.00e-02,
166,1.36e-02,8.00e-02,
167,-1.44e-02,4.00e-02,
168,-1.92e-02,8.00e-02,
169,2.16e-02,2.00e-02,
170,9.60e-03,8.00e-02,
171,-6.80e-03,2.00e-02,
172,2.80e-03,2.00e-02,
173,-1.20e-03,8.00e-02,
174,2.40e-03,2.00e-02,
175,-1.20e-03,8.00e-02,
176,-8.00e-04,2.00e-02,
177,1.60e-03,6.00e-02,
178,0.00e+00,8.00e-02,
179,2.00e-03,2.00e-02,
180,-8.00e-04,2.00e-02,
181,2.00e-03,8.00e-02,
182,-2.40e-03,2.00e-02,
183,8.80e-03,2.10e+00,
184,7.20e-03,1.60e-01,
185,4.00e-04,8.00e-02,
186,2.00e-03,1.00e-01,
187,-4.00e-04,6.00e-02,
188,-4.00e-04,6.00e-02,
189,1.60e-03,1.00e-01,
190,-8.00e-04,6.00e-02,
191,1.60e-03,8.00e-02,
192,-8.00e-04,6.00e-02,
193,2.00e-03,8.00e-02,
194,-2.80e-03,6.00e-02,
195,5.20e-03,8.00e-02,
196,1.28e-02,6.00e-02,
197,-1.56e-02,8.00e-02,
198,-1.92e-02,8.00e-02,
199,2.04e-02,2.00e-02,
200,9.20e-03,8.00e-02,
201,-6.40e-03,2.00e-02,
202,2.80e-03,8.00e-02,
203,-1.20e-03,2.00e-02,
204,2.40e-03,2.00e-02,
205,-1.60e-03,8.00e-02,
206,2.40e-03,2.00e-02,
207,-8.00e-04,8.00e-02,
208,1.20e-03,2.00e-02,
209,-8.00e-04,8.00e-02,
210,2.40e-03,4.00e-02,
211,-1.60e-03,2.00e-02,
212,-2.80e-03,2.00e-02,
213,8.40e-03,1.92e+00,
214,6.80e-03,1.60e-01,
215,0.00e+00,8.00e-02,
216,2.00e-03,1.00e-01,
217,-4.00e-04,6.00e-02,
218,-4.00e-04,6.00e-02,
219,1.20e-03,1.00e-01,
220,2.00e-03,6.00e-02,
221,-1.20e-03,8.00e-02,
222,2.40e-03,6.00e-02,
223,-1.20e-03,8.00e-02,
224,-2.80e-03,6.00e-02,
225,5.20e-03,8.00e-02,
226,1.20e-02,8.00e-02,
227,-1.32e-02,6.00e-02,
228,-1.88e-02,8.00e-02,
229,2.04e-02,2.00e-02,
230,9.60e-03,8.00e-02,
231,-7.20e-03,2.00e-02,
232,2.00e-03,2.00e-02,
233,-1.20e-03,8.00e-02,
234,-8.00e-04,8.00e-02,
235,1.60e-03,2.00e-02,
236,-8.00e-04,8.00e-02,
237,2.00e-03,2.00e-02,
238,1.20e-03,2.00e-02,
239,-4.00e-04,8.00e-02,
240,-8.00e-04,2.00e-02,
241,2.00e-03,6.00e-02,
242,-2.80e-03,2.00e-02,
243,8.00e-03,2.12e+00,
244,6.40e-03,1.60e-01,
245,-8.00e-04,8.00e-02,
246,2.00e-03,1.00e-01,
247,-8.00e-04,6.00e-02,
248,1.60e-03,1.00e-01,
249,-8.00e-04,6.00e-02,
250,-8.00e-04,8.00e-02,
251,2.80e-03,6.00e-02,
252,2.40e-03,6.00e-02,
253,-1.20e-03,8.00e-02,
254,-4.40e-03,8.00e-02,
255,5.60e-03,4.00e-02,
256,-1.48e-02,8.00e-02,
257,1.40e-02,2.00e-02,
258,-1.88e-02,2.00e-02,
259,1.92e-02,8.00e-02,
260,8.00e-03,8.00e-02,
261,-6.40e-03,2.00e-02,
262,2.40e-03,2.00e-02,
263,-8.00e-04,8.00e-02,
264,-1.20e-03,2.00e-02,
265,1.60e-03,8.00e-02,
266,1.20e-03,4.00e-02,
267,-8.00e-04,2.00e-02,
268,-8.00e-04,4.00e-02,
269,2.00e-03,2.00e-02,
270,-8.00e-04,4.00e-02,
271,2.00e-03,2.00e-02,
272,-1.60e-03,2.00e-02,
273,8.40e-03,2.14e+00,
274,6.80e-03,1.60e-01,
275,-4.00e-04,8.00e-02,
276,2.40e-03,1.00e-01,
277,-4.00e-04,6.00e-02,
278,1.60e-03,6.00e-02,
279,0.00e+00,8.00e-02,
280,-4.00e-04,8.00e-02,
281,2.00e-03,6.00e-02,
282,2.00e-03,6.00e-02,
283,-8.00e-04,8.00e-02,
284,-2.80e-03,8.00e-02,
285,3.60e-03,4.00e-02,
286,1.12e-02,8.00e-02,
287,-1.36e-02,2.00e-02,
288,-1.80e-02,2.00e-02,
289,1.72e-02,8.00e-02,
290,9.60e-03,8.00e-02,
291,-6.00e-03,2.00e-02,
292,2.80e-03,2.00e-02,
293,-1.20e-03,8.00e-02,
294,2.40e-03,2.00e-02,
295,-8.00e-04,8.00e-02,
296,1.20e-03,2.00e-02,
297,-8.00e-04,6.00e-02,
298,1.20e-03,4.00e-02,
299,0.00e+00,2.00e-02,
300,1.60e-03,2.00e-02,
301,-8.00e-04,6.00e-02,
302,-1.60e-03,2.00e-02,
303,8.80e-03,2.16e+00,
304,6.80e-03,1.60e-01,
305,0.00e+00,8.00e-02,
306,-4.00e-04,1.00e-01,
307,2.00e-03,6.00e-02,
308,0.00e+00,8.00e-02,
309,1.20e-03,6.00e-02,
310,2.00e-03,6.00e-02,
311,-4.00e-04,8.00e-02,
312,1.60e-03,6.00e-02,
313,-1.20e-03,8.00e-02,
314,-2.40e-03,6.00e-02,
315,4.00e-03,8.00e-02,
316,1.12e-02,8.00e-02,
317,-1.28e-02,2.00e-02,
318,-1.76e-02,8.00e-02,
319,1.80e-02,2.00e-02,
320,8.80e-03,8.00e-02,
321,-6.40e-03,2.00e-02,
322,2.40e-03,2.00e-02,
323,-1.20e-03,8.00e-02,
324,-8.00e-04,8.00e-02,
325,2.40e-03,2.00e-02,
326,2.00e-03,6.00e-02,
327,0.00e+00,2.00e-02,
328,0.00e+00,4.00e-02,
329,2.40e-03,2.00e-02,
330,2.40e-03,4.00e-02,
331,-1.20e-03,2.00e-02,
332,-2.00e-03,2.00e-02,
333,8.00e-03,2.14e+00,
334,6.40e-03,1.60e-01,
335,-8.00e-04,8.00e-02,
336,1.60e-03,1.00e-01,
337,-8.00e-04,6.00e-02,
338,0.00e+00,8.00e-02,
339,1.60e-03,6.00e-02,
340,0.00e+00,6.00e-02,
341,2.00e-03,8.00e-02,
342,2.40e-03,6.00e-02,
343,-8.00e-04,8.00e-02,
344,-2.80e-03,8.00e-02,
345,5.60e-03,6.00e-02,
346,-1.28e-02,8.00e-02,
347,1.48e-02,4.00e-02,
348,-1.72e-02,8.00e-02,
349,1.88e-02,2.00e-02,
350,8.80e-03,8.00e-02,
351,-5.20e-03,2.00e-02,
352,2.80e-03,8.00e-02,
353,-4.00e-04,2.00e-02,
354,-8.00e-04,2.00e-02,
355,2.00e-03,6.00e-02,
356,-4.00e-04,2.00e-02,
357,2.00e-03,8.00e-02,
358,0.00e+00,2.00e-02,
359,2.00e-03,4.00e-02,
360,2.00e-03,8.00e-02,
361,-1.20e-03,2.00e-02,
362,-1.60e-03,2.00e-02,
363,8.40e-03,2.16e+00,
364,6.80e-03,1.60e-01,
365,0.00e+00,8.00e-02,
366,2.00e-03,1.00e-01,
367,0.00e+00,6.00e-02,
368,0.00e+00,6.00e-02,
369,1.60e-03,1.00e-01,
370,-4.00e-04,6.00e-02,
371,2.00e-03,8.00e-02,
372,-8.00e-04,6.00e-02,
373,2.00e-03,8.00e-02,
374,-2.80e-03,8.00e-02,
375,5.20e-03,4.00e-02,
376,-1.12e-02,8.00e-02,
377,1.20e-02,4.00e-02,
378,-1.52e-02,8.00e-02,
379,1.64e-02,2.00e-02,
380,8.40e-03,8.00e-02,
381,-4.40e-03,2.00e-02,
382,2.40e-03,2.00e-02,
383,-8.00e-04,8.00e-02,
384,1.60e-03,2.00e-02,
385,-8.00e-04,8.00e-02,
386,2.00e-03,6.00e-02,
387,-4.00e-04,2.00e-02,
388,1.20e-03,2.00e-02,
389,-8.00e-04,4.00e-02,
390,-4.00e-04,2.00e-02,
391,1.60e-03,8.00e-02,
392,-1.60e-03,2.00e-02,
393,8.80e-03,2.08e+00,
394,6.80e-03,1.60e-01,
395,0.00e+00,8.00e-02,
396,2.00e-03,1.00e-01,
397,0.00e+00,6.00e-02,
398,0.00e+00,6.00e-02,
399,2.00e-03,1.00e-01,
400,1.60e-03,6.00e-02,
401,-8.00e-04,8.00e-02,
402,2.40e-03,8.00e-02,
403,-1.20e-03,6.00e-02,
404,-2.80e-03,6.00e-02,
405,4.00e-03,8.00e-02,
406,-1.12e-02,8.00e-02,
407,1.16e-02,2.00e-02,
408,-1.60e-02,8.00e-02,
409,1.72e-02,2.00e-02,
410,7.20e-03,2.00e-02,
411,-5.60e-03,8.00e-02,
412,2.40e-03,8.00e-02,
413,-8.00e-04,2.00e-02,
414,-8.00e-04,2.00e-02,
415,2.40e-03,6.00e-02,
416,1.60e-03,2.00e-02,
417,-8.00e-04,4.00e-02,
418,0.00e+00,4.00e-02,
419,2.00e-03,2.00e-02,
420,2.00e-03,2.00e-02,
421,-1.20e-03,4.00e-02,
422,-1.60e-03,2.00e-02,
423,8.40e-03,2.16e+00,
424,6.80e-03,1.60e-01,
425,4.00e-04,8.00e-02,
426,2.00e-03,1.00e-01,
427,-4.00e-04,6.00e-02,
428,1.20e-03,1.00e-01,
429,-8.00e-04,6.00e-02,
430,2.00e-03,6.00e-02,
431,-8.00e-04,8.00e-02,
432,-1.20e-03,6.00e-02,
433,2.00e-03,8.00e-02,
434,-2.80e-03,6.00e-02,
435,4.80e-03,8.00e-02,
436,-1.04e-02,8.00e-02,
437,1.24e-02,2.00e-02,
438,-1.48e-02,8.00e-02,
439,1.60e-02,2.00e-02,
440,8.00e-03,8.00e-02,
441,-5.20e-03,2.00e-02,
442,2.00e-03,2.00e-02,
443,-8.00e-04,8.00e-02,
444,-8.00e-04,2.00e-02,
445,1.60e-03,8.00e-02,
446,0.00e+00,2.00e-02,
447,1.20e-03,8.00e-02,
448,0.00e+00,2.00e-02,
449,1.20e-03,4.00e-02,
450,2.00e-03,2.00e-02,
451,-8.00e-04,4.00e-02,
452,-2.80e-03,2.00e-02,
453,8.40e-03,1.98e+00,
454,6.80e-03,1.60e-01,
455,0.00e+00,8.00e-02,
456,1.20e-03,1.00e-01,
457,-4.00e-04,6.00e-02,
458,0.00e+00,6.00e-02,
459,1.20e-03,1.00e-01,
460,1.20e-03,6.00e-02,
461,-4.00e-04,8.00e-02,
462,1.60e-03,6.00e-02,
463,-8.00e-04,8.00e-02,
464,-2.00e-03,6.00e-02,
465,4.00e-03,8.00e-02,
466,-1.16e-02,8.00e-02,
467,1.28e-02,4.00e-02,
468,-1.48e-02,8.00e-02,
469,1.60e-02,2.00e-02,
470,7.20e-03,8.00e-02,
471,-5.60e-03,2.00e-02,
472,2.00e-03,8.00e-02,
473,-8.00e-04,2.00e-02,
474,2.00e-03,8.00e-02,
475,-1.20e-03,2.00e-02,
476,1.20e-03,8.00e-02,
477,-8.00e-04,2.00e-02,
478,0.00e+00,2.00e-02,
479,2.00e-03,8.00e-02,
480,1.60e-03,2.00e-02,
481,-8.00e-04,8.00e-02,
482,-2.40e-03,2.00e-02,
483,8.80e-03,2.14e+00,
484,6.80e-03,1.60e-01,
485,0.00e+00,8.00e-02,
486,1.20e-03,1.00e-01,
487,-8.00e-04,6.00e-02,
488,-8.00e-04,1.00e-01,
489,1.20e-03,6.00e-02,
490,2.00e-03,6.00e-02,
491,-4.00e-04,8.00e-02,
492,-1.20e-03,6.00e-02,
493,2.00e-03,8.00e-02,
494,-2.40e-03,8.00e-02,
495,3.60e-03,4.00e-02,
496,-1.08e-02,6.00e-02,
497,1.24e-02,8.00e-02,
498,-1.28e-02,8.00e-02,
499,1.48e-02,2.00e-02,
500,6.40e-03,8.00e-02,
501,-4.80e-03,2.00e-02,
502,2.00e-03,2.00e-02,
503,-8.00e-04,8.00e-02,
504,2.00e-03,2.00e-02,
505,-8.00e-04,8.00e-02,
506,1.20e-03,2.00e-02,
507,0.00e+00,8.00e-02,
508,0.00e+00,2.00e-02,
509,2.00e-03,8.00e-02,
510,2.00e-03,4.00e-02,
511,-8.00e-04,2.00e-02,
512,-2.40e-03,2.00e-02,
513,9.20e-03,2.12e+00,
514,6.80e-03,1.60e-01,
515,0.00e+00,8.00e-02,
516,-8.00e-04,1.00e-01,
517,2.00e-03,6.00e-02,
518,1.20e-03,6.00e-02,
519,-4.00e-04,8.00e-02,
520,2.00e-03,6.00e-02,
521,-4.00e-04,8.00e-02,
522,0.00e+00,6.00e-02,
523,2.00e-03,8.00e-02,
524,-1.60e-03,6.00e-02,
525,4.80e-03,8.00e-02,
526,-9.60e-03,6.00e-02,
527,1.20e-02,8.00e-02,
528,-1.36e-02,8.00e-02,
529,1.40e-02,4.00e-02,
530,6.80e-03,2.00e-02,
531,-4.40e-03,8.00e-02,
532,-8.00e-04,8.00e-02,
533,2.00e-03,2.00e-02,
534,2.00e-03,8.00e-02,
535,-4.00e-04,2.00e-02,
536,1.60e-03,8.00e-02,
537,0.00e+00,2.00e-02,
538,1.20e-03,8.00e-02,
539,-8.00e-04,2.00e-02,
540,1.20e-03,2.00e-02,
541,-1.20e-03,8.00e-02,
542,-2.80e-03,2.00e-02,
543,8.40e-03,2.08e+00,
544,6.40e-03,1.60e-01,
545,-8.00e-04,8.00e-02,
546,1.20e-03,1.00e-01,
547,-1.20e-03,6.00e-02,
548,2.00e-03,6.00e-02,
549,0.00e+00,1.00e-01,
550,2.00e-03,6.00e-02,
551,-8.00e-04,8.00e-02,
552,-4.00e-04,6.00e-02,
553,2.40e-03,8.00e-02,
554,-1.60e-03,8.00e-02,
555,4.40e-03,4.00e-02,
556,-9.20e-03,8.00e-02,
557,1.00e-02,4.00e-02,
558,-1.40e-02,8.00e-02,
559,1.40e-02,2.00e-02,
560,7.20e-03,8.00e-02,
561,-4.40e-03,2.00e-02,
562,2.00e-03,2.00e-02,
563,-1.20e-03,8.00e-02,
564,2.00e-03,8.00e-02,
565,-8.00e-04,2.00e-02,
566,1.60e-03,2.00e-02,
567,0.00e+00,8.00e-02,
568,0.00e+00,6.00e-02,
569,1.60e-03,2.00e-02,
570,2.00e-03,2.00e-02,
571,-8.00e-04,8.00e-02,
572,-2.40e-03,2.00e-02,
573,8.40e-03,2.08e+00,
574,6.80e-03,1.60e-01,
575,0.00e+00,8.00e-02,
576,1.60e-03,1.00e-01,
577,-4.00e-04,6.00e-02,
578,-4.00e-04,6.00e-02,
579,2.00e-03,1.00e-01,
580,2.00e-03,6.00e-02,
581,-8.00e-04,8.00e-02,
582,-8.00e-04,8.00e-02,
583,1.60e-03,6.00e-02,
584,-1.60e-03,8.00e-02,
585,4.00e-03,2.00e-02,
586,-8.80e-03,8.00e-02,
587,1.16e-02,2.00e-02,
588,1.24e-02,8.00e-02,
589,-1.28e-02,2.00e-02,
590,5.60e-03,8.00e-02,
591,-4.00e-03,2.00e-02,
592,2.40e-03,8.00e-02,
593,-8.00e-04,2.00e-02,
594,-4.00e-04,8.00e-02,
595,2.00e-03,2.00e-02,
596,1.20e-03,2.00e-02,
597,-4.00e-04,8.00e-02,
598,1.60e-03,4.00e-02,
599,0.00e+00,2.00e-02,
600,2.00e-03,2.00e-02,
601,-1.20e-03,4.00e-02,
602,-2.40e-03,2.00e-02,
603,8.80e-03,2.08e+00,
604,6.80e-03,1.40e-01,
605,0.00e+00,8.00e-02,
606,2.00e-03,1.00e-01,
607,-8.00e-04,6.00e-02,
608,1.60e-03,6.00e-02,
609,-4.00e-04,1.00e-01,
610,0.00e+00,6.00e-02,
611,1.60e-03,8.00e-02,
612,2.40e-03,8.00e-02,
613,-8.00e-04,6.00e-02,
614,-1.60e-03,6.00e-02,
615,4.40e-03,8.00e-02,
616,-9.20e-03,8.00e-02,
617,1.20e-02,4.00e-02,
618,-1.24e-02,8.00e-02,
619,1.32e-02,4.00e-02,
620,6.80e-03,8.00e-02,
621,-4.40e-03,2.00e-02,
622,2.40e-03,8.00e-02,
623,-8.00e-04,2.00e-02,
624,-8.00e-04,8.00e-02,
625,2.00e-03,2.00e-02,
626,-4.00e-04,2.00e-02,
627,2.00e-03,8.00e-02,
628,1.20e-03,6.00e-02,
629,-1.20e-03,2.00e-02,
630,-8.00e-04,2.00e-02,
631,1.60e-03,8.00e-02,
632,-2.80e-03,2.00e-02,
633,9.20e-03,2.10e+00,
634,6.80e-03,1.60e-01,
635,0.00e+00,8.00e-02,
636,-4.00e-04,1.00e-01,
637,2.40e-03,6.00e-02,
638,1.20e-03,1.00e-01,
639,-8.00e-04,6.00e-02,
640,2.00e-03,6.00e-02,
641,-8.00e-04,8.00e-02,
642,2.40e-03,6.00e-02,
643,-8.00e-04,8.00e-02,
644,-1.60e-03,8.00e-02,
645,3.20e-03,4.00e-02,
646,-9.60e-03,8.00e-02,
647,1.00e-02,2.00e-02,
648,-1.16e-02,2.00e-02,
649,1.32e-02,8.00e-02,
650,6.00e-03,8.00e-02,
651,-4.40e-03,2.00e-02,
652,2.00e-03,8.00e-02,
653,0.00e+00,2.00e-02,
654,2.00e-03,2.00e-02,
655,-4.00e-04,8.00e-02,
656,1.20e-03,2.00e-02,
657,-8.00e-04,8.00e-02,
658,-8.00e-04,6.00e-02,
659,2.00e-03,2.00e-02,
660,2.00e-03,2.00e-02,
661,-1.20e-03,8.00e-02,
662,-2.40e-03,2.00e-02,
663,8.00e-03,2.16e+00,
664,6.80e-03,1.60e-01,
665,0.00e+00,8.00e-02,
666,2.00e-03,1.00e-01,
667,0.00e+00,6.00e-02,
668,1.20e-03,1.00e-01,
669,0.00e+00,6.00e-02,
670,1.60e-03,6.00e-02,
671,-8.00e-04,8.00e-02,
672,2.40e-03,6.00e-02,
673,0.00e+00,8.00e-02,
674,-1.20e-03,8.00e-02,
675,3.20e-03,6.00e-02,
676,-8.80e-03,8.00e-02,
677,1.00e-02,2.00e-02,
678,-1.12e-02,8.00e-02,
679,1.24e-02,2.00e-02,
680,6.00e-03,8.00e-02,
681,-3.60e-03,2.00e-02,
682,2.40e-03,2.00e-02,
683,-8.00e-04,8.00e-02,
684,-4.00e-04,8.00e-02,
685,2.00e-03,2.00e-02,
686,2.00e-03,6.00e-02,
687,0.00e+00,2.00e-02,
688,1.20e-03,2.00e-02,
689,-8.00e-04,6.00e-02,
690,2.00e-03,4.00e-02,
691,-1.20e-03,2.00e-02,
692,-2.80e-03,2.00e-02,
693,8.80e-03,2.08e+00,
694,6.80e-03,1.60e-01,
695,0.00e+00,8.00e-02,
696,0.00e+00,1.00e-01,
697,2.00e-03,6.00e-02,
698,0.00e+00,6.00e-02,
699,2.00e-03,8.00e-02,
700,1.20e-03,6.00e-02,
701,0.00e+00,8.00e-02,
702,2.00e-03,6.00e-02,
703,-4.00e-04,8.00e-02,
704,-1.60e-03,6.00e-02,
705,3.60e-03,8.00e-02,
706,-8.40e-03,8.00e-02,
707,1.08e-02,2.00e-02,
708,-1.16e-02,4.00e-02,
709,1.16e-02,8.00e-02,
710,5.60e-03,8.00e-02,
711,-3.60e-03,2.00e-02,
712,-8.00e-04,8.00e-02,
713,1.60e-03,2.00e-02,
714,1.20e-03,2.00e-02,
715,-8.00e-04,8.00e-02,
716,-4.00e-04,2.00e-02,
717,2.00e-03,8.00e-02,
718,2.00e-03,2.00e-02,
719,-4.00e-04,8.00e-02,
720,-8.00e-04,2.00e-02,
721,2.40e-03,6.00e-02,
722,-2.40e-03,2.00e-02,
723,8.80e-03,2.20e+00,
724,6.80e-03,1.60e-01,
725,-4.00e-04,8.00e-02,
726,2.00e-03,1.00e-01,
727,-4.00e-04,6.00e-02,
728,-8.00e-04,6.00e-02,
729,1.60e-03,1.00e-01,
730,1.20e-03,8.00e-02,
731,0.00e+00,6.00e-02,
732,-8.00e-04,6.00e-02,
733,2.00e-03,8.00e-02,
734,-8.00e-04,8.00e-02,
735,4.40e-03,6.00e-02,
736,-7.20e-03,8.00e-02,
737,1.04e-02,4.00e-02,
738,-1.12e-02,8.00e-02,
739,1.20e-02,4.00e-02,
740,5.60e-03,8.00e-02,
741,-3.20e-03,2.00e-02,
742,2.00e-03,2.00e-02,
743,-8.00e-04,8.00e-02,
744,1.20e-03,2.00e-02,
745,-8.00e-04,8.00e-02,
746,0.00e+00,6.00e-02,
747,1.20e-03,2.00e-02,
748,1.20e-03,2.00e-02,
749,-1.20e-03,4.00e-02,
750,1.60e-03,4.00e-02,
751,-1.20e-03,2.00e-02,
752,-2.80e-03,2.00e-02,
753,8.40e-03,2.02e+00,
754,6.80e-03,1.60e-01,
755,-4.00e-04,8.00e-02,
756,0.00e+00,1.00e-01,
757,2.00e-03,6.00e-02,
758,0.00e+00,6.00e-02,
759,1.20e-03,8.00e-02,
760,1.20e-03,6.00e-02,
761,-8.00e-04,8.00e-02,
762,0.00e+00,8.00e-02,
763,2.00e-03,6.00e-02,
764,-1.20e-03,6.00e-02,
765,3.20e-03,8.00e-02,
766,-6.80e-03,8.00e-02,
767,1.08e-02,2.00e-02,
768,-1.00e-02,8.00e-02,
769,1.08e-02,2.00e-02,
770,5.20e-03,8.00e-02,
771,-3.20e-03,2.00e-02,
772,2.40e-03,8.00e-02,
773,-4.00e-04,2.00e-02,
774,-4.00e-04,6.00e-02,
775,2.00e-03,2.00e-02,
776,1.20e-03,4.00e-02,
777,0.00e+00,2.00e-02,
778,-8.00e-04,4.00e-02,
779,1.60e-03,2.00e-02,
780,2.00e-03,2.00e-02,
781,-1.20e-03,4.00e-02,
782,-2.80e-03,2.00e-02,
783,8.40e-03,2.18e+00,
784,6.80e-03,1.60e-01,
785,-8.00e-04,8.00e-02,
786,1.60e-03,1.00e-01,
787,-4.00e-04,6.00e-02,
788,1.20e-03,6.00e-02,
789,0.00e+00,8.00e-02,
790,1.20e-03,6.00e-02,
791,-4.00e-04,8.00e-02,
792,0.00e+00,6.00e-02,
793,1.20e-03,8.00e-02,
794,-1.20e-03,6.00e-02,
795,3.60e-03,8.00e-02,
796,-7.20e-03,8.00e-02,
797,9.20e-03,4.00e-02,
798,-9.60e-03,8.00e-02,
799,1.00e-02,4.00e-02,
800,5.20e-03,8.00e-02,
801,-3.60e-03,2.00e-02,
802,-8.00e-04,8.00e-02,
803,2.00e-03,2.00e-02,
804,1.20e-03,2.00e-02,
805,-8.00e-04,8.00e-02,
806,0.00e+00,2.00e-02,
807,1.60e-03,8.00e-02,
808,2.40e-03,2.00e-02,
809,-8.00e-04,6.00e-02,
810,2.40e-03,4.00e-02,
811,-1.20e-03,2.00e-02,
812,-2.80e-03,2.00e-02,
813,8.80e-03,1.92e+00,
814,6.80e-03,1.60e-01,
815,-8.00e-04,8.00e-02,
816,2.40e-03,1.00e-01,
817,-8.00e-04,6.00e-02,
818,0.00e+00,1.00e-01,
819,1.60e-03,6.00e-02,
820,1.20e-03,6.00e-02,
821,-4.00e-04,8.00e-02,
822,2.00e-03,6.00e-02,
823,0.00e+00,8.00e-02,
824,-8.00e-04,8.00e-02,
825,3.60e-03,2.00e-02,
826,-7.20e-03,8.00e-02,
827,9.60e-03,4.00e-02,
828,9.60e-03,8.00e-02,
829,-1.04e-02,4.00e-02,
830,5.20e-03,8.00e-02,
831,-2.40e-03,2.00e-02,
832,2.40e-03,8.00e-02,
833,-8.00e-04,2.00e-02,
834,-4.00e-04,2.00e-02,
835,2.00e-03,8.00e-02,
836,2.00e-03,4.00e-02,
837,0.00e+00,2.00e-02,
838,-4.00e-04,4.00e-02,
839,2.40e-03,2.00e-02,
840,2.00e-03,4.00e-02,
841,-1.20e-03,2.00e-02,
842,-3.20e-03,2.00e-02,
843,9.20e-03,2.14e+00,
844,6.80e-03,1.60e-01,
845,-8.00e-04,8.00e-02,
846,1.60e-03,1.00e-01,
847,-8.00e-04,6.00e-02,
848,-4.00e-04,6.00e-02,
849,1.20e-03,8.00e-02,
850,1.60e-03,6.00e-02,
851,-4.00e-04,8.00e-02,
852,1.20e-03,6.00e-02,
853,0.00e+00,8.00e-02,
854,-1.20e-03,8.00e-02,
