CarrPurc_P1-19_P2-38_tauVary/Gly100/NewFile9.csv

X,CH1,CH2,Start,Increment,
Sequence,Volt,Volt,-6.000000e-04,1.000000e-04
0,0.00e+00,4.00e-02,
1,1.20e-03,2.00e-02,
2,1.20e-03,4.00e-02,
3,0.00e+00,2.00e-02,
4,1.20e-03,4.00e-02,
5,-4.00e-04,0.00e+00,
6,0.00e+00,4.00e-02,
7,1.20e-03,0.00e+00,
8,1.20e-03,4.00e-02,
9,0.00e+00,0.00e+00,
10,0.00e+00,2.00e-02,
11,5.20e-03,1.68e+00,
12,4.00e-03,1.60e-01,
13,-2.96e-02,8.00e-02,
14,-1.60e-02,1.20e-01,
15,1.80e-02,8.00e-02,
16,8.40e-03,1.00e-01,
17,-7.60e-03,6.00e-02,
18,-2.00e-03,6.00e-02,
19,4.00e-03,1.00e-01,
20,3.20e-03,6.00e-02,
21,-2.40e-03,1.00e-01,
22,-1.20e-03,6.00e-02,
23,3.60e-03,8.00e-02,
24,-1.20e-03,8.00e-02,
25,2.40e-03,6.00e-02,
26,2.40e-03,6.00e-02,
27,-8.00e-04,8.00e-02,
28,-8.00e-04,6.00e-02,
29,2.00e-03,8.00e-02,
30,8.00e-04,6.00e-02,
31,6.80e-03,1.88e+00,
32,4.80e-03,1.60e-01,
33,-8.40e-03,1.20e-01,
34,-8.40e-03,1.20e-01,
35,5.60e-03,8.00e-02,
36,3.60e-03,1.00e-01,
37,-1.20e-03,6.00e-02,
38,-4.00e-04,1.00e-01,
39,2.40e-03,6.00e-02,
40,2.40e-03,6.00e-02,
41,-1.20e-03,1.00e-01,
42,1.60e-03,6.00e-02,
43,-4.00e-04,8.00e-02,
44,-3.60e-03,6.00e-02,
45,4.40e-03,8.00e-02,
46,8.00e-03,6.00e-02,
47,-9.60e-03,8.00e-02,
48,-1.40e-02,8.00e-02,
49,1.68e-02,6.00e-02,
50,-1.84e-02,6.00e-02,
51,2.24e-02,8.00e-02,
52,-1.76e-02,6.00e-02,
53,1.68e-02,8.00e-02,
54,1.08e-02,8.00e-02,
55,-8.00e-03,2.00e-02,
56,-4.40e-03,8.00e-02,
57,4.40e-03,2.00e-02,
58,2.80e-03,4.00e-02,
59,-8.00e-04,8.00e-02,
60,-4.00e-04,2.00e-02,
61,2.00e-03,8.00e-02,
62,-8.00e-04,8.00e-02,
63,2.00e-03,2.00e-02,
64,2.00e-03,8.00e-02,
65,-1.20e-03,2.00e-02,
66,-1.20e-03,2.00e-02,
67,1.60e-03,8.00e-02,
68,2.00e-03,8.00e-02,
69,0.00e+00,2.00e-02,
70,0.00e+00,2.00e-02,
71,7.20e-03,2.00e+00,
72,4.80e-03,1.60e-01,
73,-8.00e-04,1.00e-01,
74,3.60e-03,1.40e-01,
75,-8.00e-04,8.00e-02,
76,2.40e-03,1.00e-01,
77,-1.20e-03,8.00e-02,
78,-8.00e-04,1.00e-01,
79,2.40e-03,6.00e-02,
80,-4.00e-04,1.00e-01,
81,2.40e-03,6.00e-02,
82,2.40e-03,8.00e-02,
83,-1.20e-03,6.00e-02,
84,-2.80e-03,8.00e-02,
85,4.40e-03,6.00e-02,
86,6.80e-03,6.00e-02,
87,-4.40e-03,8.00e-02,
88,1.00e-02,8.00e-02,
89,-1.00e-02,6.00e-02,
90,-1.44e-02,6.00e-02,
91,1.44e-02,8.00e-02,
92,-1.28e-02,6.00e-02,
93,9.60e-03,8.00e-02,
94,6.80e-03,8.00e-02,
95,-4.00e-03,4.00e-02,
96,-2.40e-03,6.00e-02,
97,3.20e-03,8.00e-02,
98,2.40e-03,8.00e-02,
99,-8.00e-04,2.00e-02,
100,-8.00e-04,8.00e-02,
101,2.00e-03,2.00e-02,
102,1.20e-03,8.00e-02,
103,-8.00e-04,2.00e-02,
104,0.00e+00,8.00e-02,
105,2.00e-03,2.00e-02,
106,2.40e-03,2.00e-02,
107,-1.20e-03,8.00e-02,
108,-2.80e-03,8.00e-02,
109,4.00e-03,2.00e-02,
110,2.00e-03,2.00e-02,
111,7.20e-03,1.72e+00,
112,4.80e-03,1.60e-01,
113,0.00e+00,1.20e-01,
114,2.80e-03,1.40e-01,
115,-4.00e-04,8.00e-02,
116,2.00e-03,1.00e-01,
117,-8.00e-04,8.00e-02,
118,2.40e-03,1.00e-01,
119,-4.00e-04,6.00e-02,
120,-4.00e-04,6.00e-02,
121,2.00e-03,1.00e-01,
122,-8.00e-04,6.00e-02,
123,2.00e-03,8.00e-02,
124,2.80e-03,6.00e-02,
125,-2.40e-03,8.00e-02,
126,-3.60e-03,8.00e-02,
127,5.60e-03,6.00e-02,
128,8.80e-03,6.00e-02,
129,-8.80e-03,8.00e-02,
130,1.32e-02,6.00e-02,
131,-1.12e-02,8.00e-02,
132,-8.80e-03,6.00e-02,
133,9.20e-03,8.00e-02,
134,6.40e-03,6.00e-02,
135,-3.60e-03,8.00e-02,
136,-2.80e-03,8.00e-02,
137,2.40e-03,2.00e-02,
138,2.00e-03,8.00e-02,
139,-8.00e-04,2.00e-02,
140,-8.00e-04,2.00e-02,
141,2.00e-03,8.00e-02,
142,2.00e-03,8.00e-02,
143,-8.00e-04,2.00e-02,
144,-8.00e-04,8.00e-02,
145,1.20e-03,2.00e-02,
146,2.00e-03,2.00e-02,
147,-8.00e-04,8.00e-02,
148,-2.40e-03,2.00e-02,
149,4.00e-03,8.00e-02,
150,3.20e-03,2.00e-02,
151,7.60e-03,1.90e+00,
152,5.20e-03,1.60e-01,
153,-8.00e-04,1.20e-01,
154,3.20e-03,8.00e-02,
155,-8.00e-04,1.40e-01,
156,2.40e-03,1.00e-01,
157,-1.20e-03,6.00e-02,
158,-1.20e-03,6.00e-02,
159,2.40e-03,1.00e-01,
160,2.40e-03,6.00e-02,
161,-1.20e-03,8.00e-02,
162,-8.00e-04,6.00e-02,
163,2.00e-03,8.00e-02,
164,-1.20e-03,6.00e-02,
165,1.60e-03,8.00e-02,
166,-2.40e-03,6.00e-02,
167,3.60e-03,8.00e-02,
168,5.20e-03,6.00e-02,
169,-4.40e-03,8.00e-02,
170,-8.40e-03,8.00e-02,
171,8.80e-03,6.00e-02,
172,-6.80e-03,6.00e-02,
173,7.20e-03,8.00e-02,
174,4.00e-03,8.00e-02,
175,-2.80e-03,2.00e-02,
176,-1.20e-03,8.00e-02,
177,2.00e-03,2.00e-02,
178,2.40e-03,8.00e-02,
179,-8.00e-04,2.00e-02,
180,0.00e+00,8.00e-02,
181,1.20e-03,2.00e-02,
182,1.20e-03,8.00e-02,
183,-4.00e-04,2.00e-02,
184,0.00e+00,2.00e-02,
185,1.20e-03,8.00e-02,
186,2.00e-03,2.00e-02,
187,-4.00e-04,8.00e-02,
188,-1.60e-03,8.00e-02,
189,3.20e-03,2.00e-02,
190,3.20e-03,2.00e-02,
191,7.20e-03,1.94e+00,
192,4.80e-03,1.60e-01,
193,-8.00e-04,1.20e-01,
194,3.60e-03,1.20e-01,
195,-8.00e-04,8.00e-02,
196,-1.20e-03,1.00e-01,
197,2.40e-03,6.00e-02,
198,2.40e-03,1.00e-01,
199,-1.20e-03,6.00e-02,
200,-8.00e-04,6.00e-02,
201,1.20e-03,1.00e-01,
202,2.00e-03,6.00e-02,
203,-4.00e-04,8.00e-02,
204,1.20e-03,6.00e-02,
205,-2.00e-03,8.00e-02,
206,-1.60e-03,6.00e-02,
207,3.60e-03,8.00e-02,
208,-3.60e-03,8.00e-02,
209,5.20e-03,6.00e-02,
210,6.80e-03,6.00e-02,
211,-6.40e-03,8.00e-02,
212,-5.20e-03,8.00e-02,
213,4.80e-03,2.00e-02,
214,2.80e-03,8.00e-02,
215,-2.80e-03,2.00e-02,
216,-1.60e-03,8.00e-02,
217,1.20e-03,4.00e-02,
218,1.20e-03,8.00e-02,
219,-4.00e-04,2.00e-02,
220,1.60e-03,8.00e-02,
221,-4.00e-04,2.00e-02,
222,2.00e-03,8.00e-02,
223,-8.00e-04,2.00e-02,
224,-4.00e-04,8.00e-02,
225,1.20e-03,2.00e-02,
226,-8.00e-04,8.00e-02,
227,2.00e-03,2.00e-02,
228,-2.00e-03,8.00e-02,
229,2.80e-03,2.00e-02,
230,2.80e-03,1.98e+00,
231,7.60e-03,-2.00e-02,
232,4.80e-03,1.60e-01,
233,-1.20e-03,8.00e-02,
234,4.40e-03,1.40e-01,
235,-1.20e-03,8.00e-02,
236,2.00e-03,1.00e-01,
237,-1.20e-03,6.00e-02,
238,2.00e-03,1.00e-01,
239,-1.20e-03,6.00e-02,
240,-8.00e-04,6.00e-02,
241,2.00e-03,1.00e-01,
242,1.20e-03,6.00e-02,
243,-8.00e-04,8.00e-02,
244,2.40e-03,6.00e-02,
245,-8.00e-04,8.00e-02,
246,-1.60e-03,6.00e-02,
247,2.80e-03,8.00e-02,
248,4.80e-03,8.00e-02,
249,-4.40e-03,6.00e-02,
250,6.00e-03,8.00e-02,
251,-5.20e-03,6.00e-02,
252,-4.40e-03,8.00e-02,
253,4.00e-03,4.00e-02,
254,2.80e-03,8.00e-02,
255,-1.60e-03,4.00e-02,
256,-1.20e-03,8.00e-02,
257,2.00e-03,4.00e-02,
258,-8.00e-04,2.00e-02,
259,1.60e-03,8.00e-02,
260,0.00e+00,8.00e-02,
261,1.60e-03,2.00e-02,
262,1.60e-03,8.00e-02,
263,-8.00e-04,2.00e-02,
264,2.00e-03,2.00e-02,
265,-8.00e-04,8.00e-02,
266,2.00e-03,2.00e-02,
267,-1.20e-03,8.00e-02,
268,-1.60e-03,2.00e-02,
269,3.60e-03,8.00e-02,
270,3.20e-03,2.00e-02,
271,7.20e-03,1.82e+00,
272,4.80e-03,1.60e-01,
273,-1.60e-03,8.00e-02,
274,4.80e-03,1.20e-01,
275,-1.60e-03,8.00e-02,
276,-1.20e-03,1.00e-01,
277,2.40e-03,6.00e-02,
278,2.40e-03,6.00e-02,
279,-1.20e-03,1.00e-01,
280,-8.00e-04,1.00e-01,
281,2.40e-03,6.00e-02,
282,1.60e-03,6.00e-02,
283,0.00e+00,8.00e-02,
284,2.40e-03,6.00e-02,
285,-8.00e-04,8.00e-02,
286,2.40e-03,6.00e-02,
287,-1.20e-03,8.00e-02,
288,3.60e-03,6.00e-02,
289,-3.60e-03,8.00e-02,
290,-4.40e-03,6.00e-02,
291,5.20e-03,8.00e-02,
292,-3.60e-03,8.00e-02,
293,4.00e-03,4.00e-02,
294,2.80e-03,8.00e-02,
295,-1.20e-03,2.00e-02,
296,-1.20e-03,8.00e-02,
297,1.20e-03,2.00e-02,
298,1.20e-03,8.00e-02,
299,-8.00e-04,2.00e-02,
300,1.20e-03,8.00e-02,
301,-4.00e-04,2.00e-02,
302,2.00e-03,2.00e-02,
303,0.00e+00,8.00e-02,
304,2.00e-03,2.00e-02,
305,-8.00e-04,8.00e-02,
306,-1.20e-03,2.00e-02,
307,2.00e-03,8.00e-02,
308,2.80e-03,2.00e-02,
309,-3.60e-03,8.00e-02,
310,2.80e-03,1.90e+00,
311,7.60e-03,-2.00e-02,
312,5.20e-03,1.60e-01,
313,-1.20e-03,1.20e-01,
314,5.20e-03,1.20e-01,
315,-1.20e-03,8.00e-02,
316,-1.20e-03,1.00e-01,
317,2.80e-03,6.00e-02,
318,2.40e-03,1.00e-01,
319,-8.00e-04,6.00e-02,
320,-8.00e-04,6.00e-02,
321,2.00e-03,1.00e-01,
322,2.00e-03,6.00e-02,
323,-8.00e-04,8.00e-02,
324,-8.00e-04,8.00e-02,
325,1.60e-03,6.00e-02,
326,2.40e-03,6.00e-02,
327,-1.60e-03,8.00e-02,
328,2.80e-03,6.00e-02,
329,-2.80e-03,8.00e-02,
330,4.00e-03,6.00e-02,
331,-4.00e-03,8.00e-02,
332,-2.80e-03,8.00e-02,
333,3.20e-03,6.00e-02,
334,2.40e-03,8.00e-02,
335,-8.00e-04,4.00e-02,
336,1.20e-03,8.00e-02,
337,-8.00e-04,4.00e-02,
338,1.20e-03,8.00e-02,
339,0.00e+00,2.00e-02,
340,1.60e-03,8.00e-02,
341,-4.00e-04,2.00e-02,
342,1.20e-03,8.00e-02,
343,-8.00e-04,2.00e-02,
344,-8.00e-04,2.00e-02,
345,1.20e-03,8.00e-02,
346,-1.20e-03,8.00e-02,
347,2.40e-03,2.00e-02,
348,2.40e-03,8.00e-02,
349,-3.20e-03,2.00e-02,
350,2.00e-03,2.00e-02,
351,7.20e-03,1.86e+00,
352,4.80e-03,1.60e-01,
353,-1.20e-03,1.20e-01,
354,4.80e-03,1.40e-01,
355,-1.60e-03,8.00e-02,
356,-1.20e-03,8.00e-02,
357,2.40e-03,1.00e-01,
358,2.40e-03,1.00e-01,
359,-8.00e-04,6.00e-02,
360,-8.00e-04,6.00e-02,
361,2.00e-03,1.00e-01,
362,0.00e+00,6.00e-02,
363,2.00e-03,8.00e-02,
364,-8.00e-04,8.00e-02,
365,1.20e-03,6.00e-02,
366,2.40e-03,6.00e-02,
367,-8.00e-04,8.00e-02,
368,2.80e-03,6.00e-02,
369,-1.60e-03,8.00e-02,
370,3.60e-03,6.00e-02,
371,-2.80e-03,8.00e-02,
372,-2.00e-03,6.00e-02,
373,2.80e-03,8.00e-02,
374,2.40e-03,8.00e-02,
375,0.00e+00,2.00e-02,
376,1.20e-03,8.00e-02,
377,-4.00e-04,2.00e-02,
378,1.20e-03,8.00e-02,
379,-8.00e-04,2.00e-02,
380,1.20e-03,8.00e-02,
381,-4.00e-04,2.00e-02,
382,0.00e+00,8.00e-02,
383,2.40e-03,2.00e-02,
384,2.00e-03,8.00e-02,
385,-1.20e-03,2.00e-02,
386,-1.20e-03,8.00e-02,
387,2.80e-03,2.00e-02,
388,2.80e-03,2.00e-02,
389,-3.20e-03,8.00e-02,
390,2.00e-03,2.00e-02,
391,7.20e-03,1.92e+00,
392,4.80e-03,1.60e-01,
393,-1.60e-03,1.20e-01,
394,5.20e-03,1.20e-01,
395,-1.60e-03,8.00e-02,
396,-1.20e-03,1.00e-01,
397,2.80e-03,8.00e-02,
398,3.20e-03,1.00e-01,
399,-8.00e-04,6.00e-02,
400,-8.00e-04,6.00e-02,
401,1.60e-03,1.00e-01,
402,2.40e-03,8.00e-02,
403,-8.00e-04,6.00e-02,
404,1.20e-03,6.00e-02,
405,-1.20e-03,8.00e-02,
406,2.00e-03,6.00e-02,
407,-1.20e-03,8.00e-02,
408,2.00e-03,6.00e-02,
409,-1.20e-03,8.00e-02,
410,3.60e-03,6.00e-02,
411,-2.80e-03,8.00e-02,
412,-1.60e-03,8.00e-02,
413,2.40e-03,2.00e-02,
414,2.00e-03,8.00e-02,
415,-8.00e-04,4.00e-02,
416,1.20e-03,8.00e-02,
417,-4.00e-04,4.00e-02,
418,1.20e-03,8.00e-02,
419,0.00e+00,2.00e-02,
420,1.60e-03,2.00e-02,
421,-8.00e-04,8.00e-02,
422,0.00e+00,2.00e-02,
423,2.00e-03,8.00e-02,
424,1.20e-03,8.00e-02,
425,-1.20e-03,2.00e-02,
426,-1.20e-03,8.00e-02,
427,2.40e-03,2.00e-02,
428,3.20e-03,8.00e-02,
429,-3.20e-03,2.00e-02,
430,2.80e-03,0.00e+00,
431,7.20e-03,1.96e+00,
432,4.80e-03,1.80e-01,
433,-1.20e-03,1.20e-01,
434,5.20e-03,1.20e-01,
435,-1.60e-03,8.00e-02,
436,-1.20e-03,1.00e-01,
437,2.40e-03,6.00e-02,
438,2.40e-03,1.00e-01,
439,-8.00e-04,6.00e-02,
440,-8.00e-04,1.00e-01,
441,2.00e-03,6.00e-02,
442,2.00e-03,6.00e-02,
443,0.00e+00,8.00e-02,
444,0.00e+00,8.00e-02,
445,2.00e-03,6.00e-02,
446,1.60e-03,6.00e-02,
447,-4.00e-04,8.00e-02,
448,2.00e-03,6.00e-02,
449,-1.20e-03,8.00e-02,
450,2.40e-03,6.00e-02,
451,-1.20e-03,8.00e-02,
452,-1.20e-03,8.00e-02,
453,2.40e-03,6.00e-02,
454,2.00e-03,8.00e-02,
455,-4.00e-04,4.00e-02,
456,0.00e+00,8.00e-02,
457,1.20e-03,4.00e-02,
458,1.20e-03,8.00e-02,
459,-8.00e-04,4.00e-02,
460,0.00e+00,8.00e-02,
461,1.20e-03,2.00e-02,
462,2.00e-03,8.00e-02,
463,-8.00e-04,2.00e-02,
464,1.20e-03,2.00e-02,
465,-1.20e-03,8.00e-02,
466,-1.20e-03,2.00e-02,
467,2.80e-03,8.00e-02,
468,3.60e-03,8.00e-02,
469,-4.00e-03,2.00e-02,
470,1.60e-03,2.00e-02,
471,7.60e-03,1.76e+00,
472,4.80e-03,1.60e-01,
473,-1.20e-03,1.00e-01,
474,5.20e-03,1.20e-01,
475,-2.00e-03,8.00e-02,
476,-1.60e-03,1.00e-01,
477,3.20e-03,8.00e-02,
478,2.40e-03,1.00e-01,
479,-1.20e-03,6.00e-02,
480,0.00e+00,6.00e-02,
481,2.00e-03,1.00e-01,
482,2.40e-03,6.00e-02,
483,0.00e+00,8.00e-02,
484,-8.00e-04,8.00e-02,
485,1.20e-03,6.00e-02,
486,1.20e-03,6.00e-02,
487,-8.00e-04,8.00e-02,
488,2.00e-03,8.00e-02,
489,-1.20e-03,6.00e-02,
490,2.40e-03,6.00e-02,
491,-1.20e-03,8.00e-02,
492,-1.60e-03,6.00e-02,
493,1.20e-03,8.00e-02,
494,1.20e-03,8.00e-02,
495,-8.00e-04,2.00e-02,
496,0.00e+00,8.00e-02,
497,1.20e-03,2.00e-02,
498,4.00e-04,8.00e-02,
499,1.20e-03,2.00e-02,
500,1.20e-03,8.00e-02,
501,0.00e+00,2.00e-02,
502,-8.00e-04,8.00e-02,
503,2.00e-03,2.00e-02,
504,2.00e-03,2.00e-02,
505,-8.00e-04,8.00e-02,
506,2.40e-03,8.00e-02,
507,-1.60e-03,2.00e-02,
508,4.00e-03,2.00e-02,
509,-2.80e-03,8.00e-02,
510,1.60e-03,2.00e-02,
511,7.20e-03,1.82e+00,
512,4.80e-03,1.60e-01,
513,-1.60e-03,1.20e-01,
514,5.20e-03,1.40e-01,
515,-2.40e-03,8.00e-02,
516,-1.60e-03,1.00e-01,
517,2.80e-03,8.00e-02,
518,2.40e-03,1.00e-01,
519,-1.20e-03,6.00e-02,
520,-8.00e-04,6.00e-02,
521,1.60e-03,1.00e-01,
522,1.20e-03,6.00e-02,
523,-8.00e-04,8.00e-02,
524,-8.00e-04,6.00e-02,
525,1.20e-03,8.00e-02,
526,0.00e+00,6.00e-02,
527,2.00e-03,8.00e-02,
528,2.00e-03,6.00e-02,
529,-8.00e-04,8.00e-02,
530,2.00e-03,6.00e-02,
531,-1.20e-03,8.00e-02,
532,-1.20e-03,8.00e-02,
533,2.00e-03,6.00e-02,
534,1.20e-03,8.00e-02,
535,-8.00e-04,4.00e-02,
536,0.00e+00,8.00e-02,
537,1.20e-03,2.00e-02,
538,1.20e-03,8.00e-02,
539,0.00e+00,2.00e-02,
540,2.00e-03,2.00e-02,
541,-8.00e-04,8.00e-02,
542,0.00e+00,8.00e-02,
543,2.00e-03,2.00e-02,
544,1.60e-03,8.00e-02,
545,-1.20e-03,2.00e-02,
546,-1.20e-03,8.00e-02,
547,2.80e-03,2.00e-02,
548,4.00e-03,2.00e-02,
549,-3.20e-03,8.00e-02,
550,1.60e-03,1.94e+00,
551,7.60e-03,0.00e+00,
552,4.80e-03,1.60e-01,
553,-2.40e-03,1.20e-01,
554,5.20e-03,8.00e-02,
555,-1.60e-03,1.40e-01,
556,-1.60e-03,8.00e-02,
557,2.80e-03,1.00e-01,
558,-1.60e-03,1.00e-01,
559,2.40e-03,6.00e-02,
560,-8.00e-04,1.00e-01,
561,2.00e-03,6.00e-02,
562,1.20e-03,6.00e-02,
563,-8.00e-04,8.00e-02,
564,0.00e+00,6.00e-02,
565,2.00e-03,8.00e-02,
566,0.00e+00,6.00e-02,
567,2.00e-03,8.00e-02,
568,-1.20e-03,6.00e-02,
569,1.20e-03,8.00e-02,
570,2.00e-03,8.00e-02,
571,-8.00e-04,6.00e-02,
572,-1.20e-03,6.00e-02,
573,1.20e-03,8.00e-02,
574,-4.00e-04,8.00e-02,
575,1.60e-03,6.00e-02,
576,1.20e-03,8.00e-02,
577,-8.00e-04,4.00e-02,
578,0.00e+00,8.00e-02,
579,2.00e-03,2.00e-02,
580,-8.00e-04,8.00e-02,
581,1.20e-03,4.00e-02,
582,1.20e-03,8.00e-02,
583,-1.20e-03,2.00e-02,
584,1.20e-03,8.00e-02,
585,-1.20e-03,2.00e-02,
586,-1.60e-03,8.00e-02,
587,2.80e-03,2.00e-02,
588,4.00e-03,8.00e-02,
589,-3.60e-03,2.00e-02,
590,1.60e-03,2.00e-02,
591,7.20e-03,1.78e+00,
592,5.20e-03,1.60e-01,
593,-1.20e-03,1.20e-01,
594,5.20e-03,1.40e-01,
595,-2.80e-03,8.00e-02,
596,-1.60e-03,1.00e-01,
597,2.80e-03,8.00e-02,
598,2.40e-03,1.00e-01,
599,-1.20e-03,6.00e-02,
600,-1.20e-03,6.00e-02,
601,2.00e-03,1.00e-01,
602,2.00e-03,8.00e-02,
603,-4.00e-04,6.00e-02,
604,0.00e+00,6.00e-02,
605,2.00e-03,8.00e-02,
606,2.00e-03,6.00e-02,
607,0.00e+00,8.00e-02,
608,1.20e-03,6.00e-02,
609,-8.00e-04,8.00e-02,
610,2.00e-03,6.00e-02,
611,0.00e+00,8.00e-02,
612,-8.00e-04,8.00e-02,
613,1.20e-03,6.00e-02,
614,1.20e-03,6.00e-02,
615,0.00e+00,8.00e-02,
616,1.20e-03,6.00e-02,
617,-8.00e-04,8.00e-02,
618,1.20e-03,6.00e-02,
619,-4.00e-04,8.00e-02,
620,0.00e+00,8.00e-02,
621,1.20e-03,4.00e-02,
622,-8.00e-04,8.00e-02,
623,1.60e-03,2.00e-02,
624,-1.20e-03,8.00e-02,
625,2.00e-03,2.00e-02,
626,-1.60e-03,2.00e-02,
627,3.20e-03,8.00e-02,
628,3.60e-03,8.00e-02,
629,-4.00e-03,2.00e-02,
630,1.20e-03,2.00e-02,
631,7.20e-03,1.90e+00,
632,4.80e-03,1.60e-01,
633,-1.60e-03,1.20e-01,
634,5.60e-03,1.20e-01,
635,-2.40e-03,8.00e-02,
636,-2.00e-03,8.00e-02,
637,3.20e-03,1.00e-01,
638,2.80e-03,1.00e-01,
639,-8.00e-04,6.00e-02,
640,-1.20e-03,6.00e-02,
641,1.60e-03,1.00e-01,
642,2.00e-03,6.00e-02,
643,0.00e+00,8.00e-02,
644,1.20e-03,6.00e-02,
645,0.00e+00,8.00e-02,
646,1.20e-03,6.00e-02,
647,0.00e+00,8.00e-02,
648,8.00e-04,6.00e-02,
649,0.00e+00,8.00e-02,
650,2.00e-03,6.00e-02,
651,0.00e+00,8.00e-02,
652,-8.00e-04,6.00e-02,
653,2.00e-03,8.00e-02,
654,0.00e+00,8.00e-02,
655,1.20e-03,2.00e-02,
656,1.20e-03,8.00e-02,
657,0.00e+00,4.00e-02,
658,1.20e-03,8.00e-02,
659,-4.00e-04,2.00e-02,
660,-4.00e-04,8.00e-02,
661,1.20e-03,2.00e-02,
662,2.00e-03,8.00e-02,
663,0.00e+00,2.00e-02,
664,1.60e-03,2.00e-02,
665,-8.00e-04,8.00e-02,
666,-1.20e-03,8.00e-02,
667,3.60e-03,2.00e-02,
668,4.00e-03,8.00e-02,
669,-3.60e-03,2.00e-02,
670,8.00e-04,2.00e-02,
671,7.20e-03,1.92e+00,
672,4.80e-03,1.60e-01,
673,-1.20e-03,1.00e-01,
674,5.60e-03,1.40e-01,
675,-2.40e-03,8.00e-02,
676,-1.20e-03,1.00e-01,
677,2.40e-03,6.00e-02,
678,2.40e-03,1.00e-01,
679,-1.20e-03,6.00e-02,
680,-1.20e-03,1.00e-01,
681,1.60e-03,6.00e-02,
682,2.00e-03,8.00e-02,
683,4.00e-04,6.00e-02,
684,1.20e-03,6.00e-02,
685,0.00e+00,8.00e-02,
686,1.60e-03,6.00e-02,
687,0.00e+00,8.00e-02,
688,4.00e-04,6.00e-02,
689,2.00e-03,8.00e-02,
690,2.00e-03,6.00e-02,
691,0.00e+00,8.00e-02,
692,1.20e-03,6.00e-02,
693,0.00e+00,8.00e-02,
694,1.20e-03,8.00e-02,
695,4.00e-04,2.00e-02,
696,0.00e+00,8.00e-02,
697,1.20e-03,2.00e-02,
698,1.20e-03,8.00e-02,
699,0.00e+00,2.00e-02,
700,1.20e-03,8.00e-02,
701,-8.00e-04,4.00e-02,
702,-4.00e-04,8.00e-02,
703,2.00e-03,2.00e-02,
704,2.00e-03,8.00e-02,
705,-1.60e-03,2.00e-02,
706,-1.60e-03,2.00e-02,
707,3.60e-03,8.00e-02,
708,4.00e-03,2.00e-02,
709,-4.00e-03,8.00e-02,
710,8.00e-04,2.00e-02,
711,7.20e-03,1.88e+00,
712,4.80e-03,1.60e-01,
713,-2.00e-03,1.20e-01,
714,5.20e-03,1.20e-01,
715,-2.80e-03,8.00e-02,
716,-1.60e-03,1.00e-01,
717,2.40e-03,8.00e-02,
718,-1.20e-03,1.00e-01,
719,2.40e-03,6.00e-02,
720,-8.00e-04,6.00e-02,
721,2.00e-03,1.00e-01,
722,1.20e-03,8.00e-02,
723,-8.00e-04,6.00e-02,
724,1.20e-03,6.00e-02,
725,-4.00e-04,8.00e-02,
726,8.00e-04,6.00e-02,
727,-8.00e-04,8.00e-02,
728,1.20e-03,6.00e-02,
729,-8.00e-04,8.00e-02,
730,0.00e+00,8.00e-02,
731,2.00e-03,6.00e-02,
732,0.00e+00,6.00e-02,
733,1.60e-03,8.00e-02,
734,-8.00e-04,8.00e-02,
735,1.20e-03,4.00e-02,
736,1.60e-03,8.00e-02,
737,0.00e+00,2.00e-02,
738,1.20e-03,8.00e-02,
739,-4.00e-04,2.00e-02,
740,0.00e+00,8.00e-02,
741,2.00e-03,2.00e-02,
742,0.00e+00,2.00e-02,
743,2.00e-03,8.00e-02,
744,2.40e-03,8.00e-02,
745,-1.20e-03,2.00e-02,
746,-1.60e-03,8.00e-02,
747,2.40e-03,2.00e-02,
748,4.00e-03,8.00e-02,
749,-4.00e-03,2.00e-02,
750,1.20e-03,2.00e-02,
751,7.20e-03,1.88e+00,
752,5.20e-03,1.60e-01,
753,-1.20e-03,1.20e-01,
754,5.60e-03,1.40e-01,
755,-2.40e-03,8.00e-02,
756,-2.40e-03,1.00e-01,
757,3.20e-03,6.00e-02,
758,2.40e-03,6.00e-02,
759,-1.60e-03,1.00e-01,
760,-8.00e-04,1.00e-01,
761,1.20e-03,6.00e-02,
762,0.00e+00,8.00e-02,
763,2.00e-03,6.00e-02,
764,1.20e-03,6.00e-02,
765,0.00e+00,8.00e-02,
766,1.60e-03,6.00e-02,
767,0.00e+00,8.00e-02,
768,0.00e+00,6.00e-02,
769,1.60e-03,8.00e-02,
770,2.40e-03,8.00e-02,
771,4.00e-04,6.00e-02,
772,-4.00e-04,8.00e-02,
773,1.20e-03,6.00e-02,
774,1.20e-03,8.00e-02,
775,0.00e+00,4.00e-02,
776,8.00e-04,8.00e-02,
777,0.00e+00,2.00e-02,
778,-8.00e-04,8.00e-02,
779,1.20e-03,2.00e-02,
780,1.20e-03,8.00e-02,
781,-8.00e-04,2.00e-02,
782,1.20e-03,8.00e-02,
783,-8.00e-04,2.00e-02,
784,2.40e-03,8.00e-02,
785,-1.20e-03,2.00e-02,
786,-1.60e-03,8.00e-02,
787,2.80e-03,2.00e-02,
788,4.40e-03,2.00e-02,
789,-4.00e-03,8.00e-02,
790,1.20e-03,2.00e-02,
791,7.60e-03,1.94e+00,
792,4.80e-03,1.60e-01,
793,-1.60e-03,1.20e-01,
794,5.60e-03,1.40e-01,
795,-2.40e-03,8.00e-02,
796,-2.40e-03,1.00e-01,
797,2.40e-03,8.00e-02,
798,-1.60e-03,1.00e-01,
799,2.40e-03,6.00e-02,
800,-8.00e-04,1.00e-01,
801,2.40e-03,6.00e-02,
802,1.20e-03,6.00e-02,
803,-8.00e-04,8.00e-02,
804,-4.00e-04,6.00e-02,
805,1.20e-03,8.00e-02,
806,1.20e-03,8.00e-02,
807,-4.00e-04,6.00e-02,
808,0.00e+00,8.00e-02,
809,1.20e-03,6.00e-02,
810,1.20e-03,6.00e-02,
811,-4.00e-04,8.00e-02,
812,0.00e+00,6.00e-02,
813,1.20e-03,8.00e-02,
814,1.20e-03,8.00e-02,
815,0.00e+00,2.00e-02,
816,1.20e-03,8.00e-02,
817,-4.00e-04,4.00e-02,
818,1.20e-03,8.00e-02,
819,-8.00e-04,2.00e-02,
820,1.60e-03,8.00e-02,
821,-8.00e-04,2.00e-02,
822,-1.60e-03,8.00e-02,
823,1.60e-03,2.00e-02,
824,-8.00e-04,2.00e-02,
825,2.40e-03,8.00e-02,
826,-1.60e-03,2.00e-02,
827,3.60e-03,8.00e-02,
828,4.40e-03,2.00e-02,
829,-4.00e-03,8.00e-02,
830,0.00e+00,4.00e-02,
831,7.20e-03,1.94e+00,
832,4.80e-03,1.60e-01,
833,-1.60e-03,1.20e-01,
834,5.20e-03,1.40e-01,
835,-2.40e-03,8.00e-02,
836,-1.60e-03,8.00e-02,
837,2.80e-03,1.00e-01,
838,2.40e-03,6.00e-02,
839,-1.20e-03,1.00e-01,
840,-1.20e-03,6.00e-02,
841,2.40e-03,8.00e-02,
842,2.00e-03,8.00e-02,
843,0.00e+00,6.00e-02,
844,8.00e-04,6.00e-02,
845,-8.00e-04,8.00e-02,
846,0.00e+00,8.00e-02,
847,1.20e-03,6.00e-02,
848,0.00e+00,6.00e-02,
849,1.20e-03,8.00e-02,
850,1.60e-03,6.00e-02,
851,0.00e+00,8.00e-02,
852,0.00e+00,6.00e-02,
853,1.20e-03,8.00e-02,
854,4.00e-04,8.00e-02,
855,1.20e-03,4.00e-02,
