CarrPurc_P1-19_P2-38_tauVary/Gly100/NewFile4.csv

X,CH1,CH2,Start,Increment,
Sequence,Volt,Volt,-6.000000e-04,1.000000e-04
0,0.00e+00,4.00e-02,
1,1.20e-03,2.00e-02,
2,1.20e-03,4.00e-02,
3,4.00e-04,2.00e-02,
4,4.00e-04,4.00e-02,
5,1.60e-03,2.00e-02,
6,0.00e+00,2.00e-02,
7,1.20e-03,4.00e-02,
8,1.20e-03,4.00e-02,
9,0.00e+00,2.00e-02,
10,4.00e-04,2.00e-02,
11,5.20e-03,1.66e+00,
12,4.40e-03,1.60e-01,
13,-2.84e-02,8.00e-02,
14,-1.60e-02,1.20e-01,
15,1.68e-02,8.00e-02,
16,8.00e-03,1.00e-01,
17,-7.60e-03,6.00e-02,
18,-1.60e-03,6.00e-02,
19,4.80e-03,1.00e-01,
20,-2.40e-03,6.00e-02,
21,2.40e-03,1.00e-01,
22,-1.60e-03,6.00e-02,
23,2.80e-03,8.00e-02,
24,-1.20e-03,8.00e-02,
25,2.40e-03,6.00e-02,
26,2.00e-03,6.00e-02,
27,-8.00e-04,8.00e-02,
28,-8.00e-04,6.00e-02,
29,2.00e-03,8.00e-02,
30,8.00e-04,6.00e-02,
31,6.80e-03,1.90e+00,
32,4.80e-03,1.60e-01,
33,-7.20e-03,1.20e-01,
34,-7.20e-03,1.20e-01,
35,6.00e-03,8.00e-02,
36,3.60e-03,1.00e-01,
37,-1.20e-03,8.00e-02,
38,0.00e+00,1.00e-01,
39,2.80e-03,6.00e-02,
40,-8.00e-04,1.00e-01,
41,2.80e-03,6.00e-02,
42,2.40e-03,6.00e-02,
43,0.00e+00,8.00e-02,
44,-3.60e-03,6.00e-02,
45,5.20e-03,8.00e-02,
46,8.00e-03,6.00e-02,
47,-8.40e-03,8.00e-02,
48,-1.32e-02,8.00e-02,
49,1.60e-02,6.00e-02,
50,-1.76e-02,6.00e-02,
51,2.00e-02,8.00e-02,
52,-1.72e-02,6.00e-02,
53,1.56e-02,8.00e-02,
54,9.60e-03,6.00e-02,
55,-8.40e-03,8.00e-02,
56,-4.40e-03,6.00e-02,
57,4.40e-03,8.00e-02,
58,2.80e-03,8.00e-02,
59,-1.20e-03,2.00e-02,
60,0.00e+00,8.00e-02,
61,2.00e-03,2.00e-02,
62,-8.00e-04,8.00e-02,
63,2.40e-03,2.00e-02,
64,2.40e-03,8.00e-02,
65,0.00e+00,2.00e-02,
66,8.00e-04,8.00e-02,
67,-8.00e-04,2.00e-02,
68,1.20e-03,8.00e-02,
69,0.00e+00,2.00e-02,
70,0.00e+00,1.96e+00,
71,6.80e-03,0.00e+00,
72,4.40e-03,1.60e-01,
73,-1.20e-03,1.20e-01,
74,2.80e-03,1.40e-01,
75,-8.00e-04,8.00e-02,
76,-1.20e-03,1.00e-01,
77,1.20e-03,8.00e-02,
78,-1.20e-03,1.00e-01,
79,2.40e-03,6.00e-02,
80,-8.00e-04,6.00e-02,
81,2.00e-03,1.00e-01,
82,2.40e-03,8.00e-02,
83,-1.20e-03,6.00e-02,
84,-2.40e-03,8.00e-02,
85,4.40e-03,6.00e-02,
86,-4.40e-03,6.00e-02,
87,6.00e-03,8.00e-02,
88,8.80e-03,8.00e-02,
89,-1.08e-02,6.00e-02,
90,1.36e-02,6.00e-02,
91,-1.32e-02,8.00e-02,
92,-1.12e-02,6.00e-02,
93,1.00e-02,8.00e-02,
94,5.60e-03,6.00e-02,
95,-5.20e-03,8.00e-02,
96,-2.40e-03,6.00e-02,
97,2.40e-03,8.00e-02,
98,-8.00e-04,6.00e-02,
99,2.40e-03,8.00e-02,
100,-8.00e-04,8.00e-02,
101,2.00e-03,4.00e-02,
102,2.00e-03,8.00e-02,
103,0.00e+00,2.00e-02,
104,-4.00e-04,8.00e-02,
105,2.00e-03,2.00e-02,
106,-1.20e-03,8.00e-02,
107,2.80e-03,4.00e-02,
108,-2.80e-03,8.00e-02,
109,4.00e-03,4.00e-02,
110,2.80e-03,2.00e-02,
111,7.20e-03,1.74e+00,
112,4.80e-03,1.60e-01,
113,0.00e+00,1.20e-01,
114,3.60e-03,1.40e-01,
115,0.00e+00,8.00e-02,
116,2.00e-03,1.00e-01,
117,-8.00e-04,8.00e-02,
118,2.40e-03,1.00e-01,
119,-4.00e-04,6.00e-02,
120,-8.00e-04,6.00e-02,
121,1.20e-03,1.00e-01,
122,-8.00e-04,6.00e-02,
123,2.40e-03,8.00e-02,
124,2.40e-03,6.00e-02,
125,-2.40e-03,8.00e-02,
126,-4.00e-03,8.00e-02,
127,5.20e-03,6.00e-02,
128,8.00e-03,6.00e-02,
129,-9.60e-03,8.00e-02,
130,-1.12e-02,6.00e-02,
131,1.16e-02,8.00e-02,
132,-8.80e-03,6.00e-02,
133,8.00e-03,8.00e-02,
134,5.60e-03,6.00e-02,
135,-4.00e-03,8.00e-02,
136,-1.60e-03,6.00e-02,
137,3.20e-03,8.00e-02,
138,2.00e-03,8.00e-02,
139,-8.00e-04,4.00e-02,
140,2.00e-03,8.00e-02,
141,-8.00e-04,2.00e-02,
142,2.00e-03,8.00e-02,
143,-8.00e-04,2.00e-02,
144,2.00e-03,8.00e-02,
145,-8.00e-04,4.00e-02,
146,1.20e-03,8.00e-02,
147,-1.60e-03,2.00e-02,
148,-2.40e-03,2.00e-02,
149,4.00e-03,8.00e-02,
150,3.20e-03,2.00e-02,
151,7.60e-03,1.88e+00,
152,5.20e-03,1.60e-01,
153,-1.20e-03,1.20e-01,
154,4.00e-03,1.40e-01,
155,-1.20e-03,8.00e-02,
156,-8.00e-04,8.00e-02,
157,2.00e-03,1.00e-01,
158,2.40e-03,1.00e-01,
159,-8.00e-04,6.00e-02,
160,-8.00e-04,1.00e-01,
161,1.60e-03,6.00e-02,
162,2.40e-03,6.00e-02,
163,-8.00e-04,8.00e-02,
164,2.40e-03,6.00e-02,
165,-4.00e-04,8.00e-02,
166,-2.40e-03,6.00e-02,
167,4.00e-03,8.00e-02,
168,5.60e-03,6.00e-02,
169,-5.60e-03,8.00e-02,
170,-8.40e-03,8.00e-02,
171,9.60e-03,6.00e-02,
172,-6.80e-03,6.00e-02,
173,7.60e-03,8.00e-02,
174,5.20e-03,6.00e-02,
175,-2.80e-03,8.00e-02,
176,-1.20e-03,8.00e-02,
177,2.40e-03,6.00e-02,
178,2.00e-03,8.00e-02,
179,0.00e+00,6.00e-02,
180,0.00e+00,8.00e-02,
181,1.20e-03,6.00e-02,
182,1.20e-03,8.00e-02,
183,-8.00e-04,2.00e-02,
184,-8.00e-04,8.00e-02,
185,2.00e-03,2.00e-02,
186,2.00e-03,8.00e-02,
187,-4.00e-04,2.00e-02,
188,2.40e-03,8.00e-02,
189,-1.60e-03,2.00e-02,
190,2.00e-03,2.00e-02,
191,7.20e-03,1.94e+00,
192,4.80e-03,1.60e-01,
193,-1.20e-03,1.20e-01,
194,2.80e-03,8.00e-02,
195,-1.20e-03,1.40e-01,
196,1.20e-03,1.00e-01,
197,-1.20e-03,8.00e-02,
198,-4.00e-04,1.00e-01,
199,2.40e-03,6.00e-02,
200,-1.20e-03,1.00e-01,
201,1.20e-03,6.00e-02,
202,2.00e-03,6.00e-02,
203,-4.00e-04,8.00e-02,
204,-8.00e-04,6.00e-02,
205,2.40e-03,8.00e-02,
206,-2.40e-03,6.00e-02,
207,4.40e-03,8.00e-02,
208,4.80e-03,8.00e-02,
209,-4.40e-03,6.00e-02,
210,8.00e-03,6.00e-02,
211,-7.20e-03,8.00e-02,
212,-5.20e-03,6.00e-02,
213,6.40e-03,8.00e-02,
214,3.60e-03,6.00e-02,
215,-2.40e-03,8.00e-02,
216,2.00e-03,8.00e-02,
217,-1.20e-03,2.00e-02,
218,1.20e-03,8.00e-02,
219,-8.00e-04,4.00e-02,
220,2.00e-03,6.00e-02,
221,-8.00e-04,8.00e-02,
222,2.00e-03,8.00e-02,
223,-8.00e-04,2.00e-02,
224,-8.00e-04,8.00e-02,
225,2.00e-03,2.00e-02,
226,2.00e-03,8.00e-02,
227,-8.00e-04,2.00e-02,
228,-1.60e-03,2.00e-02,
229,2.80e-03,8.00e-02,
230,2.80e-03,1.80e+00,
231,7.20e-03,-4.00e-02,
232,4.80e-03,1.60e-01,
233,-1.20e-03,1.00e-01,
234,4.00e-03,1.40e-01,
235,-1.60e-03,8.00e-02,
236,2.00e-03,1.00e-01,
237,-1.60e-03,8.00e-02,
238,2.00e-03,1.00e-01,
239,-1.20e-03,6.00e-02,
240,0.00e+00,1.00e-01,
241,2.40e-03,6.00e-02,
242,2.00e-03,6.00e-02,
243,-8.00e-04,8.00e-02,
244,-1.20e-03,6.00e-02,
245,1.60e-03,8.00e-02,
246,-1.60e-03,6.00e-02,
247,2.80e-03,8.00e-02,
248,4.80e-03,8.00e-02,
249,-4.40e-03,6.00e-02,
250,-5.60e-03,8.00e-02,
251,6.80e-03,6.00e-02,
252,-4.00e-03,6.00e-02,
253,5.20e-03,8.00e-02,
254,4.00e-03,8.00e-02,
255,-1.60e-03,4.00e-02,
256,-8.00e-04,8.00e-02,
257,2.40e-03,4.00e-02,
258,2.00e-03,2.00e-02,
259,0.00e+00,8.00e-02,
260,-8.00e-04,8.00e-02,
261,1.20e-03,4.00e-02,
262,2.40e-03,8.00e-02,
263,-8.00e-04,2.00e-02,
264,-1.20e-03,8.00e-02,
265,1.20e-03,2.00e-02,
266,-1.20e-03,8.00e-02,
267,2.00e-03,2.00e-02,
268,2.40e-03,2.00e-02,
269,-1.60e-03,8.00e-02,
270,2.80e-03,2.00e-02,
271,7.20e-03,1.92e+00,
272,4.80e-03,1.60e-01,
273,-8.00e-04,1.20e-01,
274,4.00e-03,1.40e-01,
275,-1.60e-03,8.00e-02,
276,-1.20e-03,8.00e-02,
277,2.40e-03,1.00e-01,
278,2.00e-03,1.00e-01,
279,-1.20e-03,6.00e-02,
280,-8.00e-04,6.00e-02,
281,2.40e-03,1.00e-01,
282,2.00e-03,6.00e-02,
283,-8.00e-04,8.00e-02,
284,2.00e-03,6.00e-02,
285,-8.00e-04,8.00e-02,
286,-1.20e-03,6.00e-02,
287,2.40e-03,8.00e-02,
288,3.60e-03,6.00e-02,
289,-3.60e-03,8.00e-02,
290,4.80e-03,6.00e-02,
291,-4.00e-03,8.00e-02,
292,-3.60e-03,8.00e-02,
293,3.60e-03,2.00e-02,
294,3.20e-03,6.00e-02,
295,-1.20e-03,8.00e-02,
296,-8.00e-04,8.00e-02,
297,2.00e-03,2.00e-02,
298,1.20e-03,8.00e-02,
299,0.00e+00,4.00e-02,
300,8.00e-04,8.00e-02,
301,-8.00e-04,2.00e-02,
302,-8.00e-04,2.00e-02,
303,1.60e-03,8.00e-02,
304,2.00e-03,2.00e-02,
305,-8.00e-04,8.00e-02,
306,-8.00e-04,2.00e-02,
307,2.40e-03,8.00e-02,
308,2.80e-03,2.00e-02,
309,-2.40e-03,8.00e-02,
310,2.80e-03,1.96e+00,
311,7.60e-03,0.00e+00,
312,4.80e-03,1.60e-01,
313,-8.00e-04,1.20e-01,
314,4.00e-03,1.20e-01,
315,-1.20e-03,8.00e-02,
316,2.00e-03,1.00e-01,
317,-1.20e-03,8.00e-02,
318,2.00e-03,1.00e-01,
319,-1.60e-03,6.00e-02,
320,-8.00e-04,6.00e-02,
321,2.00e-03,1.00e-01,
322,2.00e-03,6.00e-02,
323,0.00e+00,8.00e-02,
324,-8.00e-04,8.00e-02,
325,2.40e-03,6.00e-02,
326,2.40e-03,6.00e-02,
327,-1.20e-03,8.00e-02,
328,2.80e-03,6.00e-02,
329,-2.80e-03,8.00e-02,
330,4.00e-03,6.00e-02,
331,-4.00e-03,8.00e-02,
332,-3.20e-03,8.00e-02,
333,2.80e-03,6.00e-02,
334,2.80e-03,6.00e-02,
335,-8.00e-04,8.00e-02,
336,1.20e-03,8.00e-02,
337,-4.00e-04,4.00e-02,
338,-8.00e-04,8.00e-02,
339,1.20e-03,2.00e-02,
340,1.20e-03,8.00e-02,
341,-1.20e-03,2.00e-02,
342,2.00e-03,8.00e-02,
343,-8.00e-04,2.00e-02,
344,-1.20e-03,8.00e-02,
345,2.00e-03,2.00e-02,
346,2.40e-03,8.00e-02,
347,-1.20e-03,2.00e-02,
348,3.60e-03,8.00e-02,
349,-2.80e-03,2.00e-02,
350,1.60e-03,2.00e-02,
351,7.20e-03,1.94e+00,
352,4.00e-03,1.60e-01,
353,-1.60e-03,1.20e-01,
354,4.80e-03,1.40e-01,
355,-1.20e-03,8.00e-02,
356,-1.20e-03,8.00e-02,
357,2.40e-03,1.00e-01,
358,2.40e-03,1.00e-01,
359,-1.20e-03,6.00e-02,
360,-4.00e-04,6.00e-02,
361,2.00e-03,8.00e-02,
362,1.20e-03,6.00e-02,
363,-8.00e-04,8.00e-02,
364,2.00e-03,8.00e-02,
365,-8.00e-04,6.00e-02,
366,2.00e-03,6.00e-02,
367,-1.20e-03,8.00e-02,
368,3.60e-03,6.00e-02,
369,-2.40e-03,8.00e-02,
370,-2.40e-03,6.00e-02,
371,4.00e-03,8.00e-02,
372,-1.60e-03,6.00e-02,
373,2.80e-03,8.00e-02,
374,-8.00e-04,6.00e-02,
375,2.40e-03,8.00e-02,
376,0.00e+00,8.00e-02,
377,2.40e-03,2.00e-02,
378,1.20e-03,8.00e-02,
379,0.00e+00,4.00e-02,
380,-1.20e-03,4.00e-02,
381,1.20e-03,8.00e-02,
382,-8.00e-04,8.00e-02,
383,2.00e-03,2.00e-02,
384,-1.20e-03,8.00e-02,
385,1.20e-03,2.00e-02,
386,2.00e-03,8.00e-02,
387,-1.60e-03,2.00e-02,
388,3.60e-03,2.00e-02,
389,-3.20e-03,8.00e-02,
390,2.00e-03,2.00e-02,
391,7.20e-03,1.86e+00,
392,4.80e-03,1.60e-01,
393,-1.20e-03,1.20e-01,
394,4.40e-03,1.20e-01,
395,-1.60e-03,8.00e-02,
396,2.80e-03,1.00e-01,
397,-1.20e-03,8.00e-02,
398,3.20e-03,1.00e-01,
399,0.00e+00,6.00e-02,
400,-8.00e-04,1.00e-01,
401,2.00e-03,6.00e-02,
402,0.00e+00,8.00e-02,
403,2.00e-03,6.00e-02,
404,1.20e-03,6.00e-02,
405,-8.00e-04,8.00e-02,
406,-4.00e-04,6.00e-02,
407,2.40e-03,8.00e-02,
408,2.40e-03,6.00e-02,
409,-1.60e-03,8.00e-02,
410,-1.60e-03,6.00e-02,
411,3.60e-03,8.00e-02,
412,-1.60e-03,8.00e-02,
413,2.40e-03,6.00e-02,
414,2.00e-03,6.00e-02,
415,-8.00e-04,8.00e-02,
416,-8.00e-04,6.00e-02,
417,1.20e-03,8.00e-02,
418,-4.00e-04,8.00e-02,
419,2.00e-03,6.00e-02,
420,0.00e+00,8.00e-02,
421,2.00e-03,2.00e-02,
422,2.00e-03,2.00e-02,
423,-4.00e-04,8.00e-02,
424,1.60e-03,8.00e-02,
425,-1.60e-03,2.00e-02,
426,-1.20e-03,8.00e-02,
427,3.60e-03,2.00e-02,
428,2.40e-03,8.00e-02,
429,-3.20e-03,2.00e-02,
430,1.60e-03,0.00e+00,
431,7.20e-03,1.94e+00,
432,4.80e-03,1.60e-01,
433,-1.60e-03,1.20e-01,
434,4.40e-03,1.20e-01,
435,-1.60e-03,8.00e-02,
436,-1.20e-03,1.00e-01,
437,2.40e-03,8.00e-02,
438,2.40e-03,1.00e-01,
439,-8.00e-04,6.00e-02,
440,-1.20e-03,6.00e-02,
441,2.00e-03,1.00e-01,
442,0.00e+00,6.00e-02,
443,1.60e-03,8.00e-02,
444,0.00e+00,8.00e-02,
445,1.20e-03,6.00e-02,
446,2.40e-03,6.00e-02,
447,0.00e+00,8.00e-02,
448,2.40e-03,6.00e-02,
449,-8.00e-04,8.00e-02,
450,2.80e-03,6.00e-02,
451,-1.20e-03,8.00e-02,
452,-1.20e-03,8.00e-02,
453,2.40e-03,6.00e-02,
454,2.00e-03,6.00e-02,
455,-8.00e-04,8.00e-02,
456,1.20e-03,8.00e-02,
457,0.00e+00,2.00e-02,
458,4.00e-04,8.00e-02,
459,1.20e-03,2.00e-02,
460,-8.00e-04,4.00e-02,
461,1.20e-03,8.00e-02,
462,1.60e-03,2.00e-02,
463,-1.20e-03,8.00e-02,
464,1.20e-03,8.00e-02,
465,-1.60e-03,2.00e-02,
466,-1.20e-03,8.00e-02,
467,2.40e-03,2.00e-02,
468,3.60e-03,8.00e-02,
469,-3.20e-03,2.00e-02,
470,2.40e-03,2.00e-02,
471,7.20e-03,1.88e+00,
472,4.80e-03,1.60e-01,
473,-1.20e-03,1.20e-01,
474,5.20e-03,1.20e-01,
475,-1.60e-03,8.00e-02,
476,-1.20e-03,1.00e-01,
477,3.20e-03,8.00e-02,
478,2.40e-03,1.00e-01,
479,-8.00e-04,6.00e-02,
480,0.00e+00,1.00e-01,
481,2.00e-03,6.00e-02,
482,2.00e-03,6.00e-02,
483,-8.00e-04,8.00e-02,
484,2.00e-03,8.00e-02,
485,-8.00e-04,6.00e-02,
486,0.00e+00,6.00e-02,
487,2.00e-03,8.00e-02,
488,2.00e-03,8.00e-02,
489,-1.20e-03,6.00e-02,
490,2.80e-03,6.00e-02,
491,-1.20e-03,8.00e-02,
492,-2.00e-03,8.00e-02,
493,2.40e-03,4.00e-02,
494,2.40e-03,6.00e-02,
495,0.00e+00,8.00e-02,
496,0.00e+00,6.00e-02,
497,2.00e-03,8.00e-02,
498,2.00e-03,8.00e-02,
499,-8.00e-04,2.00e-02,
500,-8.00e-04,8.00e-02,
501,1.20e-03,2.00e-02,
502,-4.00e-04,8.00e-02,
503,2.40e-03,2.00e-02,
504,-8.00e-04,2.00e-02,
505,2.00e-03,8.00e-02,
506,-1.20e-03,8.00e-02,
507,2.80e-03,2.00e-02,
508,4.00e-03,2.00e-02,
509,-3.20e-03,8.00e-02,
510,1.60e-03,2.00e-02,
511,7.20e-03,1.78e+00,
512,4.80e-03,1.60e-01,
513,-4.00e-04,1.20e-01,
514,5.60e-03,1.40e-01,
515,-1.60e-03,8.00e-02,
516,-1.60e-03,1.00e-01,
517,2.40e-03,6.00e-02,
518,3.20e-03,1.00e-01,
519,-8.00e-04,6.00e-02,
520,-8.00e-04,6.00e-02,
521,2.00e-03,1.00e-01,
522,1.20e-03,6.00e-02,
523,-8.00e-04,8.00e-02,
524,-8.00e-04,6.00e-02,
525,1.20e-03,8.00e-02,
526,0.00e+00,6.00e-02,
527,2.00e-03,8.00e-02,
528,-8.00e-04,6.00e-02,
529,1.20e-03,8.00e-02,
530,2.40e-03,6.00e-02,
531,-8.00e-04,8.00e-02,
532,-8.00e-04,8.00e-02,
533,2.00e-03,6.00e-02,
534,1.20e-03,8.00e-02,
535,0.00e+00,6.00e-02,
536,-8.00e-04,6.00e-02,
537,1.20e-03,8.00e-02,
538,1.20e-03,8.00e-02,
539,-8.00e-04,4.00e-02,
540,-8.00e-04,8.00e-02,
541,1.60e-03,2.00e-02,
542,0.00e+00,8.00e-02,
543,2.40e-03,2.00e-02,
544,2.00e-03,8.00e-02,
545,-1.20e-03,2.00e-02,
546,2.40e-03,8.00e-02,
547,-1.60e-03,2.00e-02,
548,3.60e-03,2.00e-02,
549,-4.00e-03,8.00e-02,
550,1.20e-03,-2.00e-02,
551,7.60e-03,1.92e+00,
552,4.80e-03,1.60e-01,
553,-1.20e-03,1.20e-01,
554,5.20e-03,1.40e-01,
555,-2.40e-03,8.00e-02,
556,-1.60e-03,8.00e-02,
557,2.80e-03,1.00e-01,
558,2.80e-03,1.00e-01,
559,-8.00e-04,6.00e-02,
560,-8.00e-04,1.00e-01,
561,2.40e-03,6.00e-02,
562,2.00e-03,6.00e-02,
563,0.00e+00,8.00e-02,
564,1.20e-03,6.00e-02,
565,0.00e+00,8.00e-02,
566,1.20e-03,6.00e-02,
567,-4.00e-04,8.00e-02,
568,-8.00e-04,6.00e-02,
569,2.00e-03,8.00e-02,
570,2.40e-03,8.00e-02,
571,-1.20e-03,6.00e-02,
572,-8.00e-04,6.00e-02,
573,2.00e-03,8.00e-02,
574,1.20e-03,8.00e-02,
575,0.00e+00,4.00e-02,
576,2.00e-03,8.00e-02,
577,-8.00e-04,6.00e-02,
578,-4.00e-04,8.00e-02,
579,1.20e-03,2.00e-02,
580,2.00e-03,8.00e-02,
581,-4.00e-04,2.00e-02,
582,1.60e-03,8.00e-02,
583,-1.20e-03,2.00e-02,
584,-1.20e-03,8.00e-02,
585,2.00e-03,2.00e-02,
586,-1.60e-03,2.00e-02,
587,2.80e-03,8.00e-02,
588,4.00e-03,2.00e-02,
589,-4.00e-03,8.00e-02,
590,4.00e-04,2.00e-02,
591,7.20e-03,1.80e+00,
592,4.80e-03,1.60e-01,
593,-1.20e-03,1.20e-01,
594,5.60e-03,1.40e-01,
595,-1.60e-03,8.00e-02,
596,-1.60e-03,1.00e-01,
597,2.80e-03,8.00e-02,
598,2.80e-03,1.00e-01,
599,0.00e+00,6.00e-02,
600,1.20e-03,1.00e-01,
601,-8.00e-04,6.00e-02,
602,2.00e-03,8.00e-02,
603,0.00e+00,6.00e-02,
604,-8.00e-04,6.00e-02,
605,8.00e-04,8.00e-02,
606,-8.00e-04,6.00e-02,
607,1.20e-03,8.00e-02,
608,-8.00e-04,6.00e-02,
609,1.20e-03,8.00e-02,
610,2.00e-03,6.00e-02,
611,-8.00e-04,8.00e-02,
612,-8.00e-04,8.00e-02,
613,1.20e-03,6.00e-02,
614,2.00e-03,6.00e-02,
615,-8.00e-04,8.00e-02,
616,0.00e+00,8.00e-02,
617,1.60e-03,4.00e-02,
618,1.20e-03,8.00e-02,
619,-4.00e-04,4.00e-02,
620,1.20e-03,8.00e-02,
621,-8.00e-04,4.00e-02,
622,1.20e-03,8.00e-02,
623,-8.00e-04,2.00e-02,
624,1.60e-03,8.00e-02,
625,-1.20e-03,2.00e-02,
626,2.80e-03,2.00e-02,
627,-1.60e-03,8.00e-02,
628,4.00e-03,8.00e-02,
629,-3.20e-03,2.00e-02,
630,1.60e-03,2.00e-02,
631,7.20e-03,1.76e+00,
632,4.80e-03,1.60e-01,
633,-1.60e-03,1.20e-01,
634,5.20e-03,1.40e-01,
635,-2.80e-03,8.00e-02,
636,-1.60e-03,8.00e-02,
637,2.80e-03,1.00e-01,
638,2.40e-03,1.00e-01,
639,-1.20e-03,6.00e-02,
640,1.60e-03,1.00e-01,
641,-1.20e-03,6.00e-02,
642,0.00e+00,6.00e-02,
643,1.20e-03,8.00e-02,
644,-8.00e-04,6.00e-02,
645,1.20e-03,8.00e-02,
646,2.00e-03,6.00e-02,
647,0.00e+00,8.00e-02,
648,0.00e+00,6.00e-02,
649,2.00e-03,8.00e-02,
650,2.00e-03,6.00e-02,
651,-8.00e-04,8.00e-02,
652,1.20e-03,6.00e-02,
653,-8.00e-04,8.00e-02,
654,0.00e+00,6.00e-02,
655,2.00e-03,8.00e-02,
656,1.20e-03,8.00e-02,
657,0.00e+00,6.00e-02,
658,8.00e-04,8.00e-02,
659,-4.00e-04,2.00e-02,
660,-4.00e-04,8.00e-02,
661,1.20e-03,4.00e-02,
662,0.00e+00,8.00e-02,
663,2.00e-03,2.00e-02,
664,-4.00e-04,2.00e-02,
665,2.00e-03,8.00e-02,
666,2.80e-03,8.00e-02,
667,-8.00e-04,2.00e-02,
668,3.60e-03,8.00e-02,
669,-4.00e-03,2.00e-02,
670,8.00e-04,2.00e-02,
671,7.20e-03,1.90e+00,
672,4.80e-03,1.60e-01,
673,-1.60e-03,1.20e-01,
674,5.20e-03,1.40e-01,
675,-2.40e-03,8.00e-02,
676,2.40e-03,8.00e-02,
677,-1.20e-03,1.00e-01,
678,-1.20e-03,1.00e-01,
679,2.80e-03,6.00e-02,
680,-8.00e-04,1.00e-01,
681,2.00e-03,6.00e-02,
682,2.00e-03,8.00e-02,
683,0.00e+00,6.00e-02,
684,0.00e+00,6.00e-02,
685,1.20e-03,8.00e-02,
686,1.20e-03,6.00e-02,
687,4.00e-04,8.00e-02,
688,0.00e+00,6.00e-02,
689,1.20e-03,8.00e-02,
690,2.00e-03,6.00e-02,
691,0.00e+00,8.00e-02,
692,8.00e-04,6.00e-02,
693,-8.00e-04,8.00e-02,
694,0.00e+00,6.00e-02,
695,2.00e-03,8.00e-02,
696,1.20e-03,6.00e-02,
697,0.00e+00,8.00e-02,
698,1.20e-03,6.00e-02,
699,0.00e+00,8.00e-02,
700,-8.00e-04,8.00e-02,
701,1.20e-03,4.00e-02,
702,2.00e-03,8.00e-02,
703,0.00e+00,4.00e-02,
704,1.60e-03,4.00e-02,
705,-8.00e-04,8.00e-02,
706,-1.60e-03,8.00e-02,
707,2.40e-03,2.00e-02,
708,3.20e-03,2.00e-02,
709,-4.40e-03,8.00e-02,
710,8.00e-04,2.00e-02,
711,7.20e-03,1.94e+00,
712,4.80e-03,1.60e-01,
713,-1.60e-03,1.20e-01,
714,5.20e-03,8.00e-02,
715,-2.40e-03,1.40e-01,
716,-1.60e-03,1.00e-01,
717,2.80e-03,8.00e-02,
718,2.80e-03,1.00e-01,
719,-8.00e-04,6.00e-02,
720,-8.00e-04,1.00e-01,
721,2.00e-03,6.00e-02,
722,1.20e-03,8.00e-02,
723,-4.00e-04,6.00e-02,
724,1.20e-03,6.00e-02,
725,0.00e+00,8.00e-02,
726,-8.00e-04,6.00e-02,
727,1.20e-03,8.00e-02,
728,0.00e+00,6.00e-02,
729,1.20e-03,8.00e-02,
730,1.60e-03,8.00e-02,
731,0.00e+00,6.00e-02,
732,4.00e-04,6.00e-02,
733,1.60e-03,8.00e-02,
734,1.20e-03,8.00e-02,
735,0.00e+00,6.00e-02,
736,1.20e-03,8.00e-02,
737,0.00e+00,4.00e-02,
738,0.00e+00,8.00e-02,
739,1.20e-03,2.00e-02,
740,1.60e-03,8.00e-02,
741,-8.00e-04,2.00e-02,
742,1.60e-03,2.00e-02,
743,0.00e+00,8.00e-02,
744,-8.00e-04,2.00e-02,
745,2.40e-03,8.00e-02,
746,-1.20e-03,2.00e-02,
747,2.80e-03,8.00e-02,
748,3.20e-03,2.00e-02,
749,-4.00e-03,8.00e-02,
750,0.00e+00,2.00e-02,
751,7.20e-03,1.78e+00,
752,4.80e-03,1.60e-01,
753,-1.20e-03,1.20e-01,
754,6.00e-03,1.40e-01,
755,-1.60e-03,8.00e-02,
756,2.40e-03,1.00e-01,
757,-1.60e-03,8.00e-02,
758,2.80e-03,1.00e-01,
759,-8.00e-04,6.00e-02,
760,1.20e-03,6.00e-02,
761,-1.20e-03,1.00e-01,
762,-8.00e-04,8.00e-02,
763,2.00e-03,6.00e-02,
764,0.00e+00,6.00e-02,
765,1.20e-03,8.00e-02,
766,4.00e-04,6.00e-02,
767,1.20e-03,8.00e-02,
768,0.00e+00,6.00e-02,
769,1.60e-03,8.00e-02,
770,1.20e-03,8.00e-02,
771,0.00e+00,6.00e-02,
772,-8.00e-04,8.00e-02,
773,1.20e-03,6.00e-02,
774,0.00e+00,6.00e-02,
775,8.00e-04,8.00e-02,
776,0.00e+00,6.00e-02,
777,1.20e-03,8.00e-02,
778,1.20e-03,8.00e-02,
779,-4.00e-04,4.00e-02,
780,-8.00e-04,8.00e-02,
781,1.20e-03,2.00e-02,
782,0.00e+00,8.00e-02,
783,2.40e-03,2.00e-02,
784,0.00e+00,2.00e-02,
785,2.40e-03,8.00e-02,
786,-1.20e-03,8.00e-02,
787,3.60e-03,2.00e-02,
788,4.40e-03,2.00e-02,
789,-3.20e-03,8.00e-02,
790,8.00e-04,2.00e-02,
791,6.80e-03,1.94e+00,
792,4.80e-03,1.80e-01,
793,-1.20e-03,1.20e-01,
794,5.20e-03,1.40e-01,
795,-2.80e-03,8.00e-02,
796,-1.20e-03,1.00e-01,
797,3.20e-03,8.00e-02,
798,2.40e-03,1.00e-01,
799,-8.00e-04,6.00e-02,
800,2.00e-03,1.00e-01,
801,-1.20e-03,6.00e-02,
802,1.60e-03,6.00e-02,
803,-8.00e-04,8.00e-02,
804,1.20e-03,6.00e-02,
805,-8.00e-04,8.00e-02,
806,0.00e+00,8.00e-02,
807,1.20e-03,6.00e-02,
808,2.00e-03,8.00e-02,
809,-8.00e-04,6.00e-02,
810,-4.00e-04,6.00e-02,
811,1.60e-03,8.00e-02,
812,-4.00e-04,6.00e-02,
813,1.20e-03,8.00e-02,
814,1.20e-03,6.00e-02,
815,-8.00e-04,8.00e-02,
816,-8.00e-04,6.00e-02,
817,8.00e-04,8.00e-02,
818,1.20e-03,8.00e-02,
819,-4.00e-04,6.00e-02,
820,2.00e-03,2.00e-02,
821,-1.60e-03,8.00e-02,
822,-8.00e-04,8.00e-02,
823,2.00e-03,2.00e-02,
824,2.40e-03,8.00e-02,
825,-1.20e-03,2.00e-02,
826,2.80e-03,2.00e-02,
827,-1.20e-03,8.00e-02,
828,4.00e-03,2.00e-02,
829,-4.00e-03,8.00e-02,
830,0.00e+00,1.88e+00,
831,7.20e-03,-2.00e-02,
832,4.80e-03,1.60e-01,
833,-1.60e-03,1.20e-01,
834,5.20e-03,1.40e-01,
835,-2.80e-03,8.00e-02,
836,-1.60e-03,8.00e-02,
837,2.40e-03,1.00e-01,
838,-8.00e-04,1.00e-01,
839,3.20e-03,6.00e-02,
840,2.00e-03,1.00e-01,
841,0.00e+00,6.00e-02,
842,2.00e-03,8.00e-02,
843,4.00e-04,6.00e-02,
844,1.20e-03,6.00e-02,
845,-8.00e-04,8.00e-02,
846,0.00e+00,8.00e-02,
847,1.20e-03,6.00e-02,
848,2.00e-03,6.00e-02,
849,0.00e+00,8.00e-02,
850,0.00e+00,6.00e-02,
851,2.00e-03,8.00e-02,
852,1.20e-03,6.00e-02,
853,4.00e-04,8.00e-02,
854,0.00e+00,8.00e-02,
855,1.20e-03,6.00e-02,
