CarrPurc_P1-19_P2-38_tauVary/Gly100/NewFile5.csv

X,CH1,CH2,Start,Increment,
Sequence,Volt,Volt,-6.000000e-04,1.000000e-04
0,0.00e+00,4.00e-02,
1,1.20e-03,2.00e-02,
2,1.20e-03,4.00e-02,
3,0.00e+00,2.00e-02,
4,0.00e+00,4.00e-02,
5,1.20e-03,2.00e-02,
6,4.00e-04,4.00e-02,
7,1.60e-03,0.00e+00,
8,1.20e-03,4.00e-02,
9,-8.00e-04,2.00e-02,
10,4.00e-04,1.78e+00,
11,5.20e-03,-4.00e-02,
12,4.00e-03,1.60e-01,
13,-2.96e-02,8.00e-02,
14,-1.56e-02,1.20e-01,
15,1.68e-02,8.00e-02,
16,8.00e-03,8.00e-02,
17,-8.40e-03,1.00e-01,
18,-1.60e-03,1.00e-01,
19,4.40e-03,6.00e-02,
20,-1.60e-03,6.00e-02,
21,3.20e-03,8.00e-02,
22,3.20e-03,6.00e-02,
23,-1.20e-03,8.00e-02,
24,-1.20e-03,8.00e-02,
25,2.80e-03,6.00e-02,
26,-8.00e-04,6.00e-02,
27,2.40e-03,8.00e-02,
28,2.00e-03,6.00e-02,
29,-8.00e-04,8.00e-02,
30,1.60e-03,1.96e+00,
31,7.20e-03,2.00e-02,
32,5.20e-03,1.60e-01,
33,-8.40e-03,1.20e-01,
34,-8.40e-03,1.20e-01,
35,6.00e-03,8.00e-02,
36,4.00e-03,1.00e-01,
37,-1.20e-03,8.00e-02,
38,-4.00e-04,1.00e-01,
39,2.40e-03,6.00e-02,
40,-8.00e-04,1.00e-01,
41,2.40e-03,6.00e-02,
42,2.00e-03,6.00e-02,
43,-8.00e-04,8.00e-02,
44,-3.60e-03,6.00e-02,
45,5.20e-03,8.00e-02,
46,7.60e-03,6.00e-02,
47,-8.40e-03,8.00e-02,
48,-1.32e-02,8.00e-02,
49,1.56e-02,6.00e-02,
50,-1.72e-02,6.00e-02,
51,1.96e-02,8.00e-02,
52,-1.64e-02,6.00e-02,
53,1.52e-02,8.00e-02,
54,1.00e-02,6.00e-02,
55,-7.20e-03,8.00e-02,
56,-4.40e-03,6.00e-02,
57,4.40e-03,8.00e-02,
58,2.80e-03,8.00e-02,
59,0.00e+00,4.00e-02,
60,2.40e-03,8.00e-02,
61,-4.00e-04,4.00e-02,
62,1.60e-03,8.00e-02,
63,-1.20e-03,2.00e-02,
64,2.00e-03,8.00e-02,
65,-8.00e-04,2.00e-02,
66,1.20e-03,8.00e-02,
67,-8.00e-04,2.00e-02,
68,1.20e-03,8.00e-02,
69,0.00e+00,2.00e-02,
70,0.00e+00,2.00e-02,
71,7.20e-03,1.92e+00,
72,4.80e-03,1.60e-01,
73,-8.00e-04,1.20e-01,
74,3.60e-03,1.40e-01,
75,0.00e+00,8.00e-02,
76,-8.00e-04,1.00e-01,
77,2.80e-03,8.00e-02,
78,2.40e-03,1.00e-01,
79,-8.00e-04,6.00e-02,
80,1.20e-03,1.00e-01,
81,-8.00e-04,6.00e-02,
82,2.40e-03,8.00e-02,
83,-1.60e-03,6.00e-02,
84,-2.80e-03,8.00e-02,
85,2.80e-03,6.00e-02,
86,-4.40e-03,6.00e-02,
87,6.80e-03,8.00e-02,
88,8.80e-03,8.00e-02,
89,-1.04e-02,6.00e-02,
90,1.36e-02,6.00e-02,
91,-1.32e-02,8.00e-02,
92,-1.00e-02,6.00e-02,
93,9.60e-03,8.00e-02,
94,6.00e-03,6.00e-02,
95,-4.40e-03,8.00e-02,
96,-2.80e-03,6.00e-02,
97,3.20e-03,8.00e-02,
98,2.40e-03,8.00e-02,
99,-8.00e-04,4.00e-02,
100,-8.00e-04,8.00e-02,
101,2.00e-03,6.00e-02,
102,2.00e-03,6.00e-02,
103,-8.00e-04,8.00e-02,
104,-8.00e-04,8.00e-02,
105,1.60e-03,2.00e-02,
106,1.60e-03,2.00e-02,
107,-2.40e-03,8.00e-02,
108,-2.40e-03,2.00e-02,
109,4.00e-03,8.00e-02,
110,2.00e-03,2.00e-02,
111,7.20e-03,1.78e+00,
112,4.80e-03,1.60e-01,
113,0.00e+00,1.20e-01,
114,2.80e-03,1.40e-01,
115,0.00e+00,8.00e-02,
116,1.20e-03,1.00e-01,
117,-8.00e-04,8.00e-02,
118,-4.00e-04,1.00e-01,
119,2.00e-03,6.00e-02,
120,1.20e-03,6.00e-02,
121,-8.00e-04,1.00e-01,
122,2.00e-03,6.00e-02,
123,-8.00e-04,8.00e-02,
124,-1.60e-03,6.00e-02,
125,2.40e-03,8.00e-02,
126,-3.20e-03,8.00e-02,
127,5.60e-03,6.00e-02,
128,8.40e-03,6.00e-02,
129,-8.40e-03,8.00e-02,
130,1.20e-02,6.00e-02,
131,-1.00e-02,8.00e-02,
132,-8.40e-03,6.00e-02,
133,7.60e-03,8.00e-02,
134,5.60e-03,8.00e-02,
135,-3.60e-03,4.00e-02,
136,-2.40e-03,8.00e-02,
137,2.40e-03,4.00e-02,
138,2.00e-03,8.00e-02,
139,-4.00e-04,6.00e-02,
140,1.20e-03,8.00e-02,
141,-8.00e-04,2.00e-02,
142,2.00e-03,6.00e-02,
143,-8.00e-04,8.00e-02,
144,1.60e-03,8.00e-02,
145,-4.00e-04,2.00e-02,
146,2.00e-03,8.00e-02,
147,-8.00e-04,2.00e-02,
148,-2.40e-03,2.00e-02,
149,2.80e-03,8.00e-02,
150,2.00e-03,2.00e-02,
151,7.20e-03,1.92e+00,
152,4.80e-03,1.60e-01,
153,-1.20e-03,1.20e-01,
154,-8.00e-04,8.00e-02,
155,3.20e-03,1.40e-01,
156,2.40e-03,1.00e-01,
157,-8.00e-04,6.00e-02,
158,2.40e-03,1.00e-01,
159,0.00e+00,6.00e-02,
160,-1.20e-03,1.00e-01,
161,1.60e-03,6.00e-02,
162,2.40e-03,6.00e-02,
163,-8.00e-04,8.00e-02,
164,1.20e-03,6.00e-02,
165,-2.40e-03,8.00e-02,
166,-2.40e-03,6.00e-02,
167,3.60e-03,8.00e-02,
168,5.20e-03,6.00e-02,
169,-5.20e-03,8.00e-02,
170,8.40e-03,8.00e-02,
171,-6.80e-03,6.00e-02,
172,-6.80e-03,6.00e-02,
173,6.80e-03,8.00e-02,
174,5.20e-03,6.00e-02,
175,-2.40e-03,8.00e-02,
176,-1.20e-03,8.00e-02,
177,2.40e-03,6.00e-02,
178,2.40e-03,8.00e-02,
179,-8.00e-04,4.00e-02,
180,-4.00e-04,8.00e-02,
181,1.20e-03,2.00e-02,
182,1.20e-03,8.00e-02,
183,0.00e+00,2.00e-02,
184,0.00e+00,8.00e-02,
185,2.00e-03,4.00e-02,
186,2.40e-03,8.00e-02,
187,-8.00e-04,2.00e-02,
188,2.40e-03,8.00e-02,
189,-1.60e-03,2.00e-02,
190,2.00e-03,1.96e+00,
191,7.20e-03,-2.00e-02,
192,4.80e-03,1.60e-01,
193,-1.20e-03,1.20e-01,
194,3.60e-03,1.20e-01,
195,-8.00e-04,8.00e-02,
196,-1.20e-03,1.00e-01,
197,1.20e-03,8.00e-02,
198,2.00e-03,1.00e-01,
199,-8.00e-04,6.00e-02,
200,-8.00e-04,6.00e-02,
201,2.00e-03,1.00e-01,
202,2.40e-03,6.00e-02,
203,-8.00e-04,8.00e-02,
204,2.40e-03,6.00e-02,
205,-1.60e-03,8.00e-02,
206,-2.40e-03,6.00e-02,
207,4.00e-03,8.00e-02,
208,5.20e-03,8.00e-02,
209,-4.40e-03,6.00e-02,
210,-7.20e-03,6.00e-02,
211,7.20e-03,8.00e-02,
212,-4.80e-03,6.00e-02,
213,5.20e-03,8.00e-02,
214,4.00e-03,6.00e-02,
215,-1.60e-03,8.00e-02,
216,-1.20e-03,6.00e-02,
217,1.20e-03,8.00e-02,
218,1.60e-03,8.00e-02,
219,0.00e+00,4.00e-02,
220,1.60e-03,6.00e-02,
221,-8.00e-04,8.00e-02,
222,2.00e-03,8.00e-02,
223,-4.00e-04,2.00e-02,
224,-8.00e-04,8.00e-02,
225,1.20e-03,2.00e-02,
226,1.60e-03,8.00e-02,
227,-1.20e-03,2.00e-02,
228,2.80e-03,8.00e-02,
229,-2.00e-03,2.00e-02,
230,2.80e-03,4.00e-02,
231,7.20e-03,1.74e+00,
232,4.80e-03,1.60e-01,
233,-1.20e-03,1.20e-01,
234,4.00e-03,1.40e-01,
235,-1.20e-03,8.00e-02,
236,-8.00e-04,1.00e-01,
237,2.40e-03,8.00e-02,
238,2.40e-03,1.00e-01,
239,-8.00e-04,6.00e-02,
240,-8.00e-04,6.00e-02,
241,1.20e-03,1.00e-01,
242,1.20e-03,6.00e-02,
243,-8.00e-04,8.00e-02,
244,2.40e-03,6.00e-02,
245,-8.00e-04,8.00e-02,
246,-1.60e-03,6.00e-02,
247,2.80e-03,8.00e-02,
248,4.80e-03,8.00e-02,
249,-4.00e-03,6.00e-02,
250,6.80e-03,8.00e-02,
251,-5.20e-03,6.00e-02,
252,-4.00e-03,6.00e-02,
253,4.80e-03,8.00e-02,
254,2.80e-03,8.00e-02,
255,-1.60e-03,6.00e-02,
256,-8.00e-04,8.00e-02,
257,2.40e-03,6.00e-02,
258,2.00e-03,8.00e-02,
259,0.00e+00,2.00e-02,
260,-4.00e-04,8.00e-02,
261,1.20e-03,4.00e-02,
262,0.00e+00,8.00e-02,
263,2.40e-03,4.00e-02,
264,1.60e-03,8.00e-02,
265,0.00e+00,2.00e-02,
266,2.00e-03,8.00e-02,
267,-8.00e-04,2.00e-02,
268,3.60e-03,2.00e-02,
269,-1.20e-03,8.00e-02,
270,2.80e-03,2.00e-02,
271,7.20e-03,1.94e+00,
272,4.80e-03,1.60e-01,
273,-1.20e-03,1.20e-01,
274,4.00e-03,1.20e-01,
275,-1.20e-03,8.00e-02,
276,-1.20e-03,8.00e-02,
277,2.80e-03,1.00e-01,
278,2.40e-03,1.00e-01,
279,-8.00e-04,6.00e-02,
280,-1.20e-03,6.00e-02,
281,2.40e-03,1.00e-01,
282,1.60e-03,6.00e-02,
283,-8.00e-04,8.00e-02,
284,2.40e-03,6.00e-02,
285,0.00e+00,8.00e-02,
286,-1.20e-03,6.00e-02,
287,2.80e-03,8.00e-02,
288,2.80e-03,6.00e-02,
289,-2.80e-03,8.00e-02,
290,-4.40e-03,6.00e-02,
291,5.20e-03,8.00e-02,
292,-3.60e-03,8.00e-02,
293,3.60e-03,6.00e-02,
294,2.40e-03,6.00e-02,
295,-1.60e-03,8.00e-02,
296,-8.00e-04,8.00e-02,
297,2.00e-03,4.00e-02,
298,1.20e-03,8.00e-02,
299,-8.00e-04,4.00e-02,
300,-8.00e-04,8.00e-02,
301,1.20e-03,4.00e-02,
302,1.20e-03,8.00e-02,
303,-8.00e-04,4.00e-02,
304,8.00e-04,8.00e-02,
305,-8.00e-04,4.00e-02,
306,-8.00e-04,8.00e-02,
307,2.40e-03,2.00e-02,
308,2.80e-03,8.00e-02,
309,-2.40e-03,2.00e-02,
310,2.00e-03,1.94e+00,
311,6.80e-03,-6.00e-02,
312,4.80e-03,1.60e-01,
313,-8.00e-04,1.20e-01,
314,4.40e-03,1.20e-01,
315,-1.20e-03,8.00e-02,
316,2.40e-03,1.00e-01,
317,-8.00e-04,8.00e-02,
318,2.40e-03,1.00e-01,
319,-8.00e-04,6.00e-02,
320,-8.00e-04,1.00e-01,
321,2.00e-03,6.00e-02,
322,2.00e-03,6.00e-02,
323,0.00e+00,8.00e-02,
324,1.60e-03,8.00e-02,
325,-1.20e-03,6.00e-02,
326,-1.20e-03,6.00e-02,
327,2.80e-03,8.00e-02,
328,2.80e-03,6.00e-02,
329,-3.60e-03,8.00e-02,
330,4.00e-03,6.00e-02,
331,-3.20e-03,8.00e-02,
332,-2.80e-03,8.00e-02,
333,3.60e-03,6.00e-02,
334,2.40e-03,6.00e-02,
335,-1.20e-03,8.00e-02,
336,1.20e-03,8.00e-02,
337,0.00e+00,2.00e-02,
338,1.20e-03,8.00e-02,
339,-8.00e-04,6.00e-02,
340,-8.00e-04,8.00e-02,
341,2.00e-03,2.00e-02,
342,2.00e-03,8.00e-02,
343,0.00e+00,2.00e-02,
344,-8.00e-04,8.00e-02,
345,2.00e-03,2.00e-02,
346,-8.00e-04,8.00e-02,
347,2.00e-03,2.00e-02,
348,2.40e-03,8.00e-02,
349,-2.80e-03,2.00e-02,
350,2.00e-03,2.00e-02,
351,7.20e-03,1.68e+00,
352,4.80e-03,1.60e-01,
353,-8.00e-04,1.20e-01,
354,4.80e-03,1.40e-01,
355,-1.20e-03,8.00e-02,
356,-1.20e-03,8.00e-02,
357,2.40e-03,1.00e-01,
358,2.40e-03,1.00e-01,
359,-8.00e-04,6.00e-02,
360,-4.00e-04,1.00e-01,
361,2.40e-03,6.00e-02,
362,2.00e-03,6.00e-02,
363,0.00e+00,8.00e-02,
364,-8.00e-04,8.00e-02,
365,8.00e-04,6.00e-02,
366,-8.00e-04,6.00e-02,
367,2.00e-03,8.00e-02,
368,2.40e-03,6.00e-02,
369,-2.40e-03,8.00e-02,
370,-3.60e-03,6.00e-02,
371,4.00e-03,8.00e-02,
372,-1.60e-03,6.00e-02,
373,2.40e-03,8.00e-02,
374,2.00e-03,6.00e-02,
375,-1.20e-03,8.00e-02,
376,1.20e-03,6.00e-02,
377,-8.00e-04,8.00e-02,
378,-4.00e-04,8.00e-02,
379,1.20e-03,6.00e-02,
380,-8.00e-04,8.00e-02,
381,1.20e-03,4.00e-02,
382,2.00e-03,8.00e-02,
383,-8.00e-04,2.00e-02,
384,-8.00e-04,8.00e-02,
385,1.60e-03,4.00e-02,
386,-1.20e-03,8.00e-02,
387,2.80e-03,2.00e-02,
388,3.60e-03,8.00e-02,
389,-2.80e-03,2.00e-02,
390,2.00e-03,2.00e-02,
391,7.20e-03,1.90e+00,
392,4.80e-03,1.60e-01,
393,-1.20e-03,1.20e-01,
394,5.20e-03,1.20e-01,
395,-1.60e-03,8.00e-02,
396,-1.20e-03,1.00e-01,
397,2.80e-03,8.00e-02,
398,2.40e-03,1.00e-01,
399,-1.20e-03,6.00e-02,
400,-8.00e-04,1.00e-01,
401,2.00e-03,6.00e-02,
402,1.20e-03,8.00e-02,
403,-4.00e-04,6.00e-02,
404,2.00e-03,6.00e-02,
405,-8.00e-04,8.00e-02,
406,-8.00e-04,6.00e-02,
407,2.40e-03,8.00e-02,
408,2.40e-03,6.00e-02,
409,-1.20e-03,8.00e-02,
410,3.60e-03,6.00e-02,
411,-1.60e-03,8.00e-02,
412,-2.00e-03,8.00e-02,
413,2.80e-03,6.00e-02,
414,2.00e-03,6.00e-02,
415,-8.00e-04,8.00e-02,
416,-8.00e-04,8.00e-02,
417,1.20e-03,2.00e-02,
418,0.00e+00,8.00e-02,
419,2.00e-03,6.00e-02,
420,0.00e+00,6.00e-02,
421,2.00e-03,8.00e-02,
422,2.00e-03,6.00e-02,
423,-8.00e-04,8.00e-02,
424,2.00e-03,6.00e-02,
425,-1.60e-03,8.00e-02,
426,2.40e-03,8.00e-02,
427,-1.20e-03,4.00e-02,
428,3.60e-03,8.00e-02,
429,-3.20e-03,4.00e-02,
430,2.00e-03,1.96e+00,
431,7.60e-03,-6.00e-02,
432,4.80e-03,1.60e-01,
433,-1.60e-03,1.20e-01,
434,4.80e-03,1.20e-01,
435,-1.60e-03,8.00e-02,
436,-1.60e-03,1.00e-01,
437,2.40e-03,8.00e-02,
438,1.20e-03,1.00e-01,
439,-1.20e-03,6.00e-02,
440,-1.20e-03,6.00e-02,
441,1.20e-03,1.00e-01,
442,0.00e+00,6.00e-02,
443,1.60e-03,8.00e-02,
444,-4.00e-04,8.00e-02,
445,2.00e-03,6.00e-02,
446,0.00e+00,6.00e-02,
447,2.40e-03,8.00e-02,
448,-8.00e-04,6.00e-02,
449,2.40e-03,8.00e-02,
450,-1.20e-03,6.00e-02,
451,2.80e-03,8.00e-02,
452,-1.20e-03,8.00e-02,
453,2.40e-03,6.00e-02,
454,2.40e-03,6.00e-02,
455,-8.00e-04,8.00e-02,
456,1.20e-03,8.00e-02,
457,-8.00e-04,6.00e-02,
458,-4.00e-04,8.00e-02,
459,1.20e-03,4.00e-02,
460,-8.00e-04,8.00e-02,
461,8.00e-04,2.00e-02,
462,1.20e-03,8.00e-02,
463,-8.00e-04,2.00e-02,
464,-1.20e-03,2.00e-02,
465,1.60e-03,8.00e-02,
466,-1.60e-03,8.00e-02,
467,2.40e-03,2.00e-02,
468,4.00e-03,8.00e-02,
469,-2.40e-03,2.00e-02,
470,2.40e-03,2.00e-02,
471,7.20e-03,1.70e+00,
472,4.80e-03,1.60e-01,
473,-8.00e-04,1.20e-01,
474,5.20e-03,8.00e-02,
475,-1.60e-03,1.40e-01,
476,-8.00e-04,1.00e-01,
477,3.60e-03,8.00e-02,
478,3.20e-03,1.00e-01,
479,-8.00e-04,6.00e-02,
480,0.00e+00,6.00e-02,
481,1.60e-03,1.00e-01,
482,2.00e-03,6.00e-02,
483,0.00e+00,8.00e-02,
484,-8.00e-04,8.00e-02,
485,1.20e-03,6.00e-02,
486,-8.00e-04,6.00e-02,
487,1.20e-03,8.00e-02,
488,-1.20e-03,8.00e-02,
489,2.00e-03,6.00e-02,
490,-1.20e-03,6.00e-02,
491,2.80e-03,8.00e-02,
492,-8.00e-04,6.00e-02,
493,2.40e-03,8.00e-02,
494,2.00e-03,6.00e-02,
495,0.00e+00,8.00e-02,
496,0.00e+00,6.00e-02,
497,1.60e-03,8.00e-02,
498,1.20e-03,8.00e-02,
499,0.00e+00,4.00e-02,
500,0.00e+00,8.00e-02,
501,1.20e-03,2.00e-02,
502,1.20e-03,8.00e-02,
503,-8.00e-04,4.00e-02,
504,-8.00e-04,2.00e-02,
505,2.40e-03,8.00e-02,
506,-1.60e-03,8.00e-02,
507,2.80e-03,2.00e-02,
508,3.60e-03,8.00e-02,
509,-3.20e-03,2.00e-02,
510,1.20e-03,4.00e-02,
511,7.20e-03,1.92e+00,
512,5.20e-03,1.60e-01,
513,-4.00e-04,1.20e-01,
514,5.60e-03,1.40e-01,
515,-1.60e-03,8.00e-02,
516,-1.60e-03,1.00e-01,
517,2.40e-03,8.00e-02,
518,2.40e-03,1.00e-01,
519,-1.20e-03,6.00e-02,
520,-4.00e-04,6.00e-02,
521,1.60e-03,1.00e-01,
522,1.20e-03,6.00e-02,
523,0.00e+00,8.00e-02,
524,2.00e-03,6.00e-02,
525,-8.00e-04,8.00e-02,
526,-4.00e-04,6.00e-02,
527,1.20e-03,8.00e-02,
528,-8.00e-04,6.00e-02,
529,2.00e-03,8.00e-02,
530,2.00e-03,6.00e-02,
531,-1.20e-03,8.00e-02,
532,-1.20e-03,8.00e-02,
533,1.20e-03,6.00e-02,
534,-4.00e-04,8.00e-02,
535,2.00e-03,6.00e-02,
536,1.20e-03,6.00e-02,
537,0.00e+00,8.00e-02,
538,1.20e-03,8.00e-02,
539,0.00e+00,6.00e-02,
540,-8.00e-04,8.00e-02,
541,1.20e-03,4.00e-02,
542,1.20e-03,8.00e-02,
543,-1.20e-03,4.00e-02,
544,1.20e-03,8.00e-02,
545,-1.60e-03,4.00e-02,
546,-1.60e-03,8.00e-02,
547,2.40e-03,2.00e-02,
548,3.60e-03,8.00e-02,
549,-3.20e-03,2.00e-02,
550,1.60e-03,1.94e+00,
551,6.80e-03,-2.00e-02,
552,4.80e-03,1.60e-01,
553,-4.00e-04,1.20e-01,
554,5.20e-03,1.40e-01,
555,-1.60e-03,8.00e-02,
556,-1.20e-03,8.00e-02,
557,2.40e-03,1.00e-01,
558,2.40e-03,1.00e-01,
559,-1.20e-03,6.00e-02,
560,-1.20e-03,6.00e-02,
561,1.20e-03,1.00e-01,
562,1.20e-03,6.00e-02,
563,-8.00e-04,8.00e-02,
564,1.20e-03,6.00e-02,
565,-4.00e-04,8.00e-02,
566,1.20e-03,6.00e-02,
567,-4.00e-04,8.00e-02,
568,2.00e-03,6.00e-02,
569,-8.00e-04,8.00e-02,
570,-8.00e-04,8.00e-02,
571,2.40e-03,6.00e-02,
572,-1.20e-03,6.00e-02,
573,1.20e-03,8.00e-02,
574,2.00e-03,8.00e-02,
575,0.00e+00,6.00e-02,
576,1.20e-03,8.00e-02,
577,-8.00e-04,6.00e-02,
578,-4.00e-04,8.00e-02,
579,2.00e-03,4.00e-02,
580,2.40e-03,2.00e-02,
581,0.00e+00,8.00e-02,
582,0.00e+00,4.00e-02,
583,2.40e-03,8.00e-02,
584,2.40e-03,8.00e-02,
585,-1.20e-03,2.00e-02,
586,2.40e-03,8.00e-02,
587,-1.60e-03,2.00e-02,
588,3.60e-03,8.00e-02,
589,-4.00e-03,2.00e-02,
590,1.20e-03,2.00e-02,
591,7.60e-03,1.86e+00,
592,4.80e-03,1.60e-01,
593,-1.60e-03,1.20e-01,
594,5.60e-03,1.40e-01,
595,-2.00e-03,8.00e-02,
596,2.40e-03,1.00e-01,
597,-2.00e-03,8.00e-02,
598,-8.00e-04,1.00e-01,
599,2.40e-03,6.00e-02,
600,1.60e-03,6.00e-02,
601,-8.00e-04,1.00e-01,
602,1.20e-03,8.00e-02,
603,0.00e+00,6.00e-02,
604,-4.00e-04,6.00e-02,
605,1.20e-03,8.00e-02,
606,-8.00e-04,6.00e-02,
607,2.00e-03,8.00e-02,
608,0.00e+00,6.00e-02,
609,2.40e-03,8.00e-02,
610,2.40e-03,6.00e-02,
611,-8.00e-04,8.00e-02,
612,-8.00e-04,8.00e-02,
613,2.00e-03,6.00e-02,
614,2.00e-03,6.00e-02,
615,0.00e+00,8.00e-02,
616,0.00e+00,8.00e-02,
617,1.60e-03,4.00e-02,
618,0.00e+00,8.00e-02,
619,1.20e-03,4.00e-02,
620,-8.00e-04,8.00e-02,
621,1.20e-03,2.00e-02,
622,2.00e-03,8.00e-02,
623,-8.00e-04,2.00e-02,
624,-1.20e-03,8.00e-02,
625,1.20e-03,2.00e-02,
626,-1.60e-03,2.00e-02,
627,3.20e-03,8.00e-02,
628,4.00e-03,2.00e-02,
629,-4.00e-03,8.00e-02,
630,1.60e-03,2.00e-02,
631,7.20e-03,1.88e+00,
632,4.80e-03,1.60e-01,
633,-1.20e-03,1.20e-01,
634,5.20e-03,1.20e-01,
635,-2.40e-03,8.00e-02,
636,-1.20e-03,8.00e-02,
637,3.60e-03,1.00e-01,
638,3.60e-03,1.00e-01,
639,-8.00e-04,6.00e-02,
640,-1.20e-03,6.00e-02,
641,2.00e-03,1.00e-01,
642,2.00e-03,6.00e-02,
643,-8.00e-04,1.00e-01,
644,-8.00e-04,6.00e-02,
645,1.20e-03,8.00e-02,
646,1.20e-03,6.00e-02,
647,0.00e+00,8.00e-02,
648,1.20e-03,6.00e-02,
649,-8.00e-04,8.00e-02,
650,-1.20e-03,6.00e-02,
651,1.20e-03,8.00e-02,
652,-8.00e-04,6.00e-02,
653,2.00e-03,8.00e-02,
654,2.00e-03,6.00e-02,
655,0.00e+00,8.00e-02,
656,-1.20e-03,8.00e-02,
657,1.20e-03,6.00e-02,
658,0.00e+00,8.00e-02,
659,2.00e-03,2.00e-02,
660,0.00e+00,8.00e-02,
661,2.00e-03,4.00e-02,
662,-8.00e-04,8.00e-02,
663,2.40e-03,4.00e-02,
664,-1.20e-03,8.00e-02,
665,1.60e-03,2.00e-02,
666,-1.20e-03,8.00e-02,
667,3.60e-03,2.00e-02,
668,4.00e-03,8.00e-02,
669,-3.60e-03,2.00e-02,
670,4.00e-04,2.00e-02,
671,8.00e-03,1.96e+00,
672,5.20e-03,1.60e-01,
673,-1.20e-03,1.00e-01,
674,5.20e-03,1.40e-01,
675,-2.40e-03,8.00e-02,
676,-1.60e-03,8.00e-02,
677,2.80e-03,1.00e-01,
678,2.40e-03,6.00e-02,
679,-8.00e-04,1.00e-01,
680,-8.00e-04,1.00e-01,
681,2.00e-03,6.00e-02,
682,1.20e-03,8.00e-02,
683,0.00e+00,6.00e-02,
684,-4.00e-04,6.00e-02,
685,1.20e-03,8.00e-02,
686,2.00e-03,6.00e-02,
687,0.00e+00,8.00e-02,
688,0.00e+00,6.00e-02,
689,1.20e-03,8.00e-02,
690,-8.00e-04,6.00e-02,
691,1.60e-03,8.00e-02,
692,0.00e+00,6.00e-02,
693,1.20e-03,8.00e-02,
694,1.20e-03,6.00e-02,
695,0.00e+00,8.00e-02,
696,0.00e+00,6.00e-02,
697,1.20e-03,8.00e-02,
698,1.20e-03,8.00e-02,
699,0.00e+00,2.00e-02,
700,1.20e-03,4.00e-02,
701,-8.00e-04,8.00e-02,
702,-8.00e-04,8.00e-02,
703,2.00e-03,2.00e-02,
704,2.00e-03,8.00e-02,
705,-1.20e-03,2.00e-02,
706,-1.20e-03,8.00e-02,
707,3.20e-03,2.00e-02,
708,3.20e-03,2.00e-02,
709,-3.60e-03,8.00e-02,
710,1.20e-03,2.00e-02,
711,7.20e-03,1.62e+00,
712,4.80e-03,1.60e-01,
713,-1.20e-03,1.20e-01,
714,5.60e-03,8.00e-02,
715,-1.60e-03,1.40e-01,
716,-1.60e-03,1.00e-01,
717,2.40e-03,8.00e-02,
718,2.40e-03,1.00e-01,
719,-1.20e-03,6.00e-02,
720,0.00e+00,1.00e-01,
721,2.00e-03,6.00e-02,
722,2.00e-03,8.00e-02,
723,0.00e+00,6.00e-02,
724,1.20e-03,6.00e-02,
725,0.00e+00,8.00e-02,
726,1.20e-03,6.00e-02,
727,4.00e-04,8.00e-02,
728,0.00e+00,6.00e-02,
729,2.00e-03,8.00e-02,
730,1.20e-03,8.00e-02,
731,0.00e+00,6.00e-02,
732,0.00e+00,6.00e-02,
733,1.20e-03,8.00e-02,
734,1.20e-03,8.00e-02,
735,-4.00e-04,6.00e-02,
736,0.00e+00,8.00e-02,
737,1.20e-03,6.00e-02,
738,1.20e-03,8.00e-02,
739,0.00e+00,2.00e-02,
740,-4.00e-04,8.00e-02,
741,2.00e-03,2.00e-02,
742,1.60e-03,2.00e-02,
743,-1.20e-03,8.00e-02,
744,2.00e-03,2.00e-02,
745,-1.60e-03,8.00e-02,
746,-1.60e-03,8.00e-02,
747,2.40e-03,2.00e-02,
748,2.80e-03,2.00e-02,
749,-4.40e-03,8.00e-02,
750,8.00e-04,2.00e-02,
751,7.60e-03,1.88e+00,
752,4.80e-03,1.60e-01,
753,-1.20e-03,1.20e-01,
754,5.20e-03,1.40e-01,
755,-2.80e-03,8.00e-02,
756,-1.20e-03,1.00e-01,
757,2.80e-03,6.00e-02,
758,2.80e-03,1.00e-01,
759,-8.00e-04,6.00e-02,
760,-8.00e-04,1.00e-01,
761,2.40e-03,6.00e-02,
762,1.20e-03,8.00e-02,
763,0.00e+00,6.00e-02,
764,-8.00e-04,6.00e-02,
765,8.00e-04,8.00e-02,
766,8.00e-04,6.00e-02,
767,-4.00e-04,8.00e-02,
768,0.00e+00,6.00e-02,
769,2.00e-03,8.00e-02,
770,2.00e-03,8.00e-02,
771,0.00e+00,4.00e-02,
772,0.00e+00,8.00e-02,
773,1.20e-03,6.00e-02,
774,2.00e-03,6.00e-02,
775,4.00e-04,8.00e-02,
776,1.20e-03,8.00e-02,
777,0.00e+00,4.00e-02,
778,1.20e-03,8.00e-02,
779,-8.00e-04,4.00e-02,
780,-8.00e-04,4.00e-02,
781,8.00e-04,8.00e-02,
782,2.00e-03,8.00e-02,
783,-8.00e-04,4.00e-02,
784,2.00e-03,8.00e-02,
785,-1.60e-03,2.00e-02,
786,-1.20e-03,8.00e-02,
787,2.80e-03,2.00e-02,
788,3.60e-03,2.00e-02,
789,-4.40e-03,8.00e-02,
790,8.00e-04,2.00e-02,
791,7.60e-03,1.98e+00,
792,4.80e-03,1.60e-01,
793,-1.20e-03,1.20e-01,
794,5.20e-03,1.40e-01,
795,-1.60e-03,8.00e-02,
796,2.40e-03,1.00e-01,
797,-1.60e-03,8.00e-02,
798,-8.00e-04,1.00e-01,
799,2.40e-03,6.00e-02,
800,2.00e-03,6.00e-02,
801,-4.00e-04,1.00e-01,
802,0.00e+00,6.00e-02,
803,2.00e-03,8.00e-02,
804,0.00e+00,6.00e-02,
805,1.60e-03,8.00e-02,
806,1.20e-03,8.00e-02,
807,4.00e-04,6.00e-02,
808,0.00e+00,8.00e-02,
809,1.20e-03,6.00e-02,
810,0.00e+00,6.00e-02,
811,1.60e-03,8.00e-02,
812,1.20e-03,6.00e-02,
813,0.00e+00,8.00e-02,
814,4.00e-04,6.00e-02,
815,2.00e-03,8.00e-02,
816,0.00e+00,6.00e-02,
817,1.20e-03,8.00e-02,
818,0.00e+00,8.00e-02,
819,1.20e-03,6.00e-02,
820,-8.00e-04,6.00e-02,
821,1.60e-03,8.00e-02,
822,-8.00e-04,2.00e-02,
823,2.40e-03,8.00e-02,
824,-1.20e-03,8.00e-02,
825,2.00e-03,2.00e-02,
826,-1.60e-03,2.00e-02,
827,3.20e-03,8.00e-02,
828,4.00e-03,2.00e-02,
829,-3.60e-03,8.00e-02,
830,4.00e-04,2.00e-02,
831,7.60e-03,1.70e+00,
832,5.20e-03,1.60e-01,
833,-8.00e-04,1.20e-01,
834,5.60e-03,1.40e-01,
835,-2.40e-03,8.00e-02,
836,-1.60e-03,8.00e-02,
837,2.80e-03,1.00e-01,
838,2.40e-03,1.00e-01,
839,-1.60e-03,6.00e-02,
840,-8.00e-04,6.00e-02,
841,1.60e-03,8.00e-02,
842,1.60e-03,8.00e-02,
843,0.00e+00,6.00e-02,
844,0.00e+00,6.00e-02,
845,1.20e-03,8.00e-02,
846,1.20e-03,8.00e-02,
847,4.00e-04,6.00e-02,
848,1.20e-03,6.00e-02,
849,0.00e+00,8.00e-02,
850,1.20e-03,6.00e-02,
851,0.00e+00,8.00e-02,
852,1.20e-03,6.00e-02,
853,4.00e-04,8.00e-02,
854,4.00e-04,8.00e-02,
855,2.00e-03,4.00e-02,
