CarrPurc_P1-19_P2-38_tauVary/Gly86/NewFile1.csv

X,CH1,CH2,Start,Increment,
Sequence,Volt,Volt,-6.880000e-02,2.000000e-04
0,8.00e-04,4.00e-02,
1,0.00e+00,2.00e-02,
2,0.00e+00,4.00e-02,
3,1.20e-03,2.00e-02,
4,0.00e+00,4.00e-02,
5,1.20e-03,2.00e-02,
6,0.00e+00,2.00e-02,
7,1.20e-03,4.00e-02,
8,0.00e+00,4.00e-02,
9,1.20e-03,2.00e-02,
10,1.20e-03,4.00e-02,
11,4.00e-04,2.00e-02,
12,1.20e-03,4.00e-02,
13,0.00e+00,2.00e-02,
14,0.00e+00,4.00e-02,
15,1.20e-03,2.00e-02,
16,0.00e+00,4.00e-02,
17,1.20e-03,2.00e-02,
18,0.00e+00,4.00e-02,
19,1.20e-03,2.00e-02,
20,8.00e-04,2.00e-02,
21,0.00e+00,4.00e-02,
22,1.20e-03,4.00e-02,
23,0.00e+00,2.00e-02,
24,1.20e-03,4.00e-02,
25,0.00e+00,2.00e-02,
26,1.20e-03,4.00e-02,
27,0.00e+00,2.00e-02,
28,0.00e+00,4.00e-02,
29,8.00e-04,2.00e-02,
30,0.00e+00,2.00e-02,
31,1.20e-03,4.00e-02,
32,0.00e+00,4.00e-02,
33,1.20e-03,2.00e-02,
34,8.00e-04,4.00e-02,
35,0.00e+00,2.00e-02,
36,0.00e+00,4.00e-02,
37,1.20e-03,2.00e-02,
38,0.00e+00,4.00e-02,
39,1.20e-03,2.00e-02,
40,1.20e-03,2.00e-02,
41,0.00e+00,4.00e-02,
42,0.00e+00,4.00e-02,
43,1.20e-03,2.00e-02,
44,4.00e-04,4.00e-02,
45,1.20e-03,2.00e-02,
46,1.60e-03,4.00e-02,
47,0.00e+00,2.00e-02,
48,4.00e-04,4.00e-02,
49,1.20e-03,2.00e-02,
50,1.20e-03,4.00e-02,
51,4.00e-04,2.00e-02,
52,0.00e+00,2.00e-02,
53,1.20e-03,4.00e-02,
54,1.20e-03,4.00e-02,
55,0.00e+00,2.00e-02,
56,1.20e-03,4.00e-02,
57,4.00e-04,2.00e-02,
58,0.00e+00,4.00e-02,
59,1.20e-03,2.00e-02,
60,1.20e-03,4.00e-02,
61,0.00e+00,2.00e-02,
62,1.20e-03,4.00e-02,
63,0.00e+00,2.00e-02,
64,1.20e-03,4.00e-02,
65,0.00e+00,2.00e-02,
66,4.00e-04,4.00e-02,
67,1.20e-03,2.00e-02,
68,1.20e-03,4.00e-02,
69,0.00e+00,2.00e-02,
70,0.00e+00,4.00e-02,
71,1.20e-03,2.00e-02,
72,0.00e+00,4.00e-02,
73,1.20e-03,2.00e-02,
74,0.00e+00,4.00e-02,
75,1.20e-03,2.00e-02,
76,8.00e-04,4.00e-02,
77,0.00e+00,2.00e-02,
78,1.20e-03,4.00e-02,
79,0.00e+00,2.00e-02,
80,1.20e-03,4.00e-02,
81,0.00e+00,2.00e-02,
82,0.00e+00,4.00e-02,
83,1.20e-03,2.00e-02,
84,1.20e-03,4.00e-02,
85,0.00e+00,2.00e-02,
86,1.20e-03,2.00e-02,
87,0.00e+00,4.00e-02,
88,0.00e+00,4.00e-02,
89,1.20e-03,2.00e-02,
90,0.00e+00,4.00e-02,
91,1.20e-03,2.00e-02,
92,0.00e+00,4.00e-02,
93,1.20e-03,2.00e-02,
94,0.00e+00,4.00e-02,
95,1.20e-03,2.00e-02,
96,0.00e+00,4.00e-02,
97,1.20e-03,2.00e-02,
98,0.00e+00,4.00e-02,
99,1.20e-03,2.00e-02,
100,1.20e-03,4.00e-02,
101,0.00e+00,2.00e-02,
102,1.20e-03,4.00e-02,
103,0.00e+00,2.00e-02,
104,1.20e-03,4.00e-02,
105,0.00e+00,2.00e-02,
106,1.20e-03,2.00e-02,
107,4.00e-04,4.00e-02,
108,0.00e+00,4.00e-02,
109,1.20e-03,2.00e-02,
110,0.00e+00,4.00e-02,
111,1.20e-03,0.00e+00,
112,1.20e-03,4.00e-02,
113,0.00e+00,2.00e-02,
114,0.00e+00,4.00e-02,
115,1.20e-03,2.00e-02,
116,1.20e-03,4.00e-02,
117,0.00e+00,2.00e-02,
118,0.00e+00,4.00e-02,
119,1.20e-03,0.00e+00,
120,1.20e-03,2.00e-02,
121,0.00e+00,4.00e-02,
122,1.20e-03,4.00e-02,
123,0.00e+00,2.00e-02,
124,0.00e+00,2.00e-02,
125,1.20e-03,4.00e-02,
126,4.00e-04,4.00e-02,
127,1.20e-03,2.00e-02,
128,1.20e-03,2.00e-02,
129,0.00e+00,4.00e-02,
130,1.60e-03,2.00e-02,
131,0.00e+00,4.00e-02,
132,8.00e-04,2.00e-02,
133,0.00e+00,4.00e-02,
134,0.00e+00,2.00e-02,
135,1.20e-03,4.00e-02,
136,0.00e+00,4.00e-02,
137,1.20e-03,2.00e-02,
138,1.20e-03,4.00e-02,
139,0.00e+00,2.00e-02,
140,1.20e-03,2.00e-02,
141,0.00e+00,4.00e-02,
142,0.00e+00,4.00e-02,
143,1.20e-03,2.00e-02,
144,1.20e-03,4.00e-02,
145,0.00e+00,2.00e-02,
146,0.00e+00,4.00e-02,
147,1.20e-03,2.00e-02,
148,0.00e+00,4.00e-02,
149,1.20e-03,0.00e+00,
150,1.20e-03,2.00e-02,
151,0.00e+00,4.00e-02,
152,0.00e+00,4.00e-02,
153,1.20e-03,2.00e-02,
154,0.00e+00,4.00e-02,
155,8.00e-04,2.00e-02,
156,0.00e+00,2.00e-02,
157,1.20e-03,4.00e-02,
158,1.20e-03,4.00e-02,
159,0.00e+00,2.00e-02,
160,0.00e+00,4.00e-02,
161,1.20e-03,2.00e-02,
162,8.00e-04,4.00e-02,
163,0.00e+00,2.00e-02,
164,4.00e-04,4.00e-02,
165,1.20e-03,2.00e-02,
166,1.20e-03,2.00e-02,
167,0.00e+00,4.00e-02,
168,0.00e+00,4.00e-02,
169,8.00e-04,2.00e-02,
170,1.20e-03,4.00e-02,
171,0.00e+00,2.00e-02,
172,0.00e+00,2.00e-02,
173,8.00e-04,4.00e-02,
174,0.00e+00,4.00e-02,
175,1.20e-03,2.00e-02,
176,1.20e-03,4.00e-02,
177,0.00e+00,2.00e-02,
178,0.00e+00,4.00e-02,
179,1.20e-03,2.00e-02,
180,0.00e+00,4.00e-02,
181,1.20e-03,2.00e-02,
182,1.20e-03,4.00e-02,
183,0.00e+00,2.00e-02,
184,0.00e+00,4.00e-02,
185,1.20e-03,2.00e-02,
186,8.00e-04,4.00e-02,
187,0.00e+00,2.00e-02,
188,0.00e+00,4.00e-02,
189,8.00e-04,2.00e-02,
190,1.20e-03,4.00e-02,
191,0.00e+00,2.00e-02,
192,0.00e+00,4.00e-02,
193,1.20e-03,0.00e+00,
194,4.00e-04,2.00e-02,
195,1.20e-03,4.00e-02,
196,0.00e+00,4.00e-02,
197,1.20e-03,2.00e-02,
198,1.20e-03,4.00e-02,
199,0.00e+00,2.00e-02,
200,1.20e-03,2.00e-02,
201,0.00e+00,4.00e-02,
202,1.20e-03,4.00e-02,
203,0.00e+00,2.00e-02,
204,1.20e-03,4.00e-02,
205,0.00e+00,2.00e-02,
206,1.20e-03,2.00e-02,
207,0.00e+00,4.00e-02,
208,0.00e+00,4.00e-02,
209,1.20e-03,2.00e-02,
210,1.20e-03,4.00e-02,
211,0.00e+00,2.00e-02,
212,0.00e+00,4.00e-02,
213,1.20e-03,2.00e-02,
214,1.60e-03,4.00e-02,
215,4.00e-04,2.00e-02,
216,1.20e-03,4.00e-02,
217,0.00e+00,2.00e-02,
218,1.20e-03,4.00e-02,
219,0.00e+00,2.00e-02,
220,1.20e-03,4.00e-02,
221,4.00e-04,2.00e-02,
222,1.20e-03,4.00e-02,
223,0.00e+00,2.00e-02,
224,0.00e+00,4.00e-02,
225,1.20e-03,2.00e-02,
226,1.60e-03,4.00e-02,
227,0.00e+00,2.00e-02,
228,8.00e-04,2.00e-02,
229,-8.00e-04,4.00e-02,
230,0.00e+00,4.00e-02,
231,1.20e-03,2.00e-02,
232,1.20e-03,4.00e-02,
233,0.00e+00,2.00e-02,
234,1.20e-03,4.00e-02,
235,0.00e+00,2.00e-02,
236,1.20e-03,4.00e-02,
237,-8.00e-04,2.00e-02,
238,1.20e-03,4.00e-02,
239,0.00e+00,2.00e-02,
240,1.20e-03,4.00e-02,
241,0.00e+00,2.00e-02,
242,1.20e-03,4.00e-02,
243,0.00e+00,2.00e-02,
244,1.20e-03,4.00e-02,
245,0.00e+00,2.00e-02,
246,0.00e+00,2.00e-02,
247,1.20e-03,4.00e-02,
248,8.00e-04,4.00e-02,
249,0.00e+00,2.00e-02,
250,1.20e-03,4.00e-02,
251,0.00e+00,2.00e-02,
252,0.00e+00,4.00e-02,
253,1.20e-03,2.00e-02,
254,0.00e+00,4.00e-02,
255,1.20e-03,2.00e-02,
256,0.00e+00,4.00e-02,
257,1.20e-03,2.00e-02,
258,8.00e-04,4.00e-02,
259,0.00e+00,2.00e-02,
260,0.00e+00,4.00e-02,
261,1.20e-03,2.00e-02,
262,1.20e-03,4.00e-02,
263,-8.00e-04,2.00e-02,
264,0.00e+00,4.00e-02,
265,1.20e-03,0.00e+00,
266,8.00e-04,4.00e-02,
267,0.00e+00,0.00e+00,
268,4.00e-04,4.00e-02,
269,1.20e-03,2.00e-02,
270,1.20e-03,4.00e-02,
271,0.00e+00,2.00e-02,
272,0.00e+00,4.00e-02,
273,1.20e-03,2.00e-02,
274,0.00e+00,4.00e-02,
275,1.20e-03,2.00e-02,
276,0.00e+00,2.00e-02,
277,1.20e-03,4.00e-02,
278,8.00e-04,4.00e-02,
279,0.00e+00,2.00e-02,
280,0.00e+00,4.00e-02,
281,1.20e-03,2.00e-02,
282,8.00e-04,2.00e-02,
283,0.00e+00,4.00e-02,
284,1.20e-03,4.00e-02,
285,0.00e+00,2.00e-02,
286,4.00e-04,4.00e-02,
287,1.20e-03,2.00e-02,
288,0.00e+00,2.00e-02,
289,1.20e-03,4.00e-02,
290,1.20e-03,4.00e-02,
291,0.00e+00,2.00e-02,
292,1.20e-03,4.00e-02,
293,4.00e-04,2.00e-02,
294,0.00e+00,4.00e-02,
295,1.20e-03,2.00e-02,
296,1.20e-03,4.00e-02,
297,0.00e+00,2.00e-02,
298,0.00e+00,4.00e-02,
299,1.20e-03,2.00e-02,
300,1.20e-03,4.00e-02,
301,0.00e+00,2.00e-02,
302,1.20e-03,4.00e-02,
303,-8.00e-04,2.00e-02,
304,0.00e+00,2.00e-02,
305,1.20e-03,4.00e-02,
306,0.00e+00,4.00e-02,
307,1.20e-03,2.00e-02,
308,1.20e-03,2.00e-02,
309,0.00e+00,4.00e-02,
310,0.00e+00,4.00e-02,
311,1.20e-03,2.00e-02,
312,1.20e-03,2.00e-02,
313,0.00e+00,4.00e-02,
314,1.20e-03,2.00e-02,
315,0.00e+00,4.00e-02,
316,1.20e-03,4.00e-02,
317,0.00e+00,2.00e-02,
318,1.20e-03,4.00e-02,
319,0.00e+00,2.00e-02,
320,0.00e+00,4.00e-02,
321,1.20e-03,2.00e-02,
322,0.00e+00,4.00e-02,
323,1.20e-03,2.00e-02,
324,2.00e-03,4.00e-02,
325,0.00e+00,2.00e-02,
326,4.00e-04,4.00e-02,
327,1.20e-03,2.00e-02,
328,1.20e-03,4.00e-02,
329,0.00e+00,2.00e-02,
330,0.00e+00,4.00e-02,
331,1.20e-03,2.00e-02,
332,0.00e+00,4.00e-02,
333,1.20e-03,2.00e-02,
334,1.20e-03,4.00e-02,
335,0.00e+00,2.00e-02,
336,0.00e+00,4.00e-02,
337,1.20e-03,2.00e-02,
338,1.20e-03,4.00e-02,
339,0.00e+00,2.00e-02,
340,0.00e+00,4.00e-02,
341,1.20e-03,2.00e-02,
342,1.20e-03,4.00e-02,
343,0.00e+00,2.00e-02,
344,8.00e-04,4.00e-02,
345,-4.00e-04,2.00e-02,
346,5.60e-03,2.00e-02,
347,-2.60e-02,1.26e+00,
348,1.60e-02,1.20e-01,
349,-1.36e-02,8.00e-02,
350,4.00e-03,1.00e-01,
351,-2.00e-03,6.00e-02,
352,3.20e-03,6.00e-02,
353,-2.00e-03,8.00e-02,
354,2.00e-03,6.00e-02,
355,-8.00e-04,8.00e-02,
356,6.80e-03,6.00e-02,
357,-7.20e-03,2.22e+00,
358,-6.80e-03,1.40e-01,
359,6.40e-03,8.00e-02,
360,-8.00e-04,1.00e-01,
361,2.00e-03,6.00e-02,
362,-3.60e-03,6.00e-02,
363,6.00e-03,8.00e-02,
364,-1.56e-02,8.00e-02,
365,1.92e-02,6.00e-02,
366,-2.12e-02,6.00e-02,
367,2.56e-02,8.00e-02,
368,1.24e-02,6.00e-02,
369,-9.60e-03,8.00e-02,
370,3.20e-03,8.00e-02,
371,-8.00e-04,4.00e-02,
372,2.40e-03,8.00e-02,
373,-1.20e-03,2.00e-02,
374,2.00e-03,8.00e-02,
375,-8.00e-04,2.00e-02,
376,0.00e+00,2.00e-02,
377,7.20e-03,2.22e+00,
378,2.40e-03,1.40e-01,
379,-4.00e-04,8.00e-02,
380,2.40e-03,1.00e-01,
381,-8.00e-04,6.00e-02,
382,-3.20e-03,6.00e-02,
383,5.60e-03,8.00e-02,
384,1.16e-02,8.00e-02,
385,-1.32e-02,6.00e-02,
386,-1.64e-02,6.00e-02,
387,1.84e-02,8.00e-02,
388,8.00e-03,6.00e-02,
389,-6.00e-03,8.00e-02,
390,2.40e-03,8.00e-02,
391,-1.20e-03,4.00e-02,
392,-8.00e-04,8.00e-02,
393,2.00e-03,2.00e-02,
394,-3.60e-03,8.00e-02,
395,5.60e-03,2.00e-02,
396,7.20e-03,4.00e-02,
397,1.20e-03,2.20e+00,
398,3.20e-03,1.40e-01,
399,0.00e+00,8.00e-02,
400,2.00e-03,1.00e-01,
401,-8.00e-04,6.00e-02,
402,2.80e-03,8.00e-02,
403,-3.60e-03,6.00e-02,
404,1.16e-02,6.00e-02,
405,-1.28e-02,8.00e-02,
406,1.68e-02,6.00e-02,
407,-1.60e-02,8.00e-02,
408,8.40e-03,6.00e-02,
409,-6.00e-03,8.00e-02,
410,2.40e-03,8.00e-02,
411,-8.00e-04,2.00e-02,
412,2.40e-03,8.00e-02,
413,-8.00e-04,2.00e-02,
414,-2.80e-03,8.00e-02,
415,5.60e-03,2.00e-02,
416,7.20e-03,2.00e-02,
417,-8.00e-04,2.08e+00,
418,-1.20e-03,1.40e-01,
419,2.80e-03,8.00e-02,
420,2.40e-03,1.00e-01,
421,-1.20e-03,6.00e-02,
422,-2.00e-03,6.00e-02,
423,3.20e-03,8.00e-02,
424,8.00e-03,6.00e-02,
425,-1.12e-02,8.00e-02,
426,-1.44e-02,8.00e-02,
427,1.64e-02,6.00e-02,
428,8.40e-03,8.00e-02,
429,-5.60e-03,4.00e-02,
430,-8.00e-04,2.00e-02,
431,2.00e-03,8.00e-02,
432,2.00e-03,8.00e-02,
433,0.00e+00,4.00e-02,
434,-2.40e-03,8.00e-02,
435,4.00e-03,2.00e-02,
436,7.60e-03,-1.20e-01,
437,0.00e+00,2.04e+00,
438,3.20e-03,1.20e-01,
439,-8.00e-04,6.00e-02,
440,1.60e-03,1.00e-01,
441,-8.00e-04,6.00e-02,
442,-2.80e-03,6.00e-02,
443,4.40e-03,8.00e-02,
444,9.20e-03,8.00e-02,
445,-1.00e-02,6.00e-02,
446,-1.32e-02,6.00e-02,
447,1.44e-02,8.00e-02,
448,6.80e-03,6.00e-02,
449,-4.40e-03,8.00e-02,
450,2.40e-03,8.00e-02,
451,-8.00e-04,2.00e-02,
452,1.60e-03,8.00e-02,
453,-8.00e-04,2.00e-02,
454,-1.60e-03,8.00e-02,
455,3.60e-03,2.00e-02,
456,7.20e-03,2.00e-02,
457,1.20e-03,2.06e+00,
458,3.60e-03,1.20e-01,
459,-8.00e-04,8.00e-02,
460,0.00e+00,1.00e-01,
461,2.00e-03,6.00e-02,
462,-2.00e-03,6.00e-02,
463,3.20e-03,8.00e-02,
464,1.00e-02,6.00e-02,
465,-9.20e-03,8.00e-02,
466,1.44e-02,6.00e-02,
467,-1.32e-02,8.00e-02,
468,6.80e-03,6.00e-02,
469,-5.20e-03,8.00e-02,
470,2.40e-03,8.00e-02,
471,-8.00e-04,2.00e-02,
472,1.60e-03,4.00e-02,
473,-8.00e-04,8.00e-02,
474,-2.40e-03,8.00e-02,
475,4.40e-03,2.00e-02,
476,7.60e-03,4.00e-02,
477,1.20e-03,1.98e+00,
478,3.20e-03,1.40e-01,
479,0.00e+00,8.00e-02,
480,2.00e-03,1.00e-01,
481,-1.20e-03,6.00e-02,
482,2.80e-03,6.00e-02,
483,-1.60e-03,8.00e-02,
484,8.40e-03,8.00e-02,
485,-9.20e-03,6.00e-02,
486,-1.28e-02,6.00e-02,
487,1.24e-02,8.00e-02,
488,7.20e-03,8.00e-02,
489,-4.40e-03,6.00e-02,
490,2.40e-03,8.00e-02,
491,-8.00e-04,4.00e-02,
492,-4.00e-04,8.00e-02,
493,2.00e-03,2.00e-02,
494,-2.40e-03,8.00e-02,
495,4.00e-03,2.00e-02,
496,7.20e-03,2.00e-02,
497,0.00e+00,2.22e+00,
498,2.40e-03,1.40e-01,
499,0.00e+00,8.00e-02,
500,2.00e-03,1.00e-01,
501,-1.20e-03,6.00e-02,
502,-2.40e-03,6.00e-02,
503,3.20e-03,8.00e-02,
504,8.40e-03,6.00e-02,
505,-8.80e-03,8.00e-02,
506,-1.16e-02,6.00e-02,
507,1.32e-02,8.00e-02,
508,5.60e-03,6.00e-02,
509,-4.00e-03,8.00e-02,
510,2.00e-03,8.00e-02,
511,-8.00e-04,4.00e-02,
512,2.00e-03,8.00e-02,
513,-8.00e-04,2.00e-02,
514,-1.60e-03,2.00e-02,
515,3.20e-03,8.00e-02,
516,7.20e-03,4.00e-02,
517,0.00e+00,2.22e+00,
518,2.80e-03,1.20e-01,
519,0.00e+00,8.00e-02,
520,0.00e+00,1.00e-01,
521,2.40e-03,6.00e-02,
522,-2.00e-03,6.00e-02,
523,2.80e-03,8.00e-02,
524,7.60e-03,6.00e-02,
525,-8.40e-03,8.00e-02,
526,-1.12e-02,6.00e-02,
527,1.20e-02,8.00e-02,
528,6.00e-03,6.00e-02,
529,-4.00e-03,8.00e-02,
530,2.40e-03,8.00e-02,
531,-8.00e-04,2.00e-02,
532,2.40e-03,8.00e-02,
533,-1.20e-03,4.00e-02,
534,-1.60e-03,8.00e-02,
535,3.60e-03,2.00e-02,
536,6.80e-03,2.00e-02,
537,4.00e-04,2.20e+00,
538,3.60e-03,1.20e-01,
539,-8.00e-04,8.00e-02,
540,2.00e-03,1.00e-01,
541,-8.00e-04,6.00e-02,
542,-1.60e-03,8.00e-02,
543,2.80e-03,6.00e-02,
544,8.00e-03,6.00e-02,
545,-7.20e-03,8.00e-02,
546,-1.00e-02,6.00e-02,
547,1.12e-02,8.00e-02,
548,6.00e-03,6.00e-02,
549,-4.00e-03,8.00e-02,
550,2.40e-03,8.00e-02,
551,-8.00e-04,4.00e-02,
552,-8.00e-04,8.00e-02,
553,1.60e-03,2.00e-02,
554,3.20e-03,8.00e-02,
555,-2.40e-03,4.00e-02,
556,7.20e-03,2.00e-02,
557,1.20e-03,2.20e+00,
558,2.80e-03,1.40e-01,
559,0.00e+00,8.00e-02,
560,0.00e+00,1.00e-01,
561,2.40e-03,6.00e-02,
562,3.20e-03,6.00e-02,
563,-2.40e-03,8.00e-02,
564,8.00e-03,6.00e-02,
565,-8.00e-03,8.00e-02,
566,1.12e-02,6.00e-02,
567,-1.04e-02,8.00e-02,
568,5.60e-03,6.00e-02,
569,-3.20e-03,8.00e-02,
570,2.40e-03,8.00e-02,
571,-4.00e-04,4.00e-02,
572,2.00e-03,2.00e-02,
573,-4.00e-04,8.00e-02,
574,-1.20e-03,8.00e-02,
575,4.00e-03,2.00e-02,
576,7.20e-03,4.00e-02,
577,8.00e-04,2.02e+00,
578,3.60e-03,1.40e-01,
579,0.00e+00,8.00e-02,
580,-8.00e-04,1.00e-01,
581,2.40e-03,6.00e-02,
582,2.80e-03,6.00e-02,
583,-1.60e-03,1.00e-01,
584,6.80e-03,6.00e-02,
585,-7.60e-03,8.00e-02,
586,-8.80e-03,8.00e-02,
587,1.00e-02,6.00e-02,
588,-4.00e-03,8.00e-02,
589,4.40e-03,6.00e-02,
590,2.00e-03,8.00e-02,
591,0.00e+00,4.00e-02,
592,2.00e-03,8.00e-02,
593,-1.20e-03,4.00e-02,
594,-2.40e-03,8.00e-02,
595,3.20e-03,2.00e-02,
596,7.60e-03,2.00e-02,
597,8.00e-04,2.20e+00,
598,3.60e-03,1.40e-01,
599,-8.00e-04,8.00e-02,
600,2.40e-03,1.00e-01,
601,-8.00e-04,6.00e-02,
602,2.40e-03,8.00e-02,
603,-1.60e-03,6.00e-02,
604,6.40e-03,6.00e-02,
605,-6.00e-03,8.00e-02,
606,-8.40e-03,6.00e-02,
607,1.04e-02,8.00e-02,
608,4.80e-03,8.00e-02,
609,-3.20e-03,2.00e-02,
610,2.00e-03,8.00e-02,
611,0.00e+00,4.00e-02,
612,2.00e-03,8.00e-02,
613,-8.00e-04,4.00e-02,
614,-2.00e-03,2.00e-02,
615,4.00e-03,8.00e-02,
616,7.20e-03,4.00e-02,
617,4.00e-04,2.24e+00,
618,2.80e-03,1.40e-01,
619,-8.00e-04,8.00e-02,
620,2.40e-03,1.00e-01,
621,-4.00e-04,6.00e-02,
622,-1.60e-03,6.00e-02,
623,2.80e-03,8.00e-02,
624,6.00e-03,6.00e-02,
625,-7.20e-03,8.00e-02,
626,9.60e-03,6.00e-02,
627,-8.80e-03,8.00e-02,
628,-2.00e-03,8.00e-02,
629,4.80e-03,6.00e-02,
630,-8.00e-04,6.00e-02,
631,2.00e-03,8.00e-02,
632,-8.00e-04,8.00e-02,
633,2.40e-03,2.00e-02,
634,-2.40e-03,2.00e-02,
635,4.00e-03,8.00e-02,
636,8.00e-03,2.00e-02,
637,8.00e-04,2.22e+00,
638,4.00e-03,1.20e-01,
639,-4.00e-04,8.00e-02,
640,2.40e-03,1.00e-01,
641,-8.00e-04,6.00e-02,
642,2.00e-03,6.00e-02,
643,-1.60e-03,8.00e-02,
644,6.80e-03,6.00e-02,
645,-5.60e-03,8.00e-02,
646,-7.60e-03,6.00e-02,
647,1.00e-02,8.00e-02,
648,4.00e-03,8.00e-02,
649,-3.60e-03,4.00e-02,
650,2.40e-03,8.00e-02,
651,0.00e+00,2.00e-02,
652,2.00e-03,8.00e-02,
653,-8.00e-04,2.00e-02,
654,2.80e-03,2.00e-02,
655,-2.40e-03,8.00e-02,
656,7.20e-03,2.00e-02,
657,1.20e-03,2.18e+00,
658,3.60e-03,1.40e-01,
659,-4.00e-04,8.00e-02,
660,2.40e-03,1.00e-01,
661,-8.00e-04,6.00e-02,
662,2.40e-03,8.00e-02,
663,-1.20e-03,6.00e-02,
664,5.60e-03,6.00e-02,
665,-6.00e-03,8.00e-02,
666,-7.20e-03,8.00e-02,
667,9.20e-03,6.00e-02,
668,4.00e-03,8.00e-02,
669,-2.00e-03,6.00e-02,
670,1.20e-03,8.00e-02,
671,-8.00e-04,4.00e-02,
672,2.40e-03,8.00e-02,
673,-1.20e-03,2.00e-02,
674,2.80e-03,2.00e-02,
675,-2.00e-03,8.00e-02,
676,7.60e-03,2.00e-02,
677,8.00e-04,2.22e+00,
678,3.60e-03,1.20e-01,
679,-4.00e-04,8.00e-02,
680,2.40e-03,1.00e-01,
681,-8.00e-04,6.00e-02,
682,2.40e-03,8.00e-02,
683,-1.60e-03,6.00e-02,
684,5.60e-03,6.00e-02,
685,-6.00e-03,8.00e-02,
686,-7.20e-03,6.00e-02,
687,8.80e-03,8.00e-02,
688,4.00e-03,6.00e-02,
689,-2.80e-03,8.00e-02,
690,2.40e-03,8.00e-02,
691,-8.00e-04,2.00e-02,
692,2.00e-03,8.00e-02,
693,-8.00e-04,4.00e-02,
694,3.20e-03,8.00e-02,
695,-2.00e-03,2.00e-02,
696,7.20e-03,4.00e-02,
697,1.20e-03,2.22e+00,
698,4.00e-03,1.40e-01,
699,-8.00e-04,8.00e-02,
700,2.40e-03,1.00e-01,
701,-8.00e-04,6.00e-02,
702,2.40e-03,6.00e-02,
703,-1.20e-03,8.00e-02,
704,5.20e-03,6.00e-02,
705,-5.20e-03,8.00e-02,
706,8.00e-03,8.00e-02,
707,-6.40e-03,6.00e-02,
708,4.00e-03,8.00e-02,
709,-2.40e-03,2.00e-02,
710,-8.00e-04,8.00e-02,
711,2.40e-03,4.00e-02,
712,2.40e-03,8.00e-02,
713,-8.00e-04,2.00e-02,
714,3.60e-03,8.00e-02,
715,-2.80e-03,2.00e-02,
716,8.00e-03,2.00e-02,
717,8.00e-04,2.24e+00,
718,4.40e-03,1.20e-01,
719,-8.00e-04,8.00e-02,
720,2.00e-03,1.00e-01,
721,-8.00e-04,6.00e-02,
722,2.40e-03,8.00e-02,
723,-8.00e-04,6.00e-02,
724,5.60e-03,6.00e-02,
725,-4.80e-03,8.00e-02,
726,8.00e-03,6.00e-02,
727,-6.40e-03,8.00e-02,
728,4.00e-03,6.00e-02,
729,-2.40e-03,8.00e-02,
730,2.00e-03,8.00e-02,
731,-8.00e-04,2.00e-02,
732,-1.20e-03,8.00e-02,
733,2.40e-03,2.00e-02,
734,2.80e-03,8.00e-02,
735,-2.80e-03,2.00e-02,
736,7.20e-03,2.00e-02,
737,1.20e-03,2.16e+00,
738,4.40e-03,1.40e-01,
739,-4.00e-04,8.00e-02,
740,2.40e-03,1.00e-01,
741,-8.00e-04,6.00e-02,
742,2.00e-03,6.00e-02,
743,-1.60e-03,8.00e-02,
744,5.60e-03,6.00e-02,
745,-5.20e-03,8.00e-02,
746,8.00e-03,8.00e-02,
747,-6.00e-03,6.00e-02,
748,3.60e-03,8.00e-02,
749,-2.40e-03,4.00e-02,
750,-8.00e-04,8.00e-02,
751,2.00e-03,2.00e-02,
752,-8.00e-04,8.00e-02,
753,2.00e-03,2.00e-02,
754,2.80e-03,8.00e-02,
755,-2.80e-03,2.00e-02,
756,7.60e-03,2.18e+00,
757,4.00e-04,2.00e-02,
758,4.00e-03,1.20e-01,
759,-1.20e-03,8.00e-02,
760,2.40e-03,1.00e-01,
761,-8.00e-04,6.00e-02,
762,2.40e-03,8.00e-02,
763,-8.00e-04,6.00e-02,
764,4.40e-03,6.00e-02,
765,-5.20e-03,8.00e-02,
766,-6.00e-03,6.00e-02,
767,7.20e-03,8.00e-02,
768,4.00e-03,6.00e-02,
769,-2.40e-03,8.00e-02,
770,2.40e-03,8.00e-02,
771,-4.00e-04,6.00e-02,
772,2.40e-03,8.00e-02,
773,-8.00e-04,2.00e-02,
774,3.60e-03,8.00e-02,
775,-2.00e-03,2.00e-02,
776,7.20e-03,2.00e-02,
777,1.20e-03,1.98e+00,
778,4.00e-03,1.20e-01,
779,-8.00e-04,8.00e-02,
780,2.40e-03,1.00e-01,
781,-8.00e-04,6.00e-02,
782,2.40e-03,8.00e-02,
783,-4.00e-04,6.00e-02,
784,4.00e-03,6.00e-02,
785,-4.00e-03,8.00e-02,
786,-5.20e-03,6.00e-02,
787,7.20e-03,8.00e-02,
788,4.00e-03,6.00e-02,
789,-1.60e-03,8.00e-02,
790,2.40e-03,8.00e-02,
791,-8.00e-04,2.00e-02,
792,2.00e-03,8.00e-02,
793,-8.00e-04,2.00e-02,
794,2.80e-03,8.00e-02,
795,-2.80e-03,2.00e-02,
796,7.60e-03,2.00e-02,
797,1.20e-03,2.20e+00,
798,4.80e-03,1.40e-01,
799,-4.00e-04,8.00e-02,
800,2.00e-03,1.00e-01,
801,-8.00e-04,6.00e-02,
802,2.00e-03,6.00e-02,
803,-1.20e-03,1.00e-01,
804,4.80e-03,6.00e-02,
805,-4.40e-03,8.00e-02,
806,6.80e-03,8.00e-02,
807,-5.60e-03,6.00e-02,
808,4.00e-03,8.00e-02,
809,-1.60e-03,6.00e-02,
810,0.00e+00,8.00e-02,
811,2.00e-03,4.00e-02,
812,2.00e-03,8.00e-02,
813,-1.20e-03,4.00e-02,
814,3.60e-03,8.00e-02,
815,-3.20e-03,2.00e-02,
816,7.60e-03,4.00e-02,
817,1.60e-03,2.22e+00,
818,4.80e-03,1.40e-01,
819,-1.20e-03,8.00e-02,
820,2.40e-03,1.00e-01,
821,-8.00e-04,6.00e-02,
822,2.40e-03,6.00e-02,
823,-8.00e-04,8.00e-02,
824,4.80e-03,8.00e-02,
825,-4.40e-03,6.00e-02,
826,-5.20e-03,6.00e-02,
827,6.80e-03,8.00e-02,
828,4.00e-03,6.00e-02,
829,-2.00e-03,8.00e-02,
830,2.00e-03,8.00e-02,
831,-8.00e-04,4.00e-02,
832,-8.00e-04,8.00e-02,
833,2.40e-03,2.00e-02,
834,4.00e-03,8.00e-02,
835,-3.60e-03,2.00e-02,
836,8.00e-03,2.00e-02,
837,1.20e-03,2.08e+00,
838,4.40e-03,1.20e-01,
839,-1.60e-03,8.00e-02,
840,2.40e-03,1.00e-01,
841,-8.00e-04,6.00e-02,
842,2.00e-03,8.00e-02,
843,-8.00e-04,6.00e-02,
844,4.00e-03,6.00e-02,
845,-3.20e-03,8.00e-02,
846,-5.60e-03,8.00e-02,
847,6.00e-03,6.00e-02,
848,4.00e-03,8.00e-02,
849,-1.20e-03,4.00e-02,
850,-4.00e-04,8.00e-02,
851,2.00e-03,2.00e-02,
852,2.40e-03,8.00e-02,
853,-8.00e-04,2.00e-02,
854,4.00e-03,2.00e-02,
855,-3.20e-03,8.00e-02,
856,8.00e-03,2.00e-02,
857,8.00e-04,2.08e+00,
858,4.40e-03,1.40e-01,
859,-1.20e-03,8.00e-02,
860,2.40e-03,1.00e-01,
