CarrPurc_P1-19_P2-38_tauVary/Gly86/NewFile7.csv

X,CH1,CH2,Start,Increment,
Sequence,Volt,Volt,-6.880000e-02,2.000000e-04
0,1.20e-03,4.00e-02,
1,4.00e-04,0.00e+00,
2,1.20e-03,4.00e-02,
3,4.00e-04,0.00e+00,
4,1.20e-03,4.00e-02,
5,0.00e+00,0.00e+00,
6,0.00e+00,4.00e-02,
7,1.20e-03,0.00e+00,
8,0.00e+00,4.00e-02,
9,1.20e-03,0.00e+00,
10,1.20e-03,4.00e-02,
11,0.00e+00,0.00e+00,
12,0.00e+00,0.00e+00,
13,1.20e-03,4.00e-02,
14,1.20e-03,4.00e-02,
15,0.00e+00,0.00e+00,
16,4.00e-04,4.00e-02,
17,1.20e-03,0.00e+00,
18,1.20e-03,4.00e-02,
19,0.00e+00,0.00e+00,
20,1.20e-03,0.00e+00,
21,4.00e-04,4.00e-02,
22,1.20e-03,4.00e-02,
23,0.00e+00,0.00e+00,
24,1.20e-03,4.00e-02,
25,4.00e-04,0.00e+00,
26,1.60e-03,4.00e-02,
27,0.00e+00,0.00e+00,
28,1.20e-03,4.00e-02,
29,0.00e+00,2.00e-02,
30,4.00e-04,0.00e+00,
31,1.20e-03,4.00e-02,
32,4.00e-04,4.00e-02,
33,2.00e-03,0.00e+00,
34,1.20e-03,4.00e-02,
35,0.00e+00,0.00e+00,
36,1.20e-03,4.00e-02,
37,4.00e-04,0.00e+00,
38,8.00e-04,4.00e-02,
39,0.00e+00,0.00e+00,
40,1.20e-03,4.00e-02,
41,0.00e+00,0.00e+00,
42,1.20e-03,4.00e-02,
43,0.00e+00,0.00e+00,
44,4.00e-04,4.00e-02,
45,1.20e-03,0.00e+00,
46,0.00e+00,4.00e-02,
47,1.20e-03,0.00e+00,
48,4.00e-04,4.00e-02,
49,1.20e-03,0.00e+00,
50,4.00e-04,0.00e+00,
51,2.00e-03,4.00e-02,
52,1.20e-03,4.00e-02,
53,0.00e+00,0.00e+00,
54,0.00e+00,4.00e-02,
55,1.20e-03,0.00e+00,
56,4.00e-04,4.00e-02,
57,1.20e-03,0.00e+00,
58,4.00e-04,4.00e-02,
59,1.20e-03,0.00e+00,
60,1.20e-03,0.00e+00,
61,4.00e-04,4.00e-02,
62,1.20e-03,4.00e-02,
63,4.00e-04,0.00e+00,
64,1.20e-03,4.00e-02,
65,0.00e+00,0.00e+00,
66,1.20e-03,4.00e-02,
67,0.00e+00,0.00e+00,
68,0.00e+00,4.00e-02,
69,1.20e-03,0.00e+00,
70,1.20e-03,4.00e-02,
71,4.00e-04,0.00e+00,
72,4.00e-04,0.00e+00,
73,1.20e-03,4.00e-02,
74,0.00e+00,4.00e-02,
75,1.20e-03,0.00e+00,
76,4.00e-04,4.00e-02,
77,1.20e-03,0.00e+00,
78,1.20e-03,0.00e+00,
79,0.00e+00,4.00e-02,
80,4.00e-04,4.00e-02,
81,1.20e-03,0.00e+00,
82,1.20e-03,4.00e-02,
83,-4.00e-04,2.00e-02,
84,1.20e-03,4.00e-02,
85,0.00e+00,0.00e+00,
86,1.20e-03,4.00e-02,
87,0.00e+00,0.00e+00,
88,1.20e-03,4.00e-02,
89,0.00e+00,0.00e+00,
90,1.20e-03,4.00e-02,
91,0.00e+00,0.00e+00,
92,1.20e-03,0.00e+00,
93,0.00e+00,4.00e-02,
94,1.20e-03,4.00e-02,
95,0.00e+00,0.00e+00,
96,1.20e-03,4.00e-02,
97,0.00e+00,0.00e+00,
98,8.00e-04,4.00e-02,
99,0.00e+00,0.00e+00,
100,4.00e-04,4.00e-02,
101,1.20e-03,0.00e+00,
102,1.20e-03,4.00e-02,
103,4.00e-04,0.00e+00,
104,0.00e+00,4.00e-02,
105,1.20e-03,0.00e+00,
106,0.00e+00,4.00e-02,
107,1.20e-03,0.00e+00,
108,8.00e-04,4.00e-02,
109,0.00e+00,0.00e+00,
110,0.00e+00,0.00e+00,
111,1.20e-03,4.00e-02,
112,1.20e-03,4.00e-02,
113,0.00e+00,0.00e+00,
114,1.20e-03,4.00e-02,
115,0.00e+00,0.00e+00,
116,1.20e-03,4.00e-02,
117,4.00e-04,0.00e+00,
118,4.00e-04,0.00e+00,
119,1.20e-03,4.00e-02,
120,0.00e+00,4.00e-02,
121,1.20e-03,0.00e+00,
122,1.20e-03,4.00e-02,
123,0.00e+00,0.00e+00,
124,4.00e-04,4.00e-02,
125,1.20e-03,0.00e+00,
126,1.20e-03,4.00e-02,
127,0.00e+00,0.00e+00,
128,1.20e-03,0.00e+00,
129,4.00e-04,4.00e-02,
130,1.20e-03,4.00e-02,
131,0.00e+00,0.00e+00,
132,1.20e-03,0.00e+00,
133,0.00e+00,4.00e-02,
134,1.20e-03,4.00e-02,
135,0.00e+00,0.00e+00,
136,1.20e-03,4.00e-02,
137,0.00e+00,0.00e+00,
138,0.00e+00,4.00e-02,
139,1.20e-03,0.00e+00,
140,0.00e+00,0.00e+00,
141,1.20e-03,4.00e-02,
142,8.00e-04,4.00e-02,
143,-4.00e-04,2.00e-02,
144,0.00e+00,4.00e-02,
145,2.00e-03,0.00e+00,
146,1.20e-03,4.00e-02,
147,0.00e+00,0.00e+00,
148,1.20e-03,4.00e-02,
149,0.00e+00,0.00e+00,
150,1.20e-03,4.00e-02,
151,4.00e-04,0.00e+00,
152,1.20e-03,4.00e-02,
153,0.00e+00,0.00e+00,
154,4.00e-04,4.00e-02,
155,1.20e-03,0.00e+00,
156,1.20e-03,4.00e-02,
157,0.00e+00,0.00e+00,
158,0.00e+00,4.00e-02,
159,1.20e-03,0.00e+00,
160,1.20e-03,4.00e-02,
161,0.00e+00,0.00e+00,
162,4.00e-04,4.00e-02,
163,1.20e-03,0.00e+00,
164,0.00e+00,4.00e-02,
165,1.20e-03,0.00e+00,
166,1.20e-03,0.00e+00,
167,0.00e+00,4.00e-02,
168,1.20e-03,4.00e-02,
169,0.00e+00,0.00e+00,
170,1.20e-03,4.00e-02,
171,0.00e+00,0.00e+00,
172,1.20e-03,4.00e-02,
173,0.00e+00,0.00e+00,
174,0.00e+00,4.00e-02,
175,1.20e-03,0.00e+00,
176,4.00e-04,4.00e-02,
177,1.20e-03,0.00e+00,
178,0.00e+00,4.00e-02,
179,1.20e-03,0.00e+00,
180,8.00e-04,4.00e-02,
181,0.00e+00,0.00e+00,
182,0.00e+00,4.00e-02,
183,1.20e-03,0.00e+00,
184,4.00e-04,4.00e-02,
185,1.20e-03,0.00e+00,
186,0.00e+00,0.00e+00,
187,1.20e-03,4.00e-02,
188,1.20e-03,4.00e-02,
189,0.00e+00,0.00e+00,
190,1.20e-03,4.00e-02,
191,0.00e+00,0.00e+00,
192,1.20e-03,4.00e-02,
193,0.00e+00,0.00e+00,
194,4.00e-04,4.00e-02,
195,1.20e-03,0.00e+00,
196,1.20e-03,4.00e-02,
197,4.00e-04,0.00e+00,
198,4.00e-04,4.00e-02,
199,8.00e-04,0.00e+00,
200,0.00e+00,4.00e-02,
201,1.20e-03,0.00e+00,
202,1.20e-03,0.00e+00,
203,4.00e-04,4.00e-02,
204,1.20e-03,4.00e-02,
205,0.00e+00,2.00e-02,
206,1.20e-03,4.00e-02,
207,0.00e+00,0.00e+00,
208,0.00e+00,4.00e-02,
209,1.20e-03,0.00e+00,
210,1.20e-03,4.00e-02,
211,0.00e+00,0.00e+00,
212,0.00e+00,0.00e+00,
213,1.20e-03,4.00e-02,
214,1.20e-03,0.00e+00,
215,0.00e+00,4.00e-02,
216,1.20e-03,4.00e-02,
217,0.00e+00,0.00e+00,
218,1.20e-03,4.00e-02,
219,-8.00e-04,0.00e+00,
220,1.20e-03,0.00e+00,
221,0.00e+00,4.00e-02,
222,4.00e-04,4.00e-02,
223,2.00e-03,0.00e+00,
224,2.00e-03,4.00e-02,
225,0.00e+00,0.00e+00,
226,1.20e-03,4.00e-02,
227,0.00e+00,0.00e+00,
228,4.00e-04,4.00e-02,
229,2.00e-03,0.00e+00,
230,1.20e-03,4.00e-02,
231,0.00e+00,0.00e+00,
232,1.20e-03,4.00e-02,
233,0.00e+00,0.00e+00,
234,1.20e-03,4.00e-02,
235,0.00e+00,0.00e+00,
236,0.00e+00,4.00e-02,
237,1.20e-03,0.00e+00,
238,1.20e-03,4.00e-02,
239,0.00e+00,2.00e-02,
240,1.20e-03,4.00e-02,
241,0.00e+00,0.00e+00,
242,1.20e-03,4.00e-02,
243,0.00e+00,0.00e+00,
244,4.00e-04,4.00e-02,
245,1.20e-03,0.00e+00,
246,1.20e-03,4.00e-02,
247,0.00e+00,0.00e+00,
248,0.00e+00,4.00e-02,
249,1.20e-03,0.00e+00,
250,4.00e-04,4.00e-02,
251,1.20e-03,0.00e+00,
252,4.00e-04,4.00e-02,
253,1.20e-03,0.00e+00,
254,0.00e+00,4.00e-02,
255,1.20e-03,0.00e+00,
256,0.00e+00,4.00e-02,
257,1.20e-03,0.00e+00,
258,1.20e-03,4.00e-02,
259,4.00e-04,0.00e+00,
260,0.00e+00,4.00e-02,
261,1.20e-03,0.00e+00,
262,0.00e+00,4.00e-02,
263,1.20e-03,0.00e+00,
264,0.00e+00,4.00e-02,
265,1.20e-03,0.00e+00,
266,4.00e-04,4.00e-02,
267,1.20e-03,0.00e+00,
268,1.20e-03,4.00e-02,
269,0.00e+00,0.00e+00,
270,1.20e-03,4.00e-02,
271,0.00e+00,0.00e+00,
272,1.20e-03,4.00e-02,
273,4.00e-04,0.00e+00,
274,0.00e+00,4.00e-02,
275,1.20e-03,2.00e-02,
276,1.20e-03,2.00e-02,
277,4.00e-04,4.00e-02,
278,1.20e-03,4.00e-02,
279,0.00e+00,0.00e+00,
280,1.20e-03,4.00e-02,
281,0.00e+00,0.00e+00,
282,1.20e-03,4.00e-02,
283,0.00e+00,0.00e+00,
284,0.00e+00,4.00e-02,
285,1.20e-03,0.00e+00,
286,4.00e-04,4.00e-02,
287,1.20e-03,0.00e+00,
288,1.20e-03,4.00e-02,
289,0.00e+00,0.00e+00,
290,1.20e-03,4.00e-02,
291,0.00e+00,0.00e+00,
292,0.00e+00,4.00e-02,
293,2.00e-03,0.00e+00,
294,4.00e-04,4.00e-02,
295,1.60e-03,0.00e+00,
296,4.00e-04,4.00e-02,
297,1.20e-03,0.00e+00,
298,4.00e-04,4.00e-02,
299,1.20e-03,0.00e+00,
300,4.00e-04,4.00e-02,
301,1.20e-03,0.00e+00,
302,1.20e-03,4.00e-02,
303,0.00e+00,0.00e+00,
304,1.20e-03,4.00e-02,
305,4.00e-04,0.00e+00,
306,1.20e-03,4.00e-02,
307,0.00e+00,0.00e+00,
308,0.00e+00,4.00e-02,
309,1.20e-03,0.00e+00,
310,2.00e-03,4.00e-02,
311,4.00e-04,0.00e+00,
312,1.20e-03,4.00e-02,
313,4.00e-04,0.00e+00,
314,1.20e-03,0.00e+00,
315,0.00e+00,4.00e-02,
316,1.20e-03,4.00e-02,
317,0.00e+00,0.00e+00,
318,1.20e-03,4.00e-02,
319,0.00e+00,0.00e+00,
320,1.20e-03,4.00e-02,
321,0.00e+00,0.00e+00,
322,4.00e-04,0.00e+00,
323,1.20e-03,4.00e-02,
324,1.20e-03,4.00e-02,
325,0.00e+00,0.00e+00,
326,0.00e+00,0.00e+00,
327,1.20e-03,4.00e-02,
328,1.20e-03,4.00e-02,
329,4.00e-04,0.00e+00,
330,1.20e-03,4.00e-02,
331,0.00e+00,0.00e+00,
332,4.00e-04,4.00e-02,
333,1.20e-03,0.00e+00,
334,1.20e-03,0.00e+00,
335,0.00e+00,4.00e-02,
336,1.20e-03,4.00e-02,
337,0.00e+00,0.00e+00,
338,4.00e-04,0.00e+00,
339,1.60e-03,4.00e-02,
340,1.20e-03,4.00e-02,
341,0.00e+00,0.00e+00,
342,1.20e-03,4.00e-02,
343,0.00e+00,0.00e+00,
344,1.20e-03,4.00e-02,
345,0.00e+00,0.00e+00,
346,5.60e-03,2.00e-02,
347,-2.80e-02,2.22e+00,
348,1.48e-02,1.00e-01,
349,-1.40e-02,6.00e-02,
350,3.60e-03,1.00e-01,
351,-2.80e-03,6.00e-02,
352,3.20e-03,6.00e-02,
353,-1.20e-03,8.00e-02,
354,2.40e-03,8.00e-02,
355,-8.00e-04,4.00e-02,
356,7.20e-03,4.00e-02,
357,-7.20e-03,2.20e+00,
358,-6.80e-03,8.00e-02,
359,5.60e-03,1.00e-01,
360,2.40e-03,6.00e-02,
361,-8.00e-04,1.00e-01,
362,-2.80e-03,6.00e-02,
363,6.00e-03,8.00e-02,
364,-1.48e-02,8.00e-02,
365,1.88e-02,6.00e-02,
366,-2.16e-02,8.00e-02,
367,2.32e-02,4.00e-02,
368,1.24e-02,8.00e-02,
369,-8.80e-03,2.00e-02,
370,3.20e-03,2.00e-02,
371,-8.00e-04,8.00e-02,
372,-8.00e-04,2.00e-02,
373,2.80e-03,8.00e-02,
374,2.40e-03,2.00e-02,
375,-4.00e-04,4.00e-02,
376,4.00e-04,2.08e+00,
377,7.20e-03,0.00e+00,
378,2.80e-03,1.00e-01,
379,-8.00e-04,6.00e-02,
380,-8.00e-04,6.00e-02,
381,2.00e-03,1.00e-01,
382,-3.20e-03,6.00e-02,
383,5.60e-03,8.00e-02,
384,1.24e-02,8.00e-02,
385,-1.40e-02,6.00e-02,
386,-1.76e-02,8.00e-02,
387,1.76e-02,2.00e-02,
388,8.00e-03,8.00e-02,
389,-6.00e-03,2.00e-02,
390,2.80e-03,8.00e-02,
391,-1.20e-03,2.00e-02,
392,2.40e-03,2.00e-02,
393,-8.00e-04,6.00e-02,
394,-3.20e-03,4.00e-02,
395,5.20e-03,2.00e-02,
396,7.20e-03,2.00e-02,
397,4.00e-04,2.22e+00,
398,3.20e-03,1.20e-01,
399,-4.00e-04,6.00e-02,
400,2.00e-03,1.00e-01,
401,-1.20e-03,6.00e-02,
402,3.60e-03,8.00e-02,
403,-2.80e-03,6.00e-02,
404,1.16e-02,6.00e-02,
405,-1.32e-02,8.00e-02,
406,1.72e-02,8.00e-02,
407,-1.56e-02,4.00e-02,
408,8.40e-03,8.00e-02,
409,-6.00e-03,2.00e-02,
410,2.00e-03,2.00e-02,
411,-8.00e-04,8.00e-02,
412,-8.00e-04,2.00e-02,
413,2.00e-03,6.00e-02,
414,-3.60e-03,4.00e-02,
415,5.20e-03,2.00e-02,
416,7.60e-03,2.00e-02,
417,-1.20e-03,2.20e+00,
418,-1.20e-03,1.00e-01,
419,3.60e-03,6.00e-02,
420,2.40e-03,1.00e-01,
421,-1.20e-03,6.00e-02,
422,2.80e-03,6.00e-02,
423,-2.40e-03,8.00e-02,
424,8.40e-03,6.00e-02,
425,-8.80e-03,8.00e-02,
426,1.56e-02,8.00e-02,
427,-1.32e-02,4.00e-02,
428,8.00e-03,8.00e-02,
429,-5.60e-03,2.00e-02,
430,2.00e-03,2.00e-02,
431,-4.00e-04,8.00e-02,
432,-8.00e-04,8.00e-02,
433,2.00e-03,2.00e-02,
434,-1.60e-03,2.00e-02,
435,3.60e-03,6.00e-02,
436,7.60e-03,2.00e-02,
437,-4.00e-04,2.06e+00,
438,-4.00e-04,1.20e-01,
439,3.20e-03,6.00e-02,
440,-8.00e-04,1.00e-01,
441,2.00e-03,6.00e-02,
442,-3.60e-03,6.00e-02,
443,4.00e-03,8.00e-02,
444,9.20e-03,8.00e-02,
445,-1.00e-02,6.00e-02,
446,-1.32e-02,8.00e-02,
447,1.52e-02,4.00e-02,
448,6.00e-03,2.00e-02,
449,-4.40e-03,8.00e-02,
450,2.40e-03,8.00e-02,
451,-8.00e-04,2.00e-02,
452,-8.00e-04,8.00e-02,
453,2.00e-03,2.00e-02,
454,-1.60e-03,4.00e-02,
455,3.20e-03,2.00e-02,
456,7.60e-03,2.00e-02,
457,4.00e-04,2.22e+00,
458,2.80e-03,1.20e-01,
459,0.00e+00,6.00e-02,
460,0.00e+00,1.00e-01,
461,2.00e-03,6.00e-02,
462,-1.60e-03,6.00e-02,
463,3.20e-03,8.00e-02,
464,9.60e-03,6.00e-02,
465,-1.04e-02,8.00e-02,
466,-1.20e-02,8.00e-02,
467,1.44e-02,4.00e-02,
468,7.20e-03,8.00e-02,
469,-5.20e-03,2.00e-02,
470,2.80e-03,8.00e-02,
471,-8.00e-04,2.00e-02,
472,2.40e-03,4.00e-02,
473,0.00e+00,2.00e-02,
474,-2.40e-03,4.00e-02,
475,4.00e-03,2.00e-02,
476,7.20e-03,2.00e-02,
477,1.20e-03,2.20e+00,
478,2.80e-03,1.20e-01,
479,0.00e+00,6.00e-02,
480,2.40e-03,6.00e-02,
481,-1.20e-03,1.00e-01,
482,2.80e-03,6.00e-02,
483,-1.60e-03,8.00e-02,
484,8.00e-03,8.00e-02,
485,-9.20e-03,4.00e-02,
486,-1.20e-02,8.00e-02,
487,1.32e-02,2.00e-02,
488,8.00e-03,8.00e-02,
489,-3.60e-03,2.00e-02,
490,2.00e-03,8.00e-02,
491,0.00e+00,2.00e-02,
492,0.00e+00,2.00e-02,
493,2.00e-03,8.00e-02,
494,-1.60e-03,6.00e-02,
495,4.00e-03,2.00e-02,
496,7.20e-03,2.00e-02,
497,4.00e-04,2.04e+00,
498,2.80e-03,1.20e-01,
499,-8.00e-04,6.00e-02,
500,2.40e-03,6.00e-02,
501,-8.00e-04,1.00e-01,
502,-2.00e-03,6.00e-02,
503,4.00e-03,8.00e-02,
504,9.20e-03,6.00e-02,
505,-9.60e-03,8.00e-02,
506,-1.12e-02,8.00e-02,
507,1.28e-02,2.00e-02,
508,6.40e-03,8.00e-02,
509,-4.00e-03,2.00e-02,
510,2.40e-03,8.00e-02,
511,0.00e+00,2.00e-02,
512,2.00e-03,2.00e-02,
513,0.00e+00,8.00e-02,
514,-2.40e-03,4.00e-02,
515,3.60e-03,2.00e-02,
516,7.60e-03,4.00e-02,
517,4.00e-04,2.20e+00,
518,3.60e-03,1.20e-01,
519,0.00e+00,6.00e-02,
520,-8.00e-04,6.00e-02,
521,2.40e-03,1.00e-01,
522,2.40e-03,6.00e-02,
523,-2.00e-03,8.00e-02,
524,7.20e-03,6.00e-02,
525,-7.60e-03,8.00e-02,
526,-1.00e-02,8.00e-02,
527,1.24e-02,2.00e-02,
528,6.80e-03,8.00e-02,
529,-3.20e-03,2.00e-02,
530,2.40e-03,2.00e-02,
531,-8.00e-04,8.00e-02,
532,2.40e-03,4.00e-02,
533,-4.00e-04,2.00e-02,
534,-2.40e-03,4.00e-02,
535,4.00e-03,2.00e-02,
536,7.20e-03,2.00e-02,
537,8.00e-04,2.22e+00,
538,2.80e-03,1.20e-01,
539,0.00e+00,6.00e-02,
540,-8.00e-04,6.00e-02,
541,2.40e-03,1.00e-01,
542,2.80e-03,8.00e-02,
543,-1.20e-03,6.00e-02,
544,7.60e-03,6.00e-02,
545,-7.20e-03,8.00e-02,
546,1.24e-02,8.00e-02,
547,-9.60e-03,4.00e-02,
548,5.60e-03,8.00e-02,
549,-4.00e-03,2.00e-02,
550,2.40e-03,2.00e-02,
551,-8.00e-04,8.00e-02,
552,2.00e-03,2.00e-02,
553,-4.00e-04,6.00e-02,
554,-1.60e-03,4.00e-02,
555,4.00e-03,2.00e-02,
556,7.20e-03,-2.00e-02,
557,1.20e-03,2.08e+00,
558,3.60e-03,1.20e-01,
559,0.00e+00,6.00e-02,
560,-4.00e-04,6.00e-02,
561,2.40e-03,1.00e-01,
562,-1.60e-03,6.00e-02,
563,2.80e-03,8.00e-02,
564,8.00e-03,6.00e-02,
565,-8.40e-03,8.00e-02,
566,1.16e-02,8.00e-02,
567,-9.60e-03,2.00e-02,
568,5.20e-03,8.00e-02,
569,-2.40e-03,2.00e-02,
570,2.40e-03,8.00e-02,
571,-8.00e-04,2.00e-02,
572,2.00e-03,2.00e-02,
573,-4.00e-04,8.00e-02,
574,-1.20e-03,2.00e-02,
575,4.00e-03,8.00e-02,
576,7.20e-03,4.00e-02,
577,1.20e-03,2.20e+00,
578,3.60e-03,1.20e-01,
579,0.00e+00,6.00e-02,
580,2.40e-03,1.00e-01,
581,-8.00e-04,6.00e-02,
582,2.40e-03,8.00e-02,
583,-1.60e-03,6.00e-02,
584,7.20e-03,6.00e-02,
585,-6.80e-03,8.00e-02,
586,1.08e-02,8.00e-02,
587,-1.00e-02,2.00e-02,
588,5.20e-03,8.00e-02,
589,-4.00e-03,4.00e-02,
590,2.00e-03,8.00e-02,
591,-8.00e-04,2.00e-02,
592,2.40e-03,2.00e-02,
593,-8.00e-04,8.00e-02,
594,3.60e-03,6.00e-02,
595,-2.40e-03,2.00e-02,
596,8.00e-03,2.00e-02,
597,8.00e-04,2.22e+00,
598,3.60e-03,1.00e-01,
599,0.00e+00,6.00e-02,
600,2.40e-03,6.00e-02,
601,-8.00e-04,1.00e-01,
602,2.80e-03,8.00e-02,
603,-8.00e-04,6.00e-02,
604,6.40e-03,6.00e-02,
605,-6.00e-03,8.00e-02,
606,9.60e-03,6.00e-02,
607,-8.40e-03,8.00e-02,
608,4.80e-03,8.00e-02,
609,-3.20e-03,2.00e-02,
610,2.40e-03,8.00e-02,
611,0.00e+00,2.00e-02,
612,2.40e-03,8.00e-02,
613,-8.00e-04,2.00e-02,
614,-1.60e-03,2.00e-02,
615,4.00e-03,6.00e-02,
616,8.00e-03,2.06e+00,
617,1.20e-03,0.00e+00,
618,4.00e-03,1.00e-01,
619,-4.00e-04,6.00e-02,
620,2.00e-03,6.00e-02,
621,-4.00e-04,1.00e-01,
622,2.80e-03,6.00e-02,
623,-1.60e-03,8.00e-02,
624,6.40e-03,8.00e-02,
625,-5.60e-03,4.00e-02,
626,1.00e-02,8.00e-02,
627,-8.00e-03,2.00e-02,
628,5.20e-03,8.00e-02,
629,-2.40e-03,2.00e-02,
630,-8.00e-04,2.00e-02,
631,2.00e-03,8.00e-02,
632,2.40e-03,2.00e-02,
633,-1.20e-03,8.00e-02,
634,-2.40e-03,2.00e-02,
635,3.60e-03,6.00e-02,
636,8.00e-03,2.00e-02,
637,1.20e-03,2.22e+00,
638,3.60e-03,1.20e-01,
639,-8.00e-04,6.00e-02,
640,2.40e-03,1.00e-01,
641,-4.00e-04,6.00e-02,
642,-8.00e-04,6.00e-02,
643,2.40e-03,8.00e-02,
644,6.40e-03,6.00e-02,
645,-5.60e-03,8.00e-02,
646,-7.20e-03,8.00e-02,
647,9.20e-03,2.00e-02,
648,4.80e-03,8.00e-02,
649,-3.60e-03,2.00e-02,
650,2.00e-03,2.00e-02,
651,-8.00e-04,8.00e-02,
652,2.00e-03,2.00e-02,
653,-4.00e-04,6.00e-02,
654,-2.40e-03,2.00e-02,
655,3.60e-03,4.00e-02,
656,7.20e-03,2.00e-02,
657,8.00e-04,2.12e+00,
658,4.00e-03,1.20e-01,
659,-4.00e-04,6.00e-02,
660,-8.00e-04,1.00e-01,
661,2.40e-03,6.00e-02,
662,2.40e-03,8.00e-02,
663,-1.20e-03,6.00e-02,
664,5.60e-03,8.00e-02,
665,-6.00e-03,2.00e-02,
666,-8.00e-03,8.00e-02,
667,8.40e-03,2.00e-02,
668,5.60e-03,8.00e-02,
669,-2.00e-03,2.00e-02,
670,-4.00e-04,2.00e-02,
671,1.60e-03,6.00e-02,
672,2.00e-03,4.00e-02,
673,-4.00e-04,2.00e-02,
674,2.80e-03,4.00e-02,
675,-2.00e-03,2.00e-02,
676,7.60e-03,2.00e-02,
677,1.60e-03,2.08e+00,
678,4.00e-03,1.20e-01,
679,-4.00e-04,6.00e-02,
680,2.00e-03,6.00e-02,
681,-8.00e-04,1.00e-01,
682,2.40e-03,8.00e-02,
683,-1.60e-03,6.00e-02,
684,5.60e-03,6.00e-02,
685,-6.00e-03,8.00e-02,
686,-7.20e-03,8.00e-02,
687,9.20e-03,2.00e-02,
688,4.00e-03,2.00e-02,
689,-2.40e-03,8.00e-02,
690,2.00e-03,8.00e-02,
691,-8.00e-04,2.00e-02,
692,-8.00e-04,2.00e-02,
693,2.00e-03,8.00e-02,
694,3.60e-03,2.00e-02,
695,-2.40e-03,8.00e-02,
696,7.20e-03,4.00e-02,
697,1.20e-03,2.26e+00,
698,4.00e-03,1.40e-01,
699,-8.00e-04,6.00e-02,
700,-8.00e-04,6.00e-02,
701,2.40e-03,1.00e-01,
702,2.40e-03,6.00e-02,
703,-8.00e-04,8.00e-02,
704,5.60e-03,6.00e-02,
705,-4.80e-03,8.00e-02,
706,8.00e-03,8.00e-02,
707,-6.40e-03,4.00e-02,
708,4.00e-03,8.00e-02,
709,-2.40e-03,2.00e-02,
710,2.00e-03,8.00e-02,
711,-4.00e-04,2.00e-02,
712,2.40e-03,2.00e-02,
713,-4.00e-04,8.00e-02,
714,3.60e-03,4.00e-02,
715,-2.40e-03,2.00e-02,
716,8.00e-03,2.00e-02,
717,1.20e-03,1.78e+00,
718,4.00e-03,1.20e-01,
719,0.00e+00,6.00e-02,
720,2.40e-03,6.00e-02,
721,-8.00e-04,1.00e-01,
722,2.00e-03,8.00e-02,
723,-1.20e-03,6.00e-02,
724,5.60e-03,8.00e-02,
725,-4.80e-03,2.00e-02,
726,-6.40e-03,8.00e-02,
727,8.00e-03,4.00e-02,
728,4.80e-03,8.00e-02,
729,-2.40e-03,2.00e-02,
730,2.00e-03,8.00e-02,
731,-8.00e-04,2.00e-02,
732,2.40e-03,2.00e-02,
733,-8.00e-04,8.00e-02,
734,-2.80e-03,4.00e-02,
735,3.60e-03,2.00e-02,
736,7.20e-03,2.14e+00,
737,1.20e-03,0.00e+00,
738,4.40e-03,1.20e-01,
739,-8.00e-04,6.00e-02,
740,2.40e-03,1.00e-01,
741,-1.20e-03,6.00e-02,
742,2.40e-03,6.00e-02,
743,-1.20e-03,8.00e-02,
744,5.20e-03,6.00e-02,
745,-5.20e-03,8.00e-02,
746,-6.00e-03,8.00e-02,
747,8.00e-03,4.00e-02,
748,4.00e-03,8.00e-02,
749,-1.60e-03,4.00e-02,
750,2.00e-03,8.00e-02,
751,-4.00e-04,2.00e-02,
752,2.00e-03,2.00e-02,
753,-8.00e-04,8.00e-02,
754,2.80e-03,2.00e-02,
755,-2.80e-03,8.00e-02,
756,8.00e-03,2.00e-02,
757,1.20e-03,2.24e+00,
758,4.80e-03,1.20e-01,
759,-8.00e-04,6.00e-02,
760,2.40e-03,6.00e-02,
761,-8.00e-04,1.00e-01,
762,2.40e-03,8.00e-02,
763,-8.00e-04,6.00e-02,
764,4.40e-03,6.00e-02,
765,-4.40e-03,8.00e-02,
766,6.80e-03,8.00e-02,
767,-5.60e-03,2.00e-02,
768,4.00e-03,8.00e-02,
769,-1.60e-03,2.00e-02,
770,1.20e-03,8.00e-02,
771,-8.00e-04,2.00e-02,
772,2.00e-03,8.00e-02,
773,-8.00e-04,2.00e-02,
774,3.20e-03,2.00e-02,
775,-2.80e-03,6.00e-02,
776,7.20e-03,2.00e-02,
777,1.20e-03,2.04e+00,
778,4.00e-03,1.20e-01,
779,-8.00e-04,6.00e-02,
780,2.40e-03,6.00e-02,
781,-8.00e-04,1.00e-01,
782,2.40e-03,8.00e-02,
783,-4.00e-04,6.00e-02,
784,4.40e-03,8.00e-02,
785,-4.00e-03,4.00e-02,
786,6.40e-03,8.00e-02,
787,-6.00e-03,2.00e-02,
788,4.00e-03,2.00e-02,
789,-1.60e-03,8.00e-02,
790,2.40e-03,2.00e-02,
791,-8.00e-04,8.00e-02,
792,-8.00e-04,2.00e-02,
793,2.40e-03,8.00e-02,
794,3.60e-03,2.00e-02,
795,-3.20e-03,4.00e-02,
796,7.60e-03,2.00e-02,
797,1.20e-03,2.20e+00,
798,4.80e-03,1.40e-01,
799,-4.00e-04,6.00e-02,
800,2.40e-03,6.00e-02,
801,-8.00e-04,1.00e-01,
802,-4.00e-04,6.00e-02,
803,2.40e-03,8.00e-02,
804,4.40e-03,6.00e-02,
805,-4.00e-03,8.00e-02,
806,6.40e-03,8.00e-02,
807,-5.60e-03,2.00e-02,
808,3.60e-03,8.00e-02,
809,-1.60e-03,2.00e-02,
810,2.00e-03,8.00e-02,
811,-8.00e-04,2.00e-02,
812,-8.00e-04,2.00e-02,
813,2.00e-03,8.00e-02,
814,2.80e-03,2.00e-02,
815,-3.20e-03,4.00e-02,
816,7.60e-03,2.00e-02,
817,8.00e-04,2.26e+00,
818,4.00e-03,1.20e-01,
819,-8.00e-04,6.00e-02,
820,2.40e-03,1.00e-01,
821,-1.20e-03,6.00e-02,
822,2.40e-03,6.00e-02,
823,-8.00e-04,8.00e-02,
824,4.00e-03,8.00e-02,
825,-4.00e-03,6.00e-02,
826,-5.20e-03,8.00e-02,
827,6.40e-03,4.00e-02,
828,3.60e-03,2.00e-02,
829,-1.60e-03,8.00e-02,
830,0.00e+00,8.00e-02,
831,1.60e-03,2.00e-02,
832,2.40e-03,2.00e-02,
833,-1.20e-03,8.00e-02,
834,3.20e-03,4.00e-02,
835,-3.60e-03,2.00e-02,
836,8.00e-03,2.00e-02,
837,1.20e-03,1.90e+00,
838,4.40e-03,1.20e-01,
839,-8.00e-04,6.00e-02,
840,-1.20e-03,6.00e-02,
841,2.40e-03,1.00e-01,
842,2.40e-03,8.00e-02,
843,-4.00e-04,6.00e-02,
844,4.00e-03,6.00e-02,
845,-3.20e-03,8.00e-02,
846,6.00e-03,8.00e-02,
847,-4.40e-03,2.00e-02,
848,3.60e-03,8.00e-02,
849,-1.60e-03,2.00e-02,
850,2.40e-03,8.00e-02,
851,-4.00e-04,2.00e-02,
852,2.00e-03,2.00e-02,
853,-8.00e-04,8.00e-02,
854,4.00e-03,2.00e-02,
855,-2.80e-03,8.00e-02,
856,8.00e-03,2.00e-02,
857,1.20e-03,2.20e+00,
858,5.20e-03,1.40e-01,
859,-8.00e-04,6.00e-02,
860,2.40e-03,6.00e-02,
