CarrPurc_P1-19_P2-38_tauVary/Gly86/NewFile3.csv

X,CH1,CH2,Start,Increment,
Sequence,Volt,Volt,-6.880000e-02,2.000000e-04
0,4.00e-04,4.00e-02,
1,1.20e-03,2.00e-02,
2,1.20e-03,4.00e-02,
3,0.00e+00,2.00e-02,
4,1.20e-03,4.00e-02,
5,0.00e+00,2.00e-02,
6,0.00e+00,2.00e-02,
7,8.00e-04,4.00e-02,
8,0.00e+00,4.00e-02,
9,8.00e-04,2.00e-02,
10,4.00e-04,4.00e-02,
11,1.20e-03,2.00e-02,
12,1.20e-03,4.00e-02,
13,0.00e+00,2.00e-02,
14,0.00e+00,4.00e-02,
15,1.20e-03,2.00e-02,
16,0.00e+00,4.00e-02,
17,1.20e-03,2.00e-02,
18,1.20e-03,4.00e-02,
19,0.00e+00,2.00e-02,
20,1.20e-03,2.00e-02,
21,0.00e+00,4.00e-02,
22,1.20e-03,4.00e-02,
23,0.00e+00,2.00e-02,
24,1.20e-03,4.00e-02,
25,0.00e+00,2.00e-02,
26,0.00e+00,4.00e-02,
27,1.20e-03,2.00e-02,
28,8.00e-04,4.00e-02,
29,0.00e+00,2.00e-02,
30,-8.00e-04,2.00e-02,
31,1.20e-03,4.00e-02,
32,0.00e+00,4.00e-02,
33,1.20e-03,2.00e-02,
34,0.00e+00,4.00e-02,
35,2.00e-03,2.00e-02,
36,8.00e-04,4.00e-02,
37,0.00e+00,2.00e-02,
38,1.20e-03,4.00e-02,
39,0.00e+00,2.00e-02,
40,1.20e-03,2.00e-02,
41,0.00e+00,4.00e-02,
42,1.20e-03,4.00e-02,
43,0.00e+00,2.00e-02,
44,0.00e+00,4.00e-02,
45,1.20e-03,2.00e-02,
46,1.20e-03,4.00e-02,
47,0.00e+00,2.00e-02,
48,0.00e+00,4.00e-02,
49,1.20e-03,2.00e-02,
50,1.20e-03,4.00e-02,
51,0.00e+00,2.00e-02,
52,0.00e+00,2.00e-02,
53,8.00e-04,4.00e-02,
54,0.00e+00,4.00e-02,
55,1.20e-03,2.00e-02,
56,1.20e-03,4.00e-02,
57,0.00e+00,2.00e-02,
58,-8.00e-04,4.00e-02,
59,1.20e-03,2.00e-02,
60,8.00e-04,4.00e-02,
61,-4.00e-04,2.00e-02,
62,0.00e+00,4.00e-02,
63,8.00e-04,2.00e-02,
64,0.00e+00,4.00e-02,
65,1.20e-03,2.00e-02,
66,1.20e-03,4.00e-02,
67,-4.00e-04,2.00e-02,
68,1.20e-03,4.00e-02,
69,-8.00e-04,2.00e-02,
70,-8.00e-04,4.00e-02,
71,8.00e-04,2.00e-02,
72,0.00e+00,4.00e-02,
73,1.20e-03,2.00e-02,
74,0.00e+00,4.00e-02,
75,1.20e-03,2.00e-02,
76,8.00e-04,4.00e-02,
77,0.00e+00,2.00e-02,
78,0.00e+00,4.00e-02,
79,1.20e-03,2.00e-02,
80,-8.00e-04,4.00e-02,
81,1.20e-03,2.00e-02,
82,8.00e-04,4.00e-02,
83,0.00e+00,2.00e-02,
84,0.00e+00,4.00e-02,
85,1.20e-03,2.00e-02,
86,0.00e+00,2.00e-02,
87,1.20e-03,4.00e-02,
88,0.00e+00,4.00e-02,
89,1.20e-03,2.00e-02,
90,0.00e+00,4.00e-02,
91,1.20e-03,2.00e-02,
92,1.20e-03,4.00e-02,
93,0.00e+00,2.00e-02,
94,0.00e+00,4.00e-02,
95,1.20e-03,2.00e-02,
96,8.00e-04,4.00e-02,
97,0.00e+00,2.00e-02,
98,0.00e+00,4.00e-02,
99,1.20e-03,2.00e-02,
100,0.00e+00,4.00e-02,
101,1.20e-03,2.00e-02,
102,1.20e-03,4.00e-02,
103,0.00e+00,2.00e-02,
104,0.00e+00,4.00e-02,
105,1.20e-03,2.00e-02,
106,1.20e-03,2.00e-02,
107,0.00e+00,4.00e-02,
108,4.00e-04,4.00e-02,
109,1.20e-03,2.00e-02,
110,1.20e-03,2.00e-02,
111,0.00e+00,4.00e-02,
112,1.20e-03,4.00e-02,
113,0.00e+00,2.00e-02,
114,0.00e+00,4.00e-02,
115,1.20e-03,2.00e-02,
116,0.00e+00,4.00e-02,
117,1.20e-03,2.00e-02,
118,0.00e+00,4.00e-02,
119,1.20e-03,2.00e-02,
120,0.00e+00,2.00e-02,
121,1.20e-03,4.00e-02,
122,8.00e-04,4.00e-02,
123,0.00e+00,2.00e-02,
124,1.20e-03,2.00e-02,
125,0.00e+00,4.00e-02,
126,0.00e+00,4.00e-02,
127,8.00e-04,2.00e-02,
128,0.00e+00,2.00e-02,
129,1.20e-03,4.00e-02,
130,1.20e-03,2.00e-02,
131,0.00e+00,4.00e-02,
132,1.20e-03,2.00e-02,
133,0.00e+00,4.00e-02,
134,0.00e+00,2.00e-02,
135,1.20e-03,4.00e-02,
136,1.20e-03,4.00e-02,
137,0.00e+00,2.00e-02,
138,0.00e+00,4.00e-02,
139,1.20e-03,2.00e-02,
140,1.20e-03,2.00e-02,
141,0.00e+00,4.00e-02,
142,0.00e+00,4.00e-02,
143,1.20e-03,2.00e-02,
144,1.20e-03,4.00e-02,
145,0.00e+00,2.00e-02,
146,1.20e-03,4.00e-02,
147,0.00e+00,2.00e-02,
148,4.00e-04,4.00e-02,
149,1.60e-03,2.00e-02,
150,1.20e-03,2.00e-02,
151,-8.00e-04,4.00e-02,
152,8.00e-04,4.00e-02,
153,-4.00e-04,0.00e+00,
154,1.20e-03,4.00e-02,
155,0.00e+00,2.00e-02,
156,1.20e-03,2.00e-02,
157,0.00e+00,4.00e-02,
158,0.00e+00,4.00e-02,
159,1.20e-03,2.00e-02,
160,1.20e-03,4.00e-02,
161,4.00e-04,2.00e-02,
162,-4.00e-04,4.00e-02,
163,1.20e-03,2.00e-02,
164,1.20e-03,4.00e-02,
165,0.00e+00,2.00e-02,
166,0.00e+00,2.00e-02,
167,1.20e-03,4.00e-02,
168,0.00e+00,4.00e-02,
169,8.00e-04,2.00e-02,
170,0.00e+00,4.00e-02,
171,1.20e-03,2.00e-02,
172,4.00e-04,2.00e-02,
173,1.20e-03,4.00e-02,
174,1.20e-03,4.00e-02,
175,0.00e+00,2.00e-02,
176,1.20e-03,4.00e-02,
177,0.00e+00,2.00e-02,
178,8.00e-04,4.00e-02,
179,0.00e+00,2.00e-02,
180,1.20e-03,4.00e-02,
181,0.00e+00,2.00e-02,
182,1.20e-03,4.00e-02,
183,0.00e+00,2.00e-02,
184,0.00e+00,4.00e-02,
185,1.20e-03,2.00e-02,
186,0.00e+00,4.00e-02,
187,1.20e-03,2.00e-02,
188,8.00e-04,4.00e-02,
189,0.00e+00,2.00e-02,
190,0.00e+00,4.00e-02,
191,2.00e-03,2.00e-02,
192,1.20e-03,4.00e-02,
193,0.00e+00,0.00e+00,
194,0.00e+00,2.00e-02,
195,1.20e-03,4.00e-02,
196,1.20e-03,4.00e-02,
197,0.00e+00,2.00e-02,
198,0.00e+00,4.00e-02,
199,1.20e-03,2.00e-02,
200,1.20e-03,2.00e-02,
201,0.00e+00,4.00e-02,
202,0.00e+00,4.00e-02,
203,1.20e-03,2.00e-02,
204,8.00e-04,4.00e-02,
205,-8.00e-04,2.00e-02,
206,1.20e-03,2.00e-02,
207,0.00e+00,4.00e-02,
208,1.20e-03,4.00e-02,
209,0.00e+00,2.00e-02,
210,0.00e+00,4.00e-02,
211,1.20e-03,2.00e-02,
212,1.20e-03,4.00e-02,
213,0.00e+00,2.00e-02,
214,-8.00e-04,4.00e-02,
215,8.00e-04,2.00e-02,
216,8.00e-04,4.00e-02,
217,0.00e+00,2.00e-02,
218,0.00e+00,4.00e-02,
219,1.20e-03,2.00e-02,
220,1.20e-03,4.00e-02,
221,0.00e+00,2.00e-02,
222,0.00e+00,4.00e-02,
223,1.20e-03,2.00e-02,
224,0.00e+00,4.00e-02,
225,1.20e-03,2.00e-02,
226,0.00e+00,4.00e-02,
227,1.20e-03,2.00e-02,
228,8.00e-04,2.00e-02,
229,0.00e+00,4.00e-02,
230,1.20e-03,4.00e-02,
231,-4.00e-04,2.00e-02,
232,0.00e+00,4.00e-02,
233,1.20e-03,2.00e-02,
234,1.20e-03,4.00e-02,
235,0.00e+00,2.00e-02,
236,0.00e+00,4.00e-02,
237,8.00e-04,2.00e-02,
238,0.00e+00,4.00e-02,
239,1.20e-03,2.00e-02,
240,0.00e+00,4.00e-02,
241,8.00e-04,2.00e-02,
242,1.20e-03,4.00e-02,
243,0.00e+00,2.00e-02,
244,8.00e-04,4.00e-02,
245,-4.00e-04,2.00e-02,
246,0.00e+00,2.00e-02,
247,1.20e-03,4.00e-02,
248,8.00e-04,4.00e-02,
249,-4.00e-04,2.00e-02,
250,1.20e-03,4.00e-02,
251,0.00e+00,2.00e-02,
252,1.20e-03,4.00e-02,
253,0.00e+00,2.00e-02,
254,0.00e+00,4.00e-02,
255,1.20e-03,2.00e-02,
256,1.20e-03,4.00e-02,
257,0.00e+00,2.00e-02,
258,0.00e+00,4.00e-02,
259,8.00e-04,2.00e-02,
260,0.00e+00,4.00e-02,
261,1.20e-03,2.00e-02,
262,4.00e-04,4.00e-02,
263,1.60e-03,2.00e-02,
264,8.00e-04,2.00e-02,
265,0.00e+00,4.00e-02,
266,0.00e+00,4.00e-02,
267,1.20e-03,2.00e-02,
268,0.00e+00,4.00e-02,
269,1.20e-03,2.00e-02,
270,1.20e-03,4.00e-02,
271,0.00e+00,2.00e-02,
272,1.20e-03,4.00e-02,
273,0.00e+00,2.00e-02,
274,1.20e-03,4.00e-02,
275,0.00e+00,2.00e-02,
276,0.00e+00,2.00e-02,
277,1.20e-03,4.00e-02,
278,1.20e-03,4.00e-02,
279,0.00e+00,2.00e-02,
280,1.20e-03,4.00e-02,
281,0.00e+00,2.00e-02,
282,0.00e+00,2.00e-02,
283,1.20e-03,4.00e-02,
284,0.00e+00,4.00e-02,
285,1.20e-03,2.00e-02,
286,1.20e-03,4.00e-02,
287,0.00e+00,2.00e-02,
288,0.00e+00,2.00e-02,
289,1.20e-03,4.00e-02,
290,1.20e-03,4.00e-02,
291,0.00e+00,2.00e-02,
292,1.20e-03,4.00e-02,
293,0.00e+00,2.00e-02,
294,0.00e+00,4.00e-02,
295,8.00e-04,2.00e-02,
296,1.20e-03,4.00e-02,
297,0.00e+00,2.00e-02,
298,0.00e+00,4.00e-02,
299,1.20e-03,2.00e-02,
300,0.00e+00,4.00e-02,
301,1.20e-03,2.00e-02,
302,0.00e+00,4.00e-02,
303,1.20e-03,2.00e-02,
304,8.00e-04,2.00e-02,
305,0.00e+00,4.00e-02,
306,1.20e-03,4.00e-02,
307,0.00e+00,2.00e-02,
308,1.20e-03,2.00e-02,
309,0.00e+00,4.00e-02,
310,0.00e+00,4.00e-02,
311,1.20e-03,2.00e-02,
312,0.00e+00,2.00e-02,
313,1.20e-03,4.00e-02,
314,8.00e-04,2.00e-02,
315,0.00e+00,4.00e-02,
316,8.00e-04,4.00e-02,
317,0.00e+00,2.00e-02,
318,0.00e+00,4.00e-02,
319,1.20e-03,2.00e-02,
320,1.20e-03,4.00e-02,
321,0.00e+00,2.00e-02,
322,1.20e-03,4.00e-02,
323,0.00e+00,2.00e-02,
324,0.00e+00,4.00e-02,
325,1.20e-03,2.00e-02,
326,4.00e-04,4.00e-02,
327,1.60e-03,2.00e-02,
328,0.00e+00,4.00e-02,
329,1.20e-03,2.00e-02,
330,8.00e-04,4.00e-02,
331,0.00e+00,2.00e-02,
332,1.20e-03,4.00e-02,
333,0.00e+00,2.00e-02,
334,1.20e-03,4.00e-02,
335,0.00e+00,2.00e-02,
336,0.00e+00,4.00e-02,
337,1.20e-03,2.00e-02,
338,1.20e-03,4.00e-02,
339,0.00e+00,2.00e-02,
340,1.20e-03,4.00e-02,
341,0.00e+00,2.00e-02,
342,8.00e-04,4.00e-02,
343,0.00e+00,2.00e-02,
344,1.20e-03,4.00e-02,
345,-4.00e-04,2.00e-02,
346,5.20e-03,2.00e-02,
347,-2.72e-02,1.26e+00,
348,1.44e-02,1.20e-01,
349,-1.48e-02,8.00e-02,
350,-1.60e-03,1.00e-01,
351,4.00e-03,6.00e-02,
352,-1.60e-03,6.00e-02,
353,2.80e-03,8.00e-02,
354,-8.00e-04,6.00e-02,
355,2.00e-03,8.00e-02,
356,7.20e-03,6.00e-02,
357,-7.20e-03,1.98e+00,
358,-7.60e-03,1.40e-01,
359,6.40e-03,8.00e-02,
360,2.00e-03,1.00e-01,
361,-1.20e-03,6.00e-02,
362,-3.20e-03,6.00e-02,
363,6.00e-03,8.00e-02,
364,-1.64e-02,8.00e-02,
365,2.00e-02,6.00e-02,
366,-2.28e-02,6.00e-02,
367,2.32e-02,8.00e-02,
368,1.28e-02,6.00e-02,
369,-9.20e-03,8.00e-02,
370,3.20e-03,8.00e-02,
371,-1.20e-03,2.00e-02,
372,-1.60e-03,2.00e-02,
373,2.40e-03,8.00e-02,
374,-1.20e-03,2.00e-02,
375,2.00e-03,8.00e-02,
376,7.20e-03,2.18e+00,
377,4.00e-04,0.00e+00,
378,2.00e-03,1.40e-01,
379,-8.00e-04,8.00e-02,
380,2.40e-03,1.00e-01,
381,-8.00e-04,6.00e-02,
382,-3.20e-03,6.00e-02,
383,5.60e-03,8.00e-02,
384,1.16e-02,8.00e-02,
385,-1.28e-02,6.00e-02,
386,-1.80e-02,6.00e-02,
387,1.72e-02,8.00e-02,
388,8.80e-03,6.00e-02,
389,-5.60e-03,8.00e-02,
390,2.40e-03,8.00e-02,
391,-1.60e-03,6.00e-02,
392,-4.00e-04,8.00e-02,
393,2.40e-03,2.00e-02,
394,-3.20e-03,8.00e-02,
395,5.60e-03,2.00e-02,
396,7.20e-03,2.00e-02,
397,0.00e+00,2.22e+00,
398,2.40e-03,1.20e-01,
399,-8.00e-04,8.00e-02,
400,-8.00e-04,1.00e-01,
401,2.40e-03,6.00e-02,
402,3.60e-03,1.00e-01,
403,-3.60e-03,6.00e-02,
404,1.28e-02,6.00e-02,
405,-1.40e-02,8.00e-02,
406,1.84e-02,6.00e-02,
407,-1.68e-02,8.00e-02,
408,8.40e-03,6.00e-02,
409,-6.00e-03,8.00e-02,
410,2.40e-03,8.00e-02,
411,-8.00e-04,2.00e-02,
412,-8.00e-04,8.00e-02,
413,2.00e-03,2.00e-02,
414,-3.60e-03,2.00e-02,
415,5.20e-03,8.00e-02,
416,7.20e-03,2.00e-02,
417,-1.60e-03,2.16e+00,
418,-1.60e-03,1.20e-01,
419,2.80e-03,8.00e-02,
420,-8.00e-04,1.00e-01,
421,2.40e-03,6.00e-02,
422,-1.60e-03,6.00e-02,
423,3.20e-03,8.00e-02,
424,8.00e-03,6.00e-02,
425,-1.00e-02,8.00e-02,
426,-1.32e-02,8.00e-02,
427,1.56e-02,6.00e-02,
428,6.80e-03,8.00e-02,
429,-5.20e-03,4.00e-02,
430,2.00e-03,2.00e-02,
431,-4.00e-04,8.00e-02,
432,1.20e-03,8.00e-02,
433,-8.00e-04,2.00e-02,
434,-1.60e-03,8.00e-02,
435,4.00e-03,2.00e-02,
436,7.60e-03,2.00e-02,
437,-4.00e-04,2.20e+00,
438,3.20e-03,1.20e-01,
439,-8.00e-04,8.00e-02,
440,2.00e-03,1.00e-01,
441,-4.00e-04,6.00e-02,
442,-2.80e-03,6.00e-02,
443,4.40e-03,1.00e-01,
444,1.00e-02,8.00e-02,
445,-1.12e-02,6.00e-02,
446,-1.32e-02,6.00e-02,
447,1.56e-02,8.00e-02,
448,6.80e-03,6.00e-02,
449,-4.40e-03,8.00e-02,
450,2.40e-03,6.00e-02,
451,-1.20e-03,8.00e-02,
452,-8.00e-04,8.00e-02,
453,2.00e-03,2.00e-02,
454,-1.20e-03,8.00e-02,
455,4.00e-03,2.00e-02,
456,7.60e-03,4.00e-02,
457,4.00e-04,2.14e+00,
458,2.40e-03,1.20e-01,
459,-8.00e-04,8.00e-02,
460,2.00e-03,1.00e-01,
461,-8.00e-04,6.00e-02,
462,-2.00e-03,6.00e-02,
463,2.80e-03,8.00e-02,
464,9.60e-03,6.00e-02,
465,-1.00e-02,8.00e-02,
466,1.32e-02,6.00e-02,
467,-1.28e-02,8.00e-02,
468,6.80e-03,6.00e-02,
469,-5.20e-03,8.00e-02,
470,2.40e-03,6.00e-02,
471,-8.00e-04,8.00e-02,
472,2.00e-03,8.00e-02,
473,-4.00e-04,4.00e-02,
474,-2.40e-03,8.00e-02,
475,4.40e-03,2.00e-02,
476,7.20e-03,4.00e-02,
477,4.00e-04,2.14e+00,
478,3.20e-03,1.40e-01,
479,-1.20e-03,8.00e-02,
480,2.00e-03,1.00e-01,
481,-8.00e-04,6.00e-02,
482,2.40e-03,6.00e-02,
483,-2.00e-03,8.00e-02,
484,8.40e-03,8.00e-02,
485,-8.00e-03,6.00e-02,
486,-1.16e-02,6.00e-02,
487,1.24e-02,8.00e-02,
488,6.40e-03,8.00e-02,
489,-4.00e-03,6.00e-02,
490,2.00e-03,8.00e-02,
491,-8.00e-04,2.00e-02,
492,0.00e+00,8.00e-02,
493,2.00e-03,2.00e-02,
494,-2.40e-03,8.00e-02,
495,4.00e-03,2.00e-02,
496,7.60e-03,2.00e-02,
497,4.00e-04,2.10e+00,
498,3.60e-03,1.40e-01,
499,0.00e+00,8.00e-02,
500,2.40e-03,1.00e-01,
501,-4.00e-04,6.00e-02,
502,-2.00e-03,6.00e-02,
503,3.20e-03,8.00e-02,
504,8.40e-03,6.00e-02,
505,-8.40e-03,8.00e-02,
506,-1.12e-02,6.00e-02,
507,1.32e-02,8.00e-02,
508,5.20e-03,6.00e-02,
509,-4.00e-03,8.00e-02,
510,2.00e-03,6.00e-02,
511,-4.00e-04,8.00e-02,
512,0.00e+00,8.00e-02,
513,2.40e-03,4.00e-02,
514,-2.40e-03,8.00e-02,
515,3.60e-03,2.00e-02,
516,7.20e-03,4.00e-02,
517,4.00e-04,2.20e+00,
518,3.60e-03,1.20e-01,
519,0.00e+00,8.00e-02,
520,1.20e-03,1.00e-01,
521,-4.00e-04,6.00e-02,
522,2.40e-03,6.00e-02,
523,-1.60e-03,8.00e-02,
524,7.60e-03,6.00e-02,
525,-7.60e-03,8.00e-02,
526,-1.04e-02,6.00e-02,
527,1.36e-02,8.00e-02,
528,5.60e-03,6.00e-02,
529,-3.20e-03,8.00e-02,
530,2.40e-03,8.00e-02,
531,-8.00e-04,4.00e-02,
532,-4.00e-04,8.00e-02,
533,2.40e-03,2.00e-02,
534,-2.40e-03,8.00e-02,
535,3.60e-03,2.00e-02,
536,7.20e-03,2.00e-02,
537,4.00e-04,2.18e+00,
538,2.80e-03,1.20e-01,
539,-4.00e-04,8.00e-02,
540,2.40e-03,1.00e-01,
541,-8.00e-04,6.00e-02,
542,2.40e-03,6.00e-02,
543,-1.60e-03,1.00e-01,
544,6.80e-03,6.00e-02,
545,-7.60e-03,8.00e-02,
546,-1.04e-02,6.00e-02,
547,1.12e-02,8.00e-02,
548,6.00e-03,6.00e-02,
549,-3.20e-03,8.00e-02,
550,2.00e-03,8.00e-02,
551,-8.00e-04,2.00e-02,
552,1.60e-03,8.00e-02,
553,-4.00e-04,2.00e-02,
554,-1.60e-03,8.00e-02,
555,4.40e-03,2.00e-02,
556,7.20e-03,-1.60e-01,
557,0.00e+00,2.22e+00,
558,3.60e-03,1.40e-01,
559,-8.00e-04,8.00e-02,
560,2.40e-03,1.00e-01,
561,-4.00e-04,6.00e-02,
562,2.40e-03,6.00e-02,
563,-1.60e-03,8.00e-02,
564,7.20e-03,6.00e-02,
565,-8.00e-03,8.00e-02,
566,1.04e-02,6.00e-02,
567,-1.00e-02,8.00e-02,
568,4.40e-03,6.00e-02,
569,-3.20e-03,8.00e-02,
570,1.60e-03,8.00e-02,
571,-8.00e-04,4.00e-02,
572,2.40e-03,8.00e-02,
573,0.00e+00,4.00e-02,
574,-2.40e-03,2.00e-02,
575,4.00e-03,8.00e-02,
576,8.00e-03,4.00e-02,
577,1.20e-03,1.96e+00,
578,3.60e-03,1.40e-01,
579,-4.00e-04,6.00e-02,
580,-8.00e-04,1.00e-01,
581,2.00e-03,6.00e-02,
582,2.40e-03,8.00e-02,
583,-1.60e-03,6.00e-02,
584,6.80e-03,6.00e-02,
585,-7.20e-03,8.00e-02,
586,9.60e-03,8.00e-02,
587,-9.60e-03,6.00e-02,
588,5.60e-03,8.00e-02,
589,-3.20e-03,6.00e-02,
590,2.00e-03,8.00e-02,
591,0.00e+00,4.00e-02,
592,-8.00e-04,8.00e-02,
593,2.40e-03,2.00e-02,
594,-2.40e-03,8.00e-02,
595,4.00e-03,2.00e-02,
596,7.20e-03,2.00e-02,
597,8.00e-04,2.06e+00,
598,3.60e-03,1.40e-01,
599,-8.00e-04,6.00e-02,
600,2.40e-03,1.00e-01,
601,-1.20e-03,6.00e-02,
602,2.40e-03,8.00e-02,
603,-1.60e-03,6.00e-02,
604,6.00e-03,6.00e-02,
605,-7.20e-03,8.00e-02,
606,-8.80e-03,6.00e-02,
607,1.00e-02,8.00e-02,
608,4.40e-03,8.00e-02,
609,-3.20e-03,4.00e-02,
610,2.00e-03,8.00e-02,
611,-8.00e-04,4.00e-02,
612,-8.00e-04,8.00e-02,
613,1.60e-03,2.00e-02,
614,-2.80e-03,8.00e-02,
615,3.20e-03,2.00e-02,
616,8.00e-03,2.00e-02,
617,1.20e-03,2.08e+00,
618,4.40e-03,1.40e-01,
619,-8.00e-04,8.00e-02,
620,2.40e-03,1.00e-01,
621,-8.00e-04,6.00e-02,
622,2.40e-03,6.00e-02,
623,-1.20e-03,8.00e-02,
624,6.00e-03,6.00e-02,
625,-6.40e-03,8.00e-02,
626,-7.60e-03,6.00e-02,
627,9.60e-03,8.00e-02,
628,5.20e-03,8.00e-02,
629,-2.40e-03,6.00e-02,
630,1.60e-03,8.00e-02,
631,-8.00e-04,2.00e-02,
632,2.40e-03,8.00e-02,
633,-8.00e-04,2.00e-02,
634,-2.40e-03,2.00e-02,
635,4.00e-03,8.00e-02,
636,7.20e-03,2.00e-02,
637,4.00e-04,2.14e+00,
638,3.60e-03,8.00e-02,
639,-8.00e-04,1.40e-01,
640,-4.00e-04,1.00e-01,
641,2.40e-03,6.00e-02,
642,2.00e-03,6.00e-02,
643,-1.20e-03,8.00e-02,
644,5.60e-03,6.00e-02,
645,-6.40e-03,8.00e-02,
646,-7.60e-03,6.00e-02,
647,9.20e-03,8.00e-02,
648,4.80e-03,6.00e-02,
649,-3.60e-03,8.00e-02,
650,2.00e-03,6.00e-02,
651,-8.00e-04,8.00e-02,
652,-8.00e-04,8.00e-02,
653,2.00e-03,2.00e-02,
654,2.40e-03,4.00e-02,
655,-3.20e-03,8.00e-02,
656,7.60e-03,2.00e-02,
657,1.60e-03,2.24e+00,
658,4.00e-03,1.40e-01,
659,-8.00e-04,8.00e-02,
660,2.40e-03,1.00e-01,
661,-8.00e-04,6.00e-02,
662,-8.00e-04,1.00e-01,
663,2.40e-03,6.00e-02,
664,4.80e-03,6.00e-02,
665,-5.60e-03,8.00e-02,
666,-8.00e-03,8.00e-02,
667,8.40e-03,6.00e-02,
668,4.00e-03,8.00e-02,
669,-3.20e-03,6.00e-02,
670,1.60e-03,6.00e-02,
671,-8.00e-04,8.00e-02,
672,2.00e-03,6.00e-02,
673,0.00e+00,8.00e-02,
674,2.80e-03,8.00e-02,
675,-2.00e-03,4.00e-02,
676,7.20e-03,4.00e-02,
677,4.00e-04,2.22e+00,
678,3.60e-03,1.20e-01,
679,-4.00e-04,8.00e-02,
680,2.00e-03,1.00e-01,
681,-8.00e-04,6.00e-02,
682,2.40e-03,8.00e-02,
683,-1.20e-03,6.00e-02,
684,5.20e-03,6.00e-02,
685,-6.00e-03,8.00e-02,
686,-6.80e-03,6.00e-02,
687,8.00e-03,8.00e-02,
688,4.00e-03,6.00e-02,
689,-2.40e-03,8.00e-02,
690,2.40e-03,8.00e-02,
691,-8.00e-04,4.00e-02,
692,-8.00e-04,6.00e-02,
693,2.00e-03,8.00e-02,
694,-2.00e-03,8.00e-02,
695,4.40e-03,2.00e-02,
696,8.00e-03,4.00e-02,
697,1.20e-03,1.84e+00,
698,4.00e-03,1.40e-01,
699,-1.20e-03,8.00e-02,
700,2.00e-03,1.00e-01,
701,-1.20e-03,6.00e-02,
702,2.40e-03,6.00e-02,
703,-8.00e-04,1.00e-01,
704,5.20e-03,6.00e-02,
705,-5.20e-03,8.00e-02,
706,-6.80e-03,8.00e-02,
707,8.40e-03,6.00e-02,
708,3.60e-03,6.00e-02,
709,-2.80e-03,8.00e-02,
710,2.00e-03,8.00e-02,
711,-8.00e-04,4.00e-02,
712,-8.00e-04,8.00e-02,
713,2.40e-03,2.00e-02,
714,-2.80e-03,8.00e-02,
715,3.20e-03,2.00e-02,
716,7.20e-03,4.00e-02,
717,8.00e-04,1.98e+00,
718,4.00e-03,1.40e-01,
719,-1.20e-03,8.00e-02,
720,-8.00e-04,1.00e-01,
721,2.40e-03,6.00e-02,
722,-8.00e-04,6.00e-02,
723,2.00e-03,1.00e-01,
724,5.20e-03,6.00e-02,
725,-4.80e-03,8.00e-02,
726,-6.40e-03,6.00e-02,
727,8.00e-03,8.00e-02,
728,4.40e-03,6.00e-02,
729,-2.40e-03,8.00e-02,
730,2.00e-03,8.00e-02,
731,-8.00e-04,2.00e-02,
732,-8.00e-04,4.00e-02,
733,2.00e-03,8.00e-02,
734,3.60e-03,8.00e-02,
735,-2.80e-03,2.00e-02,
736,7.60e-03,2.00e-02,
737,1.20e-03,2.08e+00,
738,4.40e-03,1.40e-01,
739,-1.20e-03,8.00e-02,
740,2.40e-03,1.00e-01,
741,-8.00e-04,6.00e-02,
742,-8.00e-04,6.00e-02,
743,2.40e-03,1.00e-01,
744,5.20e-03,6.00e-02,
745,-4.40e-03,8.00e-02,
746,-6.00e-03,8.00e-02,
747,7.20e-03,6.00e-02,
748,4.00e-03,6.00e-02,
749,-1.60e-03,8.00e-02,
750,1.60e-03,8.00e-02,
751,-8.00e-04,2.00e-02,
752,1.60e-03,8.00e-02,
753,-8.00e-04,2.00e-02,
754,2.80e-03,8.00e-02,
755,-2.80e-03,2.00e-02,
756,7.20e-03,2.00e-02,
757,1.20e-03,2.14e+00,
758,4.00e-03,1.20e-01,
759,-1.20e-03,8.00e-02,
760,-8.00e-04,1.00e-01,
761,2.40e-03,6.00e-02,
762,2.00e-03,6.00e-02,
763,-1.60e-03,1.00e-01,
764,4.40e-03,6.00e-02,
765,-4.00e-03,8.00e-02,
766,6.80e-03,6.00e-02,
767,-6.00e-03,8.00e-02,
768,3.60e-03,6.00e-02,
769,-2.40e-03,8.00e-02,
770,2.00e-03,8.00e-02,
771,-8.00e-04,6.00e-02,
772,2.00e-03,8.00e-02,
773,-8.00e-04,4.00e-02,
774,4.00e-03,8.00e-02,
775,-2.80e-03,2.00e-02,
776,8.00e-03,4.00e-02,
777,8.00e-04,2.20e+00,
778,4.40e-03,1.40e-01,
779,-1.20e-03,8.00e-02,
780,2.40e-03,1.00e-01,
781,-1.20e-03,6.00e-02,
782,2.00e-03,1.00e-01,
783,-8.00e-04,6.00e-02,
784,4.40e-03,6.00e-02,
785,-4.00e-03,8.00e-02,
786,-5.60e-03,6.00e-02,
787,6.80e-03,8.00e-02,
788,3.60e-03,6.00e-02,
789,-2.80e-03,8.00e-02,
790,-4.00e-04,6.00e-02,
791,2.00e-03,8.00e-02,
792,2.00e-03,8.00e-02,
793,-8.00e-04,4.00e-02,
794,4.40e-03,8.00e-02,
795,-4.00e-03,2.00e-02,
796,7.20e-03,2.00e-02,
797,1.20e-03,2.20e+00,
798,4.40e-03,1.40e-01,
799,-1.20e-03,8.00e-02,
800,2.40e-03,1.00e-01,
801,-4.00e-04,6.00e-02,
802,2.40e-03,6.00e-02,
803,-4.00e-04,8.00e-02,
804,4.40e-03,6.00e-02,
805,-4.00e-03,8.00e-02,
806,6.40e-03,8.00e-02,
807,-5.20e-03,6.00e-02,
808,3.60e-03,8.00e-02,
809,-1.60e-03,6.00e-02,
810,0.00e+00,6.00e-02,
811,2.00e-03,8.00e-02,
812,2.00e-03,8.00e-02,
813,-1.20e-03,4.00e-02,
814,3.60e-03,8.00e-02,
815,-3.20e-03,2.00e-02,
816,8.00e-03,4.00e-02,
817,1.20e-03,2.28e+00,
818,4.80e-03,1.40e-01,
819,-1.20e-03,8.00e-02,
820,2.40e-03,1.00e-01,
821,-8.00e-04,6.00e-02,
822,2.00e-03,6.00e-02,
823,-1.20e-03,1.00e-01,
824,4.00e-03,8.00e-02,
825,-3.20e-03,6.00e-02,
826,6.40e-03,6.00e-02,
827,-5.20e-03,8.00e-02,
828,3.60e-03,6.00e-02,
829,-1.20e-03,8.00e-02,
830,1.60e-03,6.00e-02,
831,-8.00e-04,8.00e-02,
832,1.60e-03,8.00e-02,
833,-1.20e-03,2.00e-02,
834,4.00e-03,8.00e-02,
835,-3.60e-03,2.00e-02,
836,7.20e-03,2.00e-02,
837,4.00e-04,2.22e+00,
838,4.40e-03,1.20e-01,
839,-8.00e-04,8.00e-02,
840,2.40e-03,1.00e-01,
841,0.00e+00,6.00e-02,
842,2.00e-03,8.00e-02,
843,-8.00e-04,6.00e-02,
844,3.60e-03,6.00e-02,
845,-4.00e-03,8.00e-02,
846,-5.20e-03,8.00e-02,
847,5.60e-03,6.00e-02,
848,4.00e-03,8.00e-02,
849,-1.60e-03,4.00e-02,
850,2.00e-03,6.00e-02,
851,-8.00e-04,8.00e-02,
852,2.00e-03,8.00e-02,
853,-1.20e-03,2.00e-02,
854,3.20e-03,8.00e-02,
855,-3.20e-03,2.00e-02,
856,8.00e-03,2.00e-02,
857,1.20e-03,2.06e+00,
858,4.40e-03,1.40e-01,
859,-1.20e-03,8.00e-02,
