CarrPurc_P1-19_P2-38_tauVary/Gly20/NewFile5.csv

X,CH1,CH2,Start,Increment,
Sequence,Volt,Volt,-3.600000e-03,2.000000e-04
0,4.00e-04,4.00e-02,
1,1.60e-03,0.00e+00,
2,1.60e-03,4.00e-02,
3,0.00e+00,0.00e+00,
4,1.60e-03,4.00e-02,
5,0.00e+00,0.00e+00,
6,0.00e+00,4.00e-02,
7,1.20e-03,0.00e+00,
8,1.20e-03,4.00e-02,
9,0.00e+00,0.00e+00,
10,4.00e-04,4.00e-02,
11,2.00e-03,0.00e+00,
12,4.00e-04,4.00e-02,
13,1.20e-03,0.00e+00,
14,1.60e-03,4.00e-02,
15,0.00e+00,0.00e+00,
16,1.20e-03,4.00e-02,
17,0.00e+00,0.00e+00,
18,2.00e-03,4.00e-02,
19,0.00e+00,0.00e+00,
20,7.60e-03,2.00e-02,
21,-2.32e-02,1.78e+00,
22,1.64e-02,1.00e-01,
23,-1.28e-02,6.00e-02,
24,-2.40e-03,6.00e-02,
25,4.40e-03,1.00e-01,
26,2.80e-03,6.00e-02,
27,-1.60e-03,8.00e-02,
28,-8.00e-04,6.00e-02,
29,2.40e-03,8.00e-02,
30,0.00e+00,8.00e-02,
31,2.40e-03,2.00e-02,
32,0.00e+00,8.00e-02,
33,2.00e-03,2.00e-02,
34,0.00e+00,2.00e-02,
35,8.40e-03,1.86e+00,
36,8.00e-03,1.60e-01,
37,-4.40e-03,8.00e-02,
38,3.20e-03,1.00e-01,
39,-8.00e-04,6.00e-02,
40,-4.00e-04,6.00e-02,
41,2.40e-03,8.00e-02,
42,2.00e-03,6.00e-02,
43,-8.00e-04,8.00e-02,
44,-8.00e-04,6.00e-02,
45,2.80e-03,8.00e-02,
46,-4.00e-03,8.00e-02,
47,6.00e-03,2.00e-02,
48,-1.64e-02,8.00e-02,
49,2.24e-02,2.00e-02,
50,-2.32e-02,2.00e-02,
51,2.56e-02,8.00e-02,
52,1.32e-02,2.00e-02,
53,-1.00e-02,6.00e-02,
54,3.60e-03,6.00e-02,
55,-1.20e-03,2.00e-02,
56,-8.00e-04,4.00e-02,
57,2.00e-03,2.00e-02,
58,1.60e-03,4.00e-02,
59,0.00e+00,2.00e-02,
60,-4.00e-04,4.00e-02,
61,2.00e-03,2.00e-02,
62,1.20e-03,4.00e-02,
63,-4.00e-04,2.00e-02,
64,0.00e+00,2.00e-02,
65,8.40e-03,2.02e+00,
66,8.40e-03,1.60e-01,
67,0.00e+00,8.00e-02,
68,2.00e-03,1.00e-01,
69,0.00e+00,6.00e-02,
70,2.00e-03,6.00e-02,
71,-8.00e-04,8.00e-02,
72,2.00e-03,8.00e-02,
73,0.00e+00,6.00e-02,
74,-8.00e-04,6.00e-02,
75,2.40e-03,8.00e-02,
76,-4.00e-03,4.00e-02,
77,6.40e-03,8.00e-02,
78,-1.60e-02,8.00e-02,
79,1.32e-02,2.00e-02,
80,2.00e-02,8.00e-02,
81,-1.92e-02,2.00e-02,
82,9.60e-03,4.00e-02,
83,-6.80e-03,2.00e-02,
84,3.20e-03,4.00e-02,
85,-4.00e-04,2.00e-02,
86,2.40e-03,2.00e-02,
87,-8.00e-04,4.00e-02,
88,2.00e-03,4.00e-02,
89,-8.00e-04,2.00e-02,
90,2.00e-03,4.00e-02,
91,-8.00e-04,2.00e-02,
92,2.40e-03,4.00e-02,
93,-1.60e-03,2.00e-02,
94,-3.60e-03,2.00e-02,
95,9.20e-03,2.04e+00,
96,9.20e-03,1.60e-01,
97,0.00e+00,8.00e-02,
98,2.00e-03,1.00e-01,
99,-4.00e-04,6.00e-02,
100,1.20e-03,8.00e-02,
101,0.00e+00,6.00e-02,
102,2.00e-03,6.00e-02,
103,-4.00e-04,8.00e-02,
104,-4.00e-04,6.00e-02,
105,2.80e-03,8.00e-02,
106,-4.00e-03,6.00e-02,
107,4.40e-03,8.00e-02,
108,1.36e-02,8.00e-02,
109,-1.52e-02,2.00e-02,
110,-1.92e-02,2.00e-02,
111,2.00e-02,8.00e-02,
112,1.00e-02,6.00e-02,
113,-7.20e-03,2.00e-02,
114,3.60e-03,4.00e-02,
115,-1.20e-03,2.00e-02,
116,2.40e-03,4.00e-02,
117,-8.00e-04,2.00e-02,
118,2.40e-03,4.00e-02,
119,-8.00e-04,2.00e-02,
120,2.00e-03,2.00e-02,
121,-4.00e-04,4.00e-02,
122,2.00e-03,4.00e-02,
123,-1.60e-03,2.00e-02,
124,-2.80e-03,2.00e-02,
125,8.40e-03,2.06e+00,
126,8.00e-03,1.60e-01,
127,-1.20e-03,8.00e-02,
128,2.80e-03,1.00e-01,
129,-4.00e-04,6.00e-02,
130,0.00e+00,6.00e-02,
131,2.00e-03,8.00e-02,
132,2.00e-03,6.00e-02,
133,-4.00e-04,8.00e-02,
134,2.40e-03,6.00e-02,
135,-8.00e-04,8.00e-02,
136,-2.80e-03,8.00e-02,
137,5.60e-03,2.00e-02,
138,-1.24e-02,8.00e-02,
139,1.60e-02,2.00e-02,
140,-1.88e-02,8.00e-02,
141,2.12e-02,2.00e-02,
142,1.00e-02,6.00e-02,
143,-6.80e-03,2.00e-02,
144,2.80e-03,2.00e-02,
145,-1.20e-03,6.00e-02,
146,0.00e+00,4.00e-02,
147,2.00e-03,2.00e-02,
148,2.00e-03,4.00e-02,
149,-8.00e-04,2.00e-02,
150,2.00e-03,2.00e-02,
151,0.00e+00,4.00e-02,
152,2.40e-03,4.00e-02,
153,0.00e+00,2.00e-02,
154,-1.60e-03,2.00e-02,
155,9.20e-03,1.84e+00,
156,8.40e-03,1.60e-01,
157,0.00e+00,8.00e-02,
158,2.00e-03,1.00e-01,
159,0.00e+00,6.00e-02,
160,0.00e+00,6.00e-02,
161,2.00e-03,8.00e-02,
162,0.00e+00,6.00e-02,
163,2.00e-03,8.00e-02,
164,0.00e+00,8.00e-02,
165,2.00e-03,4.00e-02,
166,-4.40e-03,8.00e-02,
167,6.00e-03,2.00e-02,
168,-1.48e-02,8.00e-02,
169,1.40e-02,2.00e-02,
170,-1.84e-02,8.00e-02,
171,1.96e-02,2.00e-02,
172,8.80e-03,2.00e-02,
173,-6.00e-03,8.00e-02,
174,2.40e-03,2.00e-02,
175,-8.00e-04,6.00e-02,
176,2.40e-03,4.00e-02,
177,-8.00e-04,2.00e-02,
178,2.00e-03,4.00e-02,
179,-8.00e-04,2.00e-02,
180,2.00e-03,4.00e-02,
181,-4.00e-04,2.00e-02,
182,-1.60e-03,4.00e-02,
183,2.80e-03,2.00e-02,
184,-2.40e-03,2.00e-02,
185,9.20e-03,2.08e+00,
186,8.40e-03,1.60e-01,
187,-8.00e-04,8.00e-02,
188,1.60e-03,1.00e-01,
189,0.00e+00,6.00e-02,
190,0.00e+00,6.00e-02,
191,1.20e-03,8.00e-02,
192,1.60e-03,6.00e-02,
193,-8.00e-04,8.00e-02,
194,2.40e-03,6.00e-02,
195,-1.20e-03,8.00e-02,
196,-2.80e-03,8.00e-02,
197,5.20e-03,2.00e-02,
198,-1.40e-02,8.00e-02,
199,1.36e-02,2.00e-02,
200,2.00e-02,2.00e-02,
201,-1.92e-02,8.00e-02,
202,1.08e-02,2.00e-02,
203,-7.20e-03,8.00e-02,
204,2.80e-03,6.00e-02,
205,-1.20e-03,2.00e-02,
206,1.60e-03,2.00e-02,
207,-8.00e-04,4.00e-02,
208,2.00e-03,4.00e-02,
209,-4.00e-04,2.00e-02,
210,-8.00e-04,4.00e-02,
211,2.00e-03,2.00e-02,
212,2.40e-03,4.00e-02,
213,-1.20e-03,2.00e-02,
214,-2.00e-03,2.00e-02,
215,8.80e-03,1.88e+00,
216,8.40e-03,1.60e-01,
217,-1.20e-03,8.00e-02,
218,2.00e-03,1.00e-01,
219,-8.00e-04,6.00e-02,
220,1.20e-03,6.00e-02,
221,-8.00e-04,8.00e-02,
222,2.40e-03,6.00e-02,
223,-8.00e-04,8.00e-02,
224,2.00e-03,6.00e-02,
225,-1.20e-03,8.00e-02,
226,-2.80e-03,8.00e-02,
227,5.20e-03,2.00e-02,
228,-1.20e-02,8.00e-02,
229,1.44e-02,2.00e-02,
230,-1.76e-02,8.00e-02,
231,2.00e-02,2.00e-02,
232,9.60e-03,2.00e-02,
233,-6.80e-03,6.00e-02,
234,3.20e-03,6.00e-02,
235,-1.60e-03,2.00e-02,
236,-4.00e-04,6.00e-02,
237,2.40e-03,2.00e-02,
238,2.40e-03,4.00e-02,
239,0.00e+00,2.00e-02,
240,2.00e-03,4.00e-02,
241,0.00e+00,2.00e-02,
242,2.40e-03,4.00e-02,
243,-8.00e-04,2.00e-02,
244,-1.60e-03,2.00e-02,
245,8.40e-03,2.08e+00,
246,8.40e-03,1.60e-01,
247,0.00e+00,8.00e-02,
248,0.00e+00,1.00e-01,
249,1.60e-03,6.00e-02,
250,2.40e-03,8.00e-02,
251,-4.00e-04,6.00e-02,
252,2.00e-03,6.00e-02,
253,-4.00e-04,8.00e-02,
254,-4.00e-04,8.00e-02,
255,2.40e-03,6.00e-02,
256,-3.20e-03,8.00e-02,
257,6.00e-03,2.00e-02,
258,-1.40e-02,2.00e-02,
259,1.60e-02,8.00e-02,
260,-1.84e-02,8.00e-02,
261,1.96e-02,2.00e-02,
262,8.00e-03,2.00e-02,
263,-6.00e-03,6.00e-02,
264,2.80e-03,2.00e-02,
265,-1.20e-03,4.00e-02,
266,2.40e-03,4.00e-02,
267,-4.00e-04,2.00e-02,
268,-4.00e-04,4.00e-02,
269,2.00e-03,2.00e-02,
270,0.00e+00,4.00e-02,
271,1.60e-03,2.00e-02,
272,-1.20e-03,4.00e-02,
273,2.40e-03,2.00e-02,
274,-2.40e-03,2.00e-02,
275,9.20e-03,1.92e+00,
276,8.40e-03,1.60e-01,
277,0.00e+00,8.00e-02,
278,1.20e-03,1.00e-01,
279,0.00e+00,6.00e-02,
280,1.60e-03,8.00e-02,
281,0.00e+00,6.00e-02,
282,0.00e+00,6.00e-02,
283,2.00e-03,8.00e-02,
284,2.40e-03,8.00e-02,
285,-4.00e-04,4.00e-02,
286,-2.80e-03,8.00e-02,
287,5.60e-03,2.00e-02,
288,-1.56e-02,2.00e-02,
289,1.36e-02,8.00e-02,
290,-1.84e-02,2.00e-02,
291,2.00e-02,6.00e-02,
292,9.60e-03,4.00e-02,
293,-7.20e-03,2.00e-02,
294,2.40e-03,4.00e-02,
295,-8.00e-04,2.00e-02,
296,2.40e-03,4.00e-02,
297,-8.00e-04,2.00e-02,
298,2.00e-03,4.00e-02,
299,-4.00e-04,2.00e-02,
300,1.20e-03,4.00e-02,
301,0.00e+00,2.00e-02,
302,2.40e-03,4.00e-02,
303,-1.60e-03,2.00e-02,
304,-2.40e-03,2.08e+00,
305,9.20e-03,0.00e+00,
306,8.80e-03,1.60e-01,
307,-4.00e-04,8.00e-02,
308,-4.00e-04,1.00e-01,
309,2.40e-03,6.00e-02,
310,0.00e+00,6.00e-02,
311,2.00e-03,8.00e-02,
312,-8.00e-04,6.00e-02,
313,2.40e-03,8.00e-02,
314,2.40e-03,8.00e-02,
315,-8.00e-04,4.00e-02,
316,-3.20e-03,8.00e-02,
317,5.60e-03,4.00e-02,
318,-1.28e-02,8.00e-02,
319,1.44e-02,2.00e-02,
320,-1.92e-02,8.00e-02,
321,1.96e-02,2.00e-02,
322,1.00e-02,2.00e-02,
323,-7.20e-03,8.00e-02,
324,3.60e-03,4.00e-02,
325,-1.20e-03,2.00e-02,
326,2.00e-03,4.00e-02,
327,-4.00e-04,2.00e-02,
328,0.00e+00,4.00e-02,
329,2.00e-03,2.00e-02,
330,2.00e-03,4.00e-02,
331,0.00e+00,2.00e-02,
332,2.00e-03,4.00e-02,
333,-8.00e-04,2.00e-02,
334,-2.00e-03,2.00e-02,
335,8.40e-03,1.98e+00,
336,8.40e-03,1.60e-01,
337,-4.00e-04,8.00e-02,
338,1.60e-03,1.00e-01,
339,0.00e+00,6.00e-02,
340,2.00e-03,6.00e-02,
341,0.00e+00,8.00e-02,
342,2.00e-03,6.00e-02,
343,-4.00e-04,8.00e-02,
344,-4.00e-04,8.00e-02,
345,2.40e-03,4.00e-02,
346,-2.80e-03,8.00e-02,
347,6.40e-03,2.00e-02,
348,-1.44e-02,2.00e-02,
349,1.68e-02,8.00e-02,
350,-1.92e-02,4.00e-02,
351,1.96e-02,2.00e-02,
352,8.00e-03,4.00e-02,
353,-5.60e-03,2.00e-02,
354,2.80e-03,4.00e-02,
355,-8.00e-04,2.00e-02,
356,-1.20e-03,2.00e-02,
357,2.40e-03,4.00e-02,
358,0.00e+00,2.00e-02,
359,2.40e-03,4.00e-02,
360,2.00e-03,4.00e-02,
361,-4.00e-04,2.00e-02,
362,2.40e-03,4.00e-02,
363,-1.60e-03,2.00e-02,
364,-2.40e-03,2.00e-02,
365,8.80e-03,1.98e+00,
366,8.40e-03,1.40e-01,
367,-4.00e-04,8.00e-02,
368,2.00e-03,1.00e-01,
369,-8.00e-04,6.00e-02,
370,0.00e+00,6.00e-02,
371,2.00e-03,8.00e-02,
372,-4.00e-04,6.00e-02,
373,2.00e-03,8.00e-02,
374,2.40e-03,8.00e-02,
375,-8.00e-04,4.00e-02,
376,-3.20e-03,8.00e-02,
377,5.20e-03,4.00e-02,
378,-1.32e-02,8.00e-02,
379,1.60e-02,2.00e-02,
380,-1.84e-02,8.00e-02,
381,1.88e-02,2.00e-02,
382,8.80e-03,4.00e-02,
383,-7.20e-03,2.00e-02,
384,3.20e-03,4.00e-02,
385,-1.60e-03,2.00e-02,
386,2.40e-03,4.00e-02,
387,-8.00e-04,2.00e-02,
388,-8.00e-04,2.00e-02,
389,2.00e-03,4.00e-02,
390,2.00e-03,4.00e-02,
391,0.00e+00,2.00e-02,
392,2.40e-03,4.00e-02,
393,-1.20e-03,2.00e-02,
394,-2.00e-03,2.00e-02,
395,9.20e-03,2.02e+00,
396,9.20e-03,1.60e-01,
397,-8.00e-04,8.00e-02,
398,2.40e-03,1.00e-01,
399,0.00e+00,6.00e-02,
400,2.00e-03,6.00e-02,
401,0.00e+00,8.00e-02,
402,-4.00e-04,8.00e-02,
403,2.40e-03,6.00e-02,
404,2.40e-03,6.00e-02,
405,-8.00e-04,8.00e-02,
406,-2.80e-03,8.00e-02,
407,6.00e-03,2.00e-02,
408,-1.28e-02,2.00e-02,
409,1.36e-02,8.00e-02,
410,-1.88e-02,2.00e-02,
411,1.88e-02,8.00e-02,
412,9.60e-03,4.00e-02,
413,-6.00e-03,2.00e-02,
414,3.20e-03,4.00e-02,
415,-8.00e-04,2.00e-02,
416,2.00e-03,2.00e-02,
417,-8.00e-04,4.00e-02,
418,-4.00e-04,4.00e-02,
419,2.00e-03,2.00e-02,
420,1.20e-03,2.00e-02,
421,0.00e+00,4.00e-02,
422,2.00e-03,4.00e-02,
423,-1.20e-03,2.00e-02,
424,-2.00e-03,2.00e-02,
425,9.20e-03,2.06e+00,
426,8.40e-03,1.60e-01,
427,-4.00e-04,8.00e-02,
428,2.00e-03,1.00e-01,
429,0.00e+00,6.00e-02,
430,-8.00e-04,6.00e-02,
431,2.00e-03,8.00e-02,
432,0.00e+00,6.00e-02,
433,2.00e-03,8.00e-02,
434,2.00e-03,6.00e-02,
435,-4.00e-04,8.00e-02,
436,-3.20e-03,8.00e-02,
437,6.00e-03,2.00e-02,
438,-1.28e-02,2.00e-02,
439,1.68e-02,8.00e-02,
440,-1.68e-02,2.00e-02,
441,1.84e-02,8.00e-02,
442,9.20e-03,2.00e-02,
443,-5.60e-03,8.00e-02,
444,2.80e-03,4.00e-02,
445,-8.00e-04,2.00e-02,
446,2.40e-03,4.00e-02,
447,-4.00e-04,2.00e-02,
448,0.00e+00,2.00e-02,
449,2.00e-03,4.00e-02,
450,1.20e-03,2.00e-02,
451,0.00e+00,4.00e-02,
452,2.00e-03,4.00e-02,
453,-4.00e-04,2.00e-02,
454,-2.00e-03,2.00e-02,
455,8.40e-03,1.78e+00,
456,8.00e-03,1.60e-01,
457,-8.00e-04,8.00e-02,
458,2.40e-03,1.00e-01,
459,0.00e+00,6.00e-02,
460,0.00e+00,6.00e-02,
461,2.00e-03,8.00e-02,
462,0.00e+00,6.00e-02,
463,1.60e-03,8.00e-02,
464,2.00e-03,8.00e-02,
465,-8.00e-04,2.00e-02,
466,-3.20e-03,8.00e-02,
467,5.20e-03,2.00e-02,
468,-1.32e-02,8.00e-02,
469,1.68e-02,2.00e-02,
470,-1.72e-02,2.00e-02,
471,2.04e-02,6.00e-02,
472,9.20e-03,4.00e-02,
473,-7.20e-03,2.00e-02,
474,3.20e-03,4.00e-02,
475,-8.00e-04,2.00e-02,
476,2.00e-03,4.00e-02,
477,-4.00e-04,2.00e-02,
478,-8.00e-04,4.00e-02,
479,2.40e-03,2.00e-02,
480,1.60e-03,4.00e-02,
481,-4.00e-04,2.00e-02,
482,2.00e-03,2.00e-02,
483,-1.60e-03,4.00e-02,
484,-1.60e-03,2.00e-02,
485,8.80e-03,2.00e+00,
486,8.40e-03,1.60e-01,
487,0.00e+00,8.00e-02,
488,2.00e-03,1.00e-01,
489,4.00e-04,6.00e-02,
490,2.00e-03,6.00e-02,
491,0.00e+00,8.00e-02,
492,-8.00e-04,6.00e-02,
493,2.40e-03,8.00e-02,
494,2.40e-03,8.00e-02,
495,-8.00e-04,4.00e-02,
496,-3.20e-03,8.00e-02,
497,5.60e-03,2.00e-02,
498,-1.28e-02,2.00e-02,
499,1.56e-02,8.00e-02,
500,-1.76e-02,2.00e-02,
501,1.88e-02,8.00e-02,
502,9.20e-03,4.00e-02,
503,-6.40e-03,2.00e-02,
504,2.80e-03,4.00e-02,
505,-8.00e-04,2.00e-02,
506,-8.00e-04,2.00e-02,
507,2.00e-03,4.00e-02,
508,-8.00e-04,4.00e-02,
509,2.00e-03,2.00e-02,
510,1.60e-03,4.00e-02,
511,0.00e+00,2.00e-02,
512,2.00e-03,4.00e-02,
513,-1.60e-03,2.00e-02,
514,-2.40e-03,2.00e-02,
515,9.60e-03,1.90e+00,
516,8.80e-03,1.60e-01,
517,-8.00e-04,8.00e-02,
518,2.40e-03,1.00e-01,
519,-4.00e-04,6.00e-02,
520,0.00e+00,6.00e-02,
521,2.00e-03,8.00e-02,
522,2.00e-03,6.00e-02,
523,0.00e+00,8.00e-02,
524,-8.00e-04,6.00e-02,
525,2.40e-03,8.00e-02,
526,-3.20e-03,8.00e-02,
527,5.60e-03,4.00e-02,
528,-1.20e-02,2.00e-02,
529,1.60e-02,8.00e-02,
530,-1.80e-02,2.00e-02,
531,1.84e-02,8.00e-02,
532,8.80e-03,4.00e-02,
533,-5.60e-03,2.00e-02,
534,2.40e-03,4.00e-02,
535,-8.00e-04,2.00e-02,
536,-4.00e-04,4.00e-02,
537,2.40e-03,2.00e-02,
538,0.00e+00,4.00e-02,
539,2.00e-03,2.00e-02,
540,2.00e-03,2.00e-02,
541,0.00e+00,4.00e-02,
542,2.00e-03,4.00e-02,
543,-1.60e-03,2.00e-02,
544,-1.60e-03,2.00e-02,
545,8.80e-03,2.08e+00,
546,8.40e-03,1.60e-01,
547,-8.00e-04,8.00e-02,
548,2.40e-03,1.00e-01,
549,0.00e+00,6.00e-02,
550,0.00e+00,6.00e-02,
551,1.60e-03,8.00e-02,
552,0.00e+00,6.00e-02,
553,2.00e-03,8.00e-02,
554,2.00e-03,8.00e-02,
555,-8.00e-04,4.00e-02,
556,-3.60e-03,8.00e-02,
557,4.80e-03,2.00e-02,
558,-1.24e-02,8.00e-02,
559,1.64e-02,2.00e-02,
560,-1.76e-02,4.00e-02,
561,1.92e-02,2.00e-02,
562,8.40e-03,2.00e-02,
563,-6.00e-03,4.00e-02,
564,2.80e-03,4.00e-02,
565,-1.20e-03,2.00e-02,
566,2.00e-03,4.00e-02,
567,-8.00e-04,2.00e-02,
568,-8.00e-04,4.00e-02,
569,1.60e-03,2.00e-02,
570,2.00e-03,4.00e-02,
571,-4.00e-04,2.00e-02,
572,2.40e-03,4.00e-02,
573,-1.20e-03,2.00e-02,
574,-2.00e-03,2.00e-02,
575,8.80e-03,1.72e+00,
576,8.40e-03,1.60e-01,
577,0.00e+00,8.00e-02,
578,2.00e-03,1.00e-01,
579,0.00e+00,6.00e-02,
580,0.00e+00,6.00e-02,
581,1.20e-03,8.00e-02,
582,0.00e+00,8.00e-02,
583,2.40e-03,6.00e-02,
584,2.40e-03,8.00e-02,
585,-4.00e-04,2.00e-02,
586,-2.40e-03,8.00e-02,
587,5.20e-03,2.00e-02,
588,-1.28e-02,8.00e-02,
589,1.60e-02,2.00e-02,
590,-1.64e-02,8.00e-02,
591,1.84e-02,2.00e-02,
592,8.80e-03,4.00e-02,
593,-6.00e-03,2.00e-02,
594,2.80e-03,4.00e-02,
595,-1.60e-03,2.00e-02,
596,2.00e-03,4.00e-02,
597,-8.00e-04,2.00e-02,
598,2.00e-03,4.00e-02,
599,-4.00e-04,2.00e-02,
600,2.00e-03,2.00e-02,
601,0.00e+00,4.00e-02,
602,2.40e-03,4.00e-02,
603,-1.20e-03,2.00e-02,
604,-1.60e-03,2.00e-02,
605,9.20e-03,2.06e+00,
606,9.20e-03,1.60e-01,
607,0.00e+00,8.00e-02,
608,2.40e-03,1.00e-01,
609,4.00e-04,6.00e-02,
610,-4.00e-04,6.00e-02,
611,1.60e-03,8.00e-02,
612,-4.00e-04,8.00e-02,
613,2.00e-03,6.00e-02,
614,2.40e-03,8.00e-02,
615,-8.00e-04,4.00e-02,
616,-3.20e-03,8.00e-02,
617,5.60e-03,2.00e-02,
618,-1.28e-02,8.00e-02,
619,1.72e-02,2.00e-02,
620,-1.72e-02,8.00e-02,
621,1.88e-02,2.00e-02,
622,8.80e-03,4.00e-02,
623,-6.00e-03,2.00e-02,
624,-1.20e-03,2.00e-02,
625,2.40e-03,4.00e-02,
626,2.00e-03,4.00e-02,
627,-8.00e-04,2.00e-02,
628,1.20e-03,4.00e-02,
629,-8.00e-04,2.00e-02,
630,2.00e-03,4.00e-02,
631,0.00e+00,2.00e-02,
632,2.40e-03,4.00e-02,
633,-1.20e-03,2.00e-02,
634,-2.80e-03,2.00e-02,
635,9.20e-03,1.98e+00,
636,9.20e-03,1.60e-01,
637,0.00e+00,8.00e-02,
638,2.40e-03,1.00e-01,
639,0.00e+00,6.00e-02,
640,1.60e-03,6.00e-02,
641,0.00e+00,8.00e-02,
642,1.20e-03,6.00e-02,
643,0.00e+00,8.00e-02,
644,2.00e-03,8.00e-02,
645,0.00e+00,4.00e-02,
646,-2.80e-03,8.00e-02,
647,5.20e-03,2.00e-02,
648,-1.28e-02,8.00e-02,
649,1.60e-02,2.00e-02,
650,1.76e-02,8.00e-02,
651,-1.72e-02,2.00e-02,
652,9.20e-03,2.00e-02,
653,-6.00e-03,8.00e-02,
654,2.80e-03,2.00e-02,
655,-4.00e-04,8.00e-02,
656,2.40e-03,4.00e-02,
657,-8.00e-04,2.00e-02,
658,0.00e+00,4.00e-02,
659,2.40e-03,2.00e-02,
660,2.00e-03,4.00e-02,
661,0.00e+00,2.00e-02,
662,2.00e-03,4.00e-02,
663,-1.20e-03,2.00e-02,
664,-1.60e-03,2.00e-02,
665,8.40e-03,1.98e+00,
666,8.00e-03,1.60e-01,
667,0.00e+00,8.00e-02,
668,1.20e-03,1.00e-01,
669,0.00e+00,6.00e-02,
670,-8.00e-04,6.00e-02,
671,1.60e-03,8.00e-02,
672,-4.00e-04,6.00e-02,
673,2.00e-03,8.00e-02,
674,-8.00e-04,8.00e-02,
675,2.40e-03,4.00e-02,
676,-1.60e-03,8.00e-02,
677,5.20e-03,2.00e-02,
678,-1.20e-02,8.00e-02,
679,1.60e-02,2.00e-02,
680,-1.72e-02,8.00e-02,
681,1.84e-02,2.00e-02,
682,9.20e-03,8.00e-02,
683,-6.40e-03,2.00e-02,
684,3.60e-03,4.00e-02,
685,-1.20e-03,2.00e-02,
686,2.00e-03,4.00e-02,
687,-8.00e-04,2.00e-02,
688,0.00e+00,2.00e-02,
689,2.00e-03,4.00e-02,
690,2.00e-03,4.00e-02,
691,-4.00e-04,2.00e-02,
692,2.80e-03,4.00e-02,
693,-8.00e-04,2.00e-02,
694,-2.40e-03,2.00e-02,
695,8.80e-03,2.06e+00,
696,8.40e-03,1.60e-01,
697,-8.00e-04,8.00e-02,
698,2.00e-03,1.00e-01,
699,-8.00e-04,6.00e-02,
700,1.20e-03,6.00e-02,
701,-8.00e-04,8.00e-02,
702,2.00e-03,6.00e-02,
703,-8.00e-04,8.00e-02,
704,2.00e-03,6.00e-02,
705,-4.00e-04,8.00e-02,
706,-3.60e-03,8.00e-02,
707,5.60e-03,2.00e-02,
708,-1.24e-02,2.00e-02,
709,1.60e-02,8.00e-02,
710,-1.76e-02,2.00e-02,
711,1.84e-02,8.00e-02,
712,8.00e-03,2.00e-02,
713,-6.00e-03,8.00e-02,
714,2.40e-03,4.00e-02,
715,-8.00e-04,2.00e-02,
716,1.60e-03,4.00e-02,
717,0.00e+00,2.00e-02,
718,2.40e-03,4.00e-02,
719,-4.00e-04,2.00e-02,
720,2.00e-03,4.00e-02,
721,0.00e+00,2.00e-02,
722,1.60e-03,4.00e-02,
723,-1.20e-03,2.00e-02,
724,-2.80e-03,2.00e-02,
725,9.20e-03,1.98e+00,
726,8.40e-03,1.60e-01,
727,0.00e+00,8.00e-02,
728,2.00e-03,1.00e-01,
729,0.00e+00,6.00e-02,
730,1.20e-03,8.00e-02,
731,0.00e+00,6.00e-02,
732,0.00e+00,6.00e-02,
733,2.00e-03,8.00e-02,
734,-4.00e-04,8.00e-02,
735,2.00e-03,4.00e-02,
736,-2.80e-03,8.00e-02,
737,5.60e-03,2.00e-02,
738,-1.28e-02,8.00e-02,
739,1.60e-02,2.00e-02,
740,-1.64e-02,8.00e-02,
741,1.80e-02,2.00e-02,
742,8.40e-03,2.00e-02,
743,-6.00e-03,8.00e-02,
744,2.80e-03,2.00e-02,
745,-8.00e-04,8.00e-02,
746,0.00e+00,4.00e-02,
747,2.00e-03,2.00e-02,
748,-4.00e-04,2.00e-02,
749,2.00e-03,4.00e-02,
750,0.00e+00,4.00e-02,
751,2.00e-03,2.00e-02,
752,1.60e-03,2.00e-02,
753,-1.60e-03,4.00e-02,
754,-1.60e-03,2.00e-02,
755,9.20e-03,2.02e+00,
756,8.40e-03,1.60e-01,
757,0.00e+00,8.00e-02,
758,2.40e-03,1.00e-01,
759,0.00e+00,6.00e-02,
760,0.00e+00,6.00e-02,
761,2.00e-03,8.00e-02,
762,2.00e-03,8.00e-02,
763,-8.00e-04,6.00e-02,
764,0.00e+00,8.00e-02,
765,2.40e-03,2.00e-02,
766,-2.80e-03,8.00e-02,
767,4.80e-03,2.00e-02,
768,-1.24e-02,8.00e-02,
769,1.56e-02,2.00e-02,
770,-1.64e-02,8.00e-02,
771,1.76e-02,2.00e-02,
772,9.60e-03,8.00e-02,
773,-6.00e-03,2.00e-02,
774,2.80e-03,2.00e-02,
775,-8.00e-04,8.00e-02,
776,1.60e-03,6.00e-02,
777,-8.00e-04,2.00e-02,
778,0.00e+00,4.00e-02,
779,2.00e-03,2.00e-02,
780,2.00e-03,2.00e-02,
781,0.00e+00,4.00e-02,
782,2.40e-03,4.00e-02,
783,-8.00e-04,2.00e-02,
784,-2.00e-03,2.00e+00,
785,8.40e-03,0.00e+00,
786,8.40e-03,1.60e-01,
787,0.00e+00,8.00e-02,
788,-4.00e-04,1.00e-01,
789,2.00e-03,6.00e-02,
790,0.00e+00,6.00e-02,
791,2.00e-03,8.00e-02,
792,1.60e-03,6.00e-02,
793,-8.00e-04,8.00e-02,
794,0.00e+00,8.00e-02,
795,2.40e-03,2.00e-02,
796,-1.60e-03,8.00e-02,
797,5.60e-03,2.00e-02,
798,-1.28e-02,8.00e-02,
799,1.68e-02,2.00e-02,
800,-1.52e-02,8.00e-02,
801,1.76e-02,2.00e-02,
802,8.40e-03,4.00e-02,
803,-6.00e-03,2.00e-02,
804,2.80e-03,2.00e-02,
805,-1.20e-03,4.00e-02,
806,2.40e-03,4.00e-02,
807,0.00e+00,2.00e-02,
808,-4.00e-04,4.00e-02,
809,1.60e-03,2.00e-02,
810,0.00e+00,4.00e-02,
811,2.00e-03,2.00e-02,
812,2.40e-03,4.00e-02,
813,-1.20e-03,2.00e-02,
814,-1.60e-03,2.00e-02,
815,9.20e-03,2.00e+00,
816,8.40e-03,1.60e-01,
817,-8.00e-04,8.00e-02,
818,2.00e-03,1.00e-01,
819,0.00e+00,6.00e-02,
820,0.00e+00,6.00e-02,
821,2.00e-03,8.00e-02,
822,4.00e-04,6.00e-02,
823,2.40e-03,8.00e-02,
824,-4.00e-04,8.00e-02,
825,2.00e-03,6.00e-02,
826,-2.00e-03,8.00e-02,
827,5.20e-03,2.00e-02,
828,-1.16e-02,2.00e-02,
829,1.72e-02,8.00e-02,
830,-1.68e-02,8.00e-02,
831,1.76e-02,2.00e-02,
832,8.40e-03,6.00e-02,
833,-6.00e-03,2.00e-02,
834,2.40e-03,4.00e-02,
835,-4.00e-04,2.00e-02,
836,2.00e-03,4.00e-02,
837,-8.00e-04,2.00e-02,
838,2.00e-03,4.00e-02,
839,-8.00e-04,2.00e-02,
840,0.00e+00,4.00e-02,
841,1.20e-03,2.00e-02,
842,2.00e-03,4.00e-02,
843,-4.00e-04,2.00e-02,
844,-1.60e-03,2.00e-02,
845,9.20e-03,2.06e+00,
846,9.20e-03,1.60e-01,
847,-4.00e-04,8.00e-02,
848,0.00e+00,1.00e-01,
849,2.00e-03,6.00e-02,
850,2.00e-03,6.00e-02,
851,0.00e+00,8.00e-02,
852,-8.00e-04,6.00e-02,
853,1.60e-03,8.00e-02,
854,-8.00e-04,8.00e-02,
855,1.60e-03,4.00e-02,
856,-2.00e-03,8.00e-02,
