CarrPurc_P1-19_P2-38_tauVary/Gly20/NewFile6.csv

X,CH1,CH2,Start,Increment,
Sequence,Volt,Volt,-3.600000e-03,2.000000e-04
0,0.00e+00,4.00e-02,
1,1.20e-03,0.00e+00,
2,1.20e-03,4.00e-02,
3,0.00e+00,0.00e+00,
4,0.00e+00,4.00e-02,
5,1.60e-03,0.00e+00,
6,1.20e-03,4.00e-02,
7,0.00e+00,0.00e+00,
8,1.20e-03,4.00e-02,
9,0.00e+00,0.00e+00,
10,1.20e-03,4.00e-02,
11,0.00e+00,0.00e+00,
12,0.00e+00,4.00e-02,
13,1.20e-03,0.00e+00,
14,0.00e+00,4.00e-02,
15,1.20e-03,0.00e+00,
16,1.20e-03,4.00e-02,
17,0.00e+00,0.00e+00,
18,0.00e+00,4.00e-02,
19,2.00e-03,0.00e+00,
20,7.20e-03,-4.00e-02,
21,-2.40e-02,2.06e+00,
22,1.64e-02,1.00e-01,
23,-1.28e-02,6.00e-02,
24,-2.40e-03,1.00e-01,
25,4.40e-03,6.00e-02,
26,3.60e-03,6.00e-02,
27,-1.60e-03,8.00e-02,
28,-8.00e-04,8.00e-02,
29,2.00e-03,4.00e-02,
30,2.40e-03,2.00e-02,
31,-8.00e-04,8.00e-02,
32,2.00e-03,8.00e-02,
33,-4.00e-04,2.00e-02,
34,4.00e-04,2.00e-02,
35,8.40e-03,2.06e+00,
36,8.40e-03,1.60e-01,
37,-4.80e-03,8.00e-02,
38,3.60e-03,1.00e-01,
39,-1.60e-03,6.00e-02,
40,2.40e-03,6.00e-02,
41,-8.00e-04,8.00e-02,
42,2.40e-03,6.00e-02,
43,-1.20e-03,8.00e-02,
44,-1.20e-03,6.00e-02,
45,2.40e-03,8.00e-02,
46,-4.00e-03,8.00e-02,
47,6.80e-03,2.00e-02,
48,-1.60e-02,2.00e-02,
49,2.16e-02,8.00e-02,
50,-2.32e-02,2.00e-02,
51,2.60e-02,8.00e-02,
52,1.28e-02,2.00e-02,
53,-1.00e-02,8.00e-02,
54,4.40e-03,4.00e-02,
55,-1.20e-03,2.00e-02,
56,-8.00e-04,4.00e-02,
57,2.40e-03,2.00e-02,
58,2.00e-03,4.00e-02,
59,0.00e+00,2.00e-02,
60,0.00e+00,4.00e-02,
61,2.00e-03,2.00e-02,
62,0.00e+00,4.00e-02,
63,1.60e-03,2.00e-02,
64,0.00e+00,-2.00e-02,
65,9.20e-03,2.02e+00,
66,9.20e-03,1.60e-01,
67,0.00e+00,8.00e-02,
68,2.00e-03,1.00e-01,
69,0.00e+00,6.00e-02,
70,-4.00e-04,6.00e-02,
71,2.00e-03,8.00e-02,
72,2.00e-03,8.00e-02,
73,-8.00e-04,6.00e-02,
74,-8.00e-04,8.00e-02,
75,2.40e-03,4.00e-02,
76,-4.00e-03,8.00e-02,
77,6.40e-03,4.00e-02,
78,-1.44e-02,2.00e-02,
79,1.32e-02,8.00e-02,
80,-1.88e-02,8.00e-02,
81,1.96e-02,2.00e-02,
82,8.80e-03,8.00e-02,
83,-5.60e-03,2.00e-02,
84,2.40e-03,4.00e-02,
85,-4.00e-04,2.00e-02,
86,2.40e-03,2.00e-02,
87,-8.00e-04,4.00e-02,
88,-4.00e-04,4.00e-02,
89,2.00e-03,2.00e-02,
90,2.00e-03,4.00e-02,
91,-8.00e-04,2.00e-02,
92,2.40e-03,4.00e-02,
93,-1.60e-03,2.00e-02,
94,-2.80e-03,2.00e-02,
95,8.40e-03,2.08e+00,
96,8.00e-03,1.60e-01,
97,-1.20e-03,8.00e-02,
98,2.00e-03,1.00e-01,
99,-4.00e-04,6.00e-02,
100,0.00e+00,8.00e-02,
101,2.00e-03,6.00e-02,
102,2.00e-03,6.00e-02,
103,0.00e+00,8.00e-02,
104,2.00e-03,6.00e-02,
105,-8.00e-04,8.00e-02,
106,-4.00e-03,6.00e-02,
107,5.60e-03,8.00e-02,
108,1.24e-02,8.00e-02,
109,-1.56e-02,2.00e-02,
110,-1.88e-02,8.00e-02,
111,1.96e-02,2.00e-02,
112,9.60e-03,2.00e-02,
113,-6.80e-03,8.00e-02,
114,3.20e-03,4.00e-02,
115,-1.20e-03,2.00e-02,
116,2.40e-03,4.00e-02,
117,-4.00e-04,2.00e-02,
118,1.60e-03,4.00e-02,
119,-1.20e-03,2.00e-02,
120,1.20e-03,2.00e-02,
121,-8.00e-04,4.00e-02,
122,2.40e-03,4.00e-02,
123,-1.20e-03,2.00e-02,
124,-2.00e-03,2.00e-02,
125,8.40e-03,1.92e+00,
126,8.40e-03,1.60e-01,
127,-8.00e-04,8.00e-02,
128,2.40e-03,1.00e-01,
129,-8.00e-04,6.00e-02,
130,0.00e+00,6.00e-02,
131,2.00e-03,8.00e-02,
132,0.00e+00,6.00e-02,
133,2.00e-03,8.00e-02,
134,0.00e+00,6.00e-02,
135,2.40e-03,8.00e-02,
136,-3.20e-03,8.00e-02,
137,5.60e-03,4.00e-02,
138,-1.04e-02,8.00e-02,
139,1.56e-02,2.00e-02,
140,-1.60e-02,2.00e-02,
141,1.84e-02,8.00e-02,
142,1.00e-02,2.00e-02,
143,-6.00e-03,8.00e-02,
144,2.80e-03,8.00e-02,
145,-1.20e-03,2.00e-02,
146,0.00e+00,2.00e-02,
147,2.00e-03,8.00e-02,
148,-4.00e-04,4.00e-02,
149,2.00e-03,2.00e-02,
150,0.00e+00,2.00e-02,
151,1.60e-03,4.00e-02,
152,2.00e-03,4.00e-02,
153,-8.00e-04,2.00e-02,
154,-1.60e-03,2.00e-02,
155,9.20e-03,2.00e+00,
156,8.40e-03,1.60e-01,
157,0.00e+00,8.00e-02,
158,1.20e-03,1.00e-01,
159,0.00e+00,6.00e-02,
160,0.00e+00,6.00e-02,
161,2.00e-03,8.00e-02,
162,1.20e-03,6.00e-02,
163,0.00e+00,8.00e-02,
164,-8.00e-04,6.00e-02,
165,2.00e-03,8.00e-02,
166,-3.20e-03,8.00e-02,
167,5.60e-03,4.00e-02,
168,1.20e-02,8.00e-02,
169,-1.24e-02,4.00e-02,
170,-1.68e-02,8.00e-02,
171,1.68e-02,2.00e-02,
172,7.60e-03,2.00e-02,
173,-5.60e-03,8.00e-02,
174,2.40e-03,2.00e-02,
175,-8.00e-04,8.00e-02,
176,-8.00e-04,6.00e-02,
177,2.00e-03,2.00e-02,
178,2.00e-03,4.00e-02,
179,0.00e+00,2.00e-02,
180,1.20e-03,4.00e-02,
181,0.00e+00,2.00e-02,
182,2.40e-03,4.00e-02,
183,-1.60e-03,2.00e-02,
184,-2.80e-03,2.00e-02,
185,9.20e-03,2.00e+00,
186,8.40e-03,1.60e-01,
187,-4.00e-04,8.00e-02,
188,0.00e+00,1.00e-01,
189,2.40e-03,6.00e-02,
190,1.20e-03,6.00e-02,
191,0.00e+00,8.00e-02,
192,1.20e-03,6.00e-02,
193,-4.00e-04,8.00e-02,
194,-8.00e-04,8.00e-02,
195,2.00e-03,2.00e-02,
196,-2.80e-03,8.00e-02,
197,4.40e-03,2.00e-02,
198,1.16e-02,8.00e-02,
199,-1.28e-02,2.00e-02,
200,1.80e-02,2.00e-02,
201,-1.56e-02,8.00e-02,
202,8.40e-03,2.00e-02,
203,-6.40e-03,8.00e-02,
204,2.40e-03,2.00e-02,
205,-8.00e-04,6.00e-02,
206,1.60e-03,2.00e-02,
207,0.00e+00,4.00e-02,
208,2.00e-03,4.00e-02,
209,-8.00e-04,2.00e-02,
210,0.00e+00,4.00e-02,
211,1.60e-03,2.00e-02,
212,-8.00e-04,4.00e-02,
213,2.40e-03,2.00e-02,
214,-2.80e-03,2.00e-02,
215,8.00e-03,1.94e+00,
216,8.00e-03,1.60e-01,
217,-8.00e-04,8.00e-02,
218,2.40e-03,1.00e-01,
219,-8.00e-04,6.00e-02,
220,1.20e-03,1.00e-01,
221,0.00e+00,6.00e-02,
222,2.00e-03,6.00e-02,
223,-8.00e-04,8.00e-02,
224,-1.20e-03,6.00e-02,
225,2.00e-03,8.00e-02,
226,-2.40e-03,8.00e-02,
227,4.40e-03,4.00e-02,
228,-1.00e-02,2.00e-02,
229,1.24e-02,8.00e-02,
230,-1.56e-02,6.00e-02,
231,1.68e-02,2.00e-02,
232,8.40e-03,4.00e-02,
233,-6.00e-03,2.00e-02,
234,2.40e-03,4.00e-02,
235,-8.00e-04,2.00e-02,
236,1.60e-03,4.00e-02,
237,-8.00e-04,2.00e-02,
238,-8.00e-04,4.00e-02,
239,1.60e-03,2.00e-02,
240,0.00e+00,4.00e-02,
241,2.00e-03,2.00e-02,
242,2.00e-03,4.00e-02,
243,-4.00e-04,2.00e-02,
244,-1.60e-03,2.00e-02,
245,9.20e-03,1.98e+00,
246,8.40e-03,1.60e-01,
247,0.00e+00,8.00e-02,
248,2.00e-03,1.00e-01,
249,0.00e+00,6.00e-02,
250,1.60e-03,8.00e-02,
251,0.00e+00,6.00e-02,
252,2.00e-03,6.00e-02,
253,0.00e+00,8.00e-02,
254,-4.00e-04,8.00e-02,
255,2.00e-03,4.00e-02,
256,-3.20e-03,8.00e-02,
257,4.40e-03,2.00e-02,
258,-1.12e-02,2.00e-02,
259,1.32e-02,8.00e-02,
260,-1.56e-02,8.00e-02,
261,1.60e-02,2.00e-02,
262,7.20e-03,2.00e-02,
263,-4.00e-03,6.00e-02,
264,2.40e-03,2.00e-02,
265,-8.00e-04,4.00e-02,
266,2.00e-03,2.00e-02,
267,-4.00e-04,6.00e-02,
268,1.60e-03,4.00e-02,
269,-8.00e-04,2.00e-02,
270,1.60e-03,4.00e-02,
271,0.00e+00,2.00e-02,
272,-8.00e-04,4.00e-02,
273,2.40e-03,2.00e-02,
274,-2.00e-03,2.00e-02,
275,9.60e-03,2.00e+00,
276,8.80e-03,1.60e-01,
277,-4.00e-04,8.00e-02,
278,2.00e-03,1.00e-01,
279,0.00e+00,6.00e-02,
280,1.60e-03,8.00e-02,
281,0.00e+00,6.00e-02,
282,0.00e+00,6.00e-02,
283,2.00e-03,8.00e-02,
284,2.00e-03,6.00e-02,
285,-8.00e-04,8.00e-02,
286,-2.80e-03,8.00e-02,
287,4.40e-03,2.00e-02,
288,1.00e-02,8.00e-02,
289,-1.24e-02,2.00e-02,
290,-1.44e-02,8.00e-02,
291,1.64e-02,2.00e-02,
292,8.00e-03,8.00e-02,
293,-6.00e-03,2.00e-02,
294,2.40e-03,2.00e-02,
295,-8.00e-04,6.00e-02,
296,1.20e-03,4.00e-02,
297,-4.00e-04,2.00e-02,
298,2.00e-03,4.00e-02,
299,0.00e+00,2.00e-02,
300,2.00e-03,4.00e-02,
301,0.00e+00,2.00e-02,
302,2.00e-03,4.00e-02,
303,-1.20e-03,2.00e-02,
304,-2.40e-03,2.00e-02,
305,8.40e-03,1.94e+00,
306,8.00e-03,1.60e-01,
307,-4.00e-04,8.00e-02,
308,2.40e-03,1.00e-01,
309,0.00e+00,6.00e-02,
310,1.20e-03,6.00e-02,
311,-8.00e-04,8.00e-02,
312,0.00e+00,6.00e-02,
313,2.40e-03,8.00e-02,
314,-8.00e-04,8.00e-02,
315,2.40e-03,4.00e-02,
316,-2.40e-03,8.00e-02,
317,5.20e-03,2.00e-02,
318,-8.40e-03,8.00e-02,
319,1.28e-02,2.00e-02,
320,-1.44e-02,2.00e-02,
321,1.52e-02,6.00e-02,
322,8.40e-03,4.00e-02,
323,-5.60e-03,2.00e-02,
324,2.40e-03,4.00e-02,
325,-1.20e-03,2.00e-02,
326,1.20e-03,4.00e-02,
327,0.00e+00,2.00e-02,
328,0.00e+00,4.00e-02,
329,2.00e-03,2.00e-02,
330,1.20e-03,4.00e-02,
331,-8.00e-04,2.00e-02,
332,2.40e-03,4.00e-02,
333,-8.00e-04,2.00e-02,
334,-2.40e-03,2.00e-02,
335,8.40e-03,2.06e+00,
336,8.40e-03,1.60e-01,
337,-8.00e-04,8.00e-02,
338,2.40e-03,1.00e-01,
339,4.00e-04,6.00e-02,
340,2.00e-03,1.00e-01,
341,0.00e+00,6.00e-02,
342,2.00e-03,6.00e-02,
343,0.00e+00,8.00e-02,
344,1.20e-03,8.00e-02,
345,-8.00e-04,6.00e-02,
346,-3.20e-03,8.00e-02,
347,5.20e-03,4.00e-02,
348,-1.12e-02,8.00e-02,
349,1.28e-02,2.00e-02,
350,1.44e-02,8.00e-02,
351,-1.40e-02,2.00e-02,
352,6.40e-03,2.00e-02,
353,-3.60e-03,8.00e-02,
354,2.00e-03,2.00e-02,
355,-8.00e-04,6.00e-02,
356,-1.20e-03,2.00e-02,
357,2.40e-03,4.00e-02,
358,1.60e-03,2.00e-02,
359,-4.00e-04,4.00e-02,
360,2.00e-03,4.00e-02,
361,0.00e+00,2.00e-02,
362,2.40e-03,4.00e-02,
363,-1.20e-03,2.00e-02,
364,-2.40e-03,2.00e-02,
365,9.20e-03,2.02e+00,
366,8.80e-03,1.40e-01,
367,0.00e+00,8.00e-02,
368,2.00e-03,1.00e-01,
369,0.00e+00,6.00e-02,
370,2.00e-03,6.00e-02,
371,0.00e+00,8.00e-02,
372,1.20e-03,6.00e-02,
373,0.00e+00,8.00e-02,
374,-8.00e-04,6.00e-02,
375,2.00e-03,8.00e-02,
376,-1.60e-03,8.00e-02,
377,4.40e-03,4.00e-02,
378,-1.16e-02,8.00e-02,
379,1.12e-02,2.00e-02,
380,-1.52e-02,8.00e-02,
381,1.56e-02,2.00e-02,
382,8.00e-03,2.00e-02,
383,-5.60e-03,8.00e-02,
384,2.40e-03,2.00e-02,
385,-8.00e-04,8.00e-02,
386,2.40e-03,4.00e-02,
387,0.00e+00,2.00e-02,
388,2.00e-03,2.00e-02,
389,-8.00e-04,4.00e-02,
390,2.00e-03,4.00e-02,
391,-4.00e-04,2.00e-02,
392,-8.00e-04,4.00e-02,
393,2.40e-03,2.00e-02,
394,-2.00e-03,2.00e-02,
395,9.20e-03,1.98e+00,
396,9.20e-03,1.60e-01,
397,-8.00e-04,8.00e-02,
398,2.00e-03,1.00e-01,
399,-1.20e-03,6.00e-02,
400,1.60e-03,6.00e-02,
401,-8.00e-04,8.00e-02,
402,0.00e+00,8.00e-02,
403,2.00e-03,6.00e-02,
404,-8.00e-04,6.00e-02,
405,2.40e-03,8.00e-02,
406,-2.40e-03,8.00e-02,
407,4.40e-03,4.00e-02,
408,-9.20e-03,2.00e-02,
409,1.24e-02,8.00e-02,
410,-1.32e-02,2.00e-02,
411,1.52e-02,8.00e-02,
412,7.20e-03,2.00e-02,
413,-5.60e-03,8.00e-02,
414,2.40e-03,2.00e-02,
415,-8.00e-04,6.00e-02,
416,1.20e-03,2.00e-02,
417,0.00e+00,4.00e-02,
418,1.20e-03,4.00e-02,
419,0.00e+00,2.00e-02,
420,1.20e-03,2.00e-02,
421,0.00e+00,4.00e-02,
422,1.60e-03,4.00e-02,
423,-1.20e-03,2.00e-02,
424,-2.00e-03,2.00e-02,
425,8.40e-03,1.94e+00,
426,8.00e-03,1.60e-01,
427,-8.00e-04,8.00e-02,
428,2.00e-03,1.00e-01,
429,0.00e+00,6.00e-02,
430,1.20e-03,6.00e-02,
431,0.00e+00,8.00e-02,
432,1.60e-03,6.00e-02,
433,0.00e+00,8.00e-02,
434,0.00e+00,6.00e-02,
435,2.00e-03,8.00e-02,
436,-2.40e-03,8.00e-02,
437,5.60e-03,4.00e-02,
438,-1.00e-02,8.00e-02,
439,1.24e-02,2.00e-02,
440,-1.36e-02,8.00e-02,
441,1.56e-02,2.00e-02,
442,6.40e-03,6.00e-02,
443,-4.00e-03,2.00e-02,
444,2.40e-03,4.00e-02,
445,0.00e+00,2.00e-02,
446,2.40e-03,4.00e-02,
447,-1.20e-03,2.00e-02,
448,1.60e-03,2.00e-02,
449,-8.00e-04,4.00e-02,
450,0.00e+00,2.00e-02,
451,2.00e-03,4.00e-02,
452,2.00e-03,4.00e-02,
453,-1.20e-03,2.00e-02,
454,-2.00e-03,1.68e+00,
455,8.80e-03,0.00e+00,
456,8.40e-03,1.60e-01,
457,-4.00e-04,8.00e-02,
458,1.60e-03,1.00e-01,
459,0.00e+00,6.00e-02,
460,0.00e+00,6.00e-02,
461,2.00e-03,8.00e-02,
462,0.00e+00,6.00e-02,
463,2.00e-03,8.00e-02,
464,2.00e-03,6.00e-02,
465,-8.00e-04,8.00e-02,
466,-2.40e-03,8.00e-02,
467,4.00e-03,4.00e-02,
468,-1.04e-02,8.00e-02,
469,1.28e-02,4.00e-02,
470,-1.40e-02,8.00e-02,
471,1.56e-02,2.00e-02,
472,7.20e-03,2.00e-02,
473,-5.60e-03,8.00e-02,
474,2.40e-03,4.00e-02,
475,-8.00e-04,2.00e-02,
476,2.00e-03,4.00e-02,
477,-4.00e-04,2.00e-02,
478,1.20e-03,4.00e-02,
479,-8.00e-04,2.00e-02,
480,0.00e+00,4.00e-02,
481,1.60e-03,2.00e-02,
482,-1.20e-03,2.00e-02,
483,2.80e-03,4.00e-02,
484,-1.60e-03,2.00e-02,
485,9.20e-03,2.00e+00,
486,8.40e-03,1.60e-01,
487,0.00e+00,8.00e-02,
488,2.00e-03,1.00e-01,
489,0.00e+00,6.00e-02,
490,0.00e+00,6.00e-02,
491,2.40e-03,8.00e-02,
492,0.00e+00,6.00e-02,
493,2.00e-03,8.00e-02,
494,2.00e-03,6.00e-02,
495,-4.00e-04,8.00e-02,
496,-1.60e-03,8.00e-02,
497,4.00e-03,4.00e-02,
498,-1.00e-02,8.00e-02,
499,1.32e-02,2.00e-02,
500,-1.36e-02,8.00e-02,
501,1.56e-02,2.00e-02,
502,8.00e-03,2.00e-02,
503,-4.80e-03,6.00e-02,
504,2.00e-03,2.00e-02,
505,-1.60e-03,6.00e-02,
506,2.00e-03,2.00e-02,
507,-8.00e-04,4.00e-02,
508,0.00e+00,4.00e-02,
509,2.00e-03,2.00e-02,
510,2.00e-03,4.00e-02,
511,-8.00e-04,2.00e-02,
512,-4.00e-04,4.00e-02,
513,2.40e-03,2.00e-02,
514,-1.60e-03,2.00e-02,
515,8.80e-03,1.88e+00,
516,8.40e-03,1.60e-01,
517,-8.00e-04,8.00e-02,
518,2.00e-03,1.00e-01,
519,0.00e+00,6.00e-02,
520,2.00e-03,6.00e-02,
521,0.00e+00,8.00e-02,
522,0.00e+00,8.00e-02,
523,2.00e-03,4.00e-02,
524,-4.00e-04,6.00e-02,
525,2.40e-03,8.00e-02,
526,-2.80e-03,8.00e-02,
527,5.20e-03,2.00e-02,
528,-9.60e-03,8.00e-02,
529,1.12e-02,2.00e-02,
530,1.36e-02,2.00e-02,
531,-1.44e-02,8.00e-02,
532,6.80e-03,4.00e-02,
533,-4.00e-03,2.00e-02,
534,2.40e-03,4.00e-02,
535,-8.00e-04,2.00e-02,
536,1.60e-03,4.00e-02,
537,0.00e+00,2.00e-02,
538,1.20e-03,4.00e-02,
539,-8.00e-04,2.00e-02,
540,0.00e+00,2.00e-02,
541,1.20e-03,4.00e-02,
542,1.60e-03,4.00e-02,
543,-1.20e-03,2.00e-02,
544,-1.60e-03,2.00e-02,
545,8.40e-03,1.96e+00,
546,8.00e-03,1.60e-01,
547,0.00e+00,8.00e-02,
548,2.40e-03,1.00e-01,
549,0.00e+00,6.00e-02,
550,0.00e+00,6.00e-02,
551,1.20e-03,8.00e-02,
552,1.20e-03,6.00e-02,
553,0.00e+00,8.00e-02,
554,1.20e-03,6.00e-02,
555,-8.00e-04,8.00e-02,
556,-1.60e-03,8.00e-02,
557,4.00e-03,4.00e-02,
558,-1.00e-02,8.00e-02,
559,1.32e-02,2.00e-02,
560,-1.32e-02,8.00e-02,
561,1.48e-02,2.00e-02,
562,7.20e-03,8.00e-02,
563,-5.20e-03,2.00e-02,
564,2.80e-03,4.00e-02,
565,-4.00e-04,2.00e-02,
566,0.00e+00,4.00e-02,
567,2.00e-03,2.00e-02,
568,2.00e-03,4.00e-02,
569,-8.00e-04,2.00e-02,
570,1.60e-03,4.00e-02,
571,-4.00e-04,2.00e-02,
572,2.00e-03,4.00e-02,
573,-1.20e-03,2.00e-02,
574,-1.60e-03,2.00e-02,
575,9.20e-03,1.88e+00,
576,8.40e-03,1.60e-01,
577,0.00e+00,8.00e-02,
578,0.00e+00,1.00e-01,
579,2.00e-03,6.00e-02,
580,-8.00e-04,6.00e-02,
581,2.00e-03,8.00e-02,
582,1.60e-03,8.00e-02,
583,-8.00e-04,6.00e-02,
584,-4.00e-04,6.00e-02,
585,2.40e-03,8.00e-02,
586,-1.60e-03,8.00e-02,
587,4.40e-03,2.00e-02,
588,-9.60e-03,8.00e-02,
589,1.28e-02,2.00e-02,
590,-1.32e-02,8.00e-02,
591,1.52e-02,2.00e-02,
592,6.80e-03,2.00e-02,
593,-4.00e-03,8.00e-02,
594,2.00e-03,2.00e-02,
595,-1.20e-03,6.00e-02,
596,-8.00e-04,4.00e-02,
597,1.60e-03,2.00e-02,
598,2.40e-03,4.00e-02,
599,0.00e+00,2.00e-02,
600,0.00e+00,2.00e-02,
601,2.00e-03,4.00e-02,
602,2.00e-03,4.00e-02,
603,-1.20e-03,2.00e-02,
604,-1.60e-03,2.00e-02,
605,9.20e-03,2.02e+00,
606,9.20e-03,1.60e-01,
607,-8.00e-04,8.00e-02,
608,1.20e-03,1.00e-01,
609,-8.00e-04,6.00e-02,
610,-8.00e-04,6.00e-02,
611,1.60e-03,8.00e-02,
612,2.00e-03,8.00e-02,
613,-8.00e-04,6.00e-02,
614,2.00e-03,8.00e-02,
615,-4.00e-04,4.00e-02,
616,-2.80e-03,8.00e-02,
617,5.20e-03,2.00e-02,
618,-1.04e-02,8.00e-02,
619,1.32e-02,2.00e-02,
620,-1.28e-02,8.00e-02,
621,1.52e-02,2.00e-02,
622,6.40e-03,2.00e-02,
623,-3.60e-03,8.00e-02,
624,1.60e-03,2.00e-02,
625,-8.00e-04,8.00e-02,
626,1.60e-03,4.00e-02,
627,-8.00e-04,2.00e-02,
628,1.60e-03,4.00e-02,
629,0.00e+00,2.00e-02,
630,-4.00e-04,4.00e-02,
631,1.60e-03,2.00e-02,
632,2.40e-03,4.00e-02,
633,-8.00e-04,2.00e-02,
634,-1.60e-03,2.08e+00,
635,8.40e-03,0.00e+00,
636,8.00e-03,1.60e-01,
637,-1.20e-03,8.00e-02,
638,2.00e-03,1.00e-01,
639,0.00e+00,6.00e-02,
640,0.00e+00,6.00e-02,
641,1.20e-03,8.00e-02,
642,1.20e-03,6.00e-02,
643,0.00e+00,8.00e-02,
644,1.60e-03,8.00e-02,
645,-4.00e-04,4.00e-02,
646,-1.60e-03,8.00e-02,
647,4.00e-03,2.00e-02,
648,-9.60e-03,8.00e-02,
649,1.24e-02,2.00e-02,
650,-1.32e-02,8.00e-02,
651,1.48e-02,2.00e-02,
652,6.80e-03,8.00e-02,
653,-4.80e-03,2.00e-02,
654,2.40e-03,2.00e-02,
655,-4.00e-04,4.00e-02,
656,1.20e-03,4.00e-02,
657,-8.00e-04,2.00e-02,
658,-8.00e-04,4.00e-02,
659,2.00e-03,2.00e-02,
660,-8.00e-04,4.00e-02,
661,2.00e-03,2.00e-02,
662,1.20e-03,4.00e-02,
663,-1.20e-03,2.00e-02,
664,-1.60e-03,2.00e-02,
665,8.40e-03,2.00e+00,
666,8.40e-03,1.60e-01,
667,-8.00e-04,8.00e-02,
668,1.60e-03,1.00e-01,
669,-8.00e-04,6.00e-02,
670,1.20e-03,6.00e-02,
671,-8.00e-04,8.00e-02,
672,0.00e+00,6.00e-02,
673,2.00e-03,8.00e-02,
674,0.00e+00,8.00e-02,
675,2.00e-03,2.00e-02,
676,-2.80e-03,8.00e-02,
677,4.00e-03,4.00e-02,
678,-1.00e-02,8.00e-02,
679,1.28e-02,2.00e-02,
680,-1.36e-02,8.00e-02,
681,1.44e-02,2.00e-02,
682,6.80e-03,2.00e-02,
683,-4.40e-03,6.00e-02,
684,2.80e-03,4.00e-02,
685,-1.20e-03,2.00e-02,
686,-8.00e-04,4.00e-02,
687,1.60e-03,2.00e-02,
688,1.20e-03,2.00e-02,
689,-8.00e-04,4.00e-02,
690,-8.00e-04,4.00e-02,
691,2.00e-03,2.00e-02,
692,2.00e-03,4.00e-02,
693,-8.00e-04,2.00e-02,
694,-1.60e-03,2.00e-02,
695,9.20e-03,1.94e+00,
696,9.20e-03,1.60e-01,
697,-4.00e-04,8.00e-02,
698,1.20e-03,1.00e-01,
699,0.00e+00,6.00e-02,
700,0.00e+00,6.00e-02,
701,1.60e-03,8.00e-02,
702,1.20e-03,6.00e-02,
703,-4.00e-04,8.00e-02,
704,-8.00e-04,6.00e-02,
705,2.40e-03,8.00e-02,
706,-2.80e-03,8.00e-02,
707,4.80e-03,6.00e-02,
708,-1.00e-02,8.00e-02,
709,1.32e-02,2.00e-02,
710,-1.32e-02,8.00e-02,
711,1.48e-02,2.00e-02,
712,5.60e-03,8.00e-02,
713,-3.60e-03,2.00e-02,
714,2.00e-03,2.00e-02,
715,-8.00e-04,8.00e-02,
716,1.60e-03,4.00e-02,
717,-4.00e-04,2.00e-02,
718,1.20e-03,4.00e-02,
719,0.00e+00,2.00e-02,
720,1.20e-03,4.00e-02,
721,0.00e+00,2.00e-02,
722,-8.00e-04,4.00e-02,
723,2.40e-03,2.00e-02,
724,-2.40e-03,2.00e-02,
725,8.80e-03,2.00e+00,
726,8.40e-03,1.60e-01,
727,0.00e+00,8.00e-02,
728,2.00e-03,1.00e-01,
729,-4.00e-04,6.00e-02,
730,-4.00e-04,8.00e-02,
731,2.00e-03,6.00e-02,
732,1.20e-03,6.00e-02,
733,0.00e+00,8.00e-02,
734,1.60e-03,8.00e-02,
735,-4.00e-04,6.00e-02,
736,-1.60e-03,8.00e-02,
737,4.00e-03,6.00e-02,
738,-9.60e-03,8.00e-02,
739,1.36e-02,2.00e-02,
740,-1.36e-02,8.00e-02,
741,1.52e-02,2.00e-02,
742,6.80e-03,2.00e-02,
743,-4.40e-03,8.00e-02,
744,2.40e-03,2.00e-02,
745,-8.00e-04,8.00e-02,
746,2.00e-03,4.00e-02,
747,-8.00e-04,2.00e-02,
748,0.00e+00,2.00e-02,
749,1.60e-03,4.00e-02,
750,2.00e-03,4.00e-02,
751,0.00e+00,2.00e-02,
752,2.40e-03,2.00e-02,
753,-1.20e-03,4.00e-02,
754,-2.40e-03,2.00e-02,
755,8.40e-03,2.04e+00,
756,8.00e-03,1.60e-01,
757,-8.00e-04,8.00e-02,
758,2.00e-03,1.00e-01,
759,0.00e+00,6.00e-02,
760,1.60e-03,6.00e-02,
761,-4.00e-04,8.00e-02,
762,-8.00e-04,8.00e-02,
763,1.20e-03,6.00e-02,
764,2.00e-03,6.00e-02,
765,0.00e+00,8.00e-02,
766,-2.40e-03,8.00e-02,
767,4.00e-03,2.00e-02,
768,-1.00e-02,8.00e-02,
769,1.28e-02,2.00e-02,
770,-1.32e-02,8.00e-02,
771,1.44e-02,2.00e-02,
772,6.80e-03,8.00e-02,
773,-4.40e-03,2.00e-02,
774,2.40e-03,2.00e-02,
775,-8.00e-04,6.00e-02,
776,2.00e-03,2.00e-02,
777,-8.00e-04,6.00e-02,
778,0.00e+00,4.00e-02,
779,2.00e-03,2.00e-02,
780,2.00e-03,2.00e-02,
781,0.00e+00,4.00e-02,
782,1.60e-03,4.00e-02,
783,-1.60e-03,2.00e-02,
784,-1.60e-03,2.00e-02,
785,8.80e-03,2.02e+00,
786,8.40e-03,1.60e-01,
787,0.00e+00,8.00e-02,
788,0.00e+00,1.00e-01,
789,2.40e-03,6.00e-02,
790,2.00e-03,6.00e-02,
791,0.00e+00,8.00e-02,
792,0.00e+00,6.00e-02,
793,2.00e-03,8.00e-02,
794,-8.00e-04,6.00e-02,
795,2.00e-03,8.00e-02,
796,-1.60e-03,8.00e-02,
797,5.20e-03,4.00e-02,
798,-1.00e-02,8.00e-02,
799,1.36e-02,2.00e-02,
800,-1.28e-02,8.00e-02,
801,1.40e-02,2.00e-02,
802,7.20e-03,2.00e-02,
803,-3.20e-03,8.00e-02,
804,2.40e-03,2.00e-02,
805,-4.00e-04,4.00e-02,
806,-4.00e-04,4.00e-02,
807,2.00e-03,2.00e-02,
808,-4.00e-04,4.00e-02,
809,1.60e-03,2.00e-02,
810,1.60e-03,4.00e-02,
811,-4.00e-04,2.00e-02,
812,-1.20e-03,4.00e-02,
813,2.40e-03,2.00e-02,
814,-2.40e-03,2.00e-02,
815,9.60e-03,1.76e+00,
816,9.20e-03,1.60e-01,
817,-4.00e-04,8.00e-02,
818,2.00e-03,1.00e-01,
819,4.00e-04,6.00e-02,
820,0.00e+00,6.00e-02,
821,1.60e-03,8.00e-02,
822,-8.00e-04,6.00e-02,
823,2.00e-03,8.00e-02,
824,1.60e-03,8.00e-02,
825,-4.00e-04,4.00e-02,
826,-1.60e-03,8.00e-02,
827,3.60e-03,2.00e-02,
828,-1.00e-02,2.00e-02,
829,1.28e-02,8.00e-02,
830,-1.40e-02,8.00e-02,
831,1.60e-02,2.00e-02,
832,6.80e-03,4.00e-02,
833,-4.80e-03,2.00e-02,
834,2.80e-03,4.00e-02,
835,-8.00e-04,2.00e-02,
836,2.00e-03,4.00e-02,
837,-4.00e-04,2.00e-02,
838,1.60e-03,4.00e-02,
839,-8.00e-04,2.00e-02,
840,1.60e-03,4.00e-02,
841,0.00e+00,2.00e-02,
842,-8.00e-04,4.00e-02,
843,2.40e-03,2.00e-02,
844,-1.60e-03,2.00e-02,
845,8.40e-03,2.02e+00,
846,8.00e-03,1.60e-01,
847,-4.00e-04,8.00e-02,
848,1.20e-03,1.00e-01,
849,0.00e+00,6.00e-02,
850,0.00e+00,6.00e-02,
851,1.60e-03,8.00e-02,
852,0.00e+00,6.00e-02,
853,2.00e-03,8.00e-02,
854,-4.00e-04,8.00e-02,
855,2.40e-03,2.00e-02,
856,-1.60e-03,8.00e-02,
