CarrPurc_P1-19_P2-38_tauVary/Gly20/NewFile9.csv

X,CH1,CH2,Start,Increment,
Sequence,Volt,Volt,-3.600000e-03,2.000000e-04
0,2.00e-03,4.00e-02,
1,0.00e+00,0.00e+00,
2,-8.00e-04,4.00e-02,
3,1.60e-03,0.00e+00,
4,1.60e-03,4.00e-02,
5,0.00e+00,0.00e+00,
6,0.00e+00,4.00e-02,
7,1.20e-03,0.00e+00,
8,0.00e+00,4.00e-02,
9,2.00e-03,0.00e+00,
10,1.20e-03,4.00e-02,
11,0.00e+00,0.00e+00,
12,0.00e+00,4.00e-02,
13,1.20e-03,0.00e+00,
14,-8.00e-04,0.00e+00,
15,1.20e-03,4.00e-02,
16,0.00e+00,4.00e-02,
17,1.20e-03,0.00e+00,
18,-4.00e-04,4.00e-02,
19,1.20e-03,0.00e+00,
20,7.60e-03,2.00e-02,
21,-2.36e-02,1.68e+00,
22,1.64e-02,1.00e-01,
23,-1.28e-02,6.00e-02,
24,-2.40e-03,1.00e-01,
25,4.40e-03,6.00e-02,
26,2.80e-03,6.00e-02,
27,-1.20e-03,8.00e-02,
28,2.40e-03,6.00e-02,
29,-8.00e-04,8.00e-02,
30,2.00e-03,8.00e-02,
31,-8.00e-04,4.00e-02,
32,2.40e-03,8.00e-02,
33,-8.00e-04,2.00e-02,
34,0.00e+00,2.00e-02,
35,9.20e-03,1.92e+00,
36,9.20e-03,1.60e-01,
37,-4.80e-03,8.00e-02,
38,3.60e-03,1.00e-01,
39,0.00e+00,6.00e-02,
40,2.80e-03,6.00e-02,
41,-8.00e-04,8.00e-02,
42,2.00e-03,6.00e-02,
43,-8.00e-04,8.00e-02,
44,-1.20e-03,6.00e-02,
45,2.80e-03,8.00e-02,
46,-3.60e-03,6.00e-02,
47,7.20e-03,8.00e-02,
48,-1.80e-02,8.00e-02,
49,2.24e-02,2.00e-02,
50,-2.44e-02,8.00e-02,
51,2.68e-02,2.00e-02,
52,1.40e-02,8.00e-02,
53,-1.00e-02,2.00e-02,
54,3.60e-03,8.00e-02,
55,-8.00e-04,2.00e-02,
56,2.40e-03,2.00e-02,
57,-1.20e-03,8.00e-02,
58,2.40e-03,4.00e-02,
59,0.00e+00,2.00e-02,
60,0.00e+00,4.00e-02,
61,1.60e-03,2.00e-02,
62,0.00e+00,4.00e-02,
63,2.00e-03,2.00e-02,
64,0.00e+00,2.00e-02,
65,8.40e-03,1.94e+00,
66,8.40e-03,1.60e-01,
67,0.00e+00,8.00e-02,
68,4.00e-04,1.00e-01,
69,2.40e-03,6.00e-02,
70,2.40e-03,6.00e-02,
71,0.00e+00,8.00e-02,
72,2.00e-03,8.00e-02,
73,-1.20e-03,6.00e-02,
74,-1.20e-03,6.00e-02,
75,2.40e-03,8.00e-02,
76,-3.20e-03,8.00e-02,
77,6.40e-03,2.00e-02,
78,1.28e-02,2.00e-02,
79,-1.60e-02,8.00e-02,
80,-2.00e-02,8.00e-02,
81,2.00e-02,2.00e-02,
82,8.80e-03,8.00e-02,
83,-7.20e-03,2.00e-02,
84,4.00e-03,4.00e-02,
85,-1.20e-03,2.00e-02,
86,2.40e-03,2.00e-02,
87,-8.00e-04,4.00e-02,
88,1.60e-03,4.00e-02,
89,-4.00e-04,2.00e-02,
90,2.00e-03,4.00e-02,
91,0.00e+00,2.00e-02,
92,2.80e-03,4.00e-02,
93,-1.20e-03,2.00e-02,
94,-2.80e-03,2.00e-02,
95,9.20e-03,1.98e+00,
96,8.40e-03,1.60e-01,
97,-4.00e-04,8.00e-02,
98,2.40e-03,1.00e-01,
99,0.00e+00,6.00e-02,
100,0.00e+00,8.00e-02,
101,1.60e-03,6.00e-02,
102,1.60e-03,6.00e-02,
103,-8.00e-04,8.00e-02,
104,-8.00e-04,6.00e-02,
105,2.00e-03,8.00e-02,
106,-3.20e-03,8.00e-02,
107,5.60e-03,4.00e-02,
108,1.40e-02,8.00e-02,
109,-1.52e-02,2.00e-02,
110,-2.00e-02,8.00e-02,
111,2.16e-02,2.00e-02,
112,1.00e-02,2.00e-02,
113,-7.20e-03,8.00e-02,
114,3.60e-03,2.00e-02,
115,-1.20e-03,8.00e-02,
116,2.40e-03,8.00e-02,
117,-4.00e-04,2.00e-02,
118,1.60e-03,2.00e-02,
119,-4.00e-04,8.00e-02,
120,1.20e-03,2.00e-02,
121,-1.20e-03,8.00e-02,
122,2.00e-03,4.00e-02,
123,-2.40e-03,2.00e-02,
124,-2.40e-03,2.00e-02,
125,9.20e-03,1.94e+00,
126,9.20e-03,1.60e-01,
127,-1.20e-03,8.00e-02,
128,2.80e-03,1.00e-01,
129,-8.00e-04,6.00e-02,
130,-4.00e-04,6.00e-02,
131,2.00e-03,1.00e-01,
132,-8.00e-04,6.00e-02,
133,2.40e-03,8.00e-02,
134,2.40e-03,6.00e-02,
135,-8.00e-04,8.00e-02,
136,-2.80e-03,6.00e-02,
137,5.60e-03,8.00e-02,
138,-1.28e-02,8.00e-02,
139,1.48e-02,2.00e-02,
140,2.00e-02,8.00e-02,
141,-1.80e-02,2.00e-02,
142,1.12e-02,2.00e-02,
143,-7.20e-03,8.00e-02,
144,2.80e-03,6.00e-02,
145,-8.00e-04,2.00e-02,
146,-4.00e-04,4.00e-02,
147,2.00e-03,2.00e-02,
148,0.00e+00,4.00e-02,
149,2.40e-03,2.00e-02,
150,2.00e-03,2.00e-02,
151,0.00e+00,4.00e-02,
152,2.80e-03,4.00e-02,
153,-8.00e-04,2.00e-02,
154,-1.60e-03,2.00e-02,
155,9.20e-03,1.96e+00,
156,9.20e-03,1.60e-01,
157,-8.00e-04,8.00e-02,
158,1.20e-03,1.00e-01,
159,0.00e+00,6.00e-02,
160,0.00e+00,6.00e-02,
161,2.40e-03,8.00e-02,
162,0.00e+00,6.00e-02,
163,1.60e-03,8.00e-02,
164,-8.00e-04,6.00e-02,
165,1.60e-03,8.00e-02,
166,-4.00e-03,6.00e-02,
167,6.00e-03,8.00e-02,
168,-1.40e-02,8.00e-02,
169,1.32e-02,4.00e-02,
170,-1.84e-02,8.00e-02,
171,1.96e-02,2.00e-02,
172,8.40e-03,2.00e-02,
173,-6.00e-03,8.00e-02,
174,2.80e-03,2.00e-02,
175,0.00e+00,8.00e-02,
176,2.40e-03,6.00e-02,
177,-8.00e-04,2.00e-02,
178,2.00e-03,2.00e-02,
179,0.00e+00,6.00e-02,
180,1.20e-03,4.00e-02,
181,-8.00e-04,2.00e-02,
182,-1.20e-03,4.00e-02,
183,2.40e-03,2.00e-02,
184,-1.60e-03,2.00e-02,
185,8.40e-03,1.98e+00,
186,8.00e-03,1.60e-01,
187,-4.00e-04,8.00e-02,
188,2.40e-03,1.00e-01,
189,0.00e+00,6.00e-02,
190,1.20e-03,6.00e-02,
191,-8.00e-04,1.00e-01,
192,0.00e+00,6.00e-02,
193,2.00e-03,8.00e-02,
194,-8.00e-04,6.00e-02,
195,2.80e-03,8.00e-02,
196,-4.00e-03,6.00e-02,
197,5.20e-03,8.00e-02,
198,1.32e-02,8.00e-02,
199,-1.44e-02,2.00e-02,
200,-1.84e-02,8.00e-02,
201,2.08e-02,2.00e-02,
202,1.00e-02,8.00e-02,
203,-7.20e-03,2.00e-02,
204,3.20e-03,8.00e-02,
205,-1.20e-03,2.00e-02,
206,-8.00e-04,6.00e-02,
207,1.60e-03,2.00e-02,
208,0.00e+00,4.00e-02,
209,2.00e-03,2.00e-02,
210,2.40e-03,4.00e-02,
211,0.00e+00,2.00e-02,
212,-8.00e-04,4.00e-02,
213,2.80e-03,2.00e-02,
214,-3.20e-03,2.00e-02,
215,8.80e-03,2.06e+00,
216,8.40e-03,1.60e-01,
217,-1.20e-03,8.00e-02,
218,2.40e-03,1.00e-01,
219,-4.00e-04,6.00e-02,
220,2.00e-03,6.00e-02,
221,0.00e+00,8.00e-02,
222,2.80e-03,6.00e-02,
223,-4.00e-04,8.00e-02,
224,2.40e-03,6.00e-02,
225,-8.00e-04,8.00e-02,
226,-3.20e-03,8.00e-02,
227,5.20e-03,2.00e-02,
228,-1.08e-02,8.00e-02,
229,1.32e-02,4.00e-02,
230,-1.72e-02,8.00e-02,
231,1.84e-02,2.00e-02,
232,1.00e-02,2.00e-02,
233,-6.00e-03,8.00e-02,
234,3.20e-03,8.00e-02,
235,-1.20e-03,2.00e-02,
236,0.00e+00,6.00e-02,
237,2.00e-03,2.00e-02,
238,0.00e+00,4.00e-02,
239,2.40e-03,2.00e-02,
240,1.60e-03,4.00e-02,
241,0.00e+00,2.00e-02,
242,-8.00e-04,4.00e-02,
243,2.00e-03,2.00e-02,
244,-1.60e-03,2.00e-02,
245,9.60e-03,2.02e+00,
246,8.40e-03,1.60e-01,
247,-8.00e-04,8.00e-02,
248,2.00e-03,1.00e-01,
249,0.00e+00,6.00e-02,
250,0.00e+00,6.00e-02,
251,1.60e-03,1.00e-01,
252,2.00e-03,6.00e-02,
253,0.00e+00,8.00e-02,
254,2.00e-03,8.00e-02,
255,-8.00e-04,6.00e-02,
256,-3.20e-03,8.00e-02,
257,6.00e-03,4.00e-02,
258,-1.40e-02,8.00e-02,
259,1.48e-02,2.00e-02,
260,-1.76e-02,8.00e-02,
261,1.88e-02,2.00e-02,
262,8.40e-03,8.00e-02,
263,-6.00e-03,2.00e-02,
264,2.40e-03,2.00e-02,
265,-1.60e-03,8.00e-02,
266,2.00e-03,2.00e-02,
267,-8.00e-04,6.00e-02,
268,1.60e-03,4.00e-02,
269,0.00e+00,2.00e-02,
270,-8.00e-04,4.00e-02,
271,2.00e-03,2.00e-02,
272,2.40e-03,4.00e-02,
273,-1.60e-03,2.00e-02,
274,-2.40e-03,2.00e-02,
275,9.20e-03,2.04e+00,
276,8.40e-03,1.60e-01,
277,-4.00e-04,8.00e-02,
278,0.00e+00,1.00e-01,
279,2.00e-03,6.00e-02,
280,0.00e+00,8.00e-02,
281,2.00e-03,6.00e-02,
282,2.00e-03,6.00e-02,
283,-8.00e-04,8.00e-02,
284,2.40e-03,8.00e-02,
285,-8.00e-04,4.00e-02,
286,-3.20e-03,8.00e-02,
287,4.80e-03,2.00e-02,
288,1.16e-02,2.00e-02,
289,-1.40e-02,8.00e-02,
290,1.80e-02,8.00e-02,
291,-1.72e-02,2.00e-02,
292,1.00e-02,8.00e-02,
293,-6.00e-03,2.00e-02,
294,2.80e-03,2.00e-02,
295,-8.00e-04,6.00e-02,
296,-8.00e-04,2.00e-02,
297,2.00e-03,6.00e-02,
298,2.00e-03,2.00e-02,
299,0.00e+00,6.00e-02,
300,1.20e-03,4.00e-02,
301,0.00e+00,2.00e-02,
302,-1.20e-03,4.00e-02,
303,2.00e-03,2.00e-02,
304,-1.60e-03,2.00e-02,
305,8.40e-03,1.96e+00,
306,8.00e-03,1.60e-01,
307,-4.00e-04,8.00e-02,
308,2.40e-03,1.00e-01,
309,-8.00e-04,6.00e-02,
310,2.40e-03,6.00e-02,
311,0.00e+00,8.00e-02,
312,-8.00e-04,6.00e-02,
313,2.00e-03,8.00e-02,
314,2.40e-03,8.00e-02,
315,-8.00e-04,4.00e-02,
316,-2.40e-03,6.00e-02,
317,4.40e-03,8.00e-02,
318,-1.16e-02,8.00e-02,
319,1.44e-02,2.00e-02,
320,-1.64e-02,8.00e-02,
321,1.80e-02,2.00e-02,
322,9.60e-03,2.00e-02,
323,-6.40e-03,8.00e-02,
324,2.40e-03,4.00e-02,
325,-1.20e-03,2.00e-02,
326,2.00e-03,4.00e-02,
327,-4.00e-04,2.00e-02,
328,2.00e-03,4.00e-02,
329,0.00e+00,2.00e-02,
330,0.00e+00,4.00e-02,
331,2.00e-03,2.00e-02,
332,2.00e-03,4.00e-02,
333,-1.20e-03,2.00e-02,
334,-2.80e-03,2.00e-02,
335,8.80e-03,1.86e+00,
336,8.40e-03,1.60e-01,
337,0.00e+00,8.00e-02,
338,2.40e-03,1.00e-01,
339,0.00e+00,6.00e-02,
340,1.20e-03,6.00e-02,
341,-4.00e-04,8.00e-02,
342,2.00e-03,6.00e-02,
343,-8.00e-04,8.00e-02,
344,1.60e-03,8.00e-02,
345,-8.00e-04,6.00e-02,
346,-2.80e-03,8.00e-02,
347,5.60e-03,4.00e-02,
348,-1.28e-02,8.00e-02,
349,1.52e-02,2.00e-02,
350,-1.72e-02,8.00e-02,
351,1.72e-02,2.00e-02,
352,7.20e-03,2.00e-02,
353,-4.80e-03,8.00e-02,
354,2.80e-03,2.00e-02,
355,-8.00e-04,8.00e-02,
356,-1.20e-03,2.00e-02,
357,2.40e-03,4.00e-02,
358,2.00e-03,2.00e-02,
359,0.00e+00,4.00e-02,
360,2.00e-03,4.00e-02,
361,0.00e+00,2.00e-02,
362,2.40e-03,4.00e-02,
363,-1.20e-03,2.00e-02,
364,-2.80e-03,2.00e-02,
365,9.60e-03,2.02e+00,
366,9.20e-03,1.40e-01,
367,-8.00e-04,8.00e-02,
368,2.40e-03,1.00e-01,
369,0.00e+00,6.00e-02,
370,0.00e+00,6.00e-02,
371,2.00e-03,1.00e-01,
372,2.00e-03,6.00e-02,
373,0.00e+00,8.00e-02,
374,2.00e-03,6.00e-02,
375,-8.00e-04,8.00e-02,
376,-2.00e-03,8.00e-02,
377,4.80e-03,4.00e-02,
378,-1.24e-02,8.00e-02,
379,1.44e-02,2.00e-02,
380,1.80e-02,8.00e-02,
381,-1.72e-02,2.00e-02,
382,8.40e-03,2.00e-02,
383,-6.80e-03,8.00e-02,
384,3.60e-03,2.00e-02,
385,-8.00e-04,8.00e-02,
386,1.60e-03,4.00e-02,
387,-8.00e-04,2.00e-02,
388,0.00e+00,2.00e-02,
389,2.00e-03,4.00e-02,
390,2.00e-03,4.00e-02,
391,0.00e+00,2.00e-02,
392,2.00e-03,4.00e-02,
393,-1.20e-03,2.00e-02,
394,-2.80e-03,2.00e-02,
395,8.40e-03,2.00e+00,
396,8.40e-03,1.60e-01,
397,-8.00e-04,8.00e-02,
398,1.20e-03,1.00e-01,
399,-8.00e-04,6.00e-02,
400,2.00e-03,6.00e-02,
401,0.00e+00,8.00e-02,
402,0.00e+00,8.00e-02,
403,2.40e-03,6.00e-02,
404,2.40e-03,8.00e-02,
405,-1.20e-03,4.00e-02,
406,-2.80e-03,8.00e-02,
407,4.40e-03,2.00e-02,
408,-1.28e-02,8.00e-02,
409,1.40e-02,2.00e-02,
410,-1.56e-02,2.00e-02,
411,1.88e-02,8.00e-02,
412,9.60e-03,8.00e-02,
413,-6.00e-03,2.00e-02,
414,2.40e-03,4.00e-02,
415,-8.00e-04,2.00e-02,
416,2.00e-03,2.00e-02,
417,-8.00e-04,4.00e-02,
418,2.00e-03,4.00e-02,
419,-8.00e-04,2.00e-02,
420,0.00e+00,2.00e-02,
421,2.40e-03,4.00e-02,
422,2.40e-03,4.00e-02,
423,-1.20e-03,2.00e-02,
424,-2.40e-03,2.00e-02,
425,8.80e-03,2.00e+00,
426,8.40e-03,1.60e-01,
427,-4.00e-04,8.00e-02,
428,2.40e-03,1.00e-01,
429,0.00e+00,6.00e-02,
430,2.40e-03,6.00e-02,
431,-8.00e-04,8.00e-02,
432,-8.00e-04,6.00e-02,
433,2.00e-03,8.00e-02,
434,2.40e-03,6.00e-02,
435,0.00e+00,8.00e-02,
436,-3.20e-03,8.00e-02,
437,5.60e-03,4.00e-02,
438,-1.16e-02,8.00e-02,
439,1.56e-02,2.00e-02,
440,-1.56e-02,8.00e-02,
441,1.68e-02,2.00e-02,
442,8.00e-03,8.00e-02,
443,-5.20e-03,2.00e-02,
444,2.40e-03,8.00e-02,
445,-8.00e-04,2.00e-02,
446,-8.00e-04,2.00e-02,
447,2.40e-03,8.00e-02,
448,2.40e-03,2.00e-02,
449,-4.00e-04,4.00e-02,
450,1.20e-03,2.00e-02,
451,0.00e+00,4.00e-02,
452,2.40e-03,4.00e-02,
453,-8.00e-04,2.00e-02,
454,-2.00e-03,2.00e-02,
455,9.20e-03,1.98e+00,
456,9.20e-03,1.60e-01,
457,-4.00e-04,8.00e-02,
458,2.00e-03,1.00e-01,
459,-8.00e-04,6.00e-02,
460,0.00e+00,6.00e-02,
461,2.00e-03,8.00e-02,
462,2.00e-03,6.00e-02,
463,-4.00e-04,8.00e-02,
464,2.40e-03,6.00e-02,
465,-8.00e-04,8.00e-02,
466,-1.60e-03,8.00e-02,
467,5.20e-03,4.00e-02,
468,-1.20e-02,6.00e-02,
469,1.52e-02,8.00e-02,
470,-1.76e-02,8.00e-02,
471,1.80e-02,2.00e-02,
472,8.00e-03,8.00e-02,
473,-5.60e-03,2.00e-02,
474,2.80e-03,4.00e-02,
475,-8.00e-04,2.00e-02,
476,-8.00e-04,4.00e-02,
477,2.40e-03,2.00e-02,
478,2.00e-03,4.00e-02,
479,0.00e+00,2.00e-02,
480,1.60e-03,4.00e-02,
481,0.00e+00,2.00e-02,
482,2.40e-03,2.00e-02,
483,-1.20e-03,4.00e-02,
484,-2.80e-03,2.00e-02,
485,9.20e-03,1.98e+00,
486,8.80e-03,1.60e-01,
487,-4.00e-04,8.00e-02,
488,2.40e-03,1.00e-01,
489,-4.00e-04,6.00e-02,
490,0.00e+00,6.00e-02,
491,1.60e-03,8.00e-02,
492,-4.00e-04,6.00e-02,
493,2.40e-03,8.00e-02,
494,2.80e-03,6.00e-02,
495,0.00e+00,8.00e-02,
496,-2.80e-03,8.00e-02,
497,5.20e-03,4.00e-02,
498,-1.16e-02,8.00e-02,
499,1.56e-02,2.00e-02,
500,-1.64e-02,8.00e-02,
501,1.76e-02,2.00e-02,
502,8.40e-03,2.00e-02,
503,-6.80e-03,8.00e-02,
504,2.80e-03,2.00e-02,
505,-1.20e-03,8.00e-02,
506,1.60e-03,2.00e-02,
507,-8.00e-04,6.00e-02,
508,0.00e+00,4.00e-02,
509,2.00e-03,2.00e-02,
510,-4.00e-04,2.00e-02,
511,2.00e-03,6.00e-02,
512,2.40e-03,4.00e-02,
513,-1.20e-03,2.00e-02,
514,-2.80e-03,2.00e-02,
515,8.40e-03,1.82e+00,
516,8.00e-03,1.60e-01,
517,-4.00e-04,8.00e-02,
518,2.40e-03,1.00e-01,
519,-8.00e-04,6.00e-02,
520,1.60e-03,6.00e-02,
521,-4.00e-04,8.00e-02,
522,-4.00e-04,6.00e-02,
523,2.00e-03,8.00e-02,
524,2.00e-03,6.00e-02,
525,0.00e+00,8.00e-02,
526,-3.20e-03,8.00e-02,
527,5.60e-03,4.00e-02,
528,-1.12e-02,4.00e-02,
529,1.44e-02,8.00e-02,
530,-1.64e-02,2.00e-02,
531,1.68e-02,8.00e-02,
532,7.20e-03,8.00e-02,
533,-4.40e-03,2.00e-02,
534,2.40e-03,8.00e-02,
535,-4.00e-04,2.00e-02,
536,2.40e-03,8.00e-02,
537,-4.00e-04,2.00e-02,
538,0.00e+00,2.00e-02,
539,2.00e-03,6.00e-02,
540,2.00e-03,2.00e-02,
541,-4.00e-04,4.00e-02,
542,2.40e-03,4.00e-02,
543,-1.60e-03,2.00e-02,
544,-2.00e-03,2.00e-02,
545,9.20e-03,1.96e+00,
546,8.40e-03,1.60e-01,
547,0.00e+00,8.00e-02,
548,0.00e+00,1.00e-01,
549,2.80e-03,6.00e-02,
550,4.00e-04,6.00e-02,
551,2.40e-03,1.00e-01,
552,1.60e-03,6.00e-02,
553,-4.00e-04,8.00e-02,
554,-1.20e-03,6.00e-02,
555,2.00e-03,8.00e-02,
556,-1.60e-03,8.00e-02,
557,4.80e-03,2.00e-02,
558,-1.16e-02,8.00e-02,
559,1.48e-02,4.00e-02,
560,-1.48e-02,8.00e-02,
561,1.76e-02,2.00e-02,
562,8.80e-03,2.00e-02,
563,-5.60e-03,8.00e-02,
564,2.80e-03,2.00e-02,
565,-8.00e-04,8.00e-02,
566,-8.00e-04,4.00e-02,
567,2.00e-03,2.00e-02,
568,-8.00e-04,4.00e-02,
569,2.40e-03,2.00e-02,
570,1.20e-03,4.00e-02,
571,0.00e+00,2.00e-02,
572,2.00e-03,4.00e-02,
573,-1.20e-03,2.00e-02,
574,-1.60e-03,2.00e-02,
575,9.60e-03,1.92e+00,
576,9.20e-03,1.60e-01,
577,0.00e+00,8.00e-02,
578,2.40e-03,1.00e-01,
579,0.00e+00,6.00e-02,
580,-8.00e-04,6.00e-02,
581,2.00e-03,8.00e-02,
582,1.60e-03,8.00e-02,
583,-8.00e-04,6.00e-02,
584,2.00e-03,6.00e-02,
585,-8.00e-04,8.00e-02,
586,-2.80e-03,8.00e-02,
587,4.40e-03,4.00e-02,
588,-1.08e-02,8.00e-02,
589,1.56e-02,2.00e-02,
590,-1.56e-02,8.00e-02,
591,1.72e-02,2.00e-02,
592,7.60e-03,2.00e-02,
593,-6.00e-03,8.00e-02,
594,2.80e-03,2.00e-02,
595,-1.20e-03,8.00e-02,
596,0.00e+00,2.00e-02,
597,2.00e-03,8.00e-02,
598,2.00e-03,4.00e-02,
599,-4.00e-04,2.00e-02,
600,1.20e-03,2.00e-02,
601,-4.00e-04,4.00e-02,
602,2.00e-03,4.00e-02,
603,-1.20e-03,2.00e-02,
604,-2.40e-03,2.00e-02,
605,8.40e-03,2.00e+00,
606,8.00e-03,1.60e-01,
607,-8.00e-04,8.00e-02,
608,2.00e-03,1.00e-01,
609,0.00e+00,6.00e-02,
610,0.00e+00,6.00e-02,
611,2.00e-03,8.00e-02,
612,-4.00e-04,8.00e-02,
613,2.40e-03,6.00e-02,
614,2.40e-03,6.00e-02,
615,-8.00e-04,8.00e-02,
616,-2.80e-03,6.00e-02,
617,5.60e-03,8.00e-02,
618,-1.20e-02,8.00e-02,
619,1.52e-02,4.00e-02,
620,-1.48e-02,8.00e-02,
621,1.72e-02,2.00e-02,
622,8.00e-03,8.00e-02,
623,-4.40e-03,2.00e-02,
624,-8.00e-04,8.00e-02,
625,2.40e-03,2.00e-02,
626,-8.00e-04,2.00e-02,
627,2.00e-03,8.00e-02,
628,1.60e-03,6.00e-02,
629,0.00e+00,2.00e-02,
630,1.20e-03,4.00e-02,
631,0.00e+00,2.00e-02,
632,2.00e-03,8.00e-02,
633,-1.60e-03,2.00e-02,
634,-1.60e-03,2.00e-02,
635,8.40e-03,1.92e+00,
636,8.00e-03,1.60e-01,
637,0.00e+00,8.00e-02,
638,0.00e+00,1.00e-01,
639,2.00e-03,6.00e-02,
640,0.00e+00,6.00e-02,
641,1.60e-03,8.00e-02,
642,0.00e+00,6.00e-02,
643,2.00e-03,8.00e-02,
644,1.60e-03,8.00e-02,
645,-4.00e-04,4.00e-02,
646,-2.40e-03,6.00e-02,
647,4.00e-03,8.00e-02,
648,-1.12e-02,8.00e-02,
649,1.40e-02,2.00e-02,
650,-1.56e-02,8.00e-02,
651,1.64e-02,2.00e-02,
652,8.00e-03,8.00e-02,
653,-5.60e-03,2.00e-02,
654,3.60e-03,2.00e-02,
655,-4.00e-04,8.00e-02,
656,-8.00e-04,2.00e-02,
657,2.00e-03,8.00e-02,
658,0.00e+00,4.00e-02,
659,2.40e-03,2.00e-02,
660,1.60e-03,4.00e-02,
661,-4.00e-04,2.00e-02,
662,2.40e-03,4.00e-02,
663,-1.20e-03,2.00e-02,
664,-2.00e-03,2.00e-02,
665,8.80e-03,1.98e+00,
666,8.80e-03,1.60e-01,
667,-8.00e-04,8.00e-02,
668,1.60e-03,1.00e-01,
669,-8.00e-04,6.00e-02,
670,-4.00e-04,6.00e-02,
671,1.20e-03,8.00e-02,
672,2.40e-03,6.00e-02,
673,-8.00e-04,8.00e-02,
674,2.40e-03,8.00e-02,
675,-1.20e-03,6.00e-02,
676,-2.40e-03,6.00e-02,
677,4.40e-03,8.00e-02,
678,-1.08e-02,8.00e-02,
679,1.48e-02,2.00e-02,
680,-1.52e-02,8.00e-02,
681,1.72e-02,2.00e-02,
682,8.00e-03,8.00e-02,
683,-5.60e-03,2.00e-02,
684,3.20e-03,8.00e-02,
685,-4.00e-04,2.00e-02,
686,1.20e-03,2.00e-02,
687,-8.00e-04,6.00e-02,
688,-8.00e-04,2.00e-02,
689,2.00e-03,6.00e-02,
690,2.00e-03,4.00e-02,
691,0.00e+00,2.00e-02,
692,2.00e-03,4.00e-02,
693,-1.20e-03,2.00e-02,
694,-1.60e-03,2.00e-02,
695,9.20e-03,1.76e+00,
696,8.40e-03,1.60e-01,
697,-8.00e-04,8.00e-02,
698,0.00e+00,1.00e-01,
699,2.40e-03,6.00e-02,
700,2.00e-03,1.00e-01,
701,0.00e+00,6.00e-02,
702,0.00e+00,6.00e-02,
703,2.40e-03,8.00e-02,
704,2.00e-03,6.00e-02,
705,-4.00e-04,8.00e-02,
706,-2.40e-03,8.00e-02,
707,5.20e-03,6.00e-02,
708,-1.12e-02,4.00e-02,
709,1.52e-02,8.00e-02,
710,-1.48e-02,8.00e-02,
711,1.64e-02,2.00e-02,
712,7.20e-03,8.00e-02,
713,-4.80e-03,2.00e-02,
714,2.00e-03,2.00e-02,
715,-8.00e-04,8.00e-02,
716,2.00e-03,2.00e-02,
717,-4.00e-04,8.00e-02,
718,1.20e-03,2.00e-02,
719,-8.00e-04,8.00e-02,
720,-4.00e-04,4.00e-02,
721,2.00e-03,2.00e-02,
722,-1.60e-03,4.00e-02,
723,2.00e-03,2.00e-02,
724,-1.60e-03,2.00e-02,
725,8.00e-03,2.02e+00,
726,8.00e-03,1.60e-01,
727,0.00e+00,8.00e-02,
728,2.00e-03,1.00e-01,
729,0.00e+00,6.00e-02,
730,0.00e+00,1.00e-01,
731,2.00e-03,6.00e-02,
732,-8.00e-04,6.00e-02,
733,1.20e-03,8.00e-02,
734,2.00e-03,8.00e-02,
735,-1.20e-03,6.00e-02,
736,-2.40e-03,8.00e-02,
737,4.00e-03,4.00e-02,
738,-1.20e-02,6.00e-02,
739,1.44e-02,8.00e-02,
740,-1.64e-02,8.00e-02,
741,1.72e-02,2.00e-02,
742,9.20e-03,8.00e-02,
743,-6.00e-03,2.00e-02,
744,3.20e-03,2.00e-02,
745,-1.20e-03,8.00e-02,
746,0.00e+00,6.00e-02,
747,2.40e-03,2.00e-02,
748,1.60e-03,2.00e-02,
749,-4.00e-04,6.00e-02,
750,-8.00e-04,2.00e-02,
751,2.00e-03,6.00e-02,
752,-8.00e-04,2.00e-02,
753,2.80e-03,4.00e-02,
754,-2.40e-03,2.00e-02,
755,8.80e-03,1.96e+00,
756,8.40e-03,1.60e-01,
757,0.00e+00,8.00e-02,
758,2.40e-03,1.00e-01,
759,0.00e+00,6.00e-02,
760,0.00e+00,6.00e-02,
761,1.20e-03,8.00e-02,
762,0.00e+00,8.00e-02,
763,2.00e-03,6.00e-02,
764,0.00e+00,6.00e-02,
765,2.40e-03,8.00e-02,
766,-2.80e-03,6.00e-02,
767,4.80e-03,8.00e-02,
768,-1.12e-02,8.00e-02,
769,1.44e-02,4.00e-02,
770,-1.56e-02,8.00e-02,
771,1.72e-02,2.00e-02,
772,7.20e-03,8.00e-02,
773,-5.60e-03,2.00e-02,
774,2.40e-03,8.00e-02,
775,-1.20e-03,2.00e-02,
776,2.00e-03,8.00e-02,
777,-8.00e-04,2.00e-02,
778,1.20e-03,4.00e-02,
779,-8.00e-04,2.00e-02,
780,-4.00e-04,2.00e-02,
781,1.20e-03,4.00e-02,
782,1.60e-03,4.00e-02,
783,-1.20e-03,2.00e-02,
784,-1.60e-03,2.02e+00,
785,9.60e-03,0.00e+00,
786,9.20e-03,1.60e-01,
787,-4.00e-04,8.00e-02,
788,0.00e+00,1.00e-01,
789,1.60e-03,6.00e-02,
790,2.00e-03,6.00e-02,
791,0.00e+00,8.00e-02,
792,1.60e-03,6.00e-02,
793,-4.00e-04,8.00e-02,
794,2.00e-03,6.00e-02,
795,-8.00e-04,8.00e-02,
796,-2.80e-03,8.00e-02,
797,5.20e-03,4.00e-02,
798,-1.16e-02,8.00e-02,
799,1.52e-02,2.00e-02,
800,-1.44e-02,8.00e-02,
801,1.64e-02,2.00e-02,
802,7.20e-03,2.00e-02,
803,-5.20e-03,8.00e-02,
804,2.80e-03,2.00e-02,
805,0.00e+00,4.00e-02,
806,-1.20e-03,4.00e-02,
807,2.00e-03,2.00e-02,
808,1.20e-03,4.00e-02,
809,-8.00e-04,2.00e-02,
810,0.00e+00,4.00e-02,
811,2.00e-03,2.00e-02,
812,2.40e-03,4.00e-02,
813,-1.20e-03,2.00e-02,
814,-1.20e-03,2.00e-02,
815,8.40e-03,1.94e+00,
816,8.40e-03,1.60e-01,
817,0.00e+00,8.00e-02,
818,0.00e+00,1.00e-01,
819,1.60e-03,6.00e-02,
820,1.20e-03,6.00e-02,
821,-4.00e-04,8.00e-02,
822,-8.00e-04,6.00e-02,
823,2.00e-03,8.00e-02,
824,-1.20e-03,8.00e-02,
825,2.00e-03,6.00e-02,
826,-2.40e-03,6.00e-02,
827,4.00e-03,8.00e-02,
828,-1.12e-02,2.00e-02,
829,1.52e-02,8.00e-02,
830,-1.48e-02,8.00e-02,
831,1.60e-02,2.00e-02,
832,7.60e-03,2.00e-02,
833,-4.80e-03,8.00e-02,
834,2.40e-03,4.00e-02,
835,-4.00e-04,2.00e-02,
836,2.00e-03,4.00e-02,
837,-4.00e-04,2.00e-02,
838,0.00e+00,4.00e-02,
839,2.40e-03,2.00e-02,
840,1.20e-03,4.00e-02,
841,0.00e+00,2.00e-02,
842,-8.00e-04,4.00e-02,
843,2.00e-03,2.00e-02,
844,-2.00e-03,2.00e-02,
845,8.80e-03,2.02e+00,
846,8.40e-03,1.60e-01,
847,-4.00e-04,8.00e-02,
848,0.00e+00,1.00e-01,
849,2.00e-03,6.00e-02,
850,0.00e+00,6.00e-02,
851,1.60e-03,8.00e-02,
852,1.20e-03,6.00e-02,
853,-8.00e-04,8.00e-02,
854,-4.00e-04,8.00e-02,
855,1.60e-03,6.00e-02,
856,-2.00e-03,8.00e-02,
