CarrPurc_P1-19_P2-38_tauVary/Gly90/NewFile5.csv

X,CH1,CH2,Start,Increment,
Sequence,Volt,Volt,-5.000000e-03,1.000000e-04
0,8.00e-04,4.00e-02,
1,0.00e+00,0.00e+00,
2,0.00e+00,4.00e-02,
3,1.20e-03,2.00e-02,
4,1.20e-03,4.00e-02,
5,0.00e+00,0.00e+00,
6,1.20e-03,4.00e-02,
7,0.00e+00,0.00e+00,
8,8.00e-04,4.00e-02,
9,0.00e+00,2.00e-02,
10,1.20e-03,4.00e-02,
11,0.00e+00,0.00e+00,
12,1.20e-03,4.00e-02,
13,-8.00e-04,0.00e+00,
14,-8.00e-04,4.00e-02,
15,1.20e-03,0.00e+00,
16,0.00e+00,4.00e-02,
17,1.20e-03,0.00e+00,
18,8.00e-04,4.00e-02,
19,0.00e+00,0.00e+00,
20,8.00e-04,4.00e-02,
21,0.00e+00,0.00e+00,
22,0.00e+00,4.00e-02,
23,1.20e-03,0.00e+00,
24,-8.00e-04,4.00e-02,
25,8.00e-04,0.00e+00,
26,0.00e+00,4.00e-02,
27,1.20e-03,0.00e+00,
28,1.20e-03,4.00e-02,
29,-8.00e-04,0.00e+00,
30,-8.00e-04,4.00e-02,
31,1.20e-03,0.00e+00,
32,0.00e+00,4.00e-02,
33,1.20e-03,0.00e+00,
34,4.00e-04,4.00e-02,
35,1.20e-03,0.00e+00,
36,4.00e-04,4.00e-02,
37,2.00e-03,0.00e+00,
38,1.20e-03,4.00e-02,
39,0.00e+00,0.00e+00,
40,1.60e-03,4.00e-02,
41,4.00e-04,0.00e+00,
42,1.20e-03,4.00e-02,
43,0.00e+00,0.00e+00,
44,4.00e-04,4.00e-02,
45,1.20e-03,0.00e+00,
46,1.20e-03,4.00e-02,
47,4.00e-04,0.00e+00,
48,1.20e-03,4.00e-02,
49,0.00e+00,0.00e+00,
50,1.20e-03,4.00e-02,
51,0.00e+00,0.00e+00,
52,0.00e+00,4.00e-02,
53,1.20e-03,0.00e+00,
54,4.00e-04,2.00e-02,
55,5.20e-03,1.62e+00,
56,5.20e-03,1.60e-01,
57,-2.64e-02,8.00e-02,
58,1.44e-02,1.20e-01,
59,-1.40e-02,8.00e-02,
60,7.20e-03,1.00e-01,
61,-8.00e-03,6.00e-02,
62,-1.60e-03,6.00e-02,
63,3.60e-03,1.00e-01,
64,-2.00e-03,6.00e-02,
65,2.80e-03,8.00e-02,
66,-1.60e-03,6.00e-02,
67,2.80e-03,8.00e-02,
68,-1.60e-03,8.00e-02,
69,2.40e-03,6.00e-02,
70,2.40e-03,6.00e-02,
71,-8.00e-04,8.00e-02,
72,-8.00e-04,8.00e-02,
73,1.20e-03,6.00e-02,
74,8.00e-04,6.00e-02,
75,7.60e-03,1.74e+00,
76,6.80e-03,1.60e-01,
77,-8.40e-03,1.00e-01,
78,-8.40e-03,1.20e-01,
79,5.20e-03,8.00e-02,
80,4.00e-03,1.00e-01,
81,-1.20e-03,8.00e-02,
82,2.00e-03,1.00e-01,
83,0.00e+00,6.00e-02,
84,-8.00e-04,8.00e-02,
85,2.80e-03,6.00e-02,
86,1.60e-03,6.00e-02,
87,-4.00e-04,8.00e-02,
88,-2.80e-03,8.00e-02,
89,5.60e-03,6.00e-02,
90,8.40e-03,6.00e-02,
91,-9.20e-03,8.00e-02,
92,-1.60e-02,6.00e-02,
93,1.84e-02,8.00e-02,
94,-1.92e-02,8.00e-02,
95,2.16e-02,4.00e-02,
96,-1.64e-02,6.00e-02,
97,1.96e-02,8.00e-02,
98,1.12e-02,8.00e-02,
99,-8.80e-03,4.00e-02,
100,-5.20e-03,8.00e-02,
101,5.20e-03,2.00e-02,
102,2.40e-03,8.00e-02,
103,-1.20e-03,2.00e-02,
104,-8.00e-04,2.00e-02,
105,2.00e-03,8.00e-02,
106,1.60e-03,2.00e-02,
107,-1.20e-03,8.00e-02,
108,2.00e-03,2.00e-02,
109,-8.00e-04,8.00e-02,
110,-8.00e-04,2.00e-02,
111,1.60e-03,8.00e-02,
112,2.00e-03,4.00e-02,
113,0.00e+00,2.00e-02,
114,0.00e+00,2.00e-02,
115,7.20e-03,2.00e+00,
116,6.40e-03,1.60e-01,
117,8.00e-04,1.20e-01,
118,8.00e-04,1.40e-01,
119,2.80e-03,8.00e-02,
120,0.00e+00,1.00e-01,
121,2.00e-03,6.00e-02,
122,2.00e-03,6.00e-02,
123,-1.20e-03,1.00e-01,
124,-8.00e-04,6.00e-02,
125,1.20e-03,8.00e-02,
126,2.40e-03,8.00e-02,
127,-1.20e-03,6.00e-02,
128,-4.00e-03,6.00e-02,
129,5.60e-03,8.00e-02,
130,-6.80e-03,6.00e-02,
131,8.40e-03,8.00e-02,
132,1.24e-02,6.00e-02,
133,-1.44e-02,8.00e-02,
134,-1.76e-02,8.00e-02,
135,1.76e-02,4.00e-02,
136,-1.48e-02,8.00e-02,
137,1.12e-02,2.00e-02,
138,8.00e-03,8.00e-02,
139,-6.00e-03,2.00e-02,
140,-4.00e-03,8.00e-02,
141,4.00e-03,2.00e-02,
142,2.40e-03,8.00e-02,
143,-1.60e-03,2.00e-02,
144,-1.60e-03,8.00e-02,
145,2.40e-03,2.00e-02,
146,2.40e-03,8.00e-02,
147,-8.00e-04,2.00e-02,
148,1.20e-03,2.00e-02,
149,-1.20e-03,8.00e-02,
150,2.40e-03,2.00e-02,
151,-2.80e-03,8.00e-02,
152,-3.60e-03,6.00e-02,
153,5.60e-03,2.00e-02,
154,2.80e-03,1.88e+00,
155,7.20e-03,-6.00e-02,
156,6.40e-03,1.60e-01,
157,4.00e-04,1.00e-01,
158,2.40e-03,1.20e-01,
159,-1.20e-03,8.00e-02,
160,1.20e-03,1.00e-01,
161,-4.00e-04,6.00e-02,
162,0.00e+00,6.00e-02,
163,2.40e-03,1.00e-01,
164,2.00e-03,6.00e-02,
165,-4.00e-04,1.00e-01,
166,2.00e-03,6.00e-02,
167,-1.20e-03,8.00e-02,
168,3.60e-03,6.00e-02,
169,-3.60e-03,8.00e-02,
170,-6.00e-03,8.00e-02,
171,6.40e-03,6.00e-02,
172,1.08e-02,6.00e-02,
173,-1.20e-02,8.00e-02,
174,1.64e-02,6.00e-02,
175,-1.56e-02,8.00e-02,
176,-1.32e-02,8.00e-02,
177,1.16e-02,2.00e-02,
178,8.00e-03,8.00e-02,
179,-5.60e-03,4.00e-02,
180,-3.20e-03,8.00e-02,
181,3.60e-03,2.00e-02,
182,2.80e-03,8.00e-02,
183,-4.00e-04,2.00e-02,
184,-8.00e-04,8.00e-02,
185,2.40e-03,2.00e-02,
186,2.00e-03,8.00e-02,
187,-1.60e-03,2.00e-02,
188,-8.00e-04,8.00e-02,
189,1.60e-03,2.00e-02,
190,2.40e-03,2.00e-02,
191,-1.20e-03,8.00e-02,
192,-3.60e-03,2.00e-02,
193,5.20e-03,8.00e-02,
194,3.20e-03,2.00e-02,
195,8.00e-03,1.92e+00,
196,6.80e-03,1.60e-01,
197,4.00e-04,1.20e-01,
198,3.60e-03,1.20e-01,
199,-4.00e-04,8.00e-02,
200,2.00e-03,1.00e-01,
201,0.00e+00,6.00e-02,
202,-1.20e-03,1.00e-01,
203,2.40e-03,6.00e-02,
204,-1.20e-03,6.00e-02,
205,2.00e-03,1.00e-01,
206,2.40e-03,6.00e-02,
207,-4.00e-04,8.00e-02,
208,3.60e-03,8.00e-02,
209,-2.00e-03,6.00e-02,
210,-4.40e-03,6.00e-02,
211,6.40e-03,8.00e-02,
212,9.20e-03,6.00e-02,
213,-8.40e-03,8.00e-02,
214,-1.32e-02,6.00e-02,
215,1.44e-02,8.00e-02,
216,-1.12e-02,8.00e-02,
217,1.12e-02,4.00e-02,
218,7.60e-03,8.00e-02,
219,-5.20e-03,4.00e-02,
220,-3.60e-03,4.00e-02,
221,3.60e-03,8.00e-02,
222,2.40e-03,8.00e-02,
223,-8.00e-04,2.00e-02,
224,-8.00e-04,8.00e-02,
225,2.00e-03,2.00e-02,
226,1.60e-03,8.00e-02,
227,-8.00e-04,2.00e-02,
228,0.00e+00,8.00e-02,
229,1.20e-03,2.00e-02,
230,1.20e-03,8.00e-02,
231,-1.20e-03,2.00e-02,
232,-1.60e-03,2.00e-02,
233,3.60e-03,8.00e-02,
234,2.80e-03,1.82e+00,
235,7.60e-03,0.00e+00,
236,6.80e-03,1.60e-01,
237,0.00e+00,1.20e-01,
238,2.80e-03,1.40e-01,
239,-4.00e-04,8.00e-02,
240,2.40e-03,1.00e-01,
241,0.00e+00,6.00e-02,
242,0.00e+00,6.00e-02,
243,2.40e-03,1.00e-01,
244,0.00e+00,6.00e-02,
245,2.00e-03,1.00e-01,
246,2.40e-03,6.00e-02,
247,-8.00e-04,8.00e-02,
248,-2.80e-03,8.00e-02,
249,4.00e-03,6.00e-02,
250,-4.00e-03,8.00e-02,
251,6.80e-03,6.00e-02,
252,9.20e-03,6.00e-02,
253,-1.04e-02,8.00e-02,
254,-1.28e-02,8.00e-02,
255,1.36e-02,6.00e-02,
256,-1.08e-02,8.00e-02,
257,9.60e-03,6.00e-02,
258,5.20e-03,8.00e-02,
259,-4.00e-03,4.00e-02,
260,-2.80e-03,8.00e-02,
261,3.20e-03,2.00e-02,
262,2.40e-03,8.00e-02,
263,-8.00e-04,4.00e-02,
264,-8.00e-04,2.00e-02,
265,2.00e-03,8.00e-02,
266,2.40e-03,8.00e-02,
267,-8.00e-04,2.00e-02,
268,1.60e-03,2.00e-02,
269,-8.00e-04,8.00e-02,
270,2.00e-03,2.00e-02,
271,-1.20e-03,8.00e-02,
272,-1.60e-03,8.00e-02,
273,4.00e-03,2.00e-02,
274,3.20e-03,2.00e-02,
275,7.60e-03,1.98e+00,
276,6.80e-03,1.60e-01,
277,8.00e-04,1.00e-01,
278,3.60e-03,1.20e-01,
279,0.00e+00,8.00e-02,
280,0.00e+00,1.00e-01,
281,2.00e-03,6.00e-02,
282,4.00e-04,1.00e-01,
283,2.40e-03,6.00e-02,
284,-1.20e-03,6.00e-02,
285,2.00e-03,1.00e-01,
286,0.00e+00,6.00e-02,
287,2.40e-03,8.00e-02,
288,3.20e-03,6.00e-02,
289,-2.40e-03,8.00e-02,
290,-3.60e-03,6.00e-02,
291,5.60e-03,8.00e-02,
292,8.00e-03,8.00e-02,
293,-9.60e-03,6.00e-02,
294,-1.12e-02,6.00e-02,
295,1.28e-02,8.00e-02,
296,-1.04e-02,8.00e-02,
297,9.20e-03,2.00e-02,
298,6.40e-03,8.00e-02,
299,-4.40e-03,4.00e-02,
300,-2.80e-03,8.00e-02,
301,2.80e-03,2.00e-02,
302,2.40e-03,2.00e-02,
303,-8.00e-04,8.00e-02,
304,2.40e-03,8.00e-02,
305,-4.00e-04,2.00e-02,
306,1.20e-03,8.00e-02,
307,-8.00e-04,2.00e-02,
308,-1.20e-03,2.00e-02,
309,2.00e-03,8.00e-02,
310,2.40e-03,2.00e-02,
311,-1.60e-03,8.00e-02,
312,-2.40e-03,2.00e-02,
313,4.00e-03,8.00e-02,
314,3.20e-03,2.00e-02,
315,7.20e-03,1.88e+00,
316,6.80e-03,1.60e-01,
317,4.00e-04,1.20e-01,
318,3.60e-03,1.20e-01,
319,0.00e+00,8.00e-02,
320,2.40e-03,1.00e-01,
321,-8.00e-04,8.00e-02,
322,-1.20e-03,1.00e-01,
323,2.40e-03,6.00e-02,
324,-4.00e-04,6.00e-02,
325,2.80e-03,1.00e-01,
326,3.20e-03,6.00e-02,
327,-4.00e-04,8.00e-02,
328,-2.40e-03,6.00e-02,
329,2.80e-03,8.00e-02,
330,-2.80e-03,6.00e-02,
331,5.20e-03,8.00e-02,
332,7.20e-03,8.00e-02,
333,-8.80e-03,6.00e-02,
334,-1.04e-02,6.00e-02,
335,1.24e-02,8.00e-02,
336,-9.60e-03,6.00e-02,
337,9.60e-03,8.00e-02,
338,6.80e-03,8.00e-02,
339,-3.20e-03,4.00e-02,
340,-2.40e-03,8.00e-02,
341,2.80e-03,2.00e-02,
342,2.40e-03,8.00e-02,
343,-4.00e-04,2.00e-02,
344,0.00e+00,8.00e-02,
345,2.00e-03,2.00e-02,
346,2.00e-03,2.00e-02,
347,0.00e+00,8.00e-02,
348,-4.00e-04,8.00e-02,
349,1.20e-03,2.00e-02,
350,2.00e-03,8.00e-02,
351,-1.20e-03,2.00e-02,
352,-2.40e-03,8.00e-02,
353,3.60e-03,2.00e-02,
354,2.80e-03,2.00e-02,
355,7.20e-03,1.82e+00,
356,6.80e-03,1.60e-01,
357,1.20e-03,1.20e-01,
358,3.60e-03,1.40e-01,
359,-4.00e-04,8.00e-02,
360,-8.00e-04,1.00e-01,
361,2.40e-03,6.00e-02,
362,2.00e-03,1.00e-01,
363,-4.00e-04,6.00e-02,
364,2.00e-03,1.00e-01,
365,-8.00e-04,6.00e-02,
366,-8.00e-04,6.00e-02,
367,2.00e-03,8.00e-02,
368,2.80e-03,6.00e-02,
369,-2.40e-03,8.00e-02,
370,-2.80e-03,6.00e-02,
371,5.20e-03,8.00e-02,
372,8.00e-03,6.00e-02,
373,-8.40e-03,8.00e-02,
374,-9.60e-03,6.00e-02,
375,1.16e-02,8.00e-02,
376,-8.40e-03,6.00e-02,
377,8.00e-03,8.00e-02,
378,4.40e-03,8.00e-02,
379,-2.80e-03,4.00e-02,
380,-1.20e-03,8.00e-02,
381,2.80e-03,4.00e-02,
382,1.60e-03,4.00e-02,
383,-8.00e-04,8.00e-02,
384,-4.00e-04,8.00e-02,
385,2.00e-03,2.00e-02,
386,2.00e-03,2.00e-02,
387,-8.00e-04,8.00e-02,
388,-8.00e-04,2.00e-02,
389,2.00e-03,8.00e-02,
390,1.20e-03,8.00e-02,
391,-1.20e-03,2.00e-02,
392,-1.60e-03,8.00e-02,
393,4.00e-03,2.00e-02,
394,3.20e-03,2.00e-02,
395,8.00e-03,1.92e+00,
396,6.80e-03,1.60e-01,
397,4.00e-04,8.00e-02,
398,3.60e-03,8.00e-02,
399,-4.00e-04,1.40e-01,
400,2.00e-03,1.00e-01,
401,-4.00e-04,6.00e-02,
402,1.20e-03,1.00e-01,
403,-8.00e-04,6.00e-02,
404,-8.00e-04,6.00e-02,
405,1.60e-03,1.00e-01,
406,2.00e-03,6.00e-02,
407,0.00e+00,8.00e-02,
408,2.40e-03,6.00e-02,
409,-1.60e-03,8.00e-02,
410,-3.60e-03,6.00e-02,
411,4.80e-03,8.00e-02,
412,6.80e-03,8.00e-02,
413,-8.00e-03,6.00e-02,
414,-1.00e-02,6.00e-02,
415,9.60e-03,8.00e-02,
416,-8.40e-03,6.00e-02,
417,7.60e-03,8.00e-02,
418,5.20e-03,8.00e-02,
419,-3.60e-03,2.00e-02,
420,-1.60e-03,8.00e-02,
421,2.80e-03,2.00e-02,
422,4.00e-04,2.00e-02,
423,2.40e-03,8.00e-02,
424,-8.00e-04,4.00e-02,
425,1.60e-03,8.00e-02,
426,2.40e-03,8.00e-02,
427,-4.00e-04,2.00e-02,
428,-8.00e-04,8.00e-02,
429,2.00e-03,2.00e-02,
430,0.00e+00,2.00e-02,
431,2.40e-03,8.00e-02,
432,2.80e-03,8.00e-02,
433,-2.80e-03,2.00e-02,
434,2.80e-03,2.00e-02,
435,7.20e-03,1.82e+00,
436,6.40e-03,1.60e-01,
437,4.00e-04,1.20e-01,
438,3.60e-03,1.40e-01,
439,0.00e+00,8.00e-02,
440,2.40e-03,1.00e-01,
441,-8.00e-04,6.00e-02,
442,2.40e-03,1.00e-01,
443,0.00e+00,6.00e-02,
444,0.00e+00,6.00e-02,
445,2.00e-03,1.00e-01,
446,-8.00e-04,6.00e-02,
447,2.40e-03,8.00e-02,
448,2.40e-03,6.00e-02,
449,-1.20e-03,8.00e-02,
450,-2.40e-03,6.00e-02,
451,4.40e-03,8.00e-02,
452,6.40e-03,8.00e-02,
453,-6.80e-03,6.00e-02,
454,-8.80e-03,6.00e-02,
455,9.60e-03,8.00e-02,
456,-8.80e-03,8.00e-02,
457,8.80e-03,2.00e-02,
458,5.60e-03,8.00e-02,
459,-2.40e-03,2.00e-02,
460,-1.20e-03,6.00e-02,
461,3.20e-03,8.00e-02,
462,2.00e-03,8.00e-02,
463,-8.00e-04,2.00e-02,
464,-1.20e-03,8.00e-02,
465,1.20e-03,4.00e-02,
466,2.00e-03,8.00e-02,
467,-4.00e-04,2.00e-02,
468,-4.00e-04,8.00e-02,
469,1.60e-03,2.00e-02,
470,2.00e-03,8.00e-02,
471,-1.20e-03,2.00e-02,
472,-2.80e-03,8.00e-02,
473,3.20e-03,2.00e-02,
474,3.60e-03,2.00e+00,
475,7.60e-03,-2.00e-02,
476,6.80e-03,1.60e-01,
477,1.20e-03,1.20e-01,
478,4.00e-03,1.40e-01,
479,0.00e+00,8.00e-02,
480,-8.00e-04,1.00e-01,
481,2.00e-03,8.00e-02,
482,2.00e-03,1.00e-01,
483,-1.20e-03,6.00e-02,
484,-8.00e-04,1.00e-01,
485,1.20e-03,6.00e-02,
486,2.00e-03,6.00e-02,
487,-4.00e-04,8.00e-02,
488,1.60e-03,8.00e-02,
489,-2.00e-03,6.00e-02,
490,-3.20e-03,6.00e-02,
491,4.00e-03,8.00e-02,
492,5.60e-03,6.00e-02,
493,-6.00e-03,8.00e-02,
494,-6.40e-03,6.00e-02,
495,9.60e-03,8.00e-02,
496,-6.00e-03,8.00e-02,
497,6.40e-03,4.00e-02,
498,4.80e-03,8.00e-02,
499,-2.40e-03,4.00e-02,
500,-8.00e-04,2.00e-02,
501,2.80e-03,8.00e-02,
502,2.40e-03,8.00e-02,
503,-4.00e-04,2.00e-02,
504,2.00e-03,2.00e-02,
505,-4.00e-04,8.00e-02,
506,-8.00e-04,2.00e-02,
507,2.00e-03,8.00e-02,
508,0.00e+00,2.00e-02,
509,2.00e-03,8.00e-02,
510,2.40e-03,8.00e-02,
511,-1.60e-03,2.00e-02,
512,-2.40e-03,8.00e-02,
513,4.00e-03,2.00e-02,
514,4.00e-03,2.00e-02,
515,7.60e-03,1.94e+00,
516,6.40e-03,1.60e-01,
517,4.00e-04,1.20e-01,
518,4.00e-03,8.00e-02,
519,-8.00e-04,1.40e-01,
520,2.00e-03,1.00e-01,
521,-4.00e-04,6.00e-02,
522,2.40e-03,1.00e-01,
523,-4.00e-04,6.00e-02,
524,-8.00e-04,1.00e-01,
525,2.00e-03,6.00e-02,
526,2.40e-03,6.00e-02,
527,4.00e-04,8.00e-02,
528,2.00e-03,6.00e-02,
529,-1.60e-03,8.00e-02,
530,-2.40e-03,6.00e-02,
531,4.80e-03,8.00e-02,
532,6.40e-03,8.00e-02,
533,-5.60e-03,6.00e-02,
534,8.40e-03,8.00e-02,
535,-7.20e-03,6.00e-02,
536,-6.80e-03,8.00e-02,
537,6.40e-03,4.00e-02,
538,4.40e-03,8.00e-02,
539,-2.40e-03,2.00e-02,
540,-1.60e-03,8.00e-02,
541,2.40e-03,2.00e-02,
542,-8.00e-04,8.00e-02,
543,2.00e-03,2.00e-02,
544,-8.00e-04,8.00e-02,
545,1.60e-03,2.00e-02,
546,2.00e-03,8.00e-02,
547,-4.00e-04,2.00e-02,
548,-8.00e-04,2.00e-02,
549,2.00e-03,8.00e-02,
550,2.40e-03,8.00e-02,
551,-8.00e-04,2.00e-02,
552,-3.20e-03,8.00e-02,
553,3.60e-03,2.00e-02,
554,3.20e-03,2.00e-02,
555,8.00e-03,1.92e+00,
556,6.80e-03,1.60e-01,
557,1.60e-03,1.20e-01,
558,4.40e-03,1.40e-01,
559,4.00e-04,8.00e-02,
560,2.40e-03,1.00e-01,
561,-8.00e-04,8.00e-02,
562,2.00e-03,1.00e-01,
563,-8.00e-04,6.00e-02,
564,-1.20e-03,1.00e-01,
565,2.00e-03,6.00e-02,
566,2.40e-03,6.00e-02,
567,-4.00e-04,8.00e-02,
568,2.00e-03,6.00e-02,
569,-1.20e-03,8.00e-02,
570,-2.40e-03,8.00e-02,
571,3.60e-03,6.00e-02,
572,6.00e-03,6.00e-02,
573,-4.40e-03,8.00e-02,
574,-6.80e-03,8.00e-02,
575,8.40e-03,6.00e-02,
576,-6.00e-03,8.00e-02,
577,6.00e-03,4.00e-02,
578,3.60e-03,8.00e-02,
579,-2.80e-03,2.00e-02,
580,-1.20e-03,2.00e-02,
581,2.40e-03,8.00e-02,
582,2.00e-03,8.00e-02,
583,-4.00e-04,2.00e-02,
584,0.00e+00,8.00e-02,
585,2.00e-03,2.00e-02,
586,1.60e-03,8.00e-02,
587,-1.20e-03,2.00e-02,
588,-4.00e-04,8.00e-02,
589,2.40e-03,2.00e-02,
590,2.40e-03,2.00e-02,
591,-1.20e-03,6.00e-02,
592,-2.40e-03,2.00e-02,
593,3.20e-03,6.00e-02,
594,3.20e-03,2.00e-02,
595,7.20e-03,1.92e+00,
596,6.40e-03,1.60e-01,
597,4.00e-04,1.00e-01,
598,4.00e-03,1.40e-01,
599,-8.00e-04,8.00e-02,
600,-4.00e-04,1.00e-01,
601,2.40e-03,6.00e-02,
602,2.40e-03,1.00e-01,
603,0.00e+00,6.00e-02,
604,0.00e+00,6.00e-02,
605,2.00e-03,8.00e-02,
606,2.40e-03,6.00e-02,
607,0.00e+00,8.00e-02,
608,2.40e-03,6.00e-02,
609,-1.20e-03,8.00e-02,
610,-1.60e-03,6.00e-02,
611,4.80e-03,8.00e-02,
612,5.60e-03,8.00e-02,
613,-5.20e-03,6.00e-02,
614,7.60e-03,6.00e-02,
615,-7.20e-03,8.00e-02,
616,-5.60e-03,8.00e-02,
617,6.80e-03,4.00e-02,
618,3.60e-03,8.00e-02,
619,-2.40e-03,4.00e-02,
620,-1.20e-03,8.00e-02,
621,2.40e-03,2.00e-02,
622,2.00e-03,8.00e-02,
623,0.00e+00,2.00e-02,
624,1.60e-03,2.00e-02,
625,-8.00e-04,8.00e-02,
626,2.00e-03,2.00e-02,
627,-8.00e-04,8.00e-02,
628,-1.20e-03,8.00e-02,
629,2.40e-03,2.00e-02,
630,-8.00e-04,2.00e-02,
631,2.40e-03,8.00e-02,
632,-2.40e-03,2.00e-02,
633,3.20e-03,8.00e-02,
634,3.60e-03,2.00e-02,
635,8.00e-03,1.74e+00,
636,6.80e-03,1.60e-01,
637,1.20e-03,1.00e-01,
638,4.80e-03,8.00e-02,
639,-8.00e-04,1.40e-01,
640,1.20e-03,1.00e-01,
641,-1.20e-03,6.00e-02,
642,2.00e-03,1.00e-01,
643,-1.60e-03,6.00e-02,
644,-8.00e-04,6.00e-02,
645,1.60e-03,1.00e-01,
646,2.00e-03,6.00e-02,
647,0.00e+00,8.00e-02,
648,2.00e-03,6.00e-02,
649,-1.20e-03,8.00e-02,
650,-1.60e-03,6.00e-02,
651,3.60e-03,8.00e-02,
652,5.20e-03,6.00e-02,
653,-4.40e-03,8.00e-02,
654,-5.20e-03,6.00e-02,
655,8.00e-03,8.00e-02,
656,-4.40e-03,8.00e-02,
657,5.60e-03,6.00e-02,
658,3.60e-03,8.00e-02,
659,-1.60e-03,4.00e-02,
660,2.00e-03,8.00e-02,
661,-1.20e-03,4.00e-02,
662,1.20e-03,8.00e-02,
663,-8.00e-04,2.00e-02,
664,-8.00e-04,2.00e-02,
665,1.20e-03,8.00e-02,
666,0.00e+00,8.00e-02,
667,2.40e-03,2.00e-02,
668,2.00e-03,8.00e-02,
669,-8.00e-04,2.00e-02,
670,2.40e-03,2.00e-02,
671,-1.20e-03,8.00e-02,
672,3.20e-03,8.00e-02,
673,-4.00e-03,2.00e-02,
674,2.80e-03,2.00e-02,
675,7.20e-03,1.90e+00,
676,6.40e-03,1.60e-01,
677,8.00e-04,1.00e-01,
678,5.60e-03,8.00e-02,
679,0.00e+00,1.40e-01,
680,2.40e-03,1.00e-01,
681,-8.00e-04,6.00e-02,
682,2.40e-03,1.00e-01,
683,-8.00e-04,6.00e-02,
684,-1.20e-03,1.00e-01,
685,2.00e-03,6.00e-02,
686,1.20e-03,6.00e-02,
687,-8.00e-04,8.00e-02,
688,2.40e-03,6.00e-02,
689,-1.20e-03,8.00e-02,
690,-2.40e-03,6.00e-02,
691,3.60e-03,8.00e-02,
692,4.80e-03,6.00e-02,
693,-4.40e-03,8.00e-02,
694,-5.60e-03,6.00e-02,
695,6.80e-03,8.00e-02,
696,-5.20e-03,8.00e-02,
697,4.40e-03,4.00e-02,
698,3.60e-03,8.00e-02,
699,-2.00e-03,4.00e-02,
700,2.40e-03,8.00e-02,
701,-8.00e-04,2.00e-02,
702,1.20e-03,8.00e-02,
703,0.00e+00,2.00e-02,
704,8.00e-04,2.00e-02,
705,-1.20e-03,8.00e-02,
706,1.20e-03,8.00e-02,
707,-8.00e-04,2.00e-02,
708,-1.20e-03,2.00e-02,
709,1.60e-03,8.00e-02,
710,-4.00e-04,2.00e-02,
711,2.80e-03,6.00e-02,
712,4.00e-03,8.00e-02,
713,-2.80e-03,2.00e-02,
714,3.60e-03,1.78e+00,
715,7.60e-03,-2.00e-02,
716,6.80e-03,1.60e-01,
717,8.00e-04,8.00e-02,
718,5.20e-03,8.00e-02,
719,8.00e-04,1.20e-01,
720,2.80e-03,1.00e-01,
721,-8.00e-04,6.00e-02,
722,2.00e-03,1.00e-01,
723,-8.00e-04,6.00e-02,
724,-1.20e-03,6.00e-02,
725,1.60e-03,8.00e-02,
726,4.00e-04,6.00e-02,
727,2.00e-03,8.00e-02,
728,-8.00e-04,6.00e-02,
729,2.00e-03,8.00e-02,
730,-2.00e-03,8.00e-02,
731,3.60e-03,6.00e-02,
732,5.20e-03,6.00e-02,
733,-3.60e-03,8.00e-02,
734,6.80e-03,8.00e-02,
735,-4.80e-03,4.00e-02,
736,-5.20e-03,8.00e-02,
737,4.00e-03,2.00e-02,
738,2.80e-03,8.00e-02,
739,-1.60e-03,2.00e-02,
740,-1.60e-03,8.00e-02,
741,2.00e-03,2.00e-02,
742,2.00e-03,2.00e-02,
743,4.00e-04,8.00e-02,
744,2.00e-03,2.00e-02,
745,-8.00e-04,8.00e-02,
746,-4.00e-04,8.00e-02,
747,2.40e-03,2.00e-02,
748,2.40e-03,2.00e-02,
749,-8.00e-04,8.00e-02,
750,-8.00e-04,2.00e-02,
751,2.40e-03,8.00e-02,
752,3.20e-03,2.00e-02,
753,-2.80e-03,8.00e-02,
754,3.20e-03,2.00e-02,
755,7.60e-03,1.82e+00,
756,6.80e-03,1.60e-01,
757,4.00e-04,8.00e-02,
758,4.40e-03,8.00e-02,
759,-1.20e-03,1.20e-01,
760,2.40e-03,1.00e-01,
761,-8.00e-04,6.00e-02,
762,2.00e-03,1.00e-01,
763,-8.00e-04,6.00e-02,
764,-8.00e-04,6.00e-02,
765,2.00e-03,8.00e-02,
766,1.60e-03,6.00e-02,
767,-4.00e-04,8.00e-02,
768,2.40e-03,6.00e-02,
769,-8.00e-04,8.00e-02,
770,-1.20e-03,8.00e-02,
771,3.20e-03,6.00e-02,
772,4.40e-03,8.00e-02,
773,-4.00e-03,6.00e-02,
774,-4.00e-03,6.00e-02,
775,6.80e-03,8.00e-02,
776,-4.40e-03,6.00e-02,
777,3.60e-03,8.00e-02,
778,2.40e-03,4.00e-02,
779,-1.60e-03,8.00e-02,
780,-8.00e-04,8.00e-02,
781,2.40e-03,2.00e-02,
782,0.00e+00,8.00e-02,
783,2.00e-03,2.00e-02,
784,1.20e-03,2.00e-02,
785,-8.00e-04,8.00e-02,
786,2.00e-03,2.00e-02,
787,-8.00e-04,8.00e-02,
788,-8.00e-04,2.00e-02,
789,2.00e-03,8.00e-02,
790,2.40e-03,2.00e-02,
791,-1.60e-03,8.00e-02,
792,3.60e-03,2.00e-02,
793,-3.60e-03,8.00e-02,
794,3.20e-03,2.00e-02,
795,8.00e-03,1.94e+00,
796,6.80e-03,1.60e-01,
797,1.60e-03,1.00e-01,
798,4.80e-03,1.40e-01,
799,-8.00e-04,8.00e-02,
800,-1.60e-03,1.00e-01,
801,2.40e-03,6.00e-02,
802,-8.00e-04,1.00e-01,
803,2.00e-03,6.00e-02,
804,-8.00e-04,6.00e-02,
805,1.60e-03,1.00e-01,
806,2.00e-03,8.00e-02,
807,-8.00e-04,6.00e-02,
808,0.00e+00,8.00e-02,
809,2.00e-03,6.00e-02,
810,-1.60e-03,6.00e-02,
811,2.80e-03,8.00e-02,
812,3.60e-03,6.00e-02,
813,-3.20e-03,8.00e-02,
814,6.40e-03,8.00e-02,
815,-4.40e-03,2.00e-02,
816,-4.00e-03,8.00e-02,
817,4.40e-03,4.00e-02,
818,2.80e-03,8.00e-02,
819,-1.60e-03,2.00e-02,
820,-8.00e-04,2.00e-02,
821,2.00e-03,8.00e-02,
822,-8.00e-04,2.00e-02,
823,2.00e-03,8.00e-02,
824,2.00e-03,8.00e-02,
825,-8.00e-04,2.00e-02,
826,0.00e+00,2.00e-02,
827,2.40e-03,8.00e-02,
828,-8.00e-04,2.00e-02,
829,2.40e-03,8.00e-02,
830,2.00e-03,8.00e-02,
831,-1.60e-03,2.00e-02,
832,3.60e-03,2.00e-02,
833,-3.20e-03,6.00e-02,
834,2.40e-03,2.00e-02,
835,7.20e-03,1.86e+00,
836,6.80e-03,1.60e-01,
837,1.20e-03,8.00e-02,
838,4.80e-03,1.20e-01,
839,-1.20e-03,8.00e-02,
840,-8.00e-04,1.00e-01,
841,2.40e-03,6.00e-02,
842,2.40e-03,6.00e-02,
843,-8.00e-04,1.00e-01,
844,2.00e-03,6.00e-02,
845,-8.00e-04,8.00e-02,
846,2.00e-03,8.00e-02,
847,4.00e-04,6.00e-02,
848,-1.20e-03,6.00e-02,
849,1.60e-03,8.00e-02,
850,2.80e-03,6.00e-02,
851,-8.00e-04,8.00e-02,
852,3.60e-03,6.00e-02,
853,-2.80e-03,8.00e-02,
854,4.80e-03,8.00e-02,
855,-4.40e-03,4.00e-02,
