CarrPurc_P1-19_P2-38_tauVary/Gly90/NewFile9.csv

X,CH1,CH2,Start,Increment,
Sequence,Volt,Volt,-5.000000e-03,1.000000e-04
0,8.00e-04,4.00e-02,
1,-4.00e-04,2.00e-02,
2,0.00e+00,4.00e-02,
3,8.00e-04,2.00e-02,
4,8.00e-04,4.00e-02,
5,0.00e+00,2.00e-02,
6,8.00e-04,2.00e-02,
7,0.00e+00,4.00e-02,
8,1.20e-03,4.00e-02,
9,0.00e+00,2.00e-02,
10,1.20e-03,4.00e-02,
11,4.00e-04,2.00e-02,
12,0.00e+00,4.00e-02,
13,1.20e-03,2.00e-02,
14,0.00e+00,4.00e-02,
15,1.20e-03,2.00e-02,
16,4.00e-04,4.00e-02,
17,1.20e-03,2.00e-02,
18,1.20e-03,4.00e-02,
19,4.00e-04,2.00e-02,
20,0.00e+00,2.00e-02,
21,1.20e-03,4.00e-02,
22,1.20e-03,4.00e-02,
23,4.00e-04,2.00e-02,
24,1.20e-03,4.00e-02,
25,4.00e-04,0.00e+00,
26,1.20e-03,4.00e-02,
27,0.00e+00,2.00e-02,
28,0.00e+00,4.00e-02,
29,1.20e-03,2.00e-02,
30,1.20e-03,2.00e-02,
31,4.00e-04,4.00e-02,
32,1.20e-03,4.00e-02,
33,0.00e+00,2.00e-02,
34,0.00e+00,4.00e-02,
35,8.00e-04,2.00e-02,
36,0.00e+00,4.00e-02,
37,1.20e-03,2.00e-02,
38,1.20e-03,4.00e-02,
39,0.00e+00,2.00e-02,
40,8.00e-04,2.00e-02,
41,0.00e+00,4.00e-02,
42,8.00e-04,4.00e-02,
43,0.00e+00,2.00e-02,
44,8.00e-04,4.00e-02,
45,-8.00e-04,2.00e-02,
46,0.00e+00,4.00e-02,
47,1.20e-03,2.00e-02,
48,8.00e-04,4.00e-02,
49,0.00e+00,2.00e-02,
50,0.00e+00,4.00e-02,
51,8.00e-04,2.00e-02,
52,0.00e+00,2.00e-02,
53,1.20e-03,4.00e-02,
54,4.00e-04,2.00e-02,
55,5.60e-03,1.62e+00,
56,5.20e-03,1.60e-01,
57,-2.60e-02,1.20e-01,
58,1.32e-02,1.20e-01,
59,-1.40e-02,8.00e-02,
60,7.20e-03,1.00e-01,
61,-7.20e-03,8.00e-02,
62,-2.40e-03,1.00e-01,
63,4.00e-03,6.00e-02,
64,-1.60e-03,6.00e-02,
65,2.40e-03,1.00e-01,
66,2.80e-03,6.00e-02,
67,-1.60e-03,8.00e-02,
68,-1.20e-03,8.00e-02,
69,2.80e-03,6.00e-02,
70,2.40e-03,6.00e-02,
71,-8.00e-04,8.00e-02,
72,-1.20e-03,8.00e-02,
73,1.20e-03,6.00e-02,
74,8.00e-04,6.00e-02,
75,7.60e-03,2.00e+00,
76,6.80e-03,1.60e-01,
77,-6.80e-03,1.20e-01,
78,-7.20e-03,1.20e-01,
79,5.20e-03,8.00e-02,
80,3.60e-03,1.00e-01,
81,-1.20e-03,8.00e-02,
82,-8.00e-04,1.00e-01,
83,1.60e-03,6.00e-02,
84,-1.20e-03,1.00e-01,
85,2.00e-03,6.00e-02,
86,1.60e-03,6.00e-02,
87,-1.20e-03,8.00e-02,
88,-2.80e-03,8.00e-02,
89,5.20e-03,6.00e-02,
90,9.20e-03,6.00e-02,
91,-9.20e-03,8.00e-02,
92,-1.44e-02,6.00e-02,
93,1.84e-02,8.00e-02,
94,-2.00e-02,6.00e-02,
95,2.24e-02,8.00e-02,
96,-1.84e-02,6.00e-02,
97,1.80e-02,8.00e-02,
98,1.16e-02,6.00e-02,
99,-8.80e-03,8.00e-02,
100,-5.20e-03,8.00e-02,
101,5.20e-03,6.00e-02,
102,2.80e-03,6.00e-02,
103,-1.20e-03,8.00e-02,
104,1.20e-03,6.00e-02,
105,-1.20e-03,8.00e-02,
106,-1.20e-03,2.00e-02,
107,1.60e-03,8.00e-02,
108,2.40e-03,8.00e-02,
109,-4.00e-04,2.00e-02,
110,-8.00e-04,8.00e-02,
111,2.00e-03,2.00e-02,
112,1.60e-03,8.00e-02,
113,-8.00e-04,2.00e-02,
114,0.00e+00,2.00e-02,
115,6.80e-03,1.76e+00,
116,6.40e-03,1.60e-01,
117,1.20e-03,1.20e-01,
118,2.40e-03,1.40e-01,
119,0.00e+00,8.00e-02,
120,0.00e+00,8.00e-02,
121,2.00e-03,1.00e-01,
122,2.00e-03,1.00e-01,
123,-8.00e-04,6.00e-02,
124,2.00e-03,6.00e-02,
125,-4.00e-04,1.00e-01,
126,2.40e-03,8.00e-02,
127,-1.60e-03,6.00e-02,
128,-2.80e-03,6.00e-02,
129,4.80e-03,8.00e-02,
130,-5.20e-03,6.00e-02,
131,7.60e-03,8.00e-02,
132,1.08e-02,6.00e-02,
133,-1.16e-02,8.00e-02,
134,1.68e-02,6.00e-02,
135,-1.48e-02,8.00e-02,
136,-1.20e-02,6.00e-02,
137,1.12e-02,8.00e-02,
138,7.20e-03,8.00e-02,
139,-5.20e-03,6.00e-02,
140,-2.80e-03,6.00e-02,
141,2.80e-03,8.00e-02,
142,2.40e-03,8.00e-02,
143,-8.00e-04,4.00e-02,
144,2.00e-03,8.00e-02,
145,-8.00e-04,4.00e-02,
146,2.00e-03,8.00e-02,
147,-8.00e-04,2.00e-02,
148,-8.00e-04,8.00e-02,
149,2.00e-03,2.00e-02,
150,2.80e-03,2.00e-02,
151,-2.40e-03,8.00e-02,
152,-2.80e-03,8.00e-02,
153,5.20e-03,2.00e-02,
154,2.00e-03,2.00e+00,
155,7.60e-03,-2.00e-02,
156,6.80e-03,1.60e-01,
157,1.20e-03,1.20e-01,
158,2.80e-03,1.40e-01,
159,4.00e-04,8.00e-02,
160,1.60e-03,1.00e-01,
161,-8.00e-04,8.00e-02,
162,-8.00e-04,1.00e-01,
163,1.60e-03,6.00e-02,
164,-8.00e-04,1.00e-01,
165,2.00e-03,6.00e-02,
166,1.20e-03,6.00e-02,
167,-8.00e-04,8.00e-02,
168,3.60e-03,6.00e-02,
169,-2.40e-03,8.00e-02,
170,-5.60e-03,8.00e-02,
171,7.20e-03,6.00e-02,
172,1.08e-02,6.00e-02,
173,-1.36e-02,8.00e-02,
174,-1.44e-02,6.00e-02,
175,1.52e-02,8.00e-02,
176,-1.28e-02,8.00e-02,
177,1.08e-02,6.00e-02,
178,7.20e-03,8.00e-02,
179,-5.60e-03,6.00e-02,
180,-3.20e-03,8.00e-02,
181,2.80e-03,6.00e-02,
182,2.00e-03,8.00e-02,
183,-8.00e-04,6.00e-02,
184,-8.00e-04,8.00e-02,
185,2.00e-03,2.00e-02,
186,2.40e-03,8.00e-02,
187,-8.00e-04,4.00e-02,
188,0.00e+00,8.00e-02,
189,1.20e-03,4.00e-02,
190,2.40e-03,8.00e-02,
191,-1.60e-03,2.00e-02,
192,-2.40e-03,8.00e-02,
193,4.80e-03,2.00e-02,
194,2.80e-03,2.00e-02,
195,7.20e-03,2.00e+00,
196,6.40e-03,1.60e-01,
197,-8.00e-04,1.20e-01,
198,-8.00e-04,1.40e-01,
199,2.80e-03,8.00e-02,
200,1.20e-03,8.00e-02,
201,0.00e+00,1.00e-01,
202,-4.00e-04,1.00e-01,
203,2.40e-03,6.00e-02,
204,2.40e-03,6.00e-02,
205,-1.20e-03,1.00e-01,
206,2.40e-03,6.00e-02,
207,-8.00e-04,8.00e-02,
208,-1.60e-03,8.00e-02,
209,3.20e-03,6.00e-02,
210,-3.60e-03,6.00e-02,
211,6.40e-03,8.00e-02,
212,8.40e-03,6.00e-02,
213,-8.40e-03,8.00e-02,
214,-1.36e-02,6.00e-02,
215,1.36e-02,8.00e-02,
216,-1.20e-02,6.00e-02,
217,1.08e-02,8.00e-02,
218,7.20e-03,8.00e-02,
219,-4.40e-03,6.00e-02,
220,-3.60e-03,6.00e-02,
221,2.80e-03,8.00e-02,
222,2.00e-03,6.00e-02,
223,0.00e+00,8.00e-02,
224,0.00e+00,6.00e-02,
225,2.00e-03,8.00e-02,
226,1.60e-03,8.00e-02,
227,0.00e+00,2.00e-02,
228,0.00e+00,2.00e-02,
229,2.00e-03,8.00e-02,
230,2.00e-03,8.00e-02,
231,-8.00e-04,4.00e-02,
232,-1.60e-03,8.00e-02,
233,3.60e-03,2.00e-02,
234,2.80e-03,2.00e-02,
235,7.60e-03,1.82e+00,
236,6.80e-03,1.60e-01,
237,4.00e-04,1.20e-01,
238,2.80e-03,1.40e-01,
239,0.00e+00,8.00e-02,
240,1.20e-03,1.00e-01,
241,0.00e+00,8.00e-02,
242,1.20e-03,1.00e-01,
243,-8.00e-04,6.00e-02,
244,2.00e-03,1.00e-01,
245,-4.00e-04,6.00e-02,
246,2.00e-03,6.00e-02,
247,-8.00e-04,8.00e-02,
248,-2.40e-03,8.00e-02,
249,4.00e-03,6.00e-02,
250,-4.00e-03,8.00e-02,
251,6.40e-03,6.00e-02,
252,8.40e-03,6.00e-02,
253,-9.60e-03,8.00e-02,
254,-1.16e-02,8.00e-02,
255,1.36e-02,6.00e-02,
256,-1.00e-02,8.00e-02,
257,9.60e-03,6.00e-02,
258,6.40e-03,6.00e-02,
259,-4.00e-03,8.00e-02,
260,-2.80e-03,6.00e-02,
261,2.00e-03,8.00e-02,
262,2.00e-03,8.00e-02,
263,0.00e+00,6.00e-02,
264,2.00e-03,8.00e-02,
265,-8.00e-04,4.00e-02,
266,1.20e-03,8.00e-02,
267,-1.20e-03,2.00e-02,
268,-8.00e-04,8.00e-02,
269,1.20e-03,2.00e-02,
270,-8.00e-04,2.00e-02,
271,2.00e-03,8.00e-02,
272,-1.20e-03,8.00e-02,
273,3.20e-03,2.00e-02,
274,2.80e-03,1.98e+00,
275,7.60e-03,-2.00e-02,
276,6.40e-03,1.60e-01,
277,8.00e-04,1.20e-01,
278,2.80e-03,1.20e-01,
279,0.00e+00,8.00e-02,
280,1.60e-03,1.00e-01,
281,0.00e+00,8.00e-02,
282,2.00e-03,1.00e-01,
283,0.00e+00,6.00e-02,
284,-8.00e-04,6.00e-02,
285,1.20e-03,1.00e-01,
286,0.00e+00,6.00e-02,
287,2.00e-03,8.00e-02,
288,2.40e-03,6.00e-02,
289,-1.60e-03,8.00e-02,
290,-3.60e-03,6.00e-02,
291,5.60e-03,8.00e-02,
292,8.00e-03,8.00e-02,
293,-8.40e-03,6.00e-02,
294,1.16e-02,6.00e-02,
295,-1.04e-02,8.00e-02,
296,-8.80e-03,8.00e-02,
297,8.40e-03,6.00e-02,
298,6.40e-03,8.00e-02,
299,-3.60e-03,6.00e-02,
300,-2.40e-03,8.00e-02,
301,2.80e-03,6.00e-02,
302,2.00e-03,8.00e-02,
303,-8.00e-04,4.00e-02,
304,-8.00e-04,8.00e-02,
305,2.40e-03,2.00e-02,
306,2.40e-03,8.00e-02,
307,-8.00e-04,2.00e-02,
308,-8.00e-04,8.00e-02,
309,1.20e-03,2.00e-02,
310,2.00e-03,8.00e-02,
311,-8.00e-04,2.00e-02,
312,-1.60e-03,2.00e-02,
313,3.60e-03,8.00e-02,
314,2.80e-03,2.00e-02,
315,7.60e-03,1.96e+00,
316,6.80e-03,1.60e-01,
317,1.60e-03,1.20e-01,
318,2.80e-03,1.40e-01,
319,0.00e+00,8.00e-02,
320,0.00e+00,1.00e-01,
321,2.00e-03,8.00e-02,
322,2.00e-03,1.00e-01,
323,-1.20e-03,6.00e-02,
324,2.00e-03,1.00e-01,
325,-8.00e-04,6.00e-02,
326,-4.00e-04,6.00e-02,
327,2.00e-03,8.00e-02,
328,2.40e-03,6.00e-02,
329,-1.60e-03,8.00e-02,
330,-3.20e-03,6.00e-02,
331,5.20e-03,8.00e-02,
332,7.20e-03,8.00e-02,
333,-8.00e-03,6.00e-02,
334,-1.00e-02,6.00e-02,
335,1.12e-02,8.00e-02,
336,-9.60e-03,6.00e-02,
337,8.40e-03,8.00e-02,
338,5.60e-03,8.00e-02,
339,-4.40e-03,6.00e-02,
340,-1.60e-03,6.00e-02,
341,3.20e-03,8.00e-02,
342,2.00e-03,6.00e-02,
343,0.00e+00,8.00e-02,
344,0.00e+00,8.00e-02,
345,1.20e-03,6.00e-02,
346,2.00e-03,8.00e-02,
347,0.00e+00,2.00e-02,
348,4.00e-04,8.00e-02,
349,2.00e-03,4.00e-02,
350,1.20e-03,8.00e-02,
351,-1.20e-03,2.00e-02,
352,-1.20e-03,8.00e-02,
353,3.60e-03,2.00e-02,
354,2.80e-03,4.00e-02,
355,7.20e-03,1.74e+00,
356,6.40e-03,1.60e-01,
357,8.00e-04,1.20e-01,
358,3.20e-03,1.40e-01,
359,0.00e+00,8.00e-02,
360,-8.00e-04,1.00e-01,
361,1.20e-03,8.00e-02,
362,-4.00e-04,1.00e-01,
363,2.40e-03,6.00e-02,
364,0.00e+00,6.00e-02,
365,2.40e-03,1.00e-01,
366,2.00e-03,6.00e-02,
367,-8.00e-04,8.00e-02,
368,2.40e-03,6.00e-02,
369,-1.60e-03,8.00e-02,
370,-3.60e-03,6.00e-02,
371,5.20e-03,8.00e-02,
372,7.20e-03,6.00e-02,
373,-7.20e-03,8.00e-02,
374,1.00e-02,6.00e-02,
375,-8.80e-03,8.00e-02,
376,-7.20e-03,6.00e-02,
377,7.60e-03,8.00e-02,
378,5.20e-03,8.00e-02,
379,-2.80e-03,6.00e-02,
380,-1.60e-03,6.00e-02,
381,2.40e-03,8.00e-02,
382,1.20e-03,8.00e-02,
383,-8.00e-04,4.00e-02,
384,1.20e-03,8.00e-02,
385,-8.00e-04,6.00e-02,
386,1.20e-03,8.00e-02,
387,0.00e+00,2.00e-02,
388,-8.00e-04,4.00e-02,
389,1.20e-03,8.00e-02,
390,-8.00e-04,8.00e-02,
391,1.60e-03,2.00e-02,
392,-2.40e-03,8.00e-02,
393,2.80e-03,2.00e-02,
394,2.80e-03,2.00e-02,
395,8.00e-03,1.88e+00,
396,6.80e-03,1.60e-01,
397,1.20e-03,1.20e-01,
398,3.60e-03,1.40e-01,
399,0.00e+00,8.00e-02,
400,2.00e-03,1.00e-01,
401,-8.00e-04,8.00e-02,
402,1.20e-03,1.00e-01,
403,0.00e+00,6.00e-02,
404,-8.00e-04,1.00e-01,
405,1.20e-03,6.00e-02,
406,1.20e-03,6.00e-02,
407,0.00e+00,1.00e-01,
408,2.40e-03,6.00e-02,
409,-1.60e-03,8.00e-02,
410,-2.80e-03,6.00e-02,
411,4.00e-03,8.00e-02,
412,6.00e-03,8.00e-02,
413,-6.40e-03,6.00e-02,
414,-9.60e-03,6.00e-02,
415,1.08e-02,8.00e-02,
416,-6.80e-03,6.00e-02,
417,8.00e-03,8.00e-02,
418,5.20e-03,8.00e-02,
419,-2.80e-03,6.00e-02,
420,-2.40e-03,6.00e-02,
421,2.40e-03,8.00e-02,
422,1.20e-03,6.00e-02,
423,-8.00e-04,8.00e-02,
424,-8.00e-04,6.00e-02,
425,1.20e-03,8.00e-02,
426,2.00e-03,8.00e-02,
427,-8.00e-04,6.00e-02,
428,0.00e+00,8.00e-02,
429,1.20e-03,6.00e-02,
430,2.00e-03,8.00e-02,
431,-8.00e-04,2.00e-02,
432,2.80e-03,8.00e-02,
433,-2.40e-03,2.00e-02,
434,2.00e-03,4.00e-02,
435,7.20e-03,1.92e+00,
436,6.40e-03,1.60e-01,
437,4.00e-04,1.20e-01,
438,3.60e-03,1.40e-01,
439,-4.00e-04,8.00e-02,
440,2.40e-03,8.00e-02,
441,-8.00e-04,1.00e-01,
442,2.00e-03,1.00e-01,
443,-8.00e-04,6.00e-02,
444,-8.00e-04,1.00e-01,
445,2.00e-03,6.00e-02,
446,0.00e+00,6.00e-02,
447,2.00e-03,1.00e-01,
448,2.00e-03,6.00e-02,
449,-1.20e-03,8.00e-02,
450,-2.40e-03,6.00e-02,
451,4.40e-03,8.00e-02,
452,5.60e-03,8.00e-02,
453,-6.00e-03,6.00e-02,
454,-8.40e-03,6.00e-02,
455,9.60e-03,8.00e-02,
456,-7.20e-03,8.00e-02,
457,6.80e-03,6.00e-02,
458,4.80e-03,6.00e-02,
459,-3.60e-03,8.00e-02,
460,-1.60e-03,6.00e-02,
461,2.40e-03,8.00e-02,
462,2.00e-03,6.00e-02,
463,0.00e+00,8.00e-02,
464,2.00e-03,8.00e-02,
465,-8.00e-04,4.00e-02,
466,2.00e-03,8.00e-02,
467,0.00e+00,2.00e-02,
468,-8.00e-04,8.00e-02,
469,1.20e-03,2.00e-02,
470,2.00e-03,8.00e-02,
471,-8.00e-04,2.00e-02,
472,-1.60e-03,8.00e-02,
473,3.20e-03,2.00e-02,
474,3.20e-03,4.00e-02,
475,7.60e-03,1.82e+00,
476,6.80e-03,1.60e-01,
477,4.00e-04,1.20e-01,
478,3.60e-03,1.40e-01,
479,-8.00e-04,8.00e-02,
480,0.00e+00,1.00e-01,
481,2.00e-03,8.00e-02,
482,2.00e-03,1.00e-01,
483,-8.00e-04,6.00e-02,
484,0.00e+00,1.00e-01,
485,2.00e-03,6.00e-02,
486,0.00e+00,6.00e-02,
487,1.60e-03,8.00e-02,
488,2.00e-03,8.00e-02,
489,-1.60e-03,6.00e-02,
490,-2.40e-03,6.00e-02,
491,4.00e-03,8.00e-02,
492,6.40e-03,6.00e-02,
493,-6.80e-03,8.00e-02,
494,-8.40e-03,6.00e-02,
495,8.40e-03,8.00e-02,
496,-6.00e-03,6.00e-02,
497,6.40e-03,8.00e-02,
498,4.00e-03,6.00e-02,
499,-2.80e-03,8.00e-02,
500,-1.60e-03,6.00e-02,
501,2.40e-03,8.00e-02,
502,2.00e-03,8.00e-02,
503,0.00e+00,2.00e-02,
504,1.20e-03,8.00e-02,
505,-8.00e-04,2.00e-02,
506,2.00e-03,8.00e-02,
507,-8.00e-04,2.00e-02,
508,0.00e+00,8.00e-02,
509,1.60e-03,2.00e-02,
510,2.00e-03,4.00e-02,
511,-1.20e-03,8.00e-02,
512,-2.40e-03,8.00e-02,
513,2.80e-03,2.00e-02,
514,2.80e-03,2.00e-02,
515,7.60e-03,1.92e+00,
516,6.80e-03,1.60e-01,
517,8.00e-04,1.20e-01,
518,3.60e-03,8.00e-02,
519,0.00e+00,1.40e-01,
520,2.00e-03,1.00e-01,
521,0.00e+00,8.00e-02,
522,2.00e-03,1.00e-01,
523,-8.00e-04,6.00e-02,
524,-8.00e-04,1.00e-01,
525,1.20e-03,6.00e-02,
526,1.20e-03,6.00e-02,
527,-8.00e-04,8.00e-02,
528,2.00e-03,6.00e-02,
529,-1.20e-03,8.00e-02,
530,-2.40e-03,6.00e-02,
531,4.00e-03,8.00e-02,
532,5.20e-03,8.00e-02,
533,-5.60e-03,6.00e-02,
534,8.00e-03,8.00e-02,
535,-6.80e-03,6.00e-02,
536,-5.60e-03,6.00e-02,
537,5.60e-03,8.00e-02,
538,4.40e-03,8.00e-02,
539,-2.40e-03,6.00e-02,
540,-1.20e-03,6.00e-02,
541,2.40e-03,8.00e-02,
542,2.00e-03,8.00e-02,
543,-8.00e-04,6.00e-02,
544,-4.00e-04,6.00e-02,
545,1.60e-03,8.00e-02,
546,2.00e-03,8.00e-02,
547,-8.00e-04,4.00e-02,
548,-8.00e-04,8.00e-02,
549,1.20e-03,4.00e-02,
550,2.00e-03,8.00e-02,
551,-1.20e-03,2.00e-02,
552,2.40e-03,8.00e-02,
553,-2.40e-03,2.00e-02,
554,2.80e-03,2.00e-02,
555,8.00e-03,1.94e+00,
556,6.80e-03,1.60e-01,
557,8.00e-04,1.20e-01,
558,4.00e-03,1.40e-01,
559,-8.00e-04,8.00e-02,
560,-8.00e-04,1.00e-01,
561,2.00e-03,8.00e-02,
562,2.40e-03,1.00e-01,
563,-8.00e-04,6.00e-02,
564,-1.20e-03,1.00e-01,
565,1.20e-03,6.00e-02,
566,1.60e-03,6.00e-02,
567,-4.00e-04,8.00e-02,
568,2.00e-03,6.00e-02,
569,-1.20e-03,8.00e-02,
570,-1.60e-03,8.00e-02,
571,4.00e-03,6.00e-02,
572,4.40e-03,6.00e-02,
573,-5.20e-03,8.00e-02,
574,8.00e-03,8.00e-02,
575,-6.80e-03,6.00e-02,
576,-6.00e-03,8.00e-02,
577,5.60e-03,6.00e-02,
578,4.80e-03,8.00e-02,
579,-2.40e-03,4.00e-02,
580,-1.20e-03,6.00e-02,
581,2.40e-03,8.00e-02,
582,2.00e-03,8.00e-02,
583,0.00e+00,6.00e-02,
584,-8.00e-04,8.00e-02,
585,2.00e-03,4.00e-02,
586,2.00e-03,8.00e-02,
587,0.00e+00,2.00e-02,
588,2.00e-03,8.00e-02,
589,-4.00e-04,4.00e-02,
590,2.00e-03,8.00e-02,
591,-8.00e-04,2.00e-02,
592,2.80e-03,4.00e-02,
593,-2.80e-03,8.00e-02,
594,3.20e-03,2.00e-02,
595,7.60e-03,1.80e+00,
596,6.80e-03,1.60e-01,
597,8.00e-04,1.20e-01,
598,4.00e-03,1.40e-01,
599,0.00e+00,8.00e-02,
600,-4.00e-04,8.00e-02,
601,2.00e-03,1.00e-01,
602,2.00e-03,1.00e-01,
603,-8.00e-04,6.00e-02,
604,-8.00e-04,1.00e-01,
605,2.00e-03,6.00e-02,
606,2.40e-03,6.00e-02,
607,0.00e+00,8.00e-02,
608,-8.00e-04,6.00e-02,
609,2.00e-03,8.00e-02,
610,-2.00e-03,6.00e-02,
611,4.00e-03,8.00e-02,
612,4.80e-03,8.00e-02,
613,-5.20e-03,6.00e-02,
614,6.80e-03,6.00e-02,
615,-6.00e-03,8.00e-02,
616,-5.20e-03,6.00e-02,
617,5.20e-03,8.00e-02,
618,4.00e-03,6.00e-02,
619,-1.60e-03,8.00e-02,
620,-1.20e-03,6.00e-02,
621,2.00e-03,8.00e-02,
622,2.00e-03,6.00e-02,
623,0.00e+00,8.00e-02,
624,-8.00e-04,8.00e-02,
625,1.20e-03,4.00e-02,
626,2.00e-03,8.00e-02,
627,-8.00e-04,2.00e-02,
628,-8.00e-04,8.00e-02,
629,1.60e-03,2.00e-02,
630,2.40e-03,8.00e-02,
631,-1.20e-03,2.00e-02,
632,3.20e-03,8.00e-02,
633,-2.40e-03,2.00e-02,
634,3.60e-03,2.00e-02,
635,8.00e-03,1.92e+00,
636,6.80e-03,1.60e-01,
637,8.00e-04,1.20e-01,
638,4.00e-03,1.40e-01,
639,0.00e+00,8.00e-02,
640,0.00e+00,8.00e-02,
641,2.80e-03,1.00e-01,
642,2.40e-03,1.00e-01,
643,0.00e+00,6.00e-02,
644,0.00e+00,1.00e-01,
645,2.40e-03,6.00e-02,
646,1.20e-03,6.00e-02,
647,0.00e+00,8.00e-02,
648,0.00e+00,6.00e-02,
649,2.40e-03,8.00e-02,
650,-1.60e-03,6.00e-02,
651,3.60e-03,8.00e-02,
652,4.80e-03,6.00e-02,
653,-4.40e-03,8.00e-02,
654,-5.60e-03,6.00e-02,
655,6.80e-03,8.00e-02,
656,-5.20e-03,8.00e-02,
657,4.40e-03,6.00e-02,
658,3.60e-03,6.00e-02,
659,-1.60e-03,8.00e-02,
660,-1.20e-03,8.00e-02,
661,2.40e-03,2.00e-02,
662,2.00e-03,8.00e-02,
663,-8.00e-04,6.00e-02,
664,-1.20e-03,8.00e-02,
665,1.20e-03,4.00e-02,
666,0.00e+00,8.00e-02,
667,2.40e-03,2.00e-02,
668,1.60e-03,8.00e-02,
669,-1.20e-03,2.00e-02,
670,-8.00e-04,8.00e-02,
671,2.40e-03,2.00e-02,
672,2.80e-03,8.00e-02,
673,-2.80e-03,2.00e-02,
674,2.80e-03,2.00e-02,
675,7.20e-03,1.94e+00,
676,6.80e-03,1.60e-01,
677,8.00e-04,1.20e-01,
678,4.00e-03,1.40e-01,
679,0.00e+00,8.00e-02,
680,0.00e+00,1.00e-01,
681,2.80e-03,8.00e-02,
682,2.40e-03,1.00e-01,
683,-8.00e-04,6.00e-02,
684,0.00e+00,1.00e-01,
685,2.00e-03,6.00e-02,
686,1.20e-03,6.00e-02,
687,-4.00e-04,8.00e-02,
688,-8.00e-04,6.00e-02,
689,2.00e-03,8.00e-02,
690,-1.60e-03,6.00e-02,
691,2.80e-03,8.00e-02,
692,4.00e-03,6.00e-02,
693,-4.00e-03,8.00e-02,
694,-5.20e-03,6.00e-02,
695,6.40e-03,8.00e-02,
696,-4.40e-03,6.00e-02,
697,5.20e-03,8.00e-02,
698,3.60e-03,6.00e-02,
699,-1.60e-03,8.00e-02,
700,-1.20e-03,6.00e-02,
701,2.00e-03,8.00e-02,
702,1.60e-03,8.00e-02,
703,-4.00e-04,2.00e-02,
704,1.20e-03,8.00e-02,
705,-4.00e-04,2.00e-02,
706,-4.00e-04,8.00e-02,
707,2.40e-03,2.00e-02,
708,-8.00e-04,8.00e-02,
709,1.60e-03,2.00e-02,
710,-8.00e-04,8.00e-02,
711,2.40e-03,2.00e-02,
712,2.80e-03,2.00e-02,
713,-3.20e-03,8.00e-02,
714,2.80e-03,1.94e+00,
715,7.60e-03,0.00e+00,
716,6.80e-03,1.60e-01,
717,8.00e-04,1.20e-01,
718,4.40e-03,1.40e-01,
719,-8.00e-04,8.00e-02,
720,2.00e-03,1.00e-01,
721,-1.20e-03,8.00e-02,
722,2.00e-03,1.00e-01,
723,-8.00e-04,6.00e-02,
724,-8.00e-04,1.00e-01,
725,1.20e-03,6.00e-02,
726,1.60e-03,6.00e-02,
727,-8.00e-04,8.00e-02,
728,2.40e-03,6.00e-02,
729,-8.00e-04,8.00e-02,
730,-2.00e-03,8.00e-02,
731,3.20e-03,6.00e-02,
732,4.40e-03,6.00e-02,
733,-4.00e-03,8.00e-02,
734,6.80e-03,8.00e-02,
735,-5.20e-03,6.00e-02,
736,-4.40e-03,8.00e-02,
737,4.80e-03,6.00e-02,
738,2.80e-03,6.00e-02,
739,-1.20e-03,8.00e-02,
740,-1.20e-03,6.00e-02,
741,1.60e-03,8.00e-02,
742,1.20e-03,6.00e-02,
743,0.00e+00,8.00e-02,
744,1.20e-03,8.00e-02,
745,-8.00e-04,4.00e-02,
746,1.20e-03,8.00e-02,
747,-4.00e-04,4.00e-02,
748,-1.20e-03,8.00e-02,
749,1.20e-03,2.00e-02,
750,-8.00e-04,8.00e-02,
751,2.40e-03,2.00e-02,
752,3.20e-03,2.00e-02,
753,-3.20e-03,8.00e-02,
754,2.00e-03,2.00e-02,
755,7.60e-03,1.84e+00,
756,6.80e-03,1.60e-01,
757,1.20e-03,1.20e-01,
758,4.80e-03,8.00e-02,
759,0.00e+00,1.40e-01,
760,-8.00e-04,1.00e-01,
761,2.40e-03,8.00e-02,
762,2.40e-03,1.00e-01,
763,0.00e+00,6.00e-02,
764,1.20e-03,6.00e-02,
765,-8.00e-04,1.00e-01,
766,1.20e-03,6.00e-02,
767,-8.00e-04,8.00e-02,
768,-8.00e-04,6.00e-02,
769,1.20e-03,8.00e-02,
770,-1.20e-03,8.00e-02,
771,2.80e-03,6.00e-02,
772,4.00e-03,8.00e-02,
773,-3.60e-03,6.00e-02,
774,5.20e-03,6.00e-02,
775,-4.80e-03,8.00e-02,
776,-4.00e-03,6.00e-02,
777,4.40e-03,8.00e-02,
778,2.80e-03,6.00e-02,
779,-1.60e-03,8.00e-02,
780,-1.20e-03,8.00e-02,
781,2.00e-03,4.00e-02,
782,2.00e-03,8.00e-02,
783,0.00e+00,4.00e-02,
784,-8.00e-04,4.00e-02,
785,1.20e-03,8.00e-02,
786,-8.00e-04,8.00e-02,
787,2.00e-03,2.00e-02,
788,-8.00e-04,8.00e-02,
789,2.40e-03,2.00e-02,
790,-1.20e-03,8.00e-02,
791,2.40e-03,2.00e-02,
792,3.60e-03,8.00e-02,
793,-2.80e-03,2.00e-02,
794,2.80e-03,2.00e-02,
795,8.00e-03,1.96e+00,
796,6.80e-03,1.60e-01,
797,1.20e-03,1.20e-01,
798,4.00e-03,1.40e-01,
799,-8.00e-04,8.00e-02,
800,-8.00e-04,1.00e-01,
801,2.40e-03,8.00e-02,
802,2.40e-03,1.00e-01,
803,-8.00e-04,6.00e-02,
804,1.20e-03,6.00e-02,
805,-8.00e-04,1.00e-01,
806,0.00e+00,8.00e-02,
807,2.00e-03,6.00e-02,
808,-8.00e-04,8.00e-02,
809,2.00e-03,6.00e-02,
810,-1.20e-03,6.00e-02,
811,2.80e-03,8.00e-02,
812,4.00e-03,6.00e-02,
813,-3.20e-03,8.00e-02,
814,-4.40e-03,6.00e-02,
815,6.40e-03,8.00e-02,
816,-4.00e-03,6.00e-02,
817,4.40e-03,8.00e-02,
818,3.60e-03,8.00e-02,
819,-1.60e-03,6.00e-02,
820,-8.00e-04,6.00e-02,
821,2.00e-03,8.00e-02,
822,0.00e+00,6.00e-02,
823,1.20e-03,8.00e-02,
824,-4.00e-04,8.00e-02,
825,2.00e-03,4.00e-02,
826,2.00e-03,8.00e-02,
827,0.00e+00,2.00e-02,
828,-8.00e-04,8.00e-02,
829,2.00e-03,2.00e-02,
830,2.40e-03,8.00e-02,
831,-8.00e-04,2.00e-02,
832,3.60e-03,8.00e-02,
833,-3.20e-03,2.00e-02,
834,2.80e-03,4.00e-02,
835,8.00e-03,1.72e+00,
836,6.80e-03,1.60e-01,
837,4.00e-04,1.20e-01,
838,4.80e-03,1.40e-01,
839,-8.00e-04,8.00e-02,
840,-1.20e-03,8.00e-02,
841,2.40e-03,1.00e-01,
842,2.40e-03,1.00e-01,
843,-8.00e-04,6.00e-02,
844,-8.00e-04,1.00e-01,
845,1.20e-03,6.00e-02,
846,2.00e-03,8.00e-02,
847,0.00e+00,6.00e-02,
848,1.20e-03,6.00e-02,
849,-1.20e-03,8.00e-02,
850,-1.60e-03,6.00e-02,
851,2.80e-03,8.00e-02,
852,2.80e-03,6.00e-02,
853,-3.20e-03,8.00e-02,
854,5.20e-03,8.00e-02,
855,-3.20e-03,6.00e-02,
856,-2.40e-03,8.00e-02,
