CarrPurc_P1-19_P2-38_tauVary/Gly90/NewFile2.csv

X,CH1,CH2,Start,Increment,
Sequence,Volt,Volt,-5.000000e-03,1.000000e-04
0,8.00e-04,4.00e-02,
1,0.00e+00,0.00e+00,
2,0.00e+00,4.00e-02,
3,1.20e-03,0.00e+00,
4,1.20e-03,4.00e-02,
5,-8.00e-04,2.00e-02,
6,0.00e+00,2.00e-02,
7,1.20e-03,4.00e-02,
8,4.00e-04,4.00e-02,
9,1.60e-03,0.00e+00,
10,0.00e+00,4.00e-02,
11,1.20e-03,2.00e-02,
12,4.00e-04,4.00e-02,
13,1.20e-03,0.00e+00,
14,4.00e-04,4.00e-02,
15,1.60e-03,0.00e+00,
16,1.20e-03,4.00e-02,
17,0.00e+00,0.00e+00,
18,8.00e-04,4.00e-02,
19,0.00e+00,0.00e+00,
20,8.00e-04,4.00e-02,
21,-8.00e-04,0.00e+00,
22,0.00e+00,4.00e-02,
23,1.20e-03,0.00e+00,
24,4.00e-04,4.00e-02,
25,1.20e-03,0.00e+00,
26,1.20e-03,4.00e-02,
27,4.00e-04,2.00e-02,
28,0.00e+00,4.00e-02,
29,1.20e-03,2.00e-02,
30,4.00e-04,4.00e-02,
31,1.20e-03,0.00e+00,
32,1.20e-03,4.00e-02,
33,0.00e+00,0.00e+00,
34,1.20e-03,4.00e-02,
35,-4.00e-04,2.00e-02,
36,1.20e-03,4.00e-02,
37,0.00e+00,0.00e+00,
38,1.20e-03,4.00e-02,
39,4.00e-04,2.00e-02,
40,1.20e-03,4.00e-02,
41,0.00e+00,0.00e+00,
42,0.00e+00,4.00e-02,
43,2.00e-03,2.00e-02,
44,8.00e-04,4.00e-02,
45,0.00e+00,2.00e-02,
46,8.00e-04,4.00e-02,
47,0.00e+00,2.00e-02,
48,8.00e-04,4.00e-02,
49,-8.00e-04,0.00e+00,
50,0.00e+00,4.00e-02,
51,1.20e-03,0.00e+00,
52,8.00e-04,2.00e-02,
53,0.00e+00,4.00e-02,
54,0.00e+00,1.88e+00,
55,5.20e-03,-6.00e-02,
56,5.20e-03,1.60e-01,
57,-2.80e-02,8.00e-02,
58,-1.44e-02,1.20e-01,
59,1.52e-02,8.00e-02,
60,6.80e-03,1.00e-01,
61,-8.00e-03,6.00e-02,
62,-2.80e-03,1.00e-01,
63,3.60e-03,6.00e-02,
64,-2.00e-03,6.00e-02,
65,3.60e-03,8.00e-02,
66,2.40e-03,6.00e-02,
67,-1.60e-03,8.00e-02,
68,-1.60e-03,8.00e-02,
69,2.00e-03,6.00e-02,
70,2.00e-03,6.00e-02,
71,-1.20e-03,8.00e-02,
72,-8.00e-04,8.00e-02,
73,2.40e-03,6.00e-02,
74,1.60e-03,1.98e+00,
75,7.60e-03,4.00e-02,
76,6.40e-03,1.60e-01,
77,-7.60e-03,8.00e-02,
78,-7.60e-03,1.20e-01,
79,5.60e-03,8.00e-02,
80,4.00e-03,1.00e-01,
81,-1.60e-03,8.00e-02,
82,0.00e+00,1.00e-01,
83,2.40e-03,6.00e-02,
84,-8.00e-04,8.00e-02,
85,2.40e-03,6.00e-02,
86,2.40e-03,6.00e-02,
87,-1.20e-03,8.00e-02,
88,-3.20e-03,8.00e-02,
89,5.60e-03,6.00e-02,
90,9.20e-03,6.00e-02,
91,-1.00e-02,8.00e-02,
92,-1.56e-02,6.00e-02,
93,2.08e-02,8.00e-02,
94,-2.08e-02,6.00e-02,
95,2.28e-02,8.00e-02,
96,-2.08e-02,6.00e-02,
97,1.76e-02,8.00e-02,
98,1.20e-02,6.00e-02,
99,-8.80e-03,8.00e-02,
100,-5.60e-03,8.00e-02,
101,4.80e-03,4.00e-02,
102,2.40e-03,8.00e-02,
103,-1.20e-03,4.00e-02,
104,1.60e-03,8.00e-02,
105,-1.20e-03,2.00e-02,
106,-1.20e-03,2.00e-02,
107,2.40e-03,8.00e-02,
108,1.60e-03,8.00e-02,
109,-1.20e-03,2.00e-02,
110,1.20e-03,2.00e-02,
111,-1.20e-03,8.00e-02,
112,-4.00e-04,6.00e-02,
113,1.20e-03,2.00e-02,
114,0.00e+00,2.00e-02,
115,6.80e-03,1.86e+00,
116,6.40e-03,1.60e-01,
117,4.00e-04,8.00e-02,
118,2.40e-03,1.40e-01,
119,-4.00e-04,8.00e-02,
120,-8.00e-04,1.00e-01,
121,2.00e-03,6.00e-02,
122,2.40e-03,1.00e-01,
123,-8.00e-04,6.00e-02,
124,1.60e-03,6.00e-02,
125,-8.00e-04,8.00e-02,
126,-8.00e-04,8.00e-02,
127,3.20e-03,6.00e-02,
128,-3.60e-03,6.00e-02,
129,4.80e-03,8.00e-02,
130,7.60e-03,6.00e-02,
131,-6.00e-03,8.00e-02,
132,1.12e-02,6.00e-02,
133,-1.32e-02,8.00e-02,
134,-1.48e-02,6.00e-02,
135,1.76e-02,8.00e-02,
136,-1.40e-02,6.00e-02,
137,1.20e-02,8.00e-02,
138,7.20e-03,8.00e-02,
139,-6.00e-03,4.00e-02,
140,-2.80e-03,8.00e-02,
141,4.00e-03,2.00e-02,
142,2.40e-03,8.00e-02,
143,-1.20e-03,2.00e-02,
144,2.40e-03,8.00e-02,
145,-8.00e-04,2.00e-02,
146,2.00e-03,8.00e-02,
147,-4.00e-04,2.00e-02,
148,-8.00e-04,2.00e-02,
149,2.00e-03,8.00e-02,
150,-1.60e-03,2.00e-02,
151,3.20e-03,6.00e-02,
152,-3.60e-03,2.00e-02,
153,6.40e-03,8.00e-02,
154,3.20e-03,2.00e-02,
155,7.60e-03,1.90e+00,
156,6.80e-03,1.60e-01,
157,8.00e-04,1.20e-01,
158,2.40e-03,1.40e-01,
159,-8.00e-04,8.00e-02,
160,1.20e-03,1.00e-01,
161,-8.00e-04,6.00e-02,
162,2.00e-03,1.00e-01,
163,-8.00e-04,6.00e-02,
164,-1.60e-03,6.00e-02,
165,2.00e-03,8.00e-02,
166,2.40e-03,6.00e-02,
167,-8.00e-04,8.00e-02,
168,3.60e-03,6.00e-02,
169,-2.80e-03,8.00e-02,
170,-4.40e-03,8.00e-02,
171,8.00e-03,6.00e-02,
172,1.24e-02,6.00e-02,
173,-1.36e-02,8.00e-02,
174,1.64e-02,6.00e-02,
175,-1.64e-02,8.00e-02,
176,-1.40e-02,8.00e-02,
177,1.16e-02,4.00e-02,
178,9.20e-03,8.00e-02,
179,-6.00e-03,4.00e-02,
180,-4.00e-03,8.00e-02,
181,3.20e-03,4.00e-02,
182,-1.20e-03,8.00e-02,
183,2.00e-03,2.00e-02,
184,2.00e-03,8.00e-02,
185,-1.20e-03,2.00e-02,
186,2.40e-03,8.00e-02,
187,-1.20e-03,2.00e-02,
188,8.00e-04,2.00e-02,
189,-8.00e-04,8.00e-02,
190,-1.60e-03,2.00e-02,
191,2.00e-03,8.00e-02,
192,-3.60e-03,2.00e-02,
193,5.20e-03,8.00e-02,
194,2.80e-03,2.00e-02,
195,7.20e-03,1.98e+00,
196,6.40e-03,1.60e-01,
197,-8.00e-04,8.00e-02,
198,-1.20e-03,8.00e-02,
199,3.60e-03,1.40e-01,
200,2.00e-03,1.00e-01,
201,0.00e+00,6.00e-02,
202,2.00e-03,1.00e-01,
203,-8.00e-04,6.00e-02,
204,2.40e-03,6.00e-02,
205,-1.20e-03,8.00e-02,
206,2.40e-03,6.00e-02,
207,-8.00e-04,8.00e-02,
208,-2.80e-03,8.00e-02,
209,3.20e-03,6.00e-02,
210,5.60e-03,6.00e-02,
211,-4.40e-03,8.00e-02,
212,7.60e-03,6.00e-02,
213,-9.20e-03,8.00e-02,
214,-1.40e-02,6.00e-02,
215,1.44e-02,8.00e-02,
216,-1.24e-02,6.00e-02,
217,1.16e-02,8.00e-02,
218,7.60e-03,8.00e-02,
219,-5.20e-03,6.00e-02,
220,-4.00e-03,8.00e-02,
221,3.60e-03,2.00e-02,
222,2.40e-03,8.00e-02,
223,-8.00e-04,2.00e-02,
224,-1.20e-03,8.00e-02,
225,2.00e-03,2.00e-02,
226,1.60e-03,8.00e-02,
227,0.00e+00,2.00e-02,
228,2.00e-03,2.00e-02,
229,0.00e+00,8.00e-02,
230,2.00e-03,8.00e-02,
231,-8.00e-04,2.00e-02,
232,-1.60e-03,8.00e-02,
233,4.00e-03,2.00e-02,
234,3.20e-03,2.00e-02,
235,8.00e-03,1.70e+00,
236,6.80e-03,1.60e-01,
237,-4.00e-04,1.20e-01,
238,-4.00e-04,8.00e-02,
239,2.80e-03,1.40e-01,
240,1.20e-03,1.00e-01,
241,-4.00e-04,6.00e-02,
242,2.00e-03,1.00e-01,
243,-8.00e-04,6.00e-02,
244,-8.00e-04,6.00e-02,
245,2.40e-03,8.00e-02,
246,2.40e-03,6.00e-02,
247,-8.00e-04,8.00e-02,
248,-2.80e-03,8.00e-02,
249,4.00e-03,6.00e-02,
250,-4.40e-03,8.00e-02,
251,6.80e-03,6.00e-02,
252,9.60e-03,6.00e-02,
253,-1.04e-02,8.00e-02,
254,1.28e-02,8.00e-02,
255,-1.32e-02,6.00e-02,
256,-1.08e-02,8.00e-02,
257,1.00e-02,6.00e-02,
258,6.00e-03,8.00e-02,
259,-4.00e-03,2.00e-02,
260,-2.00e-03,8.00e-02,
261,2.80e-03,4.00e-02,
262,2.00e-03,8.00e-02,
263,-8.00e-04,4.00e-02,
264,-8.00e-04,2.00e-02,
265,1.60e-03,8.00e-02,
266,2.00e-03,8.00e-02,
267,-8.00e-04,2.00e-02,
268,-8.00e-04,2.00e-02,
269,1.20e-03,8.00e-02,
270,-8.00e-04,2.00e-02,
271,2.40e-03,8.00e-02,
272,-1.20e-03,6.00e-02,
273,3.60e-03,2.00e-02,
274,3.20e-03,2.00e-02,
275,7.60e-03,1.92e+00,
276,6.40e-03,1.60e-01,
277,0.00e+00,1.20e-01,
278,3.20e-03,1.20e-01,
279,-8.00e-04,8.00e-02,
280,-8.00e-04,1.00e-01,
281,1.20e-03,6.00e-02,
282,-4.00e-04,6.00e-02,
283,2.00e-03,1.00e-01,
284,2.00e-03,6.00e-02,
285,-8.00e-04,8.00e-02,
286,1.20e-03,6.00e-02,
287,-8.00e-04,8.00e-02,
288,3.20e-03,6.00e-02,
289,-1.60e-03,8.00e-02,
290,-2.80e-03,6.00e-02,
291,6.80e-03,8.00e-02,
292,9.20e-03,8.00e-02,
293,-9.20e-03,6.00e-02,
294,-1.16e-02,6.00e-02,
295,1.36e-02,8.00e-02,
296,-1.00e-02,8.00e-02,
297,9.60e-03,6.00e-02,
298,6.40e-03,8.00e-02,
299,-4.40e-03,6.00e-02,
300,-2.40e-03,8.00e-02,
301,3.60e-03,2.00e-02,
302,3.20e-03,4.00e-02,
303,0.00e+00,8.00e-02,
304,2.00e-03,8.00e-02,
305,-1.60e-03,2.00e-02,
306,-1.20e-03,2.00e-02,
307,2.00e-03,8.00e-02,
308,-8.00e-04,2.00e-02,
309,2.40e-03,6.00e-02,
310,2.00e-03,4.00e-02,
311,-1.60e-03,2.00e-02,
312,-2.40e-03,2.00e-02,
313,5.20e-03,4.00e-02,
314,3.60e-03,2.00e-02,
315,7.60e-03,1.94e+00,
316,6.80e-03,1.60e-01,
317,4.00e-04,1.00e-01,
318,3.20e-03,1.20e-01,
319,0.00e+00,8.00e-02,
320,2.00e-03,1.00e-01,
321,-8.00e-04,8.00e-02,
322,-8.00e-04,1.00e-01,
323,2.80e-03,6.00e-02,
324,-1.20e-03,8.00e-02,
325,2.00e-03,6.00e-02,
326,-8.00e-04,6.00e-02,
327,2.40e-03,8.00e-02,
328,2.40e-03,6.00e-02,
329,-2.40e-03,8.00e-02,
330,-4.00e-03,6.00e-02,
331,5.60e-03,8.00e-02,
332,8.40e-03,8.00e-02,
333,-8.80e-03,6.00e-02,
334,1.24e-02,6.00e-02,
335,-1.12e-02,8.00e-02,
336,-1.16e-02,6.00e-02,
337,9.20e-03,8.00e-02,
338,6.40e-03,8.00e-02,
339,-4.00e-03,6.00e-02,
340,-2.80e-03,8.00e-02,
341,2.80e-03,2.00e-02,
342,1.60e-03,8.00e-02,
343,-8.00e-04,2.00e-02,
344,0.00e+00,8.00e-02,
345,2.00e-03,4.00e-02,
346,2.00e-03,8.00e-02,
347,-8.00e-04,2.00e-02,
348,0.00e+00,8.00e-02,
349,1.20e-03,2.00e-02,
350,2.40e-03,8.00e-02,
351,-8.00e-04,2.00e-02,
352,-2.40e-03,8.00e-02,
353,4.00e-03,2.00e-02,
354,3.20e-03,2.00e-02,
355,7.20e-03,1.68e+00,
356,6.40e-03,1.60e-01,
357,1.20e-03,1.20e-01,
358,2.40e-03,1.40e-01,
359,-8.00e-04,8.00e-02,
360,2.00e-03,1.00e-01,
361,-8.00e-04,8.00e-02,
362,2.00e-03,1.00e-01,
363,0.00e+00,6.00e-02,
364,-8.00e-04,6.00e-02,
365,2.00e-03,1.00e-01,
366,-8.00e-04,6.00e-02,
367,2.00e-03,8.00e-02,
368,3.60e-03,6.00e-02,
369,-1.20e-03,8.00e-02,
370,-3.60e-03,6.00e-02,
371,5.60e-03,8.00e-02,
372,7.20e-03,6.00e-02,
373,-8.80e-03,8.00e-02,
374,-1.12e-02,6.00e-02,
375,1.08e-02,8.00e-02,
376,-1.00e-02,6.00e-02,
377,8.00e-03,8.00e-02,
378,5.20e-03,8.00e-02,
379,-2.80e-03,2.00e-02,
380,-1.20e-03,8.00e-02,
381,3.60e-03,4.00e-02,
382,2.80e-03,8.00e-02,
383,-8.00e-04,2.00e-02,
384,-4.00e-04,8.00e-02,
385,1.20e-03,2.00e-02,
386,2.00e-03,8.00e-02,
387,-8.00e-04,2.00e-02,
388,1.60e-03,2.00e-02,
389,-8.00e-04,8.00e-02,
390,-8.00e-04,8.00e-02,
391,2.40e-03,2.00e-02,
392,-2.80e-03,8.00e-02,
393,3.60e-03,2.00e-02,
394,3.20e-03,2.00e-02,
395,8.00e-03,1.96e+00,
396,6.80e-03,1.60e-01,
397,4.00e-04,1.20e-01,
398,3.60e-03,1.20e-01,
399,-8.00e-04,8.00e-02,
400,-8.00e-04,1.00e-01,
401,1.20e-03,8.00e-02,
402,2.00e-03,1.00e-01,
403,-1.20e-03,6.00e-02,
404,-8.00e-04,6.00e-02,
405,2.00e-03,1.00e-01,
406,2.40e-03,6.00e-02,
407,0.00e+00,8.00e-02,
408,2.40e-03,6.00e-02,
409,-1.60e-03,8.00e-02,
410,-2.80e-03,6.00e-02,
411,5.20e-03,8.00e-02,
412,7.20e-03,8.00e-02,
413,-7.60e-03,6.00e-02,
414,-9.60e-03,6.00e-02,
415,1.16e-02,8.00e-02,
416,-7.60e-03,6.00e-02,
417,8.00e-03,8.00e-02,
418,5.60e-03,8.00e-02,
419,-3.60e-03,4.00e-02,
420,-1.20e-03,8.00e-02,
421,2.80e-03,4.00e-02,
422,2.40e-03,8.00e-02,
423,0.00e+00,2.00e-02,
424,-8.00e-04,8.00e-02,
425,2.00e-03,2.00e-02,
426,2.00e-03,4.00e-02,
427,-8.00e-04,8.00e-02,
428,-1.20e-03,8.00e-02,
429,1.20e-03,2.00e-02,
430,2.00e-03,2.00e-02,
431,-1.20e-03,8.00e-02,
432,-2.40e-03,8.00e-02,
433,2.80e-03,2.00e-02,
434,2.80e-03,2.00e-02,
435,7.20e-03,1.86e+00,
436,6.40e-03,1.60e-01,
437,4.00e-04,1.20e-01,
438,4.80e-03,1.20e-01,
439,0.00e+00,8.00e-02,
440,-8.00e-04,1.00e-01,
441,2.40e-03,6.00e-02,
442,2.40e-03,1.00e-01,
443,-8.00e-04,6.00e-02,
444,-8.00e-04,6.00e-02,
445,2.00e-03,1.00e-01,
446,-8.00e-04,6.00e-02,
447,2.00e-03,8.00e-02,
448,2.40e-03,6.00e-02,
449,-1.60e-03,8.00e-02,
450,-3.20e-03,6.00e-02,
451,4.00e-03,8.00e-02,
452,6.80e-03,8.00e-02,
453,-6.80e-03,6.00e-02,
454,-1.00e-02,6.00e-02,
455,1.00e-02,8.00e-02,
456,-8.80e-03,8.00e-02,
457,7.20e-03,6.00e-02,
458,5.60e-03,6.00e-02,
459,-3.60e-03,8.00e-02,
460,-2.40e-03,8.00e-02,
461,2.80e-03,4.00e-02,
462,2.40e-03,8.00e-02,
463,0.00e+00,4.00e-02,
464,-8.00e-04,8.00e-02,
465,1.20e-03,4.00e-02,
466,1.60e-03,8.00e-02,
467,-8.00e-04,4.00e-02,
468,-8.00e-04,8.00e-02,
469,1.20e-03,2.00e-02,
470,-8.00e-04,8.00e-02,
471,1.60e-03,2.00e-02,
472,-1.60e-03,8.00e-02,
473,4.00e-03,2.00e-02,
474,3.60e-03,2.00e-02,
475,7.60e-03,1.68e+00,
476,6.80e-03,1.60e-01,
477,1.20e-03,1.20e-01,
478,3.60e-03,8.00e-02,
479,-8.00e-04,1.40e-01,
480,-1.20e-03,1.00e-01,
481,2.00e-03,8.00e-02,
482,2.00e-03,1.00e-01,
483,-1.20e-03,6.00e-02,
484,-1.60e-03,1.00e-01,
485,1.20e-03,6.00e-02,
486,1.20e-03,6.00e-02,
487,-8.00e-04,8.00e-02,
488,2.40e-03,8.00e-02,
489,-1.60e-03,6.00e-02,
490,-3.20e-03,6.00e-02,
491,5.20e-03,8.00e-02,
492,6.40e-03,6.00e-02,
493,-7.20e-03,8.00e-02,
494,-8.80e-03,6.00e-02,
495,9.20e-03,8.00e-02,
496,-7.60e-03,6.00e-02,
497,6.40e-03,8.00e-02,
498,5.20e-03,8.00e-02,
499,-2.00e-03,4.00e-02,
500,2.40e-03,8.00e-02,
501,-1.20e-03,4.00e-02,
502,2.00e-03,4.00e-02,
503,-8.00e-04,8.00e-02,
504,2.00e-03,8.00e-02,
505,-4.00e-04,2.00e-02,
506,1.20e-03,8.00e-02,
507,-1.20e-03,2.00e-02,
508,-1.20e-03,8.00e-02,
509,1.20e-03,2.00e-02,
510,2.00e-03,8.00e-02,
511,-4.00e-04,2.00e-02,
512,-2.40e-03,8.00e-02,
513,3.60e-03,2.00e-02,
514,3.60e-03,-8.00e-02,
515,7.60e-03,1.98e+00,
516,6.80e-03,1.60e-01,
517,4.00e-04,1.20e-01,
518,3.60e-03,8.00e-02,
519,-8.00e-04,1.20e-01,
520,-8.00e-04,1.00e-01,
521,2.00e-03,6.00e-02,
522,0.00e+00,1.00e-01,
523,2.40e-03,6.00e-02,
524,-8.00e-04,6.00e-02,
525,2.00e-03,8.00e-02,
526,2.00e-03,6.00e-02,
527,-4.00e-04,8.00e-02,
528,-1.20e-03,6.00e-02,
529,2.00e-03,8.00e-02,
530,-2.40e-03,6.00e-02,
531,4.00e-03,8.00e-02,
532,5.60e-03,8.00e-02,
533,-6.40e-03,6.00e-02,
534,-7.20e-03,8.00e-02,
535,8.40e-03,6.00e-02,
536,-6.00e-03,6.00e-02,
537,6.80e-03,8.00e-02,
538,4.80e-03,8.00e-02,
539,-3.60e-03,6.00e-02,
540,-1.20e-03,6.00e-02,
541,2.40e-03,8.00e-02,
542,2.00e-03,8.00e-02,
543,-8.00e-04,4.00e-02,
544,1.60e-03,8.00e-02,
545,-8.00e-04,2.00e-02,
546,2.00e-03,8.00e-02,
547,0.00e+00,2.00e-02,
548,-8.00e-04,4.00e-02,
549,2.40e-03,8.00e-02,
550,-8.00e-04,2.00e-02,
551,2.40e-03,8.00e-02,
552,2.80e-03,8.00e-02,
553,-2.80e-03,2.00e-02,
554,2.80e-03,2.00e-02,
555,8.00e-03,1.90e+00,
556,6.80e-03,1.60e-01,
557,8.00e-04,1.20e-01,
558,4.00e-03,1.40e-01,
559,-8.00e-04,8.00e-02,
560,2.40e-03,1.00e-01,
561,-8.00e-04,8.00e-02,
562,2.40e-03,1.00e-01,
563,-8.00e-04,6.00e-02,
564,-8.00e-04,1.00e-01,
565,2.00e-03,6.00e-02,
566,1.60e-03,6.00e-02,
567,-8.00e-04,8.00e-02,
568,2.40e-03,6.00e-02,
569,-1.60e-03,8.00e-02,
570,-2.40e-03,8.00e-02,
571,4.80e-03,6.00e-02,
572,5.60e-03,6.00e-02,
573,-6.00e-03,8.00e-02,
574,-7.20e-03,8.00e-02,
575,8.40e-03,6.00e-02,
576,-6.00e-03,8.00e-02,
577,6.40e-03,6.00e-02,
578,4.80e-03,6.00e-02,
579,-2.40e-03,8.00e-02,
580,-1.60e-03,8.00e-02,
581,2.40e-03,4.00e-02,
582,-4.00e-04,8.00e-02,
583,2.00e-03,6.00e-02,
584,0.00e+00,8.00e-02,
585,2.00e-03,2.00e-02,
586,0.00e+00,8.00e-02,
587,2.40e-03,2.00e-02,
588,-8.00e-04,8.00e-02,
589,2.00e-03,2.00e-02,
590,2.00e-03,8.00e-02,
591,-1.60e-03,2.00e-02,
592,-3.20e-03,2.00e-02,
593,3.20e-03,8.00e-02,
594,3.20e-03,2.00e-02,
595,7.20e-03,1.92e+00,
596,6.80e-03,1.60e-01,
597,8.00e-04,1.20e-01,
598,4.00e-03,1.40e-01,
599,-8.00e-04,8.00e-02,
600,2.00e-03,8.00e-02,
601,-8.00e-04,1.00e-01,
602,-1.20e-03,1.00e-01,
603,2.40e-03,6.00e-02,
604,-8.00e-04,6.00e-02,
605,2.00e-03,8.00e-02,
606,-8.00e-04,6.00e-02,
607,2.00e-03,8.00e-02,
608,2.00e-03,6.00e-02,
609,-1.60e-03,8.00e-02,
610,-2.40e-03,6.00e-02,
611,4.00e-03,8.00e-02,
612,6.40e-03,8.00e-02,
613,-5.20e-03,6.00e-02,
614,8.40e-03,6.00e-02,
615,-6.00e-03,8.00e-02,
616,-6.00e-03,8.00e-02,
617,6.00e-03,4.00e-02,
618,4.00e-03,8.00e-02,
619,-1.60e-03,4.00e-02,
620,-1.60e-03,8.00e-02,
621,2.00e-03,4.00e-02,
622,2.00e-03,8.00e-02,
623,-4.00e-04,2.00e-02,
624,1.60e-03,8.00e-02,
625,-8.00e-04,2.00e-02,
626,2.40e-03,2.00e-02,
627,-8.00e-04,8.00e-02,
628,2.40e-03,8.00e-02,
629,-8.00e-04,2.00e-02,
630,2.00e-03,8.00e-02,
631,-1.20e-03,2.00e-02,
632,-3.60e-03,2.00e-02,
633,3.20e-03,8.00e-02,
634,2.80e-03,2.00e-02,
635,8.00e-03,2.00e+00,
636,6.80e-03,1.60e-01,
637,4.00e-04,1.00e-01,
638,4.00e-03,8.00e-02,
639,-8.00e-04,1.40e-01,
640,-8.00e-04,8.00e-02,
641,2.80e-03,1.00e-01,
642,2.40e-03,1.00e-01,
643,-8.00e-04,6.00e-02,
644,-8.00e-04,6.00e-02,
645,1.60e-03,8.00e-02,
646,1.20e-03,6.00e-02,
647,-8.00e-04,8.00e-02,
648,1.60e-03,6.00e-02,
649,-1.60e-03,8.00e-02,
650,-1.60e-03,6.00e-02,
651,3.60e-03,8.00e-02,
652,5.20e-03,6.00e-02,
653,-4.40e-03,8.00e-02,
654,7.20e-03,6.00e-02,
655,-6.80e-03,8.00e-02,
656,-5.20e-03,8.00e-02,
657,5.20e-03,6.00e-02,
658,3.60e-03,6.00e-02,
659,-2.40e-03,8.00e-02,
660,-1.60e-03,8.00e-02,
661,2.00e-03,4.00e-02,
662,-8.00e-04,8.00e-02,
663,2.00e-03,4.00e-02,
664,2.00e-03,2.00e-02,
665,-8.00e-04,8.00e-02,
666,-8.00e-04,8.00e-02,
667,2.00e-03,2.00e-02,
668,-1.20e-03,8.00e-02,
669,1.60e-03,2.00e-02,
670,2.40e-03,2.00e-02,
671,-1.20e-03,8.00e-02,
672,2.80e-03,2.00e-02,
673,-3.60e-03,8.00e-02,
674,3.20e-03,2.00e-02,
675,7.60e-03,1.80e+00,
676,6.80e-03,1.60e-01,
677,8.00e-04,1.20e-01,
678,4.00e-03,1.40e-01,
679,-1.60e-03,8.00e-02,
680,-8.00e-04,1.00e-01,
681,2.40e-03,6.00e-02,
682,2.40e-03,1.00e-01,
683,-8.00e-04,6.00e-02,
684,0.00e+00,6.00e-02,
685,2.00e-03,1.00e-01,
686,2.00e-03,6.00e-02,
687,0.00e+00,8.00e-02,
688,2.40e-03,6.00e-02,
689,-8.00e-04,8.00e-02,
690,-2.40e-03,6.00e-02,
691,3.60e-03,8.00e-02,
692,4.80e-03,6.00e-02,
693,-4.40e-03,8.00e-02,
694,-6.00e-03,6.00e-02,
695,6.80e-03,8.00e-02,
696,-5.20e-03,6.00e-02,
697,6.00e-03,8.00e-02,
698,4.80e-03,6.00e-02,
699,-1.60e-03,8.00e-02,
700,-1.60e-03,8.00e-02,
701,2.40e-03,4.00e-02,
702,2.00e-03,6.00e-02,
703,0.00e+00,8.00e-02,
704,-8.00e-04,8.00e-02,
705,1.20e-03,4.00e-02,
706,2.00e-03,8.00e-02,
707,-8.00e-04,4.00e-02,
708,-1.20e-03,2.00e-02,
709,1.60e-03,8.00e-02,
710,-1.60e-03,8.00e-02,
711,2.40e-03,2.00e-02,
712,3.20e-03,8.00e-02,
713,-3.20e-03,2.00e-02,
714,2.80e-03,2.00e-02,
715,7.20e-03,1.72e+00,
716,6.80e-03,1.60e-01,
717,8.00e-04,1.20e-01,
718,4.40e-03,8.00e-02,
719,-8.00e-04,1.40e-01,
720,-1.20e-03,1.00e-01,
721,2.40e-03,8.00e-02,
722,3.20e-03,1.00e-01,
723,-8.00e-04,6.00e-02,
724,-8.00e-04,6.00e-02,
725,2.40e-03,8.00e-02,
726,-1.20e-03,6.00e-02,
727,1.60e-03,8.00e-02,
728,-8.00e-04,6.00e-02,
729,2.80e-03,8.00e-02,
730,-1.60e-03,8.00e-02,
731,3.60e-03,6.00e-02,
732,4.80e-03,6.00e-02,
733,-4.40e-03,8.00e-02,
734,-6.00e-03,8.00e-02,
735,7.60e-03,6.00e-02,
736,-5.60e-03,8.00e-02,
737,4.80e-03,6.00e-02,
738,3.60e-03,6.00e-02,
739,-1.60e-03,8.00e-02,
740,-8.00e-04,6.00e-02,
741,2.00e-03,8.00e-02,
742,2.40e-03,8.00e-02,
743,0.00e+00,4.00e-02,
744,-8.00e-04,8.00e-02,
745,1.60e-03,2.00e-02,
746,2.40e-03,8.00e-02,
747,-8.00e-04,2.00e-02,
748,2.00e-03,8.00e-02,
749,-1.20e-03,2.00e-02,
750,-8.00e-04,8.00e-02,
751,2.80e-03,2.00e-02,
752,3.20e-03,2.00e-02,
753,-2.80e-03,8.00e-02,
754,3.20e-03,1.84e+00,
755,8.00e-03,0.00e+00,
756,6.80e-03,1.60e-01,
757,4.00e-04,1.20e-01,
758,4.80e-03,1.20e-01,
759,-8.00e-04,8.00e-02,
760,2.40e-03,1.00e-01,
761,-1.20e-03,6.00e-02,
762,-1.60e-03,1.00e-01,
763,2.00e-03,6.00e-02,
764,2.00e-03,6.00e-02,
765,-8.00e-04,8.00e-02,
766,2.00e-03,6.00e-02,
767,0.00e+00,8.00e-02,
768,2.00e-03,6.00e-02,
769,-8.00e-04,8.00e-02,
770,-1.20e-03,8.00e-02,
771,3.20e-03,6.00e-02,
772,4.40e-03,8.00e-02,
773,-4.00e-03,6.00e-02,
774,6.80e-03,6.00e-02,
775,-4.80e-03,8.00e-02,
776,-4.40e-03,6.00e-02,
777,5.20e-03,8.00e-02,
778,4.00e-03,8.00e-02,
779,-1.60e-03,2.00e-02,
780,-8.00e-04,8.00e-02,
781,2.40e-03,4.00e-02,
782,2.00e-03,8.00e-02,
783,-8.00e-04,2.00e-02,
784,1.20e-03,2.00e-02,
785,-4.00e-04,8.00e-02,
786,-8.00e-04,2.00e-02,
787,2.40e-03,8.00e-02,
788,2.40e-03,8.00e-02,
789,-1.20e-03,2.00e-02,
790,-1.20e-03,2.00e-02,
791,2.40e-03,6.00e-02,
792,3.20e-03,2.00e-02,
793,-4.00e-03,6.00e-02,
794,2.00e-03,2.00e-02,
795,8.00e-03,2.00e+00,
796,6.40e-03,1.60e-01,
797,4.00e-04,1.20e-01,
798,4.80e-03,1.40e-01,
799,-1.20e-03,8.00e-02,
800,-8.00e-04,1.00e-01,
801,2.40e-03,8.00e-02,
802,2.40e-03,1.00e-01,
803,-8.00e-04,6.00e-02,
804,2.00e-03,6.00e-02,
805,-4.00e-04,8.00e-02,
806,2.00e-03,8.00e-02,
807,-4.00e-04,6.00e-02,
808,2.00e-03,8.00e-02,
809,-8.00e-04,6.00e-02,
810,-1.60e-03,6.00e-02,
811,3.60e-03,8.00e-02,
812,3.60e-03,6.00e-02,
813,-4.00e-03,8.00e-02,
814,-5.20e-03,6.00e-02,
815,6.40e-03,8.00e-02,
816,-3.20e-03,6.00e-02,
817,5.20e-03,8.00e-02,
818,3.60e-03,8.00e-02,
819,-1.20e-03,6.00e-02,
820,-8.00e-04,6.00e-02,
821,2.40e-03,8.00e-02,
822,0.00e+00,8.00e-02,
823,2.00e-03,2.00e-02,
824,-8.00e-04,8.00e-02,
825,1.60e-03,4.00e-02,
826,2.40e-03,2.00e-02,
827,4.00e-04,8.00e-02,
828,-8.00e-04,2.00e-02,
829,2.40e-03,8.00e-02,
830,-1.20e-03,8.00e-02,
831,2.80e-03,4.00e-02,
832,4.00e-03,8.00e-02,
833,-3.20e-03,2.00e-02,
834,2.80e-03,2.00e-02,
835,8.00e-03,1.90e+00,
836,6.80e-03,1.80e-01,
837,4.00e-04,1.20e-01,
838,4.80e-03,1.40e-01,
839,-1.20e-03,8.00e-02,
840,-8.00e-04,8.00e-02,
841,2.80e-03,1.00e-01,
842,2.80e-03,1.00e-01,
843,0.00e+00,6.00e-02,
844,-8.00e-04,1.00e-01,
845,1.60e-03,6.00e-02,
846,2.00e-03,6.00e-02,
847,0.00e+00,1.00e-01,
848,2.00e-03,6.00e-02,
849,-1.20e-03,8.00e-02,
850,-1.60e-03,6.00e-02,
851,3.60e-03,8.00e-02,
852,4.00e-03,6.00e-02,
853,-2.80e-03,8.00e-02,
854,5.60e-03,8.00e-02,
855,-4.40e-03,6.00e-02,
