CarrPurc_P1-19_P2-38_tauVary/Gly90/NewFile8.csv

X,CH1,CH2,Start,Increment,
Sequence,Volt,Volt,-5.000000e-03,1.000000e-04
0,8.00e-04,4.00e-02,
1,0.00e+00,2.00e-02,
2,0.00e+00,4.00e-02,
3,8.00e-04,2.00e-02,
4,0.00e+00,4.00e-02,
5,1.60e-03,2.00e-02,
6,1.20e-03,2.00e-02,
7,4.00e-04,4.00e-02,
8,1.20e-03,4.00e-02,
9,4.00e-04,2.00e-02,
10,0.00e+00,4.00e-02,
11,1.20e-03,2.00e-02,
12,0.00e+00,4.00e-02,
13,1.20e-03,2.00e-02,
14,4.00e-04,4.00e-02,
15,1.60e-03,2.00e-02,
16,1.20e-03,4.00e-02,
17,4.00e-04,0.00e+00,
18,1.20e-03,4.00e-02,
19,0.00e+00,2.00e-02,
20,0.00e+00,2.00e-02,
21,1.20e-03,4.00e-02,
22,1.20e-03,4.00e-02,
23,0.00e+00,0.00e+00,
24,4.00e-04,4.00e-02,
25,1.20e-03,0.00e+00,
26,8.00e-04,4.00e-02,
27,0.00e+00,2.00e-02,
28,8.00e-04,4.00e-02,
29,0.00e+00,2.00e-02,
30,1.20e-03,2.00e-02,
31,0.00e+00,4.00e-02,
32,1.20e-03,4.00e-02,
33,0.00e+00,2.00e-02,
34,1.20e-03,4.00e-02,
35,0.00e+00,2.00e-02,
36,0.00e+00,4.00e-02,
37,8.00e-04,2.00e-02,
38,0.00e+00,4.00e-02,
39,1.20e-03,2.00e-02,
40,4.00e-04,2.00e-02,
41,1.20e-03,4.00e-02,
42,1.20e-03,4.00e-02,
43,4.00e-04,2.00e-02,
44,4.00e-04,4.00e-02,
45,1.20e-03,2.00e-02,
46,0.00e+00,4.00e-02,
47,1.20e-03,2.00e-02,
48,8.00e-04,4.00e-02,
49,0.00e+00,2.00e-02,
50,1.20e-03,4.00e-02,
51,4.00e-04,2.00e-02,
52,8.00e-04,2.00e-02,
53,0.00e+00,4.00e-02,
54,0.00e+00,1.88e+00,
55,5.20e-03,-2.00e-02,
56,5.20e-03,1.60e-01,
57,-2.76e-02,1.20e-01,
58,1.60e-02,8.00e-02,
59,-1.40e-02,1.20e-01,
60,7.20e-03,1.00e-01,
61,-7.60e-03,6.00e-02,
62,-2.40e-03,1.00e-01,
63,4.00e-03,6.00e-02,
64,-1.60e-03,6.00e-02,
65,2.80e-03,8.00e-02,
66,3.60e-03,6.00e-02,
67,-8.00e-04,8.00e-02,
68,-8.00e-04,8.00e-02,
69,2.40e-03,6.00e-02,
70,2.40e-03,6.00e-02,
71,-1.20e-03,8.00e-02,
72,-8.00e-04,8.00e-02,
73,2.00e-03,6.00e-02,
74,8.00e-04,6.00e-02,
75,6.80e-03,1.88e+00,
76,6.40e-03,1.60e-01,
77,-7.20e-03,1.20e-01,
78,-7.20e-03,1.20e-01,
79,6.00e-03,8.00e-02,
80,3.60e-03,1.00e-01,
81,-1.60e-03,8.00e-02,
82,2.40e-03,1.00e-01,
83,0.00e+00,6.00e-02,
84,-8.00e-04,1.00e-01,
85,2.40e-03,6.00e-02,
86,2.00e-03,6.00e-02,
87,-4.00e-04,8.00e-02,
88,-2.40e-03,8.00e-02,
89,5.60e-03,6.00e-02,
90,8.40e-03,6.00e-02,
91,-9.20e-03,8.00e-02,
92,-1.48e-02,6.00e-02,
93,1.72e-02,8.00e-02,
94,-2.00e-02,6.00e-02,
95,2.16e-02,8.00e-02,
96,-1.80e-02,6.00e-02,
97,1.68e-02,8.00e-02,
98,1.12e-02,6.00e-02,
99,-8.40e-03,8.00e-02,
100,-5.20e-03,8.00e-02,
101,4.80e-03,6.00e-02,
102,2.80e-03,6.00e-02,
103,-1.20e-03,8.00e-02,
104,2.00e-03,8.00e-02,
105,-8.00e-04,4.00e-02,
106,-1.20e-03,8.00e-02,
107,1.60e-03,2.00e-02,
108,2.40e-03,2.00e-02,
109,-8.00e-04,8.00e-02,
110,-4.00e-04,2.00e-02,
111,2.00e-03,8.00e-02,
112,1.20e-03,8.00e-02,
113,0.00e+00,2.00e-02,
114,4.00e-04,2.00e-02,
115,7.20e-03,2.00e+00,
116,6.40e-03,1.60e-01,
117,1.20e-03,1.20e-01,
118,2.40e-03,1.40e-01,
119,4.00e-04,8.00e-02,
120,-8.00e-04,8.00e-02,
121,1.20e-03,1.00e-01,
122,2.00e-03,1.00e-01,
123,-8.00e-04,6.00e-02,
124,-8.00e-04,6.00e-02,
125,1.20e-03,1.00e-01,
126,2.40e-03,8.00e-02,
127,-1.20e-03,6.00e-02,
128,-3.60e-03,6.00e-02,
129,4.80e-03,8.00e-02,
130,-5.60e-03,6.00e-02,
131,7.60e-03,8.00e-02,
132,1.16e-02,6.00e-02,
133,-1.28e-02,8.00e-02,
134,-1.60e-02,6.00e-02,
135,1.60e-02,8.00e-02,
136,-1.40e-02,6.00e-02,
137,1.16e-02,8.00e-02,
138,8.00e-03,8.00e-02,
139,-5.60e-03,6.00e-02,
140,-3.20e-03,8.00e-02,
141,3.60e-03,4.00e-02,
142,-8.00e-04,8.00e-02,
143,2.40e-03,4.00e-02,
144,-1.20e-03,8.00e-02,
145,2.40e-03,4.00e-02,
146,-8.00e-04,8.00e-02,
147,2.00e-03,2.00e-02,
148,1.20e-03,8.00e-02,
149,-8.00e-04,2.00e-02,
150,2.40e-03,2.00e-02,
151,-2.40e-03,8.00e-02,
152,-3.60e-03,2.00e-02,
153,5.20e-03,8.00e-02,
154,2.80e-03,2.00e-02,
155,7.20e-03,1.94e+00,
156,6.40e-03,1.60e-01,
157,1.20e-03,1.20e-01,
158,2.80e-03,1.40e-01,
159,0.00e+00,8.00e-02,
160,1.20e-03,1.00e-01,
161,-8.00e-04,8.00e-02,
162,0.00e+00,1.00e-01,
163,2.40e-03,6.00e-02,
164,-1.20e-03,1.00e-01,
165,2.40e-03,6.00e-02,
166,-8.00e-04,6.00e-02,
167,2.00e-03,8.00e-02,
168,2.80e-03,6.00e-02,
169,-3.60e-03,8.00e-02,
170,-4.80e-03,8.00e-02,
171,8.00e-03,6.00e-02,
172,1.12e-02,6.00e-02,
173,-1.24e-02,8.00e-02,
174,1.60e-02,6.00e-02,
175,-1.48e-02,8.00e-02,
176,-1.16e-02,8.00e-02,
177,1.12e-02,6.00e-02,
178,8.40e-03,8.00e-02,
179,-5.60e-03,6.00e-02,
180,-3.60e-03,8.00e-02,
181,3.60e-03,4.00e-02,
182,2.40e-03,8.00e-02,
183,-8.00e-04,4.00e-02,
184,-8.00e-04,8.00e-02,
185,2.00e-03,4.00e-02,
186,2.40e-03,8.00e-02,
187,-8.00e-04,4.00e-02,
188,0.00e+00,8.00e-02,
189,1.20e-03,2.00e-02,
190,2.40e-03,8.00e-02,
191,-1.60e-03,2.00e-02,
192,-2.80e-03,2.00e-02,
193,4.80e-03,8.00e-02,
194,2.80e-03,2.00e-02,
195,8.00e-03,1.94e+00,
196,6.80e-03,1.60e-01,
197,-8.00e-04,1.20e-01,
198,-8.00e-04,1.20e-01,
199,2.80e-03,8.00e-02,
200,1.20e-03,8.00e-02,
201,0.00e+00,1.00e-01,
202,2.00e-03,1.00e-01,
203,0.00e+00,6.00e-02,
204,-1.20e-03,1.00e-01,
205,1.60e-03,6.00e-02,
206,-8.00e-04,6.00e-02,
207,2.40e-03,8.00e-02,
208,-1.60e-03,8.00e-02,
209,3.20e-03,6.00e-02,
210,-4.00e-03,6.00e-02,
211,5.60e-03,8.00e-02,
212,8.80e-03,6.00e-02,
213,-9.20e-03,8.00e-02,
214,-1.44e-02,6.00e-02,
215,1.36e-02,8.00e-02,
216,-1.28e-02,6.00e-02,
217,1.08e-02,8.00e-02,
218,7.20e-03,8.00e-02,
219,-5.20e-03,6.00e-02,
220,-2.80e-03,6.00e-02,
221,4.00e-03,8.00e-02,
222,2.40e-03,6.00e-02,
223,0.00e+00,8.00e-02,
224,2.00e-03,8.00e-02,
225,0.00e+00,2.00e-02,
226,1.20e-03,8.00e-02,
227,-8.00e-04,2.00e-02,
228,0.00e+00,8.00e-02,
229,1.60e-03,4.00e-02,
230,2.40e-03,8.00e-02,
231,-8.00e-04,4.00e-02,
232,-1.20e-03,8.00e-02,
233,3.60e-03,2.00e-02,
234,3.20e-03,1.78e+00,
235,7.20e-03,-2.00e-02,
236,6.40e-03,1.60e-01,
237,-4.00e-04,1.20e-01,
238,0.00e+00,1.40e-01,
239,3.20e-03,8.00e-02,
240,2.00e-03,1.00e-01,
241,0.00e+00,8.00e-02,
242,-8.00e-04,1.00e-01,
243,2.00e-03,6.00e-02,
244,1.20e-03,6.00e-02,
245,-8.00e-04,1.00e-01,
246,2.00e-03,6.00e-02,
247,-1.20e-03,8.00e-02,
248,-2.40e-03,8.00e-02,
249,4.00e-03,6.00e-02,
250,-4.00e-03,8.00e-02,
251,6.40e-03,6.00e-02,
252,9.60e-03,6.00e-02,
253,-1.04e-02,8.00e-02,
254,-1.16e-02,8.00e-02,
255,1.40e-02,6.00e-02,
256,-1.08e-02,8.00e-02,
257,1.00e-02,6.00e-02,
258,6.40e-03,6.00e-02,
259,-4.00e-03,8.00e-02,
260,-2.40e-03,6.00e-02,
261,2.80e-03,8.00e-02,
262,2.00e-03,8.00e-02,
263,-1.20e-03,4.00e-02,
264,-8.00e-04,8.00e-02,
265,2.00e-03,4.00e-02,
266,2.00e-03,8.00e-02,
267,-4.00e-04,4.00e-02,
268,0.00e+00,8.00e-02,
269,2.00e-03,2.00e-02,
270,1.60e-03,2.00e-02,
271,-1.20e-03,8.00e-02,
272,-1.60e-03,8.00e-02,
273,3.60e-03,2.00e-02,
274,3.20e-03,2.00e-02,
275,8.00e-03,2.00e+00,
276,6.80e-03,1.60e-01,
277,8.00e-04,1.00e-01,
278,3.20e-03,1.20e-01,
279,0.00e+00,8.00e-02,
280,2.00e-03,1.00e-01,
281,-4.00e-04,8.00e-02,
282,-8.00e-04,1.00e-01,
283,2.00e-03,6.00e-02,
284,1.20e-03,1.00e-01,
285,0.00e+00,6.00e-02,
286,2.00e-03,6.00e-02,
287,-8.00e-04,8.00e-02,
288,2.40e-03,6.00e-02,
289,-2.40e-03,8.00e-02,
290,-3.60e-03,6.00e-02,
291,5.60e-03,8.00e-02,
292,9.20e-03,8.00e-02,
293,-9.20e-03,6.00e-02,
294,-1.12e-02,6.00e-02,
295,1.36e-02,8.00e-02,
296,-9.60e-03,8.00e-02,
297,9.20e-03,6.00e-02,
298,6.40e-03,8.00e-02,
299,-4.40e-03,6.00e-02,
300,-2.40e-03,8.00e-02,
301,3.60e-03,6.00e-02,
302,2.00e-03,6.00e-02,
303,-8.00e-04,8.00e-02,
304,-8.00e-04,8.00e-02,
305,1.20e-03,4.00e-02,
306,2.00e-03,8.00e-02,
307,-8.00e-04,4.00e-02,
308,1.20e-03,4.00e-02,
309,-8.00e-04,8.00e-02,
310,2.00e-03,8.00e-02,
311,-1.20e-03,2.00e-02,
312,-2.40e-03,2.00e-02,
313,4.00e-03,8.00e-02,
314,3.20e-03,2.00e-02,
315,7.20e-03,1.82e+00,
316,6.40e-03,1.60e-01,
317,1.20e-03,1.20e-01,
318,3.60e-03,1.40e-01,
319,0.00e+00,8.00e-02,
320,2.00e-03,1.00e-01,
321,-8.00e-04,8.00e-02,
322,-8.00e-04,1.00e-01,
323,2.40e-03,6.00e-02,
324,2.00e-03,1.00e-01,
325,-8.00e-04,6.00e-02,
326,0.00e+00,6.00e-02,
327,2.40e-03,8.00e-02,
328,2.80e-03,6.00e-02,
329,-2.40e-03,8.00e-02,
330,-3.60e-03,6.00e-02,
331,5.20e-03,8.00e-02,
332,8.00e-03,8.00e-02,
333,-7.60e-03,6.00e-02,
334,-1.00e-02,6.00e-02,
335,1.24e-02,8.00e-02,
336,-8.80e-03,6.00e-02,
337,8.40e-03,8.00e-02,
338,6.40e-03,8.00e-02,
339,-4.00e-03,6.00e-02,
340,-2.80e-03,6.00e-02,
341,2.40e-03,8.00e-02,
342,2.00e-03,6.00e-02,
343,-8.00e-04,8.00e-02,
344,2.00e-03,8.00e-02,
345,0.00e+00,2.00e-02,
346,1.20e-03,8.00e-02,
347,0.00e+00,2.00e-02,
348,0.00e+00,8.00e-02,
349,1.20e-03,4.00e-02,
350,2.00e-03,8.00e-02,
351,-1.20e-03,2.00e-02,
352,-2.40e-03,8.00e-02,
353,3.60e-03,2.00e-02,
354,3.20e-03,2.00e-02,
355,8.00e-03,1.88e+00,
356,6.80e-03,1.60e-01,
357,4.00e-04,1.20e-01,
358,3.60e-03,1.40e-01,
359,-4.00e-04,8.00e-02,
360,1.20e-03,1.00e-01,
361,0.00e+00,8.00e-02,
362,2.40e-03,1.00e-01,
363,-4.00e-04,6.00e-02,
364,-8.00e-04,8.00e-02,
365,2.00e-03,6.00e-02,
366,0.00e+00,6.00e-02,
367,2.40e-03,8.00e-02,
368,2.80e-03,6.00e-02,
369,-2.40e-03,8.00e-02,
370,-4.00e-03,6.00e-02,
371,4.80e-03,8.00e-02,
372,8.00e-03,6.00e-02,
373,-8.40e-03,8.00e-02,
374,-1.08e-02,6.00e-02,
375,1.08e-02,8.00e-02,
376,-7.60e-03,6.00e-02,
377,8.00e-03,8.00e-02,
378,4.80e-03,8.00e-02,
379,-3.20e-03,6.00e-02,
380,-2.40e-03,6.00e-02,
381,2.40e-03,8.00e-02,
382,2.00e-03,8.00e-02,
383,-4.00e-04,4.00e-02,
384,1.20e-03,8.00e-02,
385,-4.00e-04,2.00e-02,
386,2.00e-03,8.00e-02,
387,-8.00e-04,2.00e-02,
388,-8.00e-04,2.00e-02,
389,1.20e-03,8.00e-02,
390,2.00e-03,8.00e-02,
391,-1.20e-03,2.00e-02,
392,-1.60e-03,6.00e-02,
393,3.60e-03,2.00e-02,
394,3.20e-03,2.00e-02,
395,7.20e-03,1.84e+00,
396,6.80e-03,1.60e-01,
397,4.00e-04,1.20e-01,
398,4.00e-03,1.40e-01,
399,-8.00e-04,8.00e-02,
400,-8.00e-04,1.00e-01,
401,1.20e-03,8.00e-02,
402,1.20e-03,1.00e-01,
403,-8.00e-04,6.00e-02,
404,-1.20e-03,6.00e-02,
405,1.20e-03,1.00e-01,
406,0.00e+00,6.00e-02,
407,2.00e-03,8.00e-02,
408,2.40e-03,6.00e-02,
409,-1.20e-03,8.00e-02,
410,-2.80e-03,6.00e-02,
411,4.80e-03,8.00e-02,
412,6.80e-03,8.00e-02,
413,-6.80e-03,6.00e-02,
414,-9.60e-03,6.00e-02,
415,1.04e-02,8.00e-02,
416,-7.60e-03,6.00e-02,
417,6.80e-03,8.00e-02,
418,5.20e-03,8.00e-02,
419,-3.20e-03,6.00e-02,
420,-2.40e-03,6.00e-02,
421,2.40e-03,8.00e-02,
422,2.00e-03,8.00e-02,
423,-8.00e-04,4.00e-02,
424,-8.00e-04,8.00e-02,
425,2.00e-03,2.00e-02,
426,2.40e-03,8.00e-02,
427,-4.00e-04,2.00e-02,
428,0.00e+00,8.00e-02,
429,2.00e-03,2.00e-02,
430,2.00e-03,2.00e-02,
431,-8.00e-04,8.00e-02,
432,-2.40e-03,8.00e-02,
433,3.60e-03,2.00e-02,
434,3.20e-03,2.00e-02,
435,8.00e-03,1.88e+00,
436,6.80e-03,1.60e-01,
437,8.00e-04,1.20e-01,
438,4.00e-03,8.00e-02,
439,-4.00e-04,1.40e-01,
440,-8.00e-04,8.00e-02,
441,2.00e-03,1.00e-01,
442,2.40e-03,1.00e-01,
443,0.00e+00,6.00e-02,
444,-8.00e-04,8.00e-02,
445,2.00e-03,6.00e-02,
446,1.20e-03,6.00e-02,
447,-4.00e-04,8.00e-02,
448,2.00e-03,6.00e-02,
449,-1.60e-03,8.00e-02,
450,-2.80e-03,6.00e-02,
451,4.00e-03,8.00e-02,
452,5.60e-03,8.00e-02,
453,-6.80e-03,6.00e-02,
454,-8.40e-03,6.00e-02,
455,1.00e-02,8.00e-02,
456,-8.00e-03,8.00e-02,
457,7.60e-03,6.00e-02,
458,5.20e-03,6.00e-02,
459,-2.40e-03,8.00e-02,
460,-1.20e-03,6.00e-02,
461,3.20e-03,8.00e-02,
462,2.40e-03,6.00e-02,
463,0.00e+00,8.00e-02,
464,0.00e+00,8.00e-02,
465,1.60e-03,4.00e-02,
466,2.00e-03,8.00e-02,
467,-8.00e-04,2.00e-02,
468,-8.00e-04,8.00e-02,
469,1.20e-03,2.00e-02,
470,-8.00e-04,8.00e-02,
471,2.00e-03,2.00e-02,
472,3.60e-03,8.00e-02,
473,-1.60e-03,2.00e-02,
474,3.20e-03,2.00e+00,
475,7.60e-03,-2.00e-02,
476,6.80e-03,1.60e-01,
477,4.00e-04,1.20e-01,
478,4.00e-03,1.40e-01,
479,0.00e+00,8.00e-02,
480,1.60e-03,1.00e-01,
481,-8.00e-04,8.00e-02,
482,2.00e-03,1.00e-01,
483,-1.20e-03,6.00e-02,
484,-4.00e-04,1.00e-01,
485,1.60e-03,6.00e-02,
486,2.40e-03,6.00e-02,
487,0.00e+00,8.00e-02,
488,2.40e-03,8.00e-02,
489,-1.20e-03,6.00e-02,
490,-2.80e-03,6.00e-02,
491,5.20e-03,8.00e-02,
492,6.40e-03,6.00e-02,
493,-6.00e-03,8.00e-02,
494,-7.60e-03,6.00e-02,
495,9.60e-03,8.00e-02,
496,-7.20e-03,6.00e-02,
497,5.60e-03,8.00e-02,
498,4.80e-03,6.00e-02,
499,-2.40e-03,8.00e-02,
500,-1.60e-03,6.00e-02,
501,2.00e-03,8.00e-02,
502,0.00e+00,8.00e-02,
503,2.00e-03,2.00e-02,
504,-8.00e-04,8.00e-02,
505,1.20e-03,2.00e-02,
506,1.20e-03,8.00e-02,
507,-8.00e-04,2.00e-02,
508,-1.20e-03,8.00e-02,
509,2.00e-03,2.00e-02,
510,-8.00e-04,8.00e-02,
511,2.00e-03,2.00e-02,
512,3.60e-03,8.00e-02,
513,-2.40e-03,2.00e-02,
514,3.20e-03,2.00e-02,
515,7.60e-03,1.96e+00,
516,6.80e-03,1.60e-01,
517,4.00e-04,1.20e-01,
518,3.60e-03,8.00e-02,
519,-8.00e-04,1.40e-01,
520,2.00e-03,1.00e-01,
521,0.00e+00,8.00e-02,
522,2.40e-03,1.00e-01,
523,0.00e+00,6.00e-02,
524,0.00e+00,1.00e-01,
525,2.00e-03,6.00e-02,
526,2.00e-03,6.00e-02,
527,0.00e+00,8.00e-02,
528,2.40e-03,6.00e-02,
529,-1.20e-03,8.00e-02,
530,-2.80e-03,6.00e-02,
531,4.00e-03,8.00e-02,
532,6.40e-03,8.00e-02,
533,-5.60e-03,6.00e-02,
534,9.20e-03,8.00e-02,
535,-6.00e-03,6.00e-02,
536,-6.00e-03,6.00e-02,
537,6.00e-03,8.00e-02,
538,4.40e-03,8.00e-02,
539,-2.80e-03,6.00e-02,
540,-1.20e-03,6.00e-02,
541,2.80e-03,8.00e-02,
542,2.40e-03,8.00e-02,
543,-8.00e-04,6.00e-02,
544,2.00e-03,6.00e-02,
545,-8.00e-04,8.00e-02,
546,2.40e-03,8.00e-02,
547,0.00e+00,2.00e-02,
548,2.00e-03,4.00e-02,
549,-8.00e-04,8.00e-02,
550,-8.00e-04,8.00e-02,
551,2.40e-03,2.00e-02,
552,3.60e-03,8.00e-02,
553,-2.40e-03,2.00e-02,
554,3.60e-03,2.00e-02,
555,7.20e-03,1.90e+00,
556,6.80e-03,1.60e-01,
557,8.00e-04,1.20e-01,
558,3.60e-03,1.40e-01,
559,-1.20e-03,8.00e-02,
560,-8.00e-04,1.00e-01,
561,2.40e-03,8.00e-02,
562,2.00e-03,1.00e-01,
563,-8.00e-04,6.00e-02,
564,-8.00e-04,6.00e-02,
565,1.60e-03,1.00e-01,
566,2.40e-03,6.00e-02,
567,-4.00e-04,8.00e-02,
568,2.00e-03,6.00e-02,
569,-1.60e-03,8.00e-02,
570,-1.60e-03,8.00e-02,
571,3.60e-03,6.00e-02,
572,5.20e-03,6.00e-02,
573,-5.20e-03,8.00e-02,
574,8.40e-03,8.00e-02,
575,-6.80e-03,6.00e-02,
576,-6.00e-03,8.00e-02,
577,6.40e-03,6.00e-02,
578,4.80e-03,6.00e-02,
579,-2.40e-03,8.00e-02,
580,-1.20e-03,6.00e-02,
581,2.00e-03,8.00e-02,
582,2.40e-03,8.00e-02,
583,0.00e+00,6.00e-02,
584,1.20e-03,8.00e-02,
585,-1.20e-03,4.00e-02,
586,-8.00e-04,8.00e-02,
587,2.00e-03,4.00e-02,
588,1.60e-03,8.00e-02,
589,-8.00e-04,2.00e-02,
590,2.40e-03,8.00e-02,
591,-1.20e-03,2.00e-02,
592,2.80e-03,8.00e-02,
593,-3.20e-03,2.00e-02,
594,3.20e-03,2.00e-02,
595,7.60e-03,1.86e+00,
596,6.80e-03,1.60e-01,
597,8.00e-04,1.20e-01,
598,4.00e-03,1.40e-01,
599,-8.00e-04,8.00e-02,
600,2.40e-03,8.00e-02,
601,-8.00e-04,1.00e-01,
602,2.00e-03,1.00e-01,
603,-8.00e-04,6.00e-02,
604,-4.00e-04,1.00e-01,
605,1.60e-03,6.00e-02,
606,0.00e+00,6.00e-02,
607,2.00e-03,8.00e-02,
608,2.00e-03,6.00e-02,
609,-1.20e-03,8.00e-02,
610,-2.40e-03,6.00e-02,
611,4.00e-03,8.00e-02,
612,5.20e-03,8.00e-02,
613,-5.20e-03,6.00e-02,
614,-6.80e-03,6.00e-02,
615,7.60e-03,8.00e-02,
616,-5.60e-03,6.00e-02,
617,5.60e-03,8.00e-02,
618,4.00e-03,6.00e-02,
619,-1.60e-03,8.00e-02,
620,-1.20e-03,6.00e-02,
621,2.00e-03,8.00e-02,
622,0.00e+00,6.00e-02,
623,2.00e-03,8.00e-02,
624,-8.00e-04,8.00e-02,
625,1.20e-03,4.00e-02,
626,2.00e-03,8.00e-02,
627,-8.00e-04,2.00e-02,
628,-8.00e-04,8.00e-02,
629,2.00e-03,2.00e-02,
630,2.40e-03,2.00e-02,
631,-1.20e-03,8.00e-02,
632,3.20e-03,8.00e-02,
633,-2.40e-03,2.00e-02,
634,2.80e-03,2.00e-02,
635,8.00e-03,1.88e+00,
636,6.80e-03,1.60e-01,
637,8.00e-04,1.20e-01,
638,4.00e-03,8.00e-02,
639,-1.20e-03,1.40e-01,
640,0.00e+00,8.00e-02,
641,2.40e-03,1.00e-01,
642,2.40e-03,1.00e-01,
643,0.00e+00,6.00e-02,
644,1.20e-03,6.00e-02,
645,-8.00e-04,1.00e-01,
646,2.00e-03,6.00e-02,
647,0.00e+00,8.00e-02,
648,-8.00e-04,6.00e-02,
649,1.20e-03,8.00e-02,
650,-1.60e-03,6.00e-02,
651,3.60e-03,8.00e-02,
652,4.80e-03,6.00e-02,
653,-4.40e-03,8.00e-02,
654,7.20e-03,6.00e-02,
655,-4.40e-03,8.00e-02,
656,-4.40e-03,8.00e-02,
657,5.60e-03,6.00e-02,
658,4.00e-03,6.00e-02,
659,-1.60e-03,8.00e-02,
660,-8.00e-04,6.00e-02,
661,2.40e-03,8.00e-02,
662,1.20e-03,8.00e-02,
663,-8.00e-04,2.00e-02,
664,-8.00e-04,8.00e-02,
665,1.20e-03,4.00e-02,
666,-8.00e-04,8.00e-02,
667,2.40e-03,2.00e-02,
668,2.40e-03,8.00e-02,
669,-8.00e-04,2.00e-02,
670,2.40e-03,2.00e-02,
671,-8.00e-04,8.00e-02,
672,3.60e-03,8.00e-02,
673,-2.80e-03,2.00e-02,
674,2.80e-03,2.00e-02,
675,7.60e-03,1.86e+00,
676,6.80e-03,1.60e-01,
677,8.00e-04,1.20e-01,
678,4.40e-03,1.40e-01,
679,0.00e+00,8.00e-02,
680,-8.00e-04,1.00e-01,
681,2.40e-03,8.00e-02,
682,2.40e-03,1.00e-01,
683,-4.00e-04,6.00e-02,
684,-8.00e-04,1.00e-01,
685,2.00e-03,6.00e-02,
686,2.00e-03,6.00e-02,
687,0.00e+00,8.00e-02,
688,-8.00e-04,6.00e-02,
689,2.40e-03,8.00e-02,
690,2.80e-03,6.00e-02,
691,-1.20e-03,8.00e-02,
692,5.20e-03,6.00e-02,
693,-4.00e-03,8.00e-02,
694,6.00e-03,6.00e-02,
695,-5.60e-03,8.00e-02,
696,-4.40e-03,6.00e-02,
697,4.80e-03,8.00e-02,
698,2.80e-03,6.00e-02,
699,-2.00e-03,8.00e-02,
700,-1.60e-03,6.00e-02,
701,1.60e-03,8.00e-02,
702,1.60e-03,8.00e-02,
703,-4.00e-04,4.00e-02,
704,1.20e-03,8.00e-02,
705,-8.00e-04,2.00e-02,
706,-8.00e-04,8.00e-02,
707,2.00e-03,2.00e-02,
708,1.60e-03,8.00e-02,
709,-8.00e-04,2.00e-02,
710,2.40e-03,8.00e-02,
711,-1.20e-03,2.00e-02,
712,3.60e-03,8.00e-02,
713,-2.80e-03,2.00e-02,
714,2.80e-03,1.78e+00,
715,7.60e-03,-6.00e-02,
716,6.40e-03,1.60e-01,
717,4.00e-04,1.20e-01,
718,4.00e-03,8.00e-02,
719,-8.00e-04,1.40e-01,
720,-8.00e-04,1.00e-01,
721,2.40e-03,8.00e-02,
722,2.00e-03,1.00e-01,
723,-8.00e-04,6.00e-02,
724,1.20e-03,6.00e-02,
725,-8.00e-04,8.00e-02,
726,2.00e-03,6.00e-02,
727,0.00e+00,8.00e-02,
728,2.00e-03,6.00e-02,
729,-1.20e-03,8.00e-02,
730,-1.60e-03,8.00e-02,
731,3.20e-03,6.00e-02,
732,4.00e-03,6.00e-02,
733,-4.40e-03,8.00e-02,
734,5.60e-03,8.00e-02,
735,-5.60e-03,6.00e-02,
736,-4.40e-03,8.00e-02,
737,5.60e-03,6.00e-02,
738,3.20e-03,6.00e-02,
739,-1.60e-03,8.00e-02,
740,-8.00e-04,6.00e-02,
741,2.00e-03,8.00e-02,
742,1.60e-03,8.00e-02,
743,0.00e+00,4.00e-02,
744,-4.00e-04,8.00e-02,
745,1.20e-03,4.00e-02,
746,0.00e+00,8.00e-02,
747,2.40e-03,4.00e-02,
748,2.00e-03,8.00e-02,
749,-8.00e-04,4.00e-02,
750,-8.00e-04,8.00e-02,
751,2.40e-03,2.00e-02,
752,3.20e-03,2.00e-02,
753,-3.20e-03,8.00e-02,
754,2.80e-03,2.00e-02,
755,8.00e-03,1.98e+00,
756,6.40e-03,1.60e-01,
757,4.00e-04,1.20e-01,
758,4.00e-03,1.20e-01,
759,-8.00e-04,8.00e-02,
760,-8.00e-04,1.00e-01,
761,2.40e-03,8.00e-02,
762,2.00e-03,1.00e-01,
763,-8.00e-04,6.00e-02,
764,-8.00e-04,6.00e-02,
765,2.00e-03,1.00e-01,
766,4.00e-04,6.00e-02,
767,2.00e-03,8.00e-02,
768,0.00e+00,6.00e-02,
769,2.00e-03,8.00e-02,
770,-1.20e-03,8.00e-02,
771,3.20e-03,6.00e-02,
772,4.00e-03,8.00e-02,
773,-4.00e-03,6.00e-02,
774,-4.40e-03,6.00e-02,
775,6.80e-03,8.00e-02,
776,-4.40e-03,6.00e-02,
777,5.20e-03,8.00e-02,
778,3.60e-03,6.00e-02,
779,-1.60e-03,8.00e-02,
780,-8.00e-04,6.00e-02,
781,2.40e-03,8.00e-02,
782,1.20e-03,8.00e-02,
783,-8.00e-04,6.00e-02,
784,-8.00e-04,8.00e-02,
785,1.20e-03,2.00e-02,
786,2.00e-03,8.00e-02,
787,-8.00e-04,2.00e-02,
788,0.00e+00,8.00e-02,
789,2.00e-03,2.00e-02,
790,-1.20e-03,2.00e-02,
791,2.40e-03,8.00e-02,
792,4.00e-03,8.00e-02,
793,-2.80e-03,2.00e-02,
794,2.00e-03,2.00e-02,
795,8.00e-03,1.90e+00,
796,6.40e-03,1.60e-01,
797,1.20e-03,1.20e-01,
798,5.20e-03,1.40e-01,
799,-8.00e-04,8.00e-02,
800,-8.00e-04,1.00e-01,
801,2.40e-03,8.00e-02,
802,2.40e-03,1.00e-01,
803,-8.00e-04,6.00e-02,
804,-8.00e-04,1.00e-01,
805,2.00e-03,6.00e-02,
806,2.00e-03,8.00e-02,
807,0.00e+00,6.00e-02,
808,-8.00e-04,8.00e-02,
809,2.00e-03,6.00e-02,
810,-1.20e-03,6.00e-02,
811,3.20e-03,8.00e-02,
812,4.00e-03,6.00e-02,
813,-2.80e-03,8.00e-02,
814,6.00e-03,6.00e-02,
815,-4.00e-03,8.00e-02,
816,-4.00e-03,6.00e-02,
817,4.00e-03,8.00e-02,
818,3.20e-03,8.00e-02,
819,-1.60e-03,6.00e-02,
820,-4.00e-04,6.00e-02,
821,2.00e-03,8.00e-02,
822,1.20e-03,6.00e-02,
823,-8.00e-04,8.00e-02,
824,-8.00e-04,8.00e-02,
825,1.20e-03,4.00e-02,
826,-8.00e-04,8.00e-02,
827,2.00e-03,4.00e-02,
828,-8.00e-04,2.00e-02,
829,1.60e-03,8.00e-02,
830,-8.00e-04,8.00e-02,
831,2.80e-03,4.00e-02,
832,3.60e-03,8.00e-02,
833,-3.60e-03,2.00e-02,
834,2.40e-03,4.00e-02,
835,7.20e-03,1.92e+00,
836,6.40e-03,1.60e-01,
837,4.00e-04,1.20e-01,
838,4.80e-03,1.40e-01,
839,-1.20e-03,8.00e-02,
840,2.40e-03,8.00e-02,
841,-1.20e-03,1.00e-01,
842,2.40e-03,1.00e-01,
843,-8.00e-04,6.00e-02,
844,-8.00e-04,6.00e-02,
845,2.00e-03,1.00e-01,
846,2.00e-03,8.00e-02,
847,4.00e-04,6.00e-02,
848,2.00e-03,6.00e-02,
849,-8.00e-04,8.00e-02,
850,-1.20e-03,6.00e-02,
851,2.80e-03,8.00e-02,
852,3.60e-03,6.00e-02,
853,-4.00e-03,8.00e-02,
854,-4.80e-03,8.00e-02,
855,4.80e-03,6.00e-02,
856,-4.00e-03,8.00e-02,
