CarrPurc_P1-19_P2-38_tauVary/Gly84/NewFile6.csv

X,CH1,CH2,Start,Increment,
Sequence,Volt,Volt,-6.880000e-02,2.000000e-04
0,1.20e-03,4.00e-02,
1,0.00e+00,2.00e-02,
2,1.20e-03,4.00e-02,
3,0.00e+00,0.00e+00,
4,1.20e-03,4.00e-02,
5,0.00e+00,2.00e-02,
6,1.20e-03,4.00e-02,
7,0.00e+00,0.00e+00,
8,1.20e-03,4.00e-02,
9,0.00e+00,2.00e-02,
10,0.00e+00,4.00e-02,
11,1.20e-03,0.00e+00,
12,1.20e-03,4.00e-02,
13,0.00e+00,0.00e+00,
14,1.20e-03,4.00e-02,
15,0.00e+00,2.00e-02,
16,1.20e-03,4.00e-02,
17,0.00e+00,2.00e-02,
18,1.20e-03,4.00e-02,
19,-4.00e-04,2.00e-02,
20,0.00e+00,2.00e-02,
21,1.20e-03,4.00e-02,
22,8.00e-04,4.00e-02,
23,0.00e+00,2.00e-02,
24,0.00e+00,4.00e-02,
25,1.20e-03,2.00e-02,
26,1.20e-03,4.00e-02,
27,0.00e+00,2.00e-02,
28,0.00e+00,4.00e-02,
29,1.20e-03,2.00e-02,
30,-4.00e-04,2.00e-02,
31,1.20e-03,4.00e-02,
32,1.20e-03,4.00e-02,
33,0.00e+00,2.00e-02,
34,0.00e+00,4.00e-02,
35,1.20e-03,2.00e-02,
36,1.20e-03,4.00e-02,
37,-4.00e-04,2.00e-02,
38,0.00e+00,4.00e-02,
39,1.20e-03,2.00e-02,
40,0.00e+00,2.00e-02,
41,8.00e-04,4.00e-02,
42,1.20e-03,4.00e-02,
43,0.00e+00,2.00e-02,
44,0.00e+00,4.00e-02,
45,1.20e-03,2.00e-02,
46,0.00e+00,4.00e-02,
47,8.00e-04,0.00e+00,
48,0.00e+00,4.00e-02,
49,1.20e-03,2.00e-02,
50,0.00e+00,4.00e-02,
51,1.20e-03,2.00e-02,
52,1.20e-03,4.00e-02,
53,0.00e+00,0.00e+00,
54,1.20e-03,4.00e-02,
55,0.00e+00,2.00e-02,
56,-8.00e-04,4.00e-02,
57,1.20e-03,0.00e+00,
58,4.00e-04,4.00e-02,
59,1.20e-03,2.00e-02,
60,1.20e-03,4.00e-02,
61,0.00e+00,0.00e+00,
62,0.00e+00,4.00e-02,
63,1.20e-03,0.00e+00,
64,1.20e-03,4.00e-02,
65,0.00e+00,0.00e+00,
66,0.00e+00,4.00e-02,
67,1.20e-03,0.00e+00,
68,1.20e-03,4.00e-02,
69,0.00e+00,0.00e+00,
70,1.20e-03,4.00e-02,
71,0.00e+00,0.00e+00,
72,1.20e-03,4.00e-02,
73,0.00e+00,0.00e+00,
74,0.00e+00,4.00e-02,
75,1.20e-03,0.00e+00,
76,8.00e-04,4.00e-02,
77,-4.00e-04,0.00e+00,
78,1.20e-03,0.00e+00,
79,0.00e+00,4.00e-02,
80,1.20e-03,4.00e-02,
81,0.00e+00,2.00e-02,
82,1.20e-03,4.00e-02,
83,0.00e+00,2.00e-02,
84,1.20e-03,4.00e-02,
85,0.00e+00,0.00e+00,
86,4.00e-04,2.00e-02,
87,1.20e-03,4.00e-02,
88,4.00e-04,4.00e-02,
89,1.60e-03,2.00e-02,
90,8.00e-04,4.00e-02,
91,-8.00e-04,2.00e-02,
92,0.00e+00,4.00e-02,
93,1.20e-03,2.00e-02,
94,0.00e+00,4.00e-02,
95,1.20e-03,0.00e+00,
96,1.20e-03,4.00e-02,
97,0.00e+00,2.00e-02,
98,0.00e+00,4.00e-02,
99,1.20e-03,2.00e-02,
100,0.00e+00,4.00e-02,
101,8.00e-04,0.00e+00,
102,0.00e+00,4.00e-02,
103,1.20e-03,2.00e-02,
104,0.00e+00,4.00e-02,
105,1.20e-03,0.00e+00,
106,1.20e-03,2.00e-02,
107,0.00e+00,4.00e-02,
108,0.00e+00,4.00e-02,
109,1.20e-03,0.00e+00,
110,1.20e-03,2.00e-02,
111,0.00e+00,4.00e-02,
112,1.20e-03,4.00e-02,
113,0.00e+00,0.00e+00,
114,0.00e+00,4.00e-02,
115,1.20e-03,2.00e-02,
116,0.00e+00,4.00e-02,
117,1.20e-03,2.00e-02,
118,1.20e-03,4.00e-02,
119,0.00e+00,2.00e-02,
120,0.00e+00,2.00e-02,
121,1.20e-03,4.00e-02,
122,8.00e-04,4.00e-02,
123,-8.00e-04,2.00e-02,
124,-8.00e-04,4.00e-02,
125,1.20e-03,0.00e+00,
126,1.20e-03,4.00e-02,
127,0.00e+00,2.00e-02,
128,1.20e-03,2.00e-02,
129,0.00e+00,4.00e-02,
130,0.00e+00,2.00e-02,
131,8.00e-04,4.00e-02,
132,0.00e+00,2.00e-02,
133,1.20e-03,4.00e-02,
134,1.20e-03,2.00e-02,
135,0.00e+00,4.00e-02,
136,0.00e+00,4.00e-02,
137,1.20e-03,2.00e-02,
138,1.20e-03,4.00e-02,
139,0.00e+00,2.00e-02,
140,1.20e-03,2.00e-02,
141,0.00e+00,4.00e-02,
142,0.00e+00,4.00e-02,
143,1.20e-03,2.00e-02,
144,1.20e-03,4.00e-02,
145,0.00e+00,2.00e-02,
146,4.00e-04,4.00e-02,
147,1.20e-03,2.00e-02,
148,8.00e-04,4.00e-02,
149,0.00e+00,0.00e+00,
150,1.20e-03,2.00e-02,
151,0.00e+00,4.00e-02,
152,1.20e-03,4.00e-02,
153,0.00e+00,2.00e-02,
154,0.00e+00,4.00e-02,
155,1.20e-03,2.00e-02,
156,1.20e-03,2.00e-02,
157,-8.00e-04,4.00e-02,
158,1.20e-03,4.00e-02,
159,0.00e+00,2.00e-02,
160,1.20e-03,4.00e-02,
161,0.00e+00,2.00e-02,
162,1.20e-03,4.00e-02,
163,0.00e+00,0.00e+00,
164,0.00e+00,4.00e-02,
165,1.20e-03,2.00e-02,
166,0.00e+00,4.00e-02,
167,1.20e-03,0.00e+00,
168,1.20e-03,4.00e-02,
169,0.00e+00,2.00e-02,
170,0.00e+00,4.00e-02,
171,1.20e-03,0.00e+00,
172,1.20e-03,2.00e-02,
173,0.00e+00,4.00e-02,
174,1.20e-03,4.00e-02,
175,0.00e+00,2.00e-02,
176,0.00e+00,4.00e-02,
177,1.60e-03,0.00e+00,
178,1.20e-03,4.00e-02,
179,0.00e+00,2.00e-02,
180,1.20e-03,4.00e-02,
181,-8.00e-04,2.00e-02,
182,0.00e+00,4.00e-02,
183,1.20e-03,2.00e-02,
184,0.00e+00,4.00e-02,
185,1.20e-03,0.00e+00,
186,1.20e-03,4.00e-02,
187,0.00e+00,0.00e+00,
188,1.20e-03,4.00e-02,
189,0.00e+00,2.00e-02,
190,1.20e-03,4.00e-02,
191,-8.00e-04,2.00e-02,
192,1.20e-03,2.00e-02,
193,0.00e+00,4.00e-02,
194,0.00e+00,2.00e-02,
195,1.60e-03,4.00e-02,
196,1.20e-03,4.00e-02,
197,0.00e+00,0.00e+00,
198,1.20e-03,4.00e-02,
199,0.00e+00,0.00e+00,
200,1.20e-03,2.00e-02,
201,0.00e+00,4.00e-02,
202,1.20e-03,4.00e-02,
203,4.00e-04,2.00e-02,
204,0.00e+00,4.00e-02,
205,1.20e-03,2.00e-02,
206,0.00e+00,2.00e-02,
207,1.20e-03,4.00e-02,
208,1.20e-03,4.00e-02,
209,0.00e+00,2.00e-02,
210,0.00e+00,4.00e-02,
211,1.20e-03,0.00e+00,
212,1.20e-03,4.00e-02,
213,0.00e+00,2.00e-02,
214,1.20e-03,4.00e-02,
215,0.00e+00,2.00e-02,
216,1.20e-03,4.00e-02,
217,0.00e+00,2.00e-02,
218,1.20e-03,4.00e-02,
219,0.00e+00,2.00e-02,
220,1.20e-03,4.00e-02,
221,0.00e+00,2.00e-02,
222,0.00e+00,4.00e-02,
223,1.20e-03,2.00e-02,
224,0.00e+00,4.00e-02,
225,1.20e-03,2.00e-02,
226,0.00e+00,4.00e-02,
227,1.60e-03,2.00e-02,
228,1.20e-03,2.00e-02,
229,0.00e+00,4.00e-02,
230,1.20e-03,4.00e-02,
231,-4.00e-04,2.00e-02,
232,0.00e+00,4.00e-02,
233,8.00e-04,2.00e-02,
234,8.00e-04,4.00e-02,
235,0.00e+00,2.00e-02,
236,8.00e-04,4.00e-02,
237,-4.00e-04,2.00e-02,
238,-4.00e-04,4.00e-02,
239,1.20e-03,2.00e-02,
240,1.20e-03,4.00e-02,
241,0.00e+00,2.00e-02,
242,0.00e+00,4.00e-02,
243,1.20e-03,2.00e-02,
244,1.20e-03,4.00e-02,
245,0.00e+00,2.00e-02,
246,1.20e-03,2.00e-02,
247,0.00e+00,4.00e-02,
248,1.20e-03,4.00e-02,
249,0.00e+00,2.00e-02,
250,4.00e-04,4.00e-02,
251,1.20e-03,2.00e-02,
252,0.00e+00,4.00e-02,
253,1.20e-03,0.00e+00,
254,1.20e-03,4.00e-02,
255,0.00e+00,2.00e-02,
256,1.20e-03,4.00e-02,
257,0.00e+00,0.00e+00,
258,1.20e-03,4.00e-02,
259,0.00e+00,0.00e+00,
260,1.20e-03,4.00e-02,
261,0.00e+00,2.00e-02,
262,1.20e-03,4.00e-02,
263,0.00e+00,0.00e+00,
264,1.20e-03,4.00e-02,
265,0.00e+00,0.00e+00,
266,1.20e-03,4.00e-02,
267,0.00e+00,2.00e-02,
268,1.20e-03,4.00e-02,
269,0.00e+00,2.00e-02,
270,4.00e-04,4.00e-02,
271,1.60e-03,0.00e+00,
272,1.20e-03,4.00e-02,
273,0.00e+00,0.00e+00,
274,-8.00e-04,4.00e-02,
275,1.20e-03,0.00e+00,
276,0.00e+00,2.00e-02,
277,1.20e-03,4.00e-02,
278,0.00e+00,4.00e-02,
279,1.20e-03,0.00e+00,
280,8.00e-04,4.00e-02,
281,0.00e+00,2.00e-02,
282,0.00e+00,4.00e-02,
283,1.20e-03,0.00e+00,
284,0.00e+00,4.00e-02,
285,1.20e-03,2.00e-02,
286,1.20e-03,4.00e-02,
287,0.00e+00,0.00e+00,
288,8.00e-04,4.00e-02,
289,0.00e+00,0.00e+00,
290,1.20e-03,4.00e-02,
291,0.00e+00,0.00e+00,
292,8.00e-04,4.00e-02,
293,0.00e+00,0.00e+00,
294,0.00e+00,4.00e-02,
295,1.20e-03,2.00e-02,
296,0.00e+00,4.00e-02,
297,1.20e-03,0.00e+00,
298,1.20e-03,4.00e-02,
299,0.00e+00,0.00e+00,
300,1.20e-03,4.00e-02,
301,0.00e+00,2.00e-02,
302,8.00e-04,4.00e-02,
303,0.00e+00,2.00e-02,
304,1.20e-03,4.00e-02,
305,-4.00e-04,0.00e+00,
306,8.00e-04,4.00e-02,
307,0.00e+00,0.00e+00,
308,1.20e-03,4.00e-02,
309,0.00e+00,0.00e+00,
310,0.00e+00,4.00e-02,
311,1.20e-03,0.00e+00,
312,1.20e-03,4.00e-02,
313,-4.00e-04,0.00e+00,
314,1.20e-03,2.00e-02,
315,0.00e+00,4.00e-02,
316,-4.00e-04,4.00e-02,
317,1.20e-03,0.00e+00,
318,0.00e+00,4.00e-02,
319,1.20e-03,0.00e+00,
320,0.00e+00,4.00e-02,
321,1.20e-03,0.00e+00,
322,1.20e-03,4.00e-02,
323,0.00e+00,0.00e+00,
324,0.00e+00,4.00e-02,
325,1.20e-03,2.00e-02,
326,0.00e+00,4.00e-02,
327,1.20e-03,2.00e-02,
328,8.00e-04,4.00e-02,
329,0.00e+00,2.00e-02,
330,0.00e+00,4.00e-02,
331,1.20e-03,2.00e-02,
332,0.00e+00,4.00e-02,
333,1.20e-03,2.00e-02,
334,8.00e-04,4.00e-02,
335,0.00e+00,2.00e-02,
336,8.00e-04,4.00e-02,
337,-4.00e-04,0.00e+00,
338,1.20e-03,4.00e-02,
339,0.00e+00,2.00e-02,
340,1.20e-03,4.00e-02,
341,0.00e+00,2.00e-02,
342,0.00e+00,4.00e-02,
343,1.20e-03,2.00e-02,
344,1.20e-03,4.00e-02,
345,0.00e+00,0.00e+00,
346,5.20e-03,0.00e+00,
347,-2.72e-02,2.20e+00,
348,1.60e-02,1.20e-01,
349,-1.28e-02,8.00e-02,
350,-1.60e-03,1.00e-01,
351,4.00e-03,6.00e-02,
352,-1.20e-03,6.00e-02,
353,3.60e-03,8.00e-02,
354,2.40e-03,6.00e-02,
355,-8.00e-04,8.00e-02,
356,7.20e-03,6.00e-02,
357,-7.20e-03,2.10e+00,
358,-6.80e-03,1.20e-01,
359,6.40e-03,8.00e-02,
360,-8.00e-04,1.00e-01,
361,2.40e-03,6.00e-02,
362,-3.20e-03,6.00e-02,
363,5.20e-03,8.00e-02,
364,-1.48e-02,8.00e-02,
365,2.00e-02,6.00e-02,
366,-2.16e-02,2.00e-02,
367,2.32e-02,8.00e-02,
368,1.24e-02,8.00e-02,
369,-8.80e-03,2.00e-02,
370,2.80e-03,2.00e-02,
371,-1.20e-03,8.00e-02,
372,-1.20e-03,2.00e-02,
373,2.00e-03,6.00e-02,
374,1.20e-03,2.00e-02,
375,-4.00e-04,6.00e-02,
376,4.00e-04,2.18e+00,
377,6.80e-03,0.00e+00,
378,2.40e-03,1.20e-01,
379,-8.00e-04,6.00e-02,
380,2.00e-03,1.00e-01,
381,-8.00e-04,6.00e-02,
382,-2.80e-03,6.00e-02,
383,5.60e-03,8.00e-02,
384,1.24e-02,8.00e-02,
385,-1.32e-02,6.00e-02,
386,-1.76e-02,8.00e-02,
387,1.80e-02,4.00e-02,
388,8.00e-03,8.00e-02,
389,-6.00e-03,2.00e-02,
390,2.40e-03,8.00e-02,
391,-1.60e-03,2.00e-02,
392,2.00e-03,8.00e-02,
393,-8.00e-04,2.00e-02,
394,-2.80e-03,2.00e-02,
395,5.60e-03,8.00e-02,
396,7.60e-03,2.00e-02,
397,-8.00e-04,2.22e+00,
398,-8.00e-04,1.20e-01,
399,2.40e-03,8.00e-02,
400,2.00e-03,1.00e-01,
401,-8.00e-04,6.00e-02,
402,4.00e-03,8.00e-02,
403,-3.60e-03,6.00e-02,
404,1.24e-02,6.00e-02,
405,-1.56e-02,8.00e-02,
406,1.88e-02,6.00e-02,
407,-1.76e-02,8.00e-02,
408,8.40e-03,6.00e-02,
409,-6.00e-03,8.00e-02,
410,2.80e-03,8.00e-02,
411,-1.60e-03,2.00e-02,
412,-8.00e-04,8.00e-02,
413,2.00e-03,2.00e-02,
414,-3.60e-03,2.00e-02,
415,5.60e-03,8.00e-02,
416,7.20e-03,2.00e-02,
417,-1.20e-03,2.08e+00,
418,-1.20e-03,1.40e-01,
419,3.60e-03,8.00e-02,
420,-8.00e-04,1.00e-01,
421,2.40e-03,6.00e-02,
422,-1.60e-03,6.00e-02,
423,3.20e-03,8.00e-02,
424,8.00e-03,6.00e-02,
425,-9.60e-03,8.00e-02,
426,-1.36e-02,8.00e-02,
427,1.52e-02,6.00e-02,
428,8.00e-03,8.00e-02,
429,-5.20e-03,4.00e-02,
430,2.00e-03,2.00e-02,
431,-8.00e-04,8.00e-02,
432,1.20e-03,8.00e-02,
433,-8.00e-04,2.00e-02,
434,-1.60e-03,2.00e-02,
435,3.60e-03,8.00e-02,
436,8.00e-03,2.00e-02,
437,0.00e+00,2.10e+00,
438,2.40e-03,1.20e-01,
439,-8.00e-04,6.00e-02,
440,0.00e+00,1.00e-01,
441,2.00e-03,6.00e-02,
442,-2.80e-03,6.00e-02,
443,4.00e-03,8.00e-02,
444,1.00e-02,8.00e-02,
445,-1.04e-02,6.00e-02,
446,-1.48e-02,6.00e-02,
447,1.40e-02,8.00e-02,
448,6.80e-03,8.00e-02,
449,-4.40e-03,4.00e-02,
450,3.20e-03,8.00e-02,
451,-1.20e-03,2.00e-02,
452,-8.00e-04,8.00e-02,
453,2.40e-03,2.00e-02,
454,-1.60e-03,2.00e-02,
455,4.00e-03,8.00e-02,
456,7.20e-03,2.00e-02,
457,4.00e-04,1.98e+00,
458,2.80e-03,1.20e-01,
459,0.00e+00,8.00e-02,
460,2.00e-03,1.00e-01,
461,-8.00e-04,6.00e-02,
462,-1.60e-03,6.00e-02,
463,3.20e-03,8.00e-02,
464,9.20e-03,6.00e-02,
465,-1.00e-02,8.00e-02,
466,-1.20e-02,6.00e-02,
467,1.40e-02,8.00e-02,
468,7.20e-03,8.00e-02,
469,-4.40e-03,2.00e-02,
470,-8.00e-04,8.00e-02,
471,2.40e-03,2.00e-02,
472,1.60e-03,2.00e-02,
473,-1.20e-03,8.00e-02,
474,-1.60e-03,8.00e-02,
475,4.40e-03,2.00e-02,
476,7.20e-03,2.00e-02,
477,4.00e-04,2.02e+00,
478,3.20e-03,1.20e-01,
479,-4.00e-04,8.00e-02,
480,2.00e-03,1.00e-01,
481,-1.20e-03,6.00e-02,
482,-2.00e-03,6.00e-02,
483,2.80e-03,8.00e-02,
484,8.00e-03,8.00e-02,
485,-9.60e-03,6.00e-02,
486,-1.40e-02,6.00e-02,
487,1.28e-02,8.00e-02,
488,7.20e-03,8.00e-02,
489,-4.40e-03,2.00e-02,
490,2.40e-03,8.00e-02,
491,-4.00e-04,2.00e-02,
492,1.20e-03,8.00e-02,
493,0.00e+00,2.00e-02,
494,-2.80e-03,6.00e-02,
495,4.00e-03,2.00e-02,
496,7.60e-03,2.00e-02,
497,0.00e+00,2.10e+00,
498,0.00e+00,1.40e-01,
499,2.80e-03,8.00e-02,
500,0.00e+00,1.00e-01,
501,2.40e-03,6.00e-02,
502,-2.40e-03,6.00e-02,
503,3.20e-03,8.00e-02,
504,8.00e-03,6.00e-02,
505,-8.40e-03,8.00e-02,
506,1.24e-02,6.00e-02,
507,-1.12e-02,8.00e-02,
508,5.60e-03,8.00e-02,
509,-2.80e-03,2.00e-02,
510,0.00e+00,8.00e-02,
511,2.00e-03,2.00e-02,
512,2.40e-03,8.00e-02,
513,-8.00e-04,2.00e-02,
514,-2.00e-03,2.00e-02,
515,4.40e-03,8.00e-02,
516,7.20e-03,4.00e-02,
517,0.00e+00,2.04e+00,
518,2.80e-03,1.20e-01,
519,0.00e+00,6.00e-02,
520,2.00e-03,1.00e-01,
521,-4.00e-04,6.00e-02,
522,2.40e-03,6.00e-02,
523,-2.00e-03,8.00e-02,
524,8.00e-03,6.00e-02,
525,-8.40e-03,8.00e-02,
526,-1.16e-02,6.00e-02,
527,1.24e-02,8.00e-02,
528,6.00e-03,8.00e-02,
529,-4.00e-03,2.00e-02,
530,2.00e-03,2.00e-02,
531,-8.00e-04,8.00e-02,
532,2.00e-03,8.00e-02,
533,-8.00e-04,2.00e-02,
534,-2.80e-03,8.00e-02,
535,4.80e-03,2.00e-02,
536,7.20e-03,2.00e-02,
537,4.00e-04,2.14e+00,
538,2.80e-03,1.20e-01,
539,0.00e+00,6.00e-02,
540,2.00e-03,1.00e-01,
541,-8.00e-04,6.00e-02,
542,2.40e-03,8.00e-02,
543,-1.60e-03,6.00e-02,
544,6.80e-03,6.00e-02,
545,-7.60e-03,8.00e-02,
546,-1.04e-02,6.00e-02,
547,1.28e-02,8.00e-02,
548,6.00e-03,8.00e-02,
549,-4.00e-03,2.00e-02,
550,2.00e-03,8.00e-02,
551,-8.00e-04,2.00e-02,
552,2.00e-03,8.00e-02,
553,-4.00e-04,2.00e-02,
554,-2.40e-03,2.00e-02,
555,4.00e-03,8.00e-02,
556,7.20e-03,2.00e-02,
557,4.00e-04,2.20e+00,
558,3.60e-03,1.40e-01,
559,-8.00e-04,8.00e-02,
560,2.40e-03,1.00e-01,
561,-8.00e-04,6.00e-02,
562,-2.40e-03,6.00e-02,
563,2.80e-03,8.00e-02,
564,7.20e-03,6.00e-02,
565,-8.40e-03,8.00e-02,
566,-1.12e-02,8.00e-02,
567,1.28e-02,2.00e-02,
568,5.20e-03,8.00e-02,
569,-3.20e-03,2.00e-02,
570,1.60e-03,8.00e-02,
571,-8.00e-04,2.00e-02,
572,2.00e-03,2.00e-02,
573,0.00e+00,8.00e-02,
574,3.20e-03,8.00e-02,
575,-2.40e-03,2.00e-02,
576,7.20e-03,4.00e-02,
577,4.00e-04,2.14e+00,
578,2.80e-03,1.20e-01,
579,-8.00e-04,6.00e-02,
580,-8.00e-04,1.00e-01,
581,2.00e-03,6.00e-02,
582,-1.20e-03,8.00e-02,
583,2.40e-03,6.00e-02,
584,5.60e-03,6.00e-02,
585,-7.60e-03,8.00e-02,
586,-1.00e-02,8.00e-02,
587,1.04e-02,2.00e-02,
588,4.80e-03,8.00e-02,
589,-4.00e-03,2.00e-02,
590,2.00e-03,8.00e-02,
591,0.00e+00,2.00e-02,
592,2.40e-03,8.00e-02,
593,0.00e+00,2.00e-02,
594,-2.40e-03,2.00e-02,
595,4.00e-03,8.00e-02,
596,7.60e-03,2.00e-02,
597,8.00e-04,2.14e+00,
598,2.80e-03,1.00e-01,
599,-8.00e-04,6.00e-02,
600,2.40e-03,6.00e-02,
601,-8.00e-04,1.00e-01,
602,-1.20e-03,8.00e-02,
603,2.80e-03,6.00e-02,
604,6.40e-03,6.00e-02,
605,-7.20e-03,8.00e-02,
606,-9.20e-03,6.00e-02,
607,1.00e-02,8.00e-02,
608,5.20e-03,8.00e-02,
609,-2.40e-03,4.00e-02,
610,-4.00e-04,8.00e-02,
611,2.40e-03,2.00e-02,
612,2.00e-03,8.00e-02,
613,-8.00e-04,2.00e-02,
614,-2.80e-03,2.00e-02,
615,4.00e-03,8.00e-02,
616,7.20e-03,2.00e-02,
617,4.00e-04,2.16e+00,
618,3.60e-03,1.40e-01,
619,-8.00e-04,6.00e-02,
620,2.00e-03,1.00e-01,
621,-8.00e-04,6.00e-02,
622,2.40e-03,6.00e-02,
623,-1.20e-03,8.00e-02,
624,7.20e-03,6.00e-02,
625,-6.80e-03,8.00e-02,
626,1.08e-02,8.00e-02,
627,-8.80e-03,2.00e-02,
628,4.40e-03,8.00e-02,
629,-2.80e-03,2.00e-02,
630,0.00e+00,8.00e-02,
631,2.00e-03,2.00e-02,
632,2.00e-03,8.00e-02,
633,-8.00e-04,2.00e-02,
634,-2.80e-03,2.00e-02,
635,4.00e-03,6.00e-02,
636,7.20e-03,2.00e-02,
637,0.00e+00,2.22e+00,
638,4.00e-03,1.20e-01,
639,-8.00e-04,8.00e-02,
640,2.40e-03,1.00e-01,
641,-8.00e-04,6.00e-02,
642,2.40e-03,6.00e-02,
643,-1.60e-03,8.00e-02,
644,6.40e-03,6.00e-02,
645,-6.40e-03,8.00e-02,
646,-8.80e-03,6.00e-02,
647,1.00e-02,8.00e-02,
648,5.60e-03,6.00e-02,
649,-3.60e-03,8.00e-02,
650,2.00e-03,8.00e-02,
651,-8.00e-04,2.00e-02,
652,2.00e-03,8.00e-02,
653,-8.00e-04,2.00e-02,
654,-2.40e-03,2.00e-02,
655,3.60e-03,8.00e-02,
656,7.60e-03,2.00e-02,
657,4.00e-04,2.08e+00,
658,4.00e-03,1.20e-01,
659,-8.00e-04,8.00e-02,
660,2.40e-03,1.00e-01,
661,-8.00e-04,6.00e-02,
662,2.40e-03,8.00e-02,
663,-1.20e-03,6.00e-02,
664,5.60e-03,6.00e-02,
665,-6.00e-03,8.00e-02,
666,-8.40e-03,8.00e-02,
667,9.20e-03,6.00e-02,
668,5.20e-03,8.00e-02,
669,-3.20e-03,2.00e-02,
670,2.00e-03,8.00e-02,
671,-8.00e-04,2.00e-02,
672,2.40e-03,8.00e-02,
673,-4.00e-04,2.00e-02,
674,3.60e-03,8.00e-02,
675,-2.40e-03,2.00e-02,
676,7.20e-03,2.00e-02,
677,4.00e-04,2.02e+00,
678,4.00e-03,1.20e-01,
679,-1.20e-03,6.00e-02,
680,2.00e-03,1.00e-01,
681,-1.20e-03,6.00e-02,
682,2.40e-03,8.00e-02,
683,-1.60e-03,6.00e-02,
684,6.00e-03,6.00e-02,
685,-6.00e-03,8.00e-02,
686,-8.00e-03,6.00e-02,
687,9.20e-03,8.00e-02,
688,4.00e-03,6.00e-02,
689,-2.80e-03,8.00e-02,
690,2.00e-03,8.00e-02,
691,-8.00e-04,4.00e-02,
692,-1.20e-03,8.00e-02,
693,2.00e-03,2.00e-02,
694,3.60e-03,8.00e-02,
695,-3.20e-03,2.00e-02,
696,8.00e-03,4.00e-02,
697,4.00e-04,2.02e+00,
698,3.60e-03,1.40e-01,
699,-8.00e-04,8.00e-02,
700,2.00e-03,1.00e-01,
701,-8.00e-04,6.00e-02,
702,2.00e-03,6.00e-02,
703,-1.20e-03,8.00e-02,
704,5.60e-03,6.00e-02,
705,-6.00e-03,8.00e-02,
706,-7.20e-03,8.00e-02,
707,8.40e-03,6.00e-02,
708,4.80e-03,6.00e-02,
709,-2.80e-03,8.00e-02,
710,2.40e-03,8.00e-02,
711,-8.00e-04,4.00e-02,
712,2.00e-03,8.00e-02,
713,-8.00e-04,2.00e-02,
714,-2.80e-03,2.00e-02,
715,4.00e-03,8.00e-02,
716,7.20e-03,2.04e+00,
717,1.20e-03,0.00e+00,
718,4.00e-03,8.00e-02,
719,-8.00e-04,1.20e-01,
720,-1.20e-03,1.00e-01,
721,2.00e-03,6.00e-02,
722,2.00e-03,8.00e-02,
723,-1.20e-03,6.00e-02,
724,5.20e-03,6.00e-02,
725,-4.80e-03,8.00e-02,
726,-7.20e-03,6.00e-02,
727,8.40e-03,8.00e-02,
728,4.80e-03,8.00e-02,
729,-2.80e-03,4.00e-02,
730,2.00e-03,8.00e-02,
731,-8.00e-04,2.00e-02,
732,2.40e-03,2.00e-02,
733,-8.00e-04,8.00e-02,
734,3.20e-03,2.00e-02,
735,-3.20e-03,8.00e-02,
736,7.60e-03,2.00e-02,
737,4.00e-04,2.06e+00,
738,4.00e-03,1.40e-01,
739,-1.20e-03,8.00e-02,
740,3.20e-03,6.00e-02,
741,-8.00e-04,1.00e-01,
742,2.40e-03,6.00e-02,
743,-1.60e-03,8.00e-02,
744,5.20e-03,6.00e-02,
745,-4.80e-03,8.00e-02,
746,-7.60e-03,8.00e-02,
747,8.00e-03,6.00e-02,
748,3.60e-03,8.00e-02,
749,-2.40e-03,4.00e-02,
750,1.20e-03,8.00e-02,
751,-8.00e-04,2.00e-02,
752,-8.00e-04,2.00e-02,
753,1.60e-03,8.00e-02,
754,2.80e-03,8.00e-02,
755,-2.80e-03,2.00e-02,
756,7.20e-03,2.00e-02,
757,4.00e-04,2.18e+00,
758,4.00e-03,1.20e-01,
759,-8.00e-04,6.00e-02,
760,2.40e-03,6.00e-02,
761,-8.00e-04,1.00e-01,
762,2.00e-03,8.00e-02,
763,-1.20e-03,6.00e-02,
764,5.20e-03,6.00e-02,
765,-4.40e-03,8.00e-02,
766,-7.20e-03,6.00e-02,
767,8.00e-03,8.00e-02,
768,4.40e-03,8.00e-02,
769,-2.40e-03,4.00e-02,
770,-8.00e-04,8.00e-02,
771,2.40e-03,2.00e-02,
772,2.00e-03,8.00e-02,
773,-8.00e-04,2.00e-02,
774,3.60e-03,2.00e-02,
775,-3.20e-03,8.00e-02,
776,8.00e-03,2.00e-02,
777,4.00e-04,2.20e+00,
778,3.60e-03,1.20e-01,
779,-1.20e-03,8.00e-02,
780,-8.00e-04,1.00e-01,
781,2.40e-03,6.00e-02,
782,2.40e-03,8.00e-02,
783,-4.00e-04,6.00e-02,
784,5.20e-03,6.00e-02,
785,-4.00e-03,8.00e-02,
786,7.20e-03,6.00e-02,
787,-6.00e-03,8.00e-02,
788,4.00e-03,8.00e-02,
789,-2.40e-03,4.00e-02,
790,2.40e-03,8.00e-02,
791,-8.00e-04,2.00e-02,
792,2.40e-03,2.00e-02,
793,-8.00e-04,8.00e-02,
794,3.20e-03,2.00e-02,
795,-3.20e-03,6.00e-02,
796,7.20e-03,2.00e-02,
797,4.00e-04,2.02e+00,
798,4.00e-03,1.40e-01,
799,-8.00e-04,6.00e-02,
800,2.00e-03,1.00e-01,
801,-8.00e-04,6.00e-02,
802,-8.00e-04,6.00e-02,
803,2.40e-03,8.00e-02,
804,4.40e-03,6.00e-02,
805,-5.20e-03,8.00e-02,
806,-6.00e-03,8.00e-02,
807,7.20e-03,6.00e-02,
808,3.60e-03,8.00e-02,
809,-2.40e-03,4.00e-02,
810,1.60e-03,8.00e-02,
811,-8.00e-04,4.00e-02,
812,2.40e-03,8.00e-02,
813,-1.20e-03,2.00e-02,
814,3.20e-03,8.00e-02,
815,-3.20e-03,2.00e-02,
816,8.00e-03,2.00e-02,
817,1.20e-03,2.20e+00,
818,4.80e-03,1.40e-01,
819,-8.00e-04,8.00e-02,
820,-8.00e-04,1.00e-01,
821,2.00e-03,6.00e-02,
822,-8.00e-04,6.00e-02,
823,1.60e-03,8.00e-02,
824,4.80e-03,8.00e-02,
825,-4.40e-03,6.00e-02,
826,6.80e-03,8.00e-02,
827,-5.60e-03,4.00e-02,
828,3.60e-03,6.00e-02,
829,-1.60e-03,8.00e-02,
830,1.20e-03,8.00e-02,
831,-4.00e-04,2.00e-02,
832,-8.00e-04,8.00e-02,
833,2.00e-03,2.00e-02,
834,4.40e-03,8.00e-02,
835,-2.80e-03,2.00e-02,
836,7.20e-03,2.00e-02,
837,4.00e-04,1.96e+00,
838,4.40e-03,1.20e-01,
839,-1.20e-03,6.00e-02,
840,-8.00e-04,1.00e-01,
841,2.40e-03,6.00e-02,
842,1.20e-03,8.00e-02,
843,-8.00e-04,6.00e-02,
844,4.00e-03,6.00e-02,
845,-4.00e-03,8.00e-02,
846,-5.60e-03,8.00e-02,
847,6.80e-03,6.00e-02,
848,-1.60e-03,8.00e-02,
849,3.20e-03,2.00e-02,
850,2.00e-03,8.00e-02,
851,-8.00e-04,2.00e-02,
852,2.00e-03,2.00e-02,
853,-1.20e-03,8.00e-02,
854,4.00e-03,2.00e-02,
855,-4.00e-03,8.00e-02,
856,8.00e-03,2.00e-02,
857,1.20e-03,2.06e+00,
858,5.20e-03,1.40e-01,
859,-8.00e-04,6.00e-02,
