CarrPurc_P1-19_P2-38_tauVary/Gly84/NewFile2.csv

X,CH1,CH2,Start,Increment,
Sequence,Volt,Volt,-6.880000e-02,2.000000e-04
0,1.20e-03,4.00e-02,
1,0.00e+00,0.00e+00,
2,0.00e+00,4.00e-02,
3,1.20e-03,2.00e-02,
4,1.20e-03,4.00e-02,
5,0.00e+00,0.00e+00,
6,1.20e-03,0.00e+00,
7,0.00e+00,4.00e-02,
8,4.00e-04,4.00e-02,
9,1.20e-03,2.00e-02,
10,4.00e-04,4.00e-02,
11,1.20e-03,0.00e+00,
12,1.20e-03,4.00e-02,
13,0.00e+00,0.00e+00,
14,0.00e+00,4.00e-02,
15,1.20e-03,0.00e+00,
16,0.00e+00,4.00e-02,
17,1.20e-03,0.00e+00,
18,0.00e+00,4.00e-02,
19,8.00e-04,0.00e+00,
20,4.00e-04,4.00e-02,
21,1.20e-03,0.00e+00,
22,1.20e-03,4.00e-02,
23,0.00e+00,0.00e+00,
24,1.20e-03,4.00e-02,
25,4.00e-04,0.00e+00,
26,1.20e-03,4.00e-02,
27,0.00e+00,0.00e+00,
28,0.00e+00,4.00e-02,
29,1.20e-03,0.00e+00,
30,1.20e-03,4.00e-02,
31,0.00e+00,0.00e+00,
32,0.00e+00,4.00e-02,
33,1.20e-03,0.00e+00,
34,0.00e+00,4.00e-02,
35,1.20e-03,0.00e+00,
36,1.20e-03,4.00e-02,
37,0.00e+00,0.00e+00,
38,1.20e-03,4.00e-02,
39,-8.00e-04,0.00e+00,
40,4.00e-04,4.00e-02,
41,1.20e-03,0.00e+00,
42,1.20e-03,4.00e-02,
43,0.00e+00,0.00e+00,
44,0.00e+00,4.00e-02,
45,1.20e-03,0.00e+00,
46,1.20e-03,4.00e-02,
47,4.00e-04,0.00e+00,
48,0.00e+00,4.00e-02,
49,1.20e-03,0.00e+00,
50,0.00e+00,4.00e-02,
51,2.00e-03,0.00e+00,
52,1.20e-03,4.00e-02,
53,0.00e+00,0.00e+00,
54,4.00e-04,4.00e-02,
55,1.20e-03,2.00e-02,
56,1.20e-03,4.00e-02,
57,0.00e+00,0.00e+00,
58,1.20e-03,4.00e-02,
59,0.00e+00,0.00e+00,
60,0.00e+00,4.00e-02,
61,1.20e-03,0.00e+00,
62,0.00e+00,4.00e-02,
63,1.20e-03,0.00e+00,
64,4.00e-04,4.00e-02,
65,1.20e-03,0.00e+00,
66,1.20e-03,0.00e+00,
67,0.00e+00,4.00e-02,
68,1.20e-03,4.00e-02,
69,0.00e+00,0.00e+00,
70,4.00e-04,4.00e-02,
71,1.60e-03,0.00e+00,
72,1.20e-03,4.00e-02,
73,4.00e-04,2.00e-02,
74,1.20e-03,4.00e-02,
75,0.00e+00,2.00e-02,
76,0.00e+00,4.00e-02,
77,1.20e-03,2.00e-02,
78,1.20e-03,4.00e-02,
79,0.00e+00,2.00e-02,
80,1.20e-03,4.00e-02,
81,4.00e-04,0.00e+00,
82,1.20e-03,4.00e-02,
83,0.00e+00,2.00e-02,
84,4.00e-04,4.00e-02,
85,1.20e-03,0.00e+00,
86,1.20e-03,4.00e-02,
87,4.00e-04,0.00e+00,
88,4.00e-04,4.00e-02,
89,1.20e-03,0.00e+00,
90,1.20e-03,4.00e-02,
91,0.00e+00,2.00e-02,
92,1.20e-03,4.00e-02,
93,0.00e+00,0.00e+00,
94,1.20e-03,4.00e-02,
95,0.00e+00,0.00e+00,
96,1.20e-03,4.00e-02,
97,0.00e+00,0.00e+00,
98,0.00e+00,4.00e-02,
99,1.20e-03,2.00e-02,
100,2.00e-03,4.00e-02,
101,4.00e-04,0.00e+00,
102,0.00e+00,4.00e-02,
103,1.20e-03,0.00e+00,
104,1.20e-03,4.00e-02,
105,0.00e+00,0.00e+00,
106,4.00e-04,4.00e-02,
107,1.20e-03,0.00e+00,
108,1.20e-03,0.00e+00,
109,0.00e+00,4.00e-02,
110,1.20e-03,4.00e-02,
111,4.00e-04,0.00e+00,
112,0.00e+00,4.00e-02,
113,1.20e-03,0.00e+00,
114,4.00e-04,0.00e+00,
115,1.20e-03,4.00e-02,
116,4.00e-04,4.00e-02,
117,1.20e-03,0.00e+00,
118,1.20e-03,4.00e-02,
119,0.00e+00,0.00e+00,
120,0.00e+00,2.00e-02,
121,1.20e-03,4.00e-02,
122,0.00e+00,4.00e-02,
123,1.20e-03,2.00e-02,
124,2.00e-03,4.00e-02,
125,4.00e-04,0.00e+00,
126,1.20e-03,4.00e-02,
127,0.00e+00,0.00e+00,
128,0.00e+00,0.00e+00,
129,2.00e-03,4.00e-02,
130,4.00e-04,0.00e+00,
131,1.20e-03,4.00e-02,
132,1.20e-03,4.00e-02,
133,0.00e+00,0.00e+00,
134,1.20e-03,0.00e+00,
135,0.00e+00,4.00e-02,
136,0.00e+00,4.00e-02,
137,1.20e-03,0.00e+00,
138,1.20e-03,4.00e-02,
139,-4.00e-04,0.00e+00,
140,4.00e-04,0.00e+00,
141,1.20e-03,4.00e-02,
142,1.20e-03,4.00e-02,
143,4.00e-04,0.00e+00,
144,1.20e-03,4.00e-02,
145,4.00e-04,0.00e+00,
146,1.20e-03,4.00e-02,
147,0.00e+00,0.00e+00,
148,0.00e+00,4.00e-02,
149,1.20e-03,0.00e+00,
150,0.00e+00,2.00e-02,
151,1.20e-03,4.00e-02,
152,1.20e-03,4.00e-02,
153,0.00e+00,0.00e+00,
154,1.20e-03,4.00e-02,
155,4.00e-04,0.00e+00,
156,1.20e-03,4.00e-02,
157,4.00e-04,0.00e+00,
158,1.20e-03,4.00e-02,
159,4.00e-04,0.00e+00,
160,1.20e-03,4.00e-02,
161,0.00e+00,0.00e+00,
162,1.20e-03,4.00e-02,
163,4.00e-04,0.00e+00,
164,1.20e-03,4.00e-02,
165,0.00e+00,0.00e+00,
166,0.00e+00,4.00e-02,
167,1.20e-03,0.00e+00,
168,1.20e-03,4.00e-02,
169,0.00e+00,0.00e+00,
170,4.00e-04,4.00e-02,
171,1.20e-03,0.00e+00,
172,1.20e-03,4.00e-02,
173,0.00e+00,0.00e+00,
174,0.00e+00,4.00e-02,
175,1.20e-03,0.00e+00,
176,0.00e+00,4.00e-02,
177,1.20e-03,2.00e-02,
178,1.20e-03,4.00e-02,
179,0.00e+00,0.00e+00,
180,1.20e-03,4.00e-02,
181,0.00e+00,0.00e+00,
182,1.20e-03,4.00e-02,
183,4.00e-04,0.00e+00,
184,0.00e+00,4.00e-02,
185,1.20e-03,0.00e+00,
186,0.00e+00,4.00e-02,
187,1.20e-03,0.00e+00,
188,1.20e-03,4.00e-02,
189,0.00e+00,0.00e+00,
190,1.20e-03,4.00e-02,
191,0.00e+00,0.00e+00,
192,1.20e-03,4.00e-02,
193,0.00e+00,0.00e+00,
194,1.20e-03,4.00e-02,
195,0.00e+00,0.00e+00,
196,4.00e-04,4.00e-02,
197,1.20e-03,0.00e+00,
198,1.20e-03,4.00e-02,
199,-4.00e-04,0.00e+00,
200,-8.00e-04,0.00e+00,
201,1.20e-03,4.00e-02,
202,1.20e-03,4.00e-02,
203,4.00e-04,0.00e+00,
204,0.00e+00,4.00e-02,
205,1.20e-03,0.00e+00,
206,1.20e-03,4.00e-02,
207,0.00e+00,0.00e+00,
208,0.00e+00,4.00e-02,
209,1.20e-03,2.00e-02,
210,8.00e-04,4.00e-02,
211,0.00e+00,0.00e+00,
212,1.20e-03,4.00e-02,
213,0.00e+00,0.00e+00,
214,0.00e+00,4.00e-02,
215,1.20e-03,0.00e+00,
216,0.00e+00,4.00e-02,
217,1.20e-03,2.00e-02,
218,1.20e-03,4.00e-02,
219,0.00e+00,0.00e+00,
220,4.00e-04,4.00e-02,
221,1.20e-03,0.00e+00,
222,1.20e-03,4.00e-02,
223,4.00e-04,0.00e+00,
224,0.00e+00,4.00e-02,
225,1.20e-03,0.00e+00,
226,1.20e-03,4.00e-02,
227,0.00e+00,2.00e-02,
228,0.00e+00,4.00e-02,
229,1.20e-03,0.00e+00,
230,1.20e-03,4.00e-02,
231,0.00e+00,0.00e+00,
232,0.00e+00,4.00e-02,
233,8.00e-04,2.00e-02,
234,0.00e+00,4.00e-02,
235,1.60e-03,2.00e-02,
236,2.00e-03,4.00e-02,
237,4.00e-04,0.00e+00,
238,1.20e-03,4.00e-02,
239,0.00e+00,2.00e-02,
240,1.20e-03,4.00e-02,
241,0.00e+00,0.00e+00,
242,0.00e+00,4.00e-02,
243,1.20e-03,0.00e+00,
244,1.20e-03,4.00e-02,
245,4.00e-04,2.00e-02,
246,1.20e-03,2.00e-02,
247,4.00e-04,4.00e-02,
248,4.00e-04,4.00e-02,
249,1.20e-03,0.00e+00,
250,1.20e-03,4.00e-02,
251,0.00e+00,0.00e+00,
252,1.20e-03,4.00e-02,
253,0.00e+00,0.00e+00,
254,1.20e-03,4.00e-02,
255,0.00e+00,0.00e+00,
256,0.00e+00,4.00e-02,
257,1.20e-03,2.00e-02,
258,1.20e-03,4.00e-02,
259,0.00e+00,2.00e-02,
260,1.20e-03,4.00e-02,
261,0.00e+00,0.00e+00,
262,0.00e+00,4.00e-02,
263,1.20e-03,0.00e+00,
264,1.20e-03,4.00e-02,
265,0.00e+00,0.00e+00,
266,1.20e-03,4.00e-02,
267,0.00e+00,0.00e+00,
268,0.00e+00,4.00e-02,
269,1.20e-03,0.00e+00,
270,1.20e-03,4.00e-02,
271,0.00e+00,0.00e+00,
272,0.00e+00,4.00e-02,
273,1.20e-03,0.00e+00,
274,1.20e-03,4.00e-02,
275,0.00e+00,0.00e+00,
276,1.20e-03,4.00e-02,
277,-4.00e-04,0.00e+00,
278,1.20e-03,4.00e-02,
279,0.00e+00,0.00e+00,
280,0.00e+00,4.00e-02,
281,1.20e-03,0.00e+00,
282,0.00e+00,4.00e-02,
283,1.20e-03,0.00e+00,
284,4.00e-04,4.00e-02,
285,1.20e-03,2.00e-02,
286,1.20e-03,4.00e-02,
287,0.00e+00,0.00e+00,
288,0.00e+00,4.00e-02,
289,8.00e-04,0.00e+00,
290,4.00e-04,4.00e-02,
291,1.20e-03,0.00e+00,
292,1.20e-03,4.00e-02,
293,0.00e+00,0.00e+00,
294,1.20e-03,4.00e-02,
295,0.00e+00,0.00e+00,
296,4.00e-04,4.00e-02,
297,1.20e-03,2.00e-02,
298,1.20e-03,4.00e-02,
299,0.00e+00,2.00e-02,
300,1.60e-03,4.00e-02,
301,0.00e+00,2.00e-02,
302,0.00e+00,4.00e-02,
303,1.20e-03,0.00e+00,
304,1.20e-03,2.00e-02,
305,0.00e+00,4.00e-02,
306,0.00e+00,4.00e-02,
307,1.20e-03,0.00e+00,
308,1.60e-03,4.00e-02,
309,4.00e-04,0.00e+00,
310,1.20e-03,4.00e-02,
311,0.00e+00,0.00e+00,
312,0.00e+00,4.00e-02,
313,1.20e-03,0.00e+00,
314,1.20e-03,4.00e-02,
315,0.00e+00,0.00e+00,
316,1.20e-03,4.00e-02,
317,0.00e+00,0.00e+00,
318,0.00e+00,4.00e-02,
319,1.20e-03,0.00e+00,
320,0.00e+00,4.00e-02,
321,1.20e-03,0.00e+00,
322,1.20e-03,4.00e-02,
323,0.00e+00,0.00e+00,
324,1.20e-03,4.00e-02,
325,0.00e+00,0.00e+00,
326,0.00e+00,4.00e-02,
327,1.20e-03,0.00e+00,
328,0.00e+00,4.00e-02,
329,1.20e-03,0.00e+00,
330,0.00e+00,4.00e-02,
331,1.20e-03,0.00e+00,
332,1.20e-03,4.00e-02,
333,0.00e+00,0.00e+00,
334,4.00e-04,4.00e-02,
335,1.20e-03,2.00e-02,
336,0.00e+00,4.00e-02,
337,1.20e-03,0.00e+00,
338,0.00e+00,4.00e-02,
339,1.20e-03,2.00e-02,
340,-4.00e-04,4.00e-02,
341,1.20e-03,0.00e+00,
342,1.20e-03,4.00e-02,
343,0.00e+00,0.00e+00,
344,1.20e-03,4.00e-02,
345,0.00e+00,2.00e-02,
346,5.60e-03,2.00e-02,
347,-2.76e-02,1.72e+00,
348,1.52e-02,1.20e-01,
349,-1.36e-02,6.00e-02,
350,-1.60e-03,1.00e-01,
351,4.00e-03,6.00e-02,
352,2.80e-03,6.00e-02,
353,-1.60e-03,8.00e-02,
354,2.40e-03,6.00e-02,
355,-8.00e-04,8.00e-02,
356,6.80e-03,6.00e-02,
357,-7.20e-03,2.20e+00,
358,-6.80e-03,1.20e-01,
359,6.40e-03,6.00e-02,
360,-8.00e-04,1.00e-01,
361,2.00e-03,6.00e-02,
362,-2.40e-03,6.00e-02,
363,6.80e-03,8.00e-02,
364,-1.52e-02,8.00e-02,
365,1.76e-02,6.00e-02,
366,-2.16e-02,8.00e-02,
367,2.32e-02,4.00e-02,
368,1.28e-02,8.00e-02,
369,-8.40e-03,2.00e-02,
370,2.80e-03,8.00e-02,
371,-1.20e-03,2.00e-02,
372,-8.00e-04,2.00e-02,
373,2.40e-03,8.00e-02,
374,-8.00e-04,2.00e-02,
375,2.00e-03,6.00e-02,
376,4.00e-04,2.14e+00,
377,7.20e-03,0.00e+00,
378,2.80e-03,1.40e-01,
379,-4.00e-04,6.00e-02,
380,-8.00e-04,1.00e-01,
381,2.40e-03,6.00e-02,
382,-3.20e-03,6.00e-02,
383,6.00e-03,8.00e-02,
384,1.28e-02,8.00e-02,
385,-1.32e-02,6.00e-02,
386,-1.76e-02,6.00e-02,
387,1.96e-02,8.00e-02,
388,8.40e-03,8.00e-02,
389,-5.60e-03,2.00e-02,
390,2.40e-03,8.00e-02,
391,-1.20e-03,2.00e-02,
392,-4.00e-04,8.00e-02,
393,2.40e-03,2.00e-02,
394,-3.20e-03,2.00e-02,
395,6.00e-03,8.00e-02,
396,7.20e-03,2.20e+00,
397,0.00e+00,0.00e+00,
398,2.80e-03,1.20e-01,
399,-8.00e-04,6.00e-02,
400,2.00e-03,1.00e-01,
401,-8.00e-04,6.00e-02,
402,3.60e-03,8.00e-02,
403,-3.60e-03,6.00e-02,
404,1.12e-02,6.00e-02,
405,-1.44e-02,8.00e-02,
406,-1.96e-02,8.00e-02,
407,1.96e-02,4.00e-02,
408,9.20e-03,8.00e-02,
409,-6.00e-03,2.00e-02,
410,2.40e-03,2.00e-02,
411,-8.00e-04,8.00e-02,
412,2.40e-03,2.00e-02,
413,-8.00e-04,8.00e-02,
414,-2.80e-03,2.00e-02,
415,5.60e-03,8.00e-02,
416,7.20e-03,2.00e-02,
417,-1.20e-03,2.18e+00,
418,-1.20e-03,1.40e-01,
419,3.60e-03,6.00e-02,
420,2.00e-03,1.00e-01,
421,-1.60e-03,6.00e-02,
422,-2.40e-03,6.00e-02,
423,4.00e-03,8.00e-02,
424,9.20e-03,6.00e-02,
425,-1.12e-02,8.00e-02,
426,-1.48e-02,8.00e-02,
427,1.64e-02,4.00e-02,
428,8.80e-03,8.00e-02,
429,-5.60e-03,2.00e-02,
430,2.40e-03,2.00e-02,
431,-4.00e-04,8.00e-02,
432,0.00e+00,8.00e-02,
433,2.00e-03,2.00e-02,
434,-2.40e-03,2.00e-02,
435,4.00e-03,6.00e-02,
436,7.60e-03,-8.00e-02,
437,-4.00e-04,2.16e+00,
438,-4.00e-04,1.20e-01,
439,3.20e-03,6.00e-02,
440,-8.00e-04,1.00e-01,
441,2.40e-03,6.00e-02,
442,-2.40e-03,6.00e-02,
443,5.20e-03,8.00e-02,
444,1.08e-02,8.00e-02,
445,-1.12e-02,6.00e-02,
446,-1.36e-02,6.00e-02,
447,1.60e-02,8.00e-02,
448,6.80e-03,8.00e-02,
449,-4.40e-03,2.00e-02,
450,2.40e-03,8.00e-02,
451,-8.00e-04,2.00e-02,
452,-8.00e-04,8.00e-02,
453,2.00e-03,2.00e-02,
454,-2.40e-03,8.00e-02,
455,4.00e-03,2.00e-02,
456,7.20e-03,2.00e-02,
457,4.00e-04,1.92e+00,
458,3.20e-03,1.20e-01,
459,0.00e+00,8.00e-02,
460,1.60e-03,1.00e-01,
461,-8.00e-04,6.00e-02,
462,-2.40e-03,6.00e-02,
463,3.60e-03,8.00e-02,
464,1.00e-02,6.00e-02,
465,-1.12e-02,8.00e-02,
466,-1.44e-02,8.00e-02,
467,1.60e-02,4.00e-02,
468,7.20e-03,8.00e-02,
469,-4.40e-03,2.00e-02,
470,2.40e-03,8.00e-02,
471,-1.20e-03,2.00e-02,
472,-8.00e-04,2.00e-02,
473,2.40e-03,8.00e-02,
474,-2.80e-03,2.00e-02,
475,4.00e-03,8.00e-02,
476,7.20e-03,2.00e-02,
477,4.00e-04,2.22e+00,
478,2.80e-03,1.20e-01,
479,-8.00e-04,6.00e-02,
480,-8.00e-04,1.00e-01,
481,2.40e-03,6.00e-02,
482,-1.60e-03,6.00e-02,
483,3.60e-03,8.00e-02,
484,8.80e-03,8.00e-02,
485,-9.60e-03,6.00e-02,
486,-1.44e-02,8.00e-02,
487,1.40e-02,4.00e-02,
488,7.20e-03,8.00e-02,
489,-5.20e-03,2.00e-02,
490,0.00e+00,8.00e-02,
491,2.40e-03,2.00e-02,
492,2.00e-03,8.00e-02,
493,0.00e+00,2.00e-02,
494,-2.80e-03,4.00e-02,
495,4.00e-03,2.00e-02,
496,7.60e-03,2.00e-02,
497,4.00e-04,2.18e+00,
498,3.60e-03,1.00e-01,
499,0.00e+00,6.00e-02,
500,2.40e-03,6.00e-02,
501,-4.00e-04,1.00e-01,
502,-2.00e-03,6.00e-02,
503,4.00e-03,8.00e-02,
504,9.60e-03,6.00e-02,
505,-9.60e-03,8.00e-02,
506,-1.28e-02,6.00e-02,
507,1.40e-02,8.00e-02,
508,6.80e-03,8.00e-02,
509,-4.00e-03,4.00e-02,
510,2.40e-03,8.00e-02,
511,-4.00e-04,2.00e-02,
512,2.00e-03,8.00e-02,
513,-8.00e-04,2.00e-02,
514,-2.40e-03,4.00e-02,
515,4.40e-03,2.00e-02,
516,7.60e-03,4.00e-02,
517,0.00e+00,2.24e+00,
518,2.80e-03,1.20e-01,
519,-8.00e-04,6.00e-02,
520,-8.00e-04,1.00e-01,
521,2.00e-03,6.00e-02,
522,2.40e-03,6.00e-02,
523,-1.60e-03,8.00e-02,
524,8.40e-03,6.00e-02,
525,-8.40e-03,8.00e-02,
526,1.44e-02,6.00e-02,
527,-1.12e-02,8.00e-02,
528,6.80e-03,8.00e-02,
529,-4.00e-03,2.00e-02,
530,-8.00e-04,8.00e-02,
531,2.40e-03,2.00e-02,
532,-1.20e-03,8.00e-02,
533,2.00e-03,2.00e-02,
534,-2.40e-03,8.00e-02,
535,4.00e-03,2.00e-02,
536,7.20e-03,2.00e-02,
537,4.00e-04,2.20e+00,
538,2.80e-03,1.20e-01,
539,0.00e+00,8.00e-02,
540,2.00e-03,1.00e-01,
541,-1.20e-03,6.00e-02,
542,2.80e-03,8.00e-02,
543,-1.60e-03,6.00e-02,
544,7.60e-03,6.00e-02,
545,-8.00e-03,8.00e-02,
546,-1.12e-02,8.00e-02,
547,1.32e-02,4.00e-02,
548,6.80e-03,8.00e-02,
549,-4.00e-03,2.00e-02,
550,2.40e-03,8.00e-02,
551,-8.00e-04,2.00e-02,
552,2.40e-03,8.00e-02,
553,0.00e+00,2.00e-02,
554,3.20e-03,2.00e-02,
555,-1.60e-03,8.00e-02,
556,7.20e-03,2.00e-02,
557,4.00e-04,2.20e+00,
558,4.00e-03,1.40e-01,
559,-8.00e-04,6.00e-02,
560,2.40e-03,1.00e-01,
561,-8.00e-04,6.00e-02,
562,2.80e-03,6.00e-02,
563,-1.60e-03,8.00e-02,
564,8.00e-03,6.00e-02,
565,-8.80e-03,8.00e-02,
566,-1.12e-02,6.00e-02,
567,1.28e-02,8.00e-02,
568,5.60e-03,8.00e-02,
569,-3.20e-03,2.00e-02,
570,2.00e-03,2.00e-02,
571,-4.00e-04,8.00e-02,
572,2.00e-03,2.00e-02,
573,-8.00e-04,8.00e-02,
574,-2.40e-03,2.00e-02,
575,4.40e-03,6.00e-02,
576,7.20e-03,4.00e-02,
577,4.00e-04,2.16e+00,
578,3.20e-03,1.00e-01,
579,-4.00e-04,6.00e-02,
580,2.40e-03,1.00e-01,
581,-8.00e-04,6.00e-02,
582,-1.20e-03,8.00e-02,
583,2.80e-03,6.00e-02,
584,8.00e-03,6.00e-02,
585,-8.80e-03,8.00e-02,
586,-1.24e-02,8.00e-02,
587,1.16e-02,6.00e-02,
588,6.80e-03,8.00e-02,
589,-3.20e-03,2.00e-02,
590,2.40e-03,8.00e-02,
591,-1.20e-03,2.00e-02,
592,2.00e-03,8.00e-02,
593,-1.20e-03,2.00e-02,
594,-2.40e-03,2.00e-02,
595,4.00e-03,8.00e-02,
596,7.60e-03,2.00e-02,
597,8.00e-04,2.20e+00,
598,2.80e-03,1.40e-01,
599,0.00e+00,8.00e-02,
600,2.00e-03,1.00e-01,
601,-8.00e-04,6.00e-02,
602,-1.60e-03,8.00e-02,
603,2.80e-03,6.00e-02,
604,6.80e-03,6.00e-02,
605,-8.00e-03,8.00e-02,
606,-1.04e-02,6.00e-02,
607,1.28e-02,8.00e-02,
608,6.00e-03,8.00e-02,
609,-3.60e-03,2.00e-02,
610,2.00e-03,8.00e-02,
611,-8.00e-04,2.00e-02,
612,2.40e-03,8.00e-02,
613,-8.00e-04,2.00e-02,
614,-1.60e-03,6.00e-02,
615,4.40e-03,2.00e-02,
616,7.20e-03,2.20e+00,
617,0.00e+00,0.00e+00,
618,3.60e-03,1.20e-01,
619,-8.00e-04,6.00e-02,
620,2.40e-03,1.00e-01,
621,-8.00e-04,6.00e-02,
622,3.20e-03,6.00e-02,
623,-1.60e-03,8.00e-02,
624,7.20e-03,6.00e-02,
625,-7.60e-03,8.00e-02,
626,1.16e-02,6.00e-02,
627,-1.00e-02,8.00e-02,
628,5.60e-03,8.00e-02,
629,-2.80e-03,2.00e-02,
630,-8.00e-04,8.00e-02,
631,2.00e-03,2.00e-02,
632,-4.00e-04,8.00e-02,
633,2.00e-03,2.00e-02,
634,-2.40e-03,2.00e-02,
635,4.00e-03,6.00e-02,
636,7.60e-03,2.00e-02,
637,1.20e-03,2.24e+00,
638,4.00e-03,1.20e-01,
639,-4.00e-04,8.00e-02,
640,2.00e-03,1.00e-01,
641,-8.00e-04,6.00e-02,
642,2.40e-03,6.00e-02,
643,-1.20e-03,8.00e-02,
644,6.40e-03,6.00e-02,
645,-6.40e-03,8.00e-02,
646,-8.80e-03,8.00e-02,
647,1.08e-02,4.00e-02,
648,5.20e-03,8.00e-02,
649,-2.80e-03,2.00e-02,
650,2.40e-03,8.00e-02,
651,-8.00e-04,2.00e-02,
652,2.00e-03,8.00e-02,
653,-8.00e-04,2.00e-02,
654,-2.40e-03,2.00e-02,
655,3.60e-03,8.00e-02,
656,7.20e-03,2.00e-02,
657,8.00e-04,2.20e+00,
658,4.00e-03,1.20e-01,
659,-4.00e-04,6.00e-02,
660,2.40e-03,1.00e-01,
661,-8.00e-04,6.00e-02,
662,2.40e-03,8.00e-02,
663,-1.20e-03,6.00e-02,
664,6.00e-03,6.00e-02,
665,-6.00e-03,8.00e-02,
666,-9.60e-03,8.00e-02,
667,1.00e-02,6.00e-02,
668,4.80e-03,8.00e-02,
669,-3.60e-03,2.00e-02,
670,-8.00e-04,8.00e-02,
671,2.40e-03,2.00e-02,
672,2.00e-03,8.00e-02,
673,-8.00e-04,2.00e-02,
674,3.60e-03,2.00e-02,
675,-2.00e-03,6.00e-02,
676,7.60e-03,2.00e-02,
677,8.00e-04,2.20e+00,
678,4.00e-03,1.00e-01,
679,-4.00e-04,6.00e-02,
680,2.40e-03,1.00e-01,
681,-8.00e-04,6.00e-02,
682,2.40e-03,8.00e-02,
683,-1.60e-03,6.00e-02,
684,6.40e-03,6.00e-02,
685,-6.00e-03,8.00e-02,
686,-8.40e-03,8.00e-02,
687,1.00e-02,4.00e-02,
688,4.00e-03,8.00e-02,
689,-2.80e-03,2.00e-02,
690,2.00e-03,8.00e-02,
691,-8.00e-04,2.00e-02,
692,2.00e-03,2.00e-02,
693,-8.00e-04,6.00e-02,
694,-2.00e-03,2.00e-02,
695,3.60e-03,6.00e-02,
696,7.20e-03,4.00e-02,
697,1.20e-03,2.16e+00,
698,4.00e-03,1.40e-01,
699,-8.00e-04,8.00e-02,
700,2.00e-03,1.00e-01,
701,-8.00e-04,6.00e-02,
702,2.40e-03,6.00e-02,
703,-1.20e-03,8.00e-02,
704,6.40e-03,6.00e-02,
705,-5.20e-03,8.00e-02,
706,-8.40e-03,8.00e-02,
707,9.60e-03,2.00e-02,
708,5.20e-03,2.00e-02,
709,-3.20e-03,8.00e-02,
710,2.40e-03,2.00e-02,
711,-4.00e-04,8.00e-02,
712,-8.00e-04,2.00e-02,
713,2.00e-03,8.00e-02,
714,3.60e-03,2.00e-02,
715,-2.40e-03,6.00e-02,
716,8.00e-03,2.00e-02,
717,8.00e-04,2.20e+00,
718,3.60e-03,1.20e-01,
719,-1.20e-03,6.00e-02,
720,2.40e-03,1.00e-01,
721,-8.00e-04,6.00e-02,
722,2.40e-03,8.00e-02,
723,-1.20e-03,6.00e-02,
724,5.60e-03,6.00e-02,
725,-5.60e-03,8.00e-02,
726,-7.60e-03,8.00e-02,
727,8.80e-03,2.00e-02,
728,4.80e-03,8.00e-02,
729,-2.40e-03,2.00e-02,
730,-8.00e-04,8.00e-02,
731,2.00e-03,2.00e-02,
732,2.00e-03,8.00e-02,
733,-8.00e-04,2.00e-02,
734,3.60e-03,2.00e-02,
735,-2.80e-03,6.00e-02,
736,7.20e-03,2.18e+00,
737,4.00e-04,0.00e+00,
738,3.60e-03,1.20e-01,
739,-8.00e-04,6.00e-02,
740,-8.00e-04,1.00e-01,
741,2.00e-03,6.00e-02,
742,2.40e-03,6.00e-02,
743,-1.20e-03,8.00e-02,
744,5.60e-03,6.00e-02,
745,-5.20e-03,8.00e-02,
746,-7.20e-03,8.00e-02,
747,9.60e-03,4.00e-02,
748,4.00e-03,8.00e-02,
749,-2.40e-03,2.00e-02,
750,0.00e+00,8.00e-02,
751,2.00e-03,2.00e-02,
752,2.00e-03,2.00e-02,
753,-8.00e-04,8.00e-02,
754,3.60e-03,6.00e-02,
755,-2.80e-03,2.00e-02,
756,8.00e-03,2.00e-02,
757,8.00e-04,2.24e+00,
758,4.00e-03,1.20e-01,
759,-4.00e-04,6.00e-02,
760,2.00e-03,1.00e-01,
761,-8.00e-04,6.00e-02,
762,2.00e-03,8.00e-02,
763,-8.00e-04,6.00e-02,
764,5.20e-03,6.00e-02,
765,-5.60e-03,8.00e-02,
766,-7.60e-03,8.00e-02,
767,8.40e-03,4.00e-02,
768,4.00e-03,8.00e-02,
769,-2.80e-03,2.00e-02,
770,2.40e-03,8.00e-02,
771,-8.00e-04,2.00e-02,
772,2.00e-03,8.00e-02,
773,-8.00e-04,2.00e-02,
774,3.60e-03,2.00e-02,
775,-2.80e-03,8.00e-02,
776,7.60e-03,2.00e-02,
777,8.00e-04,2.18e+00,
778,4.00e-03,1.20e-01,
779,-8.00e-04,6.00e-02,
780,2.80e-03,6.00e-02,
781,-4.00e-04,1.00e-01,
782,2.40e-03,8.00e-02,
783,-1.20e-03,6.00e-02,
784,4.40e-03,6.00e-02,
785,-4.80e-03,8.00e-02,
786,-6.80e-03,8.00e-02,
787,7.60e-03,2.00e-02,
788,4.00e-03,8.00e-02,
789,-1.60e-03,4.00e-02,
790,0.00e+00,8.00e-02,
791,2.40e-03,2.00e-02,
792,2.00e-03,8.00e-02,
793,-8.00e-04,2.00e-02,
794,4.00e-03,2.00e-02,
795,-2.80e-03,8.00e-02,
796,7.60e-03,2.00e-02,
797,4.00e-04,2.20e+00,
798,4.00e-03,1.40e-01,
799,-8.00e-04,8.00e-02,
800,-1.20e-03,6.00e-02,
801,2.40e-03,1.00e-01,
802,-8.00e-04,6.00e-02,
803,2.40e-03,8.00e-02,
804,5.20e-03,6.00e-02,
805,-5.20e-03,8.00e-02,
806,-6.80e-03,8.00e-02,
807,8.00e-03,6.00e-02,
808,3.60e-03,8.00e-02,
809,-1.60e-03,4.00e-02,
810,2.00e-03,8.00e-02,
811,-4.00e-04,2.00e-02,
812,2.40e-03,8.00e-02,
813,-8.00e-04,2.00e-02,
814,2.80e-03,2.00e-02,
815,-2.80e-03,8.00e-02,
816,7.20e-03,2.00e-02,
817,1.20e-03,2.16e+00,
818,4.00e-03,1.40e-01,
819,-1.20e-03,6.00e-02,
820,-8.00e-04,1.00e-01,
821,2.40e-03,6.00e-02,
822,2.40e-03,6.00e-02,
823,-8.00e-04,8.00e-02,
824,5.20e-03,8.00e-02,
825,-4.00e-03,6.00e-02,
826,7.20e-03,6.00e-02,
827,-6.80e-03,8.00e-02,
828,3.60e-03,8.00e-02,
829,-1.60e-03,4.00e-02,
830,0.00e+00,8.00e-02,
831,2.40e-03,2.00e-02,
832,-8.00e-04,6.00e-02,
833,2.80e-03,2.00e-02,
834,3.60e-03,6.00e-02,
835,-3.20e-03,2.00e-02,
836,8.00e-03,2.00e-02,
837,4.00e-04,2.18e+00,
838,4.00e-03,1.20e-01,
839,-8.00e-04,6.00e-02,
840,2.00e-03,6.00e-02,
841,-8.00e-04,1.00e-01,
842,2.00e-03,8.00e-02,
843,-8.00e-04,6.00e-02,
844,5.20e-03,6.00e-02,
845,-4.40e-03,8.00e-02,
846,-6.00e-03,8.00e-02,
847,6.80e-03,2.00e-02,
848,4.00e-03,8.00e-02,
849,-2.40e-03,2.00e-02,
850,2.00e-03,8.00e-02,
851,-4.00e-04,2.00e-02,
852,2.00e-03,2.00e-02,
853,-8.00e-04,8.00e-02,
854,4.00e-03,6.00e-02,
855,-2.80e-03,2.00e-02,
856,8.00e-03,2.00e-02,
857,1.20e-03,2.18e+00,
858,4.40e-03,1.40e-01,
859,-8.00e-04,8.00e-02,
860,2.00e-03,6.00e-02,
