CarrPurc_P1-19_P2-38_tauVary/Gly50/NewFile6.csv

X,CH1,CH2,Start,Increment,
Sequence,Volt,Volt,-3.600000e-03,2.000000e-04
0,0.00e+00,4.00e-02,
1,2.00e-03,0.00e+00,
2,0.00e+00,4.00e-02,
3,2.00e-03,0.00e+00,
4,0.00e+00,4.00e-02,
5,1.20e-03,0.00e+00,
6,0.00e+00,4.00e-02,
7,2.00e-03,0.00e+00,
8,-8.00e-04,4.00e-02,
9,2.00e-03,0.00e+00,
10,0.00e+00,4.00e-02,
11,1.20e-03,0.00e+00,
12,0.00e+00,4.00e-02,
13,1.20e-03,0.00e+00,
14,0.00e+00,4.00e-02,
15,1.60e-03,0.00e+00,
16,1.20e-03,4.00e-02,
17,0.00e+00,0.00e+00,
18,0.00e+00,4.00e-02,
19,1.20e-03,2.00e-02,
20,7.60e-03,0.00e+00,
21,-3.12e-02,1.98e+00,
22,2.32e-02,1.20e-01,
23,-1.84e-02,8.00e-02,
24,6.00e-03,1.00e-01,
25,-2.80e-03,6.00e-02,
26,3.60e-03,6.00e-02,
27,-2.40e-03,8.00e-02,
28,-1.20e-03,6.00e-02,
29,2.80e-03,8.00e-02,
30,2.00e-03,6.00e-02,
31,-8.00e-04,8.00e-02,
32,2.40e-03,8.00e-02,
33,-8.00e-04,2.00e-02,
34,-8.00e-04,2.00e-02,
35,8.80e-03,2.08e+00,
36,8.00e-03,1.60e-01,
37,-6.80e-03,8.00e-02,
38,3.60e-03,1.00e-01,
39,-1.60e-03,6.00e-02,
40,-8.00e-04,6.00e-02,
41,2.40e-03,8.00e-02,
42,-1.20e-03,6.00e-02,
43,2.80e-03,8.00e-02,
44,-1.60e-03,6.00e-02,
45,2.80e-03,8.00e-02,
46,-5.60e-03,6.00e-02,
47,8.00e-03,8.00e-02,
48,-2.24e-02,8.00e-02,
49,2.72e-02,2.00e-02,
50,-3.20e-02,8.00e-02,
51,3.44e-02,2.00e-02,
52,1.76e-02,2.00e-02,
53,-1.32e-02,8.00e-02,
54,4.40e-03,2.00e-02,
55,-1.20e-03,6.00e-02,
56,-1.20e-03,2.00e-02,
57,2.40e-03,6.00e-02,
58,-8.00e-04,2.00e-02,
59,2.00e-03,6.00e-02,
60,1.60e-03,4.00e-02,
61,-8.00e-04,2.00e-02,
62,2.00e-03,4.00e-02,
63,-8.00e-04,2.00e-02,
64,-8.00e-04,2.00e-02,
65,8.00e-03,2.04e+00,
66,8.00e-03,1.60e-01,
67,0.00e+00,8.00e-02,
68,-8.00e-04,1.00e-01,
69,2.00e-03,6.00e-02,
70,-8.00e-04,6.00e-02,
71,2.40e-03,8.00e-02,
72,2.00e-03,8.00e-02,
73,-1.20e-03,6.00e-02,
74,-1.20e-03,6.00e-02,
75,2.80e-03,8.00e-02,
76,-4.80e-03,8.00e-02,
77,8.00e-03,2.00e-02,
78,-1.96e-02,4.00e-02,
79,1.92e-02,8.00e-02,
80,-2.52e-02,8.00e-02,
81,2.60e-02,2.00e-02,
82,1.24e-02,8.00e-02,
83,-9.20e-03,2.00e-02,
84,2.80e-03,8.00e-02,
85,-1.60e-03,2.00e-02,
86,2.40e-03,2.00e-02,
87,-1.20e-03,4.00e-02,
88,2.40e-03,4.00e-02,
89,-4.00e-04,2.00e-02,
90,2.00e-03,4.00e-02,
91,-4.00e-04,2.00e-02,
92,-1.20e-03,4.00e-02,
93,3.60e-03,2.00e-02,
94,-3.60e-03,2.00e-02,
95,9.20e-03,2.00e+00,
96,8.00e-03,1.60e-01,
97,-1.20e-03,8.00e-02,
98,-8.00e-04,1.00e-01,
99,2.40e-03,6.00e-02,
100,0.00e+00,8.00e-02,
101,2.40e-03,6.00e-02,
102,-8.00e-04,6.00e-02,
103,1.60e-03,8.00e-02,
104,2.40e-03,6.00e-02,
105,-1.20e-03,8.00e-02,
106,-4.80e-03,2.00e-02,
107,7.60e-03,8.00e-02,
108,1.68e-02,8.00e-02,
109,-1.92e-02,2.00e-02,
110,-2.72e-02,2.00e-02,
111,2.72e-02,8.00e-02,
112,1.36e-02,2.00e-02,
113,-9.60e-03,6.00e-02,
114,4.00e-03,4.00e-02,
115,-1.60e-03,2.00e-02,
116,2.40e-03,4.00e-02,
117,-4.00e-04,2.00e-02,
118,-8.00e-04,4.00e-02,
119,2.40e-03,2.00e-02,
120,2.40e-03,2.00e-02,
121,-8.00e-04,4.00e-02,
122,-1.20e-03,4.00e-02,
123,2.80e-03,2.00e-02,
124,-2.80e-03,2.00e-02,
125,9.60e-03,1.92e+00,
126,8.40e-03,1.60e-01,
127,-1.60e-03,8.00e-02,
128,2.80e-03,1.00e-01,
129,-8.00e-04,6.00e-02,
130,0.00e+00,6.00e-02,
131,2.00e-03,8.00e-02,
132,2.40e-03,6.00e-02,
133,-4.00e-04,8.00e-02,
134,2.40e-03,6.00e-02,
135,-1.20e-03,8.00e-02,
136,-4.40e-03,8.00e-02,
137,6.80e-03,4.00e-02,
138,-1.64e-02,8.00e-02,
139,2.00e-02,2.00e-02,
140,-2.36e-02,8.00e-02,
141,2.48e-02,2.00e-02,
142,1.28e-02,8.00e-02,
143,-9.20e-03,2.00e-02,
144,4.00e-03,8.00e-02,
145,-2.40e-03,2.00e-02,
146,2.00e-03,4.00e-02,
147,-4.00e-04,2.00e-02,
148,2.00e-03,4.00e-02,
149,-4.00e-04,2.00e-02,
150,2.00e-03,2.00e-02,
151,0.00e+00,4.00e-02,
152,2.00e-03,4.00e-02,
153,-1.20e-03,2.00e-02,
154,-1.60e-03,2.00e-02,
155,8.40e-03,2.00e+00,
156,8.00e-03,1.60e-01,
157,-4.00e-04,8.00e-02,
158,2.00e-03,1.00e-01,
159,0.00e+00,6.00e-02,
160,1.60e-03,6.00e-02,
161,-4.00e-04,8.00e-02,
162,-8.00e-04,6.00e-02,
163,2.00e-03,8.00e-02,
164,-8.00e-04,6.00e-02,
165,2.40e-03,8.00e-02,
166,-4.80e-03,8.00e-02,
167,7.60e-03,4.00e-02,
168,-1.80e-02,8.00e-02,
169,2.04e-02,2.00e-02,
170,-2.40e-02,8.00e-02,
171,2.44e-02,2.00e-02,
172,1.12e-02,2.00e-02,
173,-7.60e-03,8.00e-02,
174,3.60e-03,2.00e-02,
175,-1.20e-03,8.00e-02,
176,2.80e-03,6.00e-02,
177,-1.20e-03,2.00e-02,
178,-8.00e-04,2.00e-02,
179,2.00e-03,6.00e-02,
180,0.00e+00,4.00e-02,
181,2.00e-03,2.00e-02,
182,2.40e-03,4.00e-02,
183,-2.40e-03,2.00e-02,
184,-2.00e-03,2.00e-02,
185,8.40e-03,1.98e+00,
186,8.00e-03,1.60e-01,
187,-1.20e-03,8.00e-02,
188,2.00e-03,1.00e-01,
189,0.00e+00,6.00e-02,
190,1.20e-03,6.00e-02,
191,-8.00e-04,8.00e-02,
192,-8.00e-04,6.00e-02,
193,2.00e-03,8.00e-02,
194,-8.00e-04,6.00e-02,
195,2.40e-03,8.00e-02,
196,-4.40e-03,8.00e-02,
197,7.20e-03,4.00e-02,
198,-1.84e-02,8.00e-02,
199,1.88e-02,2.00e-02,
200,-2.36e-02,2.00e-02,
201,2.52e-02,8.00e-02,
202,1.32e-02,2.00e-02,
203,-9.20e-03,6.00e-02,
204,4.00e-03,4.00e-02,
205,-1.60e-03,2.00e-02,
206,-8.00e-04,2.00e-02,
207,2.40e-03,6.00e-02,
208,2.00e-03,4.00e-02,
209,-4.00e-04,2.00e-02,
210,2.40e-03,4.00e-02,
211,0.00e+00,2.00e-02,
212,2.40e-03,4.00e-02,
213,-1.60e-03,2.00e-02,
214,-2.80e-03,2.00e-02,
215,8.80e-03,1.78e+00,
216,8.40e-03,1.60e-01,
217,-1.20e-03,8.00e-02,
218,2.80e-03,1.00e-01,
219,-8.00e-04,6.00e-02,
220,1.60e-03,6.00e-02,
221,-4.00e-04,8.00e-02,
222,-1.20e-03,6.00e-02,
223,2.40e-03,8.00e-02,
224,-8.00e-04,6.00e-02,
225,2.40e-03,8.00e-02,
226,-4.40e-03,8.00e-02,
227,6.40e-03,6.00e-02,
228,-1.48e-02,8.00e-02,
229,1.96e-02,2.00e-02,
230,-2.24e-02,2.00e-02,
231,2.52e-02,8.00e-02,
232,1.32e-02,8.00e-02,
233,-9.20e-03,2.00e-02,
234,3.60e-03,2.00e-02,
235,-1.60e-03,6.00e-02,
236,-4.00e-04,4.00e-02,
237,2.40e-03,2.00e-02,
238,2.40e-03,4.00e-02,
239,0.00e+00,2.00e-02,
240,1.60e-03,4.00e-02,
241,-1.20e-03,2.00e-02,
242,2.40e-03,4.00e-02,
243,-4.00e-04,2.00e-02,
244,-2.40e-03,2.00e-02,
245,9.20e-03,1.96e+00,
246,8.40e-03,1.60e-01,
247,-4.00e-04,8.00e-02,
248,2.40e-03,1.00e-01,
249,0.00e+00,6.00e-02,
250,0.00e+00,8.00e-02,
251,2.00e-03,6.00e-02,
252,-8.00e-04,6.00e-02,
253,2.40e-03,8.00e-02,
254,-4.00e-04,8.00e-02,
255,2.40e-03,4.00e-02,
256,-4.00e-03,8.00e-02,
257,8.00e-03,2.00e-02,
258,-1.72e-02,2.00e-02,
259,2.16e-02,8.00e-02,
260,-2.32e-02,8.00e-02,
261,2.32e-02,2.00e-02,
262,1.04e-02,4.00e-02,
263,-7.20e-03,2.00e-02,
264,3.20e-03,2.00e-02,
265,-1.20e-03,4.00e-02,
266,2.00e-03,4.00e-02,
267,-8.00e-04,2.00e-02,
268,2.40e-03,4.00e-02,
269,-4.00e-04,2.00e-02,
270,1.20e-03,4.00e-02,
271,0.00e+00,2.00e-02,
272,2.80e-03,4.00e-02,
273,-1.60e-03,2.00e-02,
274,-2.00e-03,2.00e-02,
275,8.40e-03,2.06e+00,
276,8.00e-03,1.60e-01,
277,-1.20e-03,8.00e-02,
278,2.00e-03,1.00e-01,
279,0.00e+00,6.00e-02,
280,-8.00e-04,8.00e-02,
281,2.40e-03,6.00e-02,
282,1.60e-03,6.00e-02,
283,-4.00e-04,8.00e-02,
284,2.00e-03,8.00e-02,
285,-1.20e-03,4.00e-02,
286,-4.00e-03,8.00e-02,
287,6.80e-03,2.00e-02,
288,-1.84e-02,8.00e-02,
289,1.68e-02,2.00e-02,
290,-2.40e-02,8.00e-02,
291,2.44e-02,2.00e-02,
292,1.24e-02,8.00e-02,
293,-8.80e-03,2.00e-02,
294,4.00e-03,2.00e-02,
295,-1.20e-03,6.00e-02,
296,2.00e-03,4.00e-02,
297,-8.00e-04,2.00e-02,
298,2.00e-03,4.00e-02,
299,0.00e+00,2.00e-02,
300,1.60e-03,4.00e-02,
301,-4.00e-04,2.00e-02,
302,2.40e-03,4.00e-02,
303,-1.60e-03,2.00e-02,
304,-2.80e-03,2.00e-02,
305,8.40e-03,2.06e+00,
306,8.00e-03,1.60e-01,
307,-8.00e-04,8.00e-02,
308,2.40e-03,1.00e-01,
309,-4.00e-04,6.00e-02,
310,1.20e-03,6.00e-02,
311,-8.00e-04,1.00e-01,
312,-1.20e-03,6.00e-02,
313,2.40e-03,8.00e-02,
314,2.40e-03,6.00e-02,
315,-1.20e-03,8.00e-02,
316,-4.00e-03,8.00e-02,
317,7.20e-03,4.00e-02,
318,-1.56e-02,8.00e-02,
319,1.92e-02,2.00e-02,
320,-2.28e-02,8.00e-02,
321,2.28e-02,2.00e-02,
322,1.28e-02,2.00e-02,
323,-8.40e-03,8.00e-02,
324,3.60e-03,2.00e-02,
325,-1.60e-03,8.00e-02,
326,2.40e-03,4.00e-02,
327,-8.00e-04,2.00e-02,
328,1.60e-03,2.00e-02,
329,-8.00e-04,6.00e-02,
330,0.00e+00,4.00e-02,
331,1.60e-03,2.00e-02,
332,-8.00e-04,4.00e-02,
333,2.40e-03,2.00e-02,
334,-2.80e-03,2.00e-02,
335,9.20e-03,2.08e+00,
336,8.40e-03,1.60e-01,
337,-8.00e-04,8.00e-02,
338,2.40e-03,1.00e-01,
339,0.00e+00,6.00e-02,
340,0.00e+00,6.00e-02,
341,2.40e-03,8.00e-02,
342,2.00e-03,6.00e-02,
343,0.00e+00,8.00e-02,
344,2.00e-03,8.00e-02,
345,-8.00e-04,6.00e-02,
346,-4.40e-03,6.00e-02,
347,7.60e-03,8.00e-02,
348,-1.72e-02,8.00e-02,
349,2.04e-02,2.00e-02,
350,-2.16e-02,8.00e-02,
351,2.36e-02,2.00e-02,
352,1.00e-02,8.00e-02,
353,-6.80e-03,2.00e-02,
354,2.80e-03,2.00e-02,
355,-1.60e-03,8.00e-02,
356,-8.00e-04,2.00e-02,
357,2.40e-03,4.00e-02,
358,2.00e-03,2.00e-02,
359,-8.00e-04,4.00e-02,
360,1.20e-03,4.00e-02,
361,-8.00e-04,2.00e-02,
362,2.40e-03,4.00e-02,
363,-1.60e-03,2.00e-02,
364,-2.40e-03,2.00e-02,
365,8.80e-03,2.08e+00,
366,8.40e-03,1.40e-01,
367,-8.00e-04,8.00e-02,
368,2.00e-03,1.00e-01,
369,0.00e+00,6.00e-02,
370,1.60e-03,6.00e-02,
371,-4.00e-04,8.00e-02,
372,-4.00e-04,6.00e-02,
373,2.00e-03,8.00e-02,
374,-8.00e-04,6.00e-02,
375,2.40e-03,8.00e-02,
376,-3.20e-03,8.00e-02,
377,6.40e-03,4.00e-02,
378,-1.72e-02,8.00e-02,
379,2.00e-02,2.00e-02,
380,-2.12e-02,8.00e-02,
381,2.28e-02,2.00e-02,
382,1.16e-02,8.00e-02,
383,-8.80e-03,2.00e-02,
384,4.00e-03,2.00e-02,
385,-1.20e-03,6.00e-02,
386,-8.00e-04,2.00e-02,
387,2.00e-03,6.00e-02,
388,2.40e-03,2.00e-02,
389,-8.00e-04,4.00e-02,
390,1.20e-03,4.00e-02,
391,-4.00e-04,2.00e-02,
392,2.40e-03,4.00e-02,
393,-2.40e-03,2.00e-02,
394,-2.80e-03,2.00e-02,
395,8.80e-03,1.92e+00,
396,8.00e-03,1.60e-01,
397,-1.20e-03,8.00e-02,
398,2.40e-03,1.00e-01,
399,-8.00e-04,6.00e-02,
400,-8.00e-04,6.00e-02,
401,2.40e-03,8.00e-02,
402,2.40e-03,8.00e-02,
403,-8.00e-04,6.00e-02,
404,0.00e+00,6.00e-02,
405,2.40e-03,8.00e-02,
406,-3.20e-03,6.00e-02,
407,5.60e-03,8.00e-02,
408,-1.48e-02,2.00e-02,
409,1.84e-02,8.00e-02,
410,-2.04e-02,2.00e-02,
411,2.28e-02,8.00e-02,
412,1.12e-02,2.00e-02,
413,-9.20e-03,8.00e-02,
414,4.00e-03,6.00e-02,
415,-1.20e-03,2.00e-02,
416,0.00e+00,2.00e-02,
417,2.00e-03,6.00e-02,
418,-8.00e-04,4.00e-02,
419,1.20e-03,2.00e-02,
420,1.20e-03,2.00e-02,
421,0.00e+00,4.00e-02,
422,2.00e-03,4.00e-02,
423,-1.20e-03,2.00e-02,
424,-2.80e-03,2.00e-02,
425,9.20e-03,1.94e+00,
426,8.40e-03,1.60e-01,
427,-1.20e-03,8.00e-02,
428,2.00e-03,1.00e-01,
429,0.00e+00,6.00e-02,
430,2.00e-03,6.00e-02,
431,0.00e+00,8.00e-02,
432,2.00e-03,6.00e-02,
433,-4.00e-04,8.00e-02,
434,2.40e-03,6.00e-02,
435,-8.00e-04,8.00e-02,
436,-4.00e-03,8.00e-02,
437,7.20e-03,2.00e-02,
438,-1.60e-02,8.00e-02,
439,2.08e-02,2.00e-02,
440,-2.08e-02,2.00e-02,
441,2.28e-02,8.00e-02,
442,1.08e-02,8.00e-02,
443,-7.20e-03,2.00e-02,
444,3.60e-03,2.00e-02,
445,-8.00e-04,6.00e-02,
446,-1.20e-03,4.00e-02,
447,2.40e-03,2.00e-02,
448,2.40e-03,2.00e-02,
449,-8.00e-04,4.00e-02,
450,0.00e+00,2.00e-02,
451,1.20e-03,4.00e-02,
452,2.00e-03,4.00e-02,
453,-1.20e-03,2.00e-02,
454,-2.40e-03,2.00e-02,
455,9.60e-03,1.92e+00,
456,8.80e-03,1.60e-01,
457,-8.00e-04,8.00e-02,
458,2.00e-03,1.00e-01,
459,0.00e+00,6.00e-02,
460,0.00e+00,6.00e-02,
461,1.60e-03,8.00e-02,
462,-8.00e-04,6.00e-02,
463,1.60e-03,8.00e-02,
464,-8.00e-04,6.00e-02,
465,2.80e-03,8.00e-02,
466,-3.20e-03,2.00e-02,
467,6.00e-03,8.00e-02,
468,-1.52e-02,8.00e-02,
469,1.96e-02,2.00e-02,
470,-2.12e-02,8.00e-02,
471,2.12e-02,2.00e-02,
472,1.00e-02,4.00e-02,
473,-8.00e-03,2.00e-02,
474,3.20e-03,4.00e-02,
475,-1.20e-03,2.00e-02,
476,1.60e-03,4.00e-02,
477,-8.00e-04,2.00e-02,
478,2.00e-03,4.00e-02,
479,-8.00e-04,2.00e-02,
480,1.60e-03,4.00e-02,
481,-4.00e-04,2.00e-02,
482,-1.20e-03,2.00e-02,
483,3.60e-03,4.00e-02,
484,-2.80e-03,2.00e-02,
485,8.40e-03,2.04e+00,
486,8.00e-03,1.60e-01,
487,-8.00e-04,8.00e-02,
488,0.00e+00,1.00e-01,
489,2.00e-03,6.00e-02,
490,0.00e+00,6.00e-02,
491,2.00e-03,8.00e-02,
492,0.00e+00,6.00e-02,
493,2.40e-03,8.00e-02,
494,2.40e-03,6.00e-02,
495,-1.20e-03,8.00e-02,
496,-3.20e-03,8.00e-02,
497,6.40e-03,4.00e-02,
498,-1.40e-02,8.00e-02,
499,2.00e-02,2.00e-02,
500,-2.00e-02,8.00e-02,
501,2.28e-02,2.00e-02,
502,1.04e-02,2.00e-02,
503,-7.60e-03,8.00e-02,
504,4.00e-03,2.00e-02,
505,-8.00e-04,8.00e-02,
506,2.00e-03,2.00e-02,
507,-8.00e-04,4.00e-02,
508,0.00e+00,4.00e-02,
509,2.40e-03,2.00e-02,
510,1.60e-03,4.00e-02,
511,0.00e+00,2.00e-02,
512,-4.00e-04,4.00e-02,
513,2.40e-03,2.00e-02,
514,-2.00e-03,2.00e-02,
515,8.80e-03,1.98e+00,
516,8.40e-03,1.60e-01,
517,-8.00e-04,8.00e-02,
518,0.00e+00,1.00e-01,
519,2.00e-03,6.00e-02,
520,1.20e-03,6.00e-02,
521,-4.00e-04,8.00e-02,
522,0.00e+00,6.00e-02,
523,2.00e-03,8.00e-02,
524,0.00e+00,8.00e-02,
525,2.40e-03,4.00e-02,
526,-4.40e-03,8.00e-02,
527,7.20e-03,4.00e-02,
528,-1.48e-02,2.00e-02,
529,1.96e-02,8.00e-02,
530,-1.96e-02,2.00e-02,
531,2.04e-02,8.00e-02,
532,1.00e-02,8.00e-02,
533,-7.20e-03,2.00e-02,
534,2.40e-03,8.00e-02,
535,-4.00e-04,2.00e-02,
536,1.60e-03,4.00e-02,
537,-1.20e-03,2.00e-02,
538,2.40e-03,4.00e-02,
539,-8.00e-04,2.00e-02,
540,1.60e-03,2.00e-02,
541,0.00e+00,4.00e-02,
542,2.00e-03,4.00e-02,
543,-1.20e-03,2.00e-02,
544,-2.00e-03,2.00e-02,
545,9.60e-03,2.06e+00,
546,8.40e-03,1.60e-01,
547,0.00e+00,8.00e-02,
548,4.00e-04,1.00e-01,
549,1.60e-03,6.00e-02,
550,2.00e-03,6.00e-02,
551,0.00e+00,8.00e-02,
552,1.20e-03,6.00e-02,
553,-4.00e-04,8.00e-02,
554,-8.00e-04,6.00e-02,
555,2.00e-03,8.00e-02,
556,-3.60e-03,8.00e-02,
557,5.60e-03,4.00e-02,
558,-1.52e-02,8.00e-02,
559,1.96e-02,2.00e-02,
560,-2.00e-02,8.00e-02,
561,2.12e-02,2.00e-02,
562,1.00e-02,2.00e-02,
563,-7.60e-03,8.00e-02,
564,3.60e-03,2.00e-02,
565,-8.00e-04,8.00e-02,
566,-8.00e-04,4.00e-02,
567,2.00e-03,2.00e-02,
568,-8.00e-04,4.00e-02,
569,2.40e-03,2.00e-02,
570,2.00e-03,4.00e-02,
571,-4.00e-04,2.00e-02,
572,2.40e-03,4.00e-02,
573,-1.20e-03,2.00e-02,
574,-2.40e-03,2.00e-02,
575,8.80e-03,1.86e+00,
576,8.40e-03,1.60e-01,
577,-8.00e-04,8.00e-02,
578,2.40e-03,1.00e-01,
579,0.00e+00,6.00e-02,
580,2.00e-03,6.00e-02,
581,-8.00e-04,8.00e-02,
582,-4.00e-04,8.00e-02,
583,2.40e-03,6.00e-02,
584,-1.20e-03,6.00e-02,
585,2.40e-03,8.00e-02,
586,-3.60e-03,8.00e-02,
587,5.20e-03,4.00e-02,
588,-1.36e-02,8.00e-02,
589,1.88e-02,2.00e-02,
590,-1.92e-02,8.00e-02,
591,2.04e-02,2.00e-02,
592,1.04e-02,2.00e-02,
593,-7.20e-03,8.00e-02,
594,3.20e-03,8.00e-02,
595,-8.00e-04,2.00e-02,
596,2.00e-03,4.00e-02,
597,-4.00e-04,2.00e-02,
598,2.00e-03,4.00e-02,
599,-8.00e-04,2.00e-02,
600,0.00e+00,2.00e-02,
601,2.00e-03,4.00e-02,
602,1.60e-03,4.00e-02,
603,-1.20e-03,2.00e-02,
604,-2.40e-03,2.00e-02,
605,8.80e-03,2.06e+00,
606,8.00e-03,1.60e-01,
607,-8.00e-04,8.00e-02,
608,2.00e-03,1.00e-01,
609,0.00e+00,6.00e-02,
610,0.00e+00,6.00e-02,
611,2.00e-03,8.00e-02,
612,0.00e+00,8.00e-02,
613,1.60e-03,6.00e-02,
614,-4.00e-04,8.00e-02,
615,2.40e-03,4.00e-02,
616,-4.00e-03,8.00e-02,
617,6.80e-03,2.00e-02,
618,-1.48e-02,8.00e-02,
619,1.76e-02,2.00e-02,
620,-1.92e-02,8.00e-02,
621,2.00e-02,2.00e-02,
622,8.80e-03,8.00e-02,
623,-6.00e-03,2.00e-02,
624,-8.00e-04,2.00e-02,
625,2.40e-03,8.00e-02,
626,2.40e-03,2.00e-02,
627,-8.00e-04,6.00e-02,
628,2.00e-03,4.00e-02,
629,-4.00e-04,2.00e-02,
630,-8.00e-04,4.00e-02,
631,1.60e-03,2.00e-02,
632,1.60e-03,4.00e-02,
633,-1.20e-03,2.00e-02,
634,-2.80e-03,2.00e-02,
635,8.80e-03,1.96e+00,
636,8.40e-03,1.60e-01,
637,0.00e+00,8.00e-02,
638,1.60e-03,1.00e-01,
639,4.00e-04,6.00e-02,
640,0.00e+00,6.00e-02,
641,1.60e-03,8.00e-02,
642,2.00e-03,6.00e-02,
643,0.00e+00,8.00e-02,
644,2.00e-03,8.00e-02,
645,-1.20e-03,4.00e-02,
646,-3.20e-03,8.00e-02,
647,5.60e-03,2.00e-02,
648,-1.44e-02,8.00e-02,
649,1.80e-02,2.00e-02,
650,-1.88e-02,8.00e-02,
651,2.04e-02,2.00e-02,
652,9.60e-03,2.00e-02,
653,-7.60e-03,8.00e-02,
654,3.20e-03,2.00e-02,
655,-1.20e-03,4.00e-02,
656,-8.00e-04,4.00e-02,
657,2.40e-03,2.00e-02,
658,2.40e-03,4.00e-02,
659,-8.00e-04,2.00e-02,
660,2.00e-03,4.00e-02,
661,0.00e+00,2.00e-02,
662,2.40e-03,4.00e-02,
663,-1.60e-03,2.00e-02,
664,-2.80e-03,2.00e-02,
665,8.80e-03,1.82e+00,
666,8.40e-03,1.60e-01,
667,-8.00e-04,8.00e-02,
668,0.00e+00,1.00e-01,
669,2.00e-03,6.00e-02,
670,-4.00e-04,6.00e-02,
671,1.60e-03,8.00e-02,
672,-8.00e-04,6.00e-02,
673,2.00e-03,8.00e-02,
674,-1.20e-03,8.00e-02,
675,2.40e-03,6.00e-02,
676,-3.20e-03,8.00e-02,
677,6.00e-03,4.00e-02,
678,-1.32e-02,8.00e-02,
679,1.76e-02,2.00e-02,
680,-1.96e-02,8.00e-02,
681,2.04e-02,2.00e-02,
682,1.00e-02,8.00e-02,
683,-7.20e-03,2.00e-02,
684,3.20e-03,8.00e-02,
685,-1.20e-03,2.00e-02,
686,1.20e-03,4.00e-02,
687,-8.00e-04,2.00e-02,
688,0.00e+00,2.00e-02,
689,2.00e-03,4.00e-02,
690,1.20e-03,4.00e-02,
691,0.00e+00,2.00e-02,
692,-8.00e-04,4.00e-02,
693,2.40e-03,2.00e-02,
694,-2.40e-03,-8.00e-02,
695,8.80e-03,2.04e+00,
696,8.00e-03,1.60e-01,
697,-4.00e-04,8.00e-02,
698,2.00e-03,1.00e-01,
699,0.00e+00,6.00e-02,
700,0.00e+00,6.00e-02,
701,1.60e-03,8.00e-02,
702,1.60e-03,6.00e-02,
703,-8.00e-04,8.00e-02,
704,2.00e-03,6.00e-02,
705,-8.00e-04,8.00e-02,
706,-4.00e-03,8.00e-02,
707,6.80e-03,2.00e-02,
708,-1.32e-02,2.00e-02,
709,1.84e-02,8.00e-02,
710,-1.84e-02,8.00e-02,
711,2.00e-02,2.00e-02,
712,8.80e-03,2.00e-02,
713,-6.40e-03,8.00e-02,
714,2.40e-03,4.00e-02,
715,-8.00e-04,2.00e-02,
716,-8.00e-04,2.00e-02,
717,2.40e-03,6.00e-02,
718,-8.00e-04,4.00e-02,
719,2.00e-03,2.00e-02,
720,1.20e-03,4.00e-02,
721,-4.00e-04,2.00e-02,
722,2.80e-03,4.00e-02,
723,-1.20e-03,2.00e-02,
724,-2.80e-03,2.00e-02,
725,8.80e-03,1.86e+00,
726,8.40e-03,1.60e-01,
727,-4.00e-04,8.00e-02,
728,2.00e-03,1.00e-01,
729,-4.00e-04,6.00e-02,
730,0.00e+00,8.00e-02,
731,2.40e-03,6.00e-02,
732,0.00e+00,6.00e-02,
733,2.00e-03,8.00e-02,
734,-4.00e-04,8.00e-02,
735,2.00e-03,6.00e-02,
736,-2.00e-03,8.00e-02,
737,6.00e-03,2.00e-02,
738,-1.32e-02,8.00e-02,
739,1.76e-02,2.00e-02,
740,-1.88e-02,2.00e-02,
741,2.00e-02,8.00e-02,
742,9.60e-03,6.00e-02,
743,-7.20e-03,2.00e-02,
744,3.20e-03,2.00e-02,
745,-1.60e-03,6.00e-02,
746,2.00e-03,4.00e-02,
747,-1.20e-03,2.00e-02,
748,2.40e-03,2.00e-02,
749,-4.00e-04,4.00e-02,
750,1.20e-03,4.00e-02,
751,-4.00e-04,2.00e-02,
752,1.60e-03,2.00e-02,
753,-1.60e-03,4.00e-02,
754,-2.80e-03,2.02e+00,
755,9.60e-03,0.00e+00,
756,8.40e-03,1.60e-01,
757,-1.20e-03,8.00e-02,
758,0.00e+00,1.00e-01,
759,1.60e-03,6.00e-02,
760,0.00e+00,6.00e-02,
761,2.00e-03,8.00e-02,
762,2.00e-03,8.00e-02,
763,-4.00e-04,6.00e-02,
764,-8.00e-04,6.00e-02,
765,2.00e-03,8.00e-02,
766,-3.20e-03,8.00e-02,
767,5.20e-03,2.00e-02,
768,-1.32e-02,8.00e-02,
769,1.72e-02,2.00e-02,
770,-1.84e-02,8.00e-02,
771,2.04e-02,2.00e-02,
772,8.80e-03,8.00e-02,
773,-7.20e-03,2.00e-02,
774,3.60e-03,2.00e-02,
775,-1.20e-03,8.00e-02,
776,1.60e-03,2.00e-02,
777,0.00e+00,8.00e-02,
778,1.60e-03,2.00e-02,
779,-4.00e-04,6.00e-02,
780,1.20e-03,2.00e-02,
781,0.00e+00,4.00e-02,
782,2.00e-03,4.00e-02,
783,-1.60e-03,2.00e-02,
784,-2.80e-03,2.00e-02,
785,8.80e-03,1.92e+00,
786,8.40e-03,1.60e-01,
787,-8.00e-04,8.00e-02,
788,1.60e-03,1.00e-01,
789,-8.00e-04,6.00e-02,
790,1.20e-03,6.00e-02,
791,-8.00e-04,8.00e-02,
792,1.60e-03,6.00e-02,
793,-8.00e-04,8.00e-02,
794,2.00e-03,6.00e-02,
795,-8.00e-04,8.00e-02,
796,-3.20e-03,8.00e-02,
797,6.80e-03,2.00e-02,
798,-1.32e-02,8.00e-02,
799,1.80e-02,2.00e-02,
800,-1.88e-02,8.00e-02,
801,1.84e-02,2.00e-02,
802,7.60e-03,2.00e-02,
803,-6.00e-03,8.00e-02,
804,2.40e-03,2.00e-02,
805,-8.00e-04,4.00e-02,
806,2.40e-03,4.00e-02,
807,0.00e+00,2.00e-02,
808,-8.00e-04,4.00e-02,
809,1.60e-03,2.00e-02,
810,1.60e-03,4.00e-02,
811,0.00e+00,2.00e-02,
812,2.40e-03,4.00e-02,
813,-1.60e-03,2.00e-02,
814,-2.80e-03,2.00e-02,
815,8.40e-03,2.04e+00,
816,8.00e-03,1.60e-01,
817,-1.20e-03,8.00e-02,
818,1.20e-03,1.00e-01,
819,0.00e+00,6.00e-02,
820,0.00e+00,6.00e-02,
821,1.20e-03,8.00e-02,
822,0.00e+00,6.00e-02,
823,2.00e-03,8.00e-02,
824,-8.00e-04,8.00e-02,
825,2.40e-03,6.00e-02,
826,-2.00e-03,6.00e-02,
827,4.40e-03,8.00e-02,
828,-1.24e-02,8.00e-02,
829,1.68e-02,2.00e-02,
830,-1.76e-02,8.00e-02,
831,1.88e-02,2.00e-02,
832,8.40e-03,8.00e-02,
833,-6.00e-03,2.00e-02,
834,3.60e-03,8.00e-02,
835,-1.20e-03,2.00e-02,
836,-1.20e-03,2.00e-02,
837,2.00e-03,6.00e-02,
838,-8.00e-04,2.00e-02,
839,2.00e-03,6.00e-02,
840,-8.00e-04,4.00e-02,
841,1.60e-03,2.00e-02,
842,-1.20e-03,4.00e-02,
843,2.40e-03,2.00e-02,
844,-2.40e-03,2.00e-02,
845,8.80e-03,1.90e+00,
846,8.40e-03,1.60e-01,
847,-8.00e-04,8.00e-02,
848,0.00e+00,1.00e-01,
849,1.60e-03,6.00e-02,
850,1.60e-03,6.00e-02,
851,-8.00e-04,8.00e-02,
852,2.00e-03,6.00e-02,
853,0.00e+00,8.00e-02,
854,-8.00e-04,8.00e-02,
