CarrPurc_P1-19_P2-38_tauVary/Gly50/NewFile1.csv

X,CH1,CH2,Start,Increment,
Sequence,Volt,Volt,-3.600000e-03,2.000000e-04
0,1.20e-03,4.00e-02,
1,-4.00e-04,2.00e-02,
2,0.00e+00,4.00e-02,
3,1.60e-03,2.00e-02,
4,2.00e-03,4.00e-02,
5,0.00e+00,2.00e-02,
6,0.00e+00,2.00e-02,
7,1.20e-03,4.00e-02,
8,1.20e-03,4.00e-02,
9,0.00e+00,2.00e-02,
10,1.20e-03,4.00e-02,
11,0.00e+00,2.00e-02,
12,1.60e-03,4.00e-02,
13,0.00e+00,2.00e-02,
14,1.20e-03,4.00e-02,
15,0.00e+00,2.00e-02,
16,2.00e-03,4.00e-02,
17,0.00e+00,0.00e+00,
18,0.00e+00,4.00e-02,
19,1.20e-03,0.00e+00,
20,7.60e-03,2.00e-02,
21,-2.92e-02,1.96e+00,
22,2.04e-02,1.20e-01,
23,-1.68e-02,6.00e-02,
24,-2.80e-03,1.00e-01,
25,4.80e-03,6.00e-02,
26,2.80e-03,6.00e-02,
27,-2.00e-03,8.00e-02,
28,2.40e-03,6.00e-02,
29,-8.00e-04,8.00e-02,
30,2.40e-03,6.00e-02,
31,-4.00e-04,8.00e-02,
32,2.00e-03,8.00e-02,
33,-4.00e-04,4.00e-02,
34,0.00e+00,2.00e-02,
35,8.40e-03,1.90e+00,
36,8.00e-03,1.60e-01,
37,-6.80e-03,8.00e-02,
38,4.00e-03,1.00e-01,
39,-1.20e-03,6.00e-02,
40,2.00e-03,8.00e-02,
41,-1.20e-03,6.00e-02,
42,-4.00e-04,6.00e-02,
43,2.40e-03,8.00e-02,
44,-1.20e-03,6.00e-02,
45,2.80e-03,8.00e-02,
46,-4.00e-03,6.00e-02,
47,7.60e-03,8.00e-02,
48,-2.04e-02,8.00e-02,
49,2.56e-02,6.00e-02,
50,-2.80e-02,8.00e-02,
51,3.04e-02,2.00e-02,
52,1.56e-02,8.00e-02,
53,-1.32e-02,2.00e-02,
54,4.40e-03,8.00e-02,
55,-2.00e-03,2.00e-02,
56,-8.00e-04,8.00e-02,
57,2.40e-03,2.00e-02,
58,2.00e-03,2.00e-02,
59,0.00e+00,8.00e-02,
60,2.40e-03,2.00e-02,
61,0.00e+00,8.00e-02,
62,2.00e-03,8.00e-02,
63,-8.00e-04,2.00e-02,
64,0.00e+00,-2.00e-02,
65,8.80e-03,2.00e+00,
66,8.40e-03,1.60e-01,
67,0.00e+00,8.00e-02,
68,2.00e-03,1.00e-01,
69,0.00e+00,6.00e-02,
70,2.40e-03,6.00e-02,
71,-8.00e-04,8.00e-02,
72,-8.00e-04,8.00e-02,
73,2.40e-03,6.00e-02,
74,2.00e-03,6.00e-02,
75,-1.20e-03,8.00e-02,
76,-4.40e-03,6.00e-02,
77,6.80e-03,8.00e-02,
78,-1.80e-02,8.00e-02,
79,1.60e-02,4.00e-02,
80,2.28e-02,8.00e-02,
81,-2.08e-02,4.00e-02,
82,1.12e-02,8.00e-02,
83,-7.60e-03,2.00e-02,
84,3.60e-03,8.00e-02,
85,-8.00e-04,2.00e-02,
86,2.40e-03,2.00e-02,
87,-8.00e-04,8.00e-02,
88,2.00e-03,2.00e-02,
89,-4.00e-04,6.00e-02,
90,-8.00e-04,2.00e-02,
91,2.40e-03,6.00e-02,
92,2.80e-03,2.00e-02,
93,-1.60e-03,6.00e-02,
94,-3.60e-03,2.00e-02,
95,9.20e-03,1.82e+00,
96,8.00e-03,1.60e-01,
97,0.00e+00,8.00e-02,
98,2.40e-03,1.00e-01,
99,-4.00e-04,6.00e-02,
100,2.00e-03,6.00e-02,
101,0.00e+00,1.00e-01,
102,0.00e+00,6.00e-02,
103,2.40e-03,8.00e-02,
104,-8.00e-04,6.00e-02,
105,2.40e-03,8.00e-02,
106,-4.00e-03,8.00e-02,
107,6.40e-03,4.00e-02,
108,1.44e-02,8.00e-02,
109,-1.64e-02,2.00e-02,
110,-2.20e-02,8.00e-02,
111,2.28e-02,2.00e-02,
112,1.16e-02,8.00e-02,
113,-8.40e-03,2.00e-02,
114,4.00e-03,2.00e-02,
115,-1.60e-03,8.00e-02,
116,2.40e-03,2.00e-02,
117,-8.00e-04,8.00e-02,
118,2.00e-03,2.00e-02,
119,-4.00e-04,6.00e-02,
120,2.00e-03,2.00e-02,
121,-8.00e-04,8.00e-02,
122,2.40e-03,6.00e-02,
123,-8.00e-04,2.00e-02,
124,-2.40e-03,2.00e-02,
125,9.20e-03,2.08e+00,
126,8.00e-03,1.60e-01,
127,-8.00e-04,8.00e-02,
128,2.80e-03,1.00e-01,
129,-4.00e-04,6.00e-02,
130,0.00e+00,1.00e-01,
131,2.00e-03,6.00e-02,
132,2.40e-03,6.00e-02,
133,-4.00e-04,8.00e-02,
134,2.40e-03,6.00e-02,
135,-8.00e-04,8.00e-02,
136,-2.80e-03,6.00e-02,
137,6.40e-03,8.00e-02,
138,-1.32e-02,8.00e-02,
139,1.88e-02,2.00e-02,
140,2.24e-02,8.00e-02,
141,-2.04e-02,2.00e-02,
142,1.16e-02,8.00e-02,
143,-7.60e-03,2.00e-02,
144,4.00e-03,8.00e-02,
145,-1.20e-03,2.00e-02,
146,2.00e-03,8.00e-02,
147,-4.00e-04,2.00e-02,
148,2.00e-03,2.00e-02,
149,-4.00e-04,8.00e-02,
150,1.20e-03,2.00e-02,
151,-4.00e-04,8.00e-02,
152,2.00e-03,4.00e-02,
153,-1.20e-03,2.00e-02,
154,-1.60e-03,2.00e-02,
155,9.20e-03,2.00e+00,
156,8.40e-03,1.60e-01,
157,0.00e+00,8.00e-02,
158,2.40e-03,1.00e-01,
159,0.00e+00,6.00e-02,
160,2.00e-03,1.00e-01,
161,0.00e+00,6.00e-02,
162,2.00e-03,6.00e-02,
163,-8.00e-04,8.00e-02,
164,0.00e+00,6.00e-02,
165,2.00e-03,8.00e-02,
166,-4.00e-03,6.00e-02,
167,7.20e-03,8.00e-02,
168,-1.52e-02,8.00e-02,
169,1.60e-02,2.00e-02,
170,2.16e-02,8.00e-02,
171,-2.00e-02,4.00e-02,
172,9.20e-03,2.00e-02,
173,-7.20e-03,8.00e-02,
174,2.40e-03,2.00e-02,
175,-1.20e-03,8.00e-02,
176,2.40e-03,8.00e-02,
177,-8.00e-04,2.00e-02,
178,2.40e-03,8.00e-02,
179,-8.00e-04,2.00e-02,
180,0.00e+00,8.00e-02,
181,1.60e-03,2.00e-02,
182,2.40e-03,6.00e-02,
183,-1.60e-03,2.00e-02,
184,-2.80e-03,2.00e-02,
185,9.60e-03,2.04e+00,
186,8.40e-03,1.60e-01,
187,-8.00e-04,8.00e-02,
188,2.00e-03,1.00e-01,
189,4.00e-04,6.00e-02,
190,2.00e-03,1.00e-01,
191,0.00e+00,6.00e-02,
192,2.00e-03,6.00e-02,
193,-8.00e-04,8.00e-02,
194,2.40e-03,6.00e-02,
195,-8.00e-04,8.00e-02,
196,-4.00e-03,8.00e-02,
197,5.60e-03,4.00e-02,
198,-1.60e-02,8.00e-02,
199,1.60e-02,4.00e-02,
200,-1.96e-02,8.00e-02,
201,2.16e-02,2.00e-02,
202,1.12e-02,2.00e-02,
203,-7.60e-03,8.00e-02,
204,3.20e-03,2.00e-02,
205,-1.20e-03,8.00e-02,
206,2.00e-03,2.00e-02,
207,-8.00e-04,8.00e-02,
208,2.00e-03,4.00e-02,
209,-8.00e-04,2.00e-02,
210,2.00e-03,4.00e-02,
211,0.00e+00,2.00e-02,
212,2.40e-03,4.00e-02,
213,-1.60e-03,2.00e-02,
214,-3.20e-03,2.00e-02,
215,8.00e-03,2.00e+00,
216,8.00e-03,1.60e-01,
217,-1.20e-03,8.00e-02,
218,2.40e-03,1.00e-01,
219,0.00e+00,6.00e-02,
220,1.20e-03,6.00e-02,
221,0.00e+00,1.00e-01,
222,2.00e-03,6.00e-02,
223,-8.00e-04,8.00e-02,
224,-4.00e-04,6.00e-02,
225,2.40e-03,8.00e-02,
226,-2.80e-03,8.00e-02,
227,6.40e-03,6.00e-02,
228,-1.28e-02,6.00e-02,
229,1.80e-02,8.00e-02,
230,-1.92e-02,8.00e-02,
231,2.24e-02,2.00e-02,
232,1.12e-02,8.00e-02,
233,-7.20e-03,2.00e-02,
234,4.00e-03,8.00e-02,
235,-1.60e-03,2.00e-02,
236,2.00e-03,8.00e-02,
237,-8.00e-04,2.00e-02,
238,0.00e+00,4.00e-02,
239,1.60e-03,2.00e-02,
240,2.00e-03,4.00e-02,
241,4.00e-04,2.00e-02,
242,2.40e-03,2.00e-02,
243,-1.20e-03,6.00e-02,
244,-1.60e-03,2.00e-02,
245,9.20e-03,2.04e+00,
246,8.40e-03,1.60e-01,
247,0.00e+00,8.00e-02,
248,0.00e+00,1.00e-01,
249,2.40e-03,6.00e-02,
250,1.60e-03,6.00e-02,
251,0.00e+00,1.00e-01,
252,0.00e+00,6.00e-02,
253,2.00e-03,8.00e-02,
254,2.40e-03,8.00e-02,
255,-8.00e-04,6.00e-02,
256,-4.00e-03,8.00e-02,
257,6.80e-03,4.00e-02,
258,-1.60e-02,8.00e-02,
259,1.76e-02,2.00e-02,
260,-2.00e-02,8.00e-02,
261,2.04e-02,2.00e-02,
262,9.60e-03,8.00e-02,
263,-6.80e-03,2.00e-02,
264,2.80e-03,8.00e-02,
265,-1.20e-03,2.00e-02,
266,2.40e-03,2.00e-02,
267,-8.00e-04,8.00e-02,
268,1.60e-03,2.00e-02,
269,-8.00e-04,6.00e-02,
270,2.00e-03,2.00e-02,
271,0.00e+00,6.00e-02,
272,2.40e-03,6.00e-02,
273,-1.60e-03,2.00e-02,
274,-2.00e-03,2.00e-02,
275,9.60e-03,2.02e+00,
276,8.40e-03,1.60e-01,
277,0.00e+00,8.00e-02,
278,2.00e-03,1.00e-01,
279,4.00e-04,6.00e-02,
280,1.20e-03,1.00e-01,
281,0.00e+00,6.00e-02,
282,-4.00e-04,6.00e-02,
283,2.40e-03,8.00e-02,
284,2.40e-03,6.00e-02,
285,-1.20e-03,8.00e-02,
286,-3.20e-03,8.00e-02,
287,5.60e-03,2.00e-02,
288,-1.56e-02,8.00e-02,
289,1.44e-02,2.00e-02,
290,-2.12e-02,8.00e-02,
291,2.04e-02,2.00e-02,
292,1.08e-02,8.00e-02,
293,-8.40e-03,2.00e-02,
294,3.60e-03,2.00e-02,
295,-1.20e-03,8.00e-02,
296,2.00e-03,8.00e-02,
297,0.00e+00,2.00e-02,
298,1.20e-03,2.00e-02,
299,0.00e+00,8.00e-02,
300,0.00e+00,4.00e-02,
301,2.00e-03,2.00e-02,
302,-1.20e-03,4.00e-02,
303,2.00e-03,2.00e-02,
304,-2.40e-03,2.00e-02,
305,8.80e-03,1.92e+00,
306,8.00e-03,1.60e-01,
307,-4.00e-04,8.00e-02,
308,2.40e-03,1.00e-01,
309,0.00e+00,6.00e-02,
310,2.00e-03,6.00e-02,
311,4.00e-04,1.00e-01,
312,-8.00e-04,6.00e-02,
313,2.40e-03,8.00e-02,
314,-4.00e-04,6.00e-02,
315,2.80e-03,8.00e-02,
316,-3.20e-03,8.00e-02,
317,6.00e-03,2.00e-02,
318,-1.28e-02,8.00e-02,
319,1.72e-02,2.00e-02,
320,-2.00e-02,8.00e-02,
321,2.12e-02,2.00e-02,
322,1.12e-02,2.00e-02,
323,-7.20e-03,8.00e-02,
324,3.60e-03,2.00e-02,
325,-1.20e-03,8.00e-02,
326,2.40e-03,2.00e-02,
327,-8.00e-04,8.00e-02,
328,1.60e-03,6.00e-02,
329,-8.00e-04,2.00e-02,
330,-4.00e-04,4.00e-02,
331,2.00e-03,2.00e-02,
332,2.00e-03,4.00e-02,
333,-1.20e-03,2.00e-02,
334,-1.20e-03,2.00e-02,
335,8.40e-03,2.00e+00,
336,8.00e-03,1.60e-01,
337,-4.00e-04,8.00e-02,
338,2.00e-03,1.00e-01,
339,0.00e+00,6.00e-02,
340,2.00e-03,6.00e-02,
341,0.00e+00,1.00e-01,
342,2.00e-03,6.00e-02,
343,0.00e+00,8.00e-02,
344,-1.20e-03,8.00e-02,
345,2.40e-03,6.00e-02,
346,-3.60e-03,6.00e-02,
347,6.80e-03,8.00e-02,
348,-1.56e-02,8.00e-02,
349,1.84e-02,4.00e-02,
350,-2.00e-02,8.00e-02,
351,2.16e-02,2.00e-02,
352,9.60e-03,8.00e-02,
353,-6.00e-03,2.00e-02,
354,2.80e-03,8.00e-02,
355,-1.20e-03,2.00e-02,
356,2.40e-03,2.00e-02,
357,-8.00e-04,8.00e-02,
358,2.00e-03,2.00e-02,
359,0.00e+00,8.00e-02,
360,1.20e-03,2.00e-02,
361,0.00e+00,6.00e-02,
362,2.40e-03,6.00e-02,
363,-1.20e-03,2.00e-02,
364,-2.00e-03,2.00e-02,
365,8.80e-03,1.94e+00,
366,8.00e-03,1.60e-01,
367,0.00e+00,8.00e-02,
368,2.40e-03,1.00e-01,
369,0.00e+00,6.00e-02,
370,1.20e-03,6.00e-02,
371,-8.00e-04,1.00e-01,
372,2.00e-03,6.00e-02,
373,0.00e+00,8.00e-02,
374,-8.00e-04,6.00e-02,
375,2.00e-03,8.00e-02,
376,-3.20e-03,6.00e-02,
377,5.60e-03,8.00e-02,
378,-1.44e-02,8.00e-02,
379,1.88e-02,6.00e-02,
380,-1.92e-02,8.00e-02,
381,2.08e-02,4.00e-02,
382,1.04e-02,8.00e-02,
383,-7.60e-03,2.00e-02,
384,3.20e-03,2.00e-02,
385,-8.00e-04,8.00e-02,
386,2.00e-03,8.00e-02,
387,-8.00e-04,2.00e-02,
388,-8.00e-04,2.00e-02,
389,2.00e-03,8.00e-02,
390,1.20e-03,2.00e-02,
391,0.00e+00,8.00e-02,
392,2.40e-03,6.00e-02,
393,-1.20e-03,2.00e-02,
394,-2.00e-03,2.00e-02,
395,9.60e-03,2.00e+00,
396,8.40e-03,1.60e-01,
397,-8.00e-04,8.00e-02,
398,2.00e-03,1.00e-01,
399,0.00e+00,6.00e-02,
400,0.00e+00,6.00e-02,
401,2.00e-03,1.00e-01,
402,2.00e-03,8.00e-02,
403,-8.00e-04,6.00e-02,
404,-8.00e-04,6.00e-02,
405,2.80e-03,8.00e-02,
406,-3.20e-03,6.00e-02,
407,6.00e-03,8.00e-02,
408,-1.40e-02,8.00e-02,
409,1.56e-02,2.00e-02,
410,-1.88e-02,2.00e-02,
411,2.12e-02,8.00e-02,
412,1.04e-02,8.00e-02,
413,-7.20e-03,2.00e-02,
414,2.80e-03,2.00e-02,
415,-1.20e-03,8.00e-02,
416,2.40e-03,2.00e-02,
417,0.00e+00,8.00e-02,
418,1.20e-03,8.00e-02,
419,-8.00e-04,2.00e-02,
420,0.00e+00,2.00e-02,
421,1.60e-03,8.00e-02,
422,2.00e-03,2.00e-02,
423,-8.00e-04,8.00e-02,
424,-2.40e-03,2.00e-02,
425,8.40e-03,1.94e+00,
426,8.00e-03,1.60e-01,
427,-4.00e-04,8.00e-02,
428,1.60e-03,1.00e-01,
429,4.00e-04,6.00e-02,
430,-8.00e-04,1.00e-01,
431,2.00e-03,6.00e-02,
432,1.60e-03,6.00e-02,
433,-4.00e-04,8.00e-02,
434,2.40e-03,6.00e-02,
435,-8.00e-04,8.00e-02,
436,-3.20e-03,8.00e-02,
437,7.20e-03,6.00e-02,
438,-1.44e-02,6.00e-02,
439,1.84e-02,8.00e-02,
440,-1.96e-02,8.00e-02,
441,2.12e-02,4.00e-02,
442,1.00e-02,8.00e-02,
443,-6.80e-03,2.00e-02,
444,3.60e-03,8.00e-02,
445,-8.00e-04,2.00e-02,
446,2.00e-03,2.00e-02,
447,-8.00e-04,8.00e-02,
448,-4.00e-04,2.00e-02,
449,2.40e-03,8.00e-02,
450,2.00e-03,2.00e-02,
451,-8.00e-04,8.00e-02,
452,2.40e-03,4.00e-02,
453,-8.00e-04,2.00e-02,
454,-2.00e-03,2.00e-02,
455,8.40e-03,1.88e+00,
456,8.00e-03,1.60e-01,
457,-4.00e-04,8.00e-02,
458,2.00e-03,1.00e-01,
459,0.00e+00,6.00e-02,
460,0.00e+00,6.00e-02,
461,2.00e-03,8.00e-02,
462,2.00e-03,6.00e-02,
463,-4.00e-04,8.00e-02,
464,0.00e+00,6.00e-02,
465,2.40e-03,8.00e-02,
466,-2.80e-03,6.00e-02,
467,5.60e-03,8.00e-02,
468,-1.32e-02,8.00e-02,
469,1.84e-02,4.00e-02,
470,-1.84e-02,8.00e-02,
471,1.96e-02,2.00e-02,
472,9.20e-03,2.00e-02,
473,-6.80e-03,8.00e-02,
474,3.20e-03,8.00e-02,
475,-1.20e-03,2.00e-02,
476,2.40e-03,8.00e-02,
477,-8.00e-04,2.00e-02,
478,2.00e-03,8.00e-02,
479,-4.00e-04,2.00e-02,
480,1.20e-03,2.00e-02,
481,0.00e+00,6.00e-02,
482,2.40e-03,2.00e-02,
483,-8.00e-04,4.00e-02,
484,-2.00e-03,2.00e-02,
485,8.80e-03,2.00e+00,
486,8.40e-03,1.60e-01,
487,-4.00e-04,8.00e-02,
488,2.00e-03,1.00e-01,
489,0.00e+00,6.00e-02,
490,0.00e+00,6.00e-02,
491,2.00e-03,1.00e-01,
492,-4.00e-04,6.00e-02,
493,2.40e-03,8.00e-02,
494,2.40e-03,6.00e-02,
495,-1.20e-03,8.00e-02,
496,-3.20e-03,6.00e-02,
497,6.40e-03,8.00e-02,
498,-1.32e-02,8.00e-02,
499,1.64e-02,4.00e-02,
500,-1.84e-02,8.00e-02,
501,1.92e-02,4.00e-02,
502,9.60e-03,8.00e-02,
503,-7.60e-03,2.00e-02,
504,2.40e-03,8.00e-02,
505,-2.40e-03,2.00e-02,
506,0.00e+00,8.00e-02,
507,2.40e-03,2.00e-02,
508,2.00e-03,2.00e-02,
509,0.00e+00,8.00e-02,
510,2.00e-03,4.00e-02,
511,0.00e+00,2.00e-02,
512,-4.00e-04,4.00e-02,
513,2.40e-03,2.00e-02,
514,-2.40e-03,2.00e-02,
515,8.80e-03,2.02e+00,
516,8.40e-03,1.60e-01,
517,0.00e+00,8.00e-02,
518,-4.00e-04,1.00e-01,
519,2.00e-03,6.00e-02,
520,2.00e-03,6.00e-02,
521,-4.00e-04,1.00e-01,
522,0.00e+00,6.00e-02,
523,2.00e-03,8.00e-02,
524,-4.00e-04,6.00e-02,
525,2.40e-03,8.00e-02,
526,-3.20e-03,6.00e-02,
527,6.40e-03,8.00e-02,
528,-1.32e-02,8.00e-02,
529,1.76e-02,4.00e-02,
530,-1.80e-02,8.00e-02,
531,1.88e-02,2.00e-02,
532,9.60e-03,8.00e-02,
533,-6.00e-03,2.00e-02,
534,2.40e-03,8.00e-02,
535,-8.00e-04,2.00e-02,
536,2.00e-03,8.00e-02,
537,0.00e+00,2.00e-02,
538,0.00e+00,2.00e-02,
539,2.00e-03,8.00e-02,
540,1.20e-03,2.00e-02,
541,-8.00e-04,8.00e-02,
542,2.40e-03,4.00e-02,
543,-8.00e-04,2.00e-02,
544,-1.60e-03,2.00e-02,
545,8.40e-03,2.00e+00,
546,8.00e-03,1.60e-01,
547,0.00e+00,8.00e-02,
548,1.20e-03,1.00e-01,
549,0.00e+00,6.00e-02,
550,0.00e+00,6.00e-02,
551,2.00e-03,1.00e-01,
552,4.00e-04,6.00e-02,
553,2.00e-03,8.00e-02,
554,2.00e-03,6.00e-02,
555,-8.00e-04,8.00e-02,
556,-2.40e-03,6.00e-02,
557,5.60e-03,8.00e-02,
558,-1.40e-02,8.00e-02,
559,1.76e-02,2.00e-02,
560,-1.76e-02,8.00e-02,
561,1.84e-02,2.00e-02,
562,9.60e-03,8.00e-02,
563,-6.40e-03,2.00e-02,
564,2.80e-03,8.00e-02,
565,-1.60e-03,2.00e-02,
566,-8.00e-04,2.00e-02,
567,2.40e-03,8.00e-02,
568,2.00e-03,2.00e-02,
569,0.00e+00,8.00e-02,
570,0.00e+00,2.00e-02,
571,2.00e-03,8.00e-02,
572,2.40e-03,2.00e-02,
573,-8.00e-04,6.00e-02,
574,-2.00e-03,2.00e-02,
575,8.80e-03,2.02e+00,
576,8.40e-03,1.60e-01,
577,0.00e+00,8.00e-02,
578,2.00e-03,1.00e-01,
579,0.00e+00,6.00e-02,
580,2.00e-03,6.00e-02,
581,-8.00e-04,1.00e-01,
582,2.00e-03,8.00e-02,
583,0.00e+00,6.00e-02,
584,2.00e-03,6.00e-02,
585,0.00e+00,8.00e-02,
586,-2.80e-03,8.00e-02,
587,5.60e-03,6.00e-02,
588,-1.16e-02,8.00e-02,
589,1.60e-02,2.00e-02,
590,-1.76e-02,8.00e-02,
591,1.88e-02,2.00e-02,
592,8.80e-03,8.00e-02,
593,-6.80e-03,2.00e-02,
594,2.80e-03,2.00e-02,
595,-1.20e-03,8.00e-02,
596,2.00e-03,2.00e-02,
597,0.00e+00,8.00e-02,
598,1.60e-03,2.00e-02,
599,0.00e+00,8.00e-02,
600,1.20e-03,2.00e-02,
601,0.00e+00,8.00e-02,
602,2.40e-03,4.00e-02,
603,-1.20e-03,2.00e-02,
604,-2.80e-03,2.02e+00,
605,9.20e-03,0.00e+00,
606,8.80e-03,1.60e-01,
607,0.00e+00,8.00e-02,
608,2.40e-03,1.00e-01,
609,0.00e+00,6.00e-02,
610,0.00e+00,6.00e-02,
611,1.20e-03,8.00e-02,
612,0.00e+00,8.00e-02,
613,2.40e-03,6.00e-02,
614,0.00e+00,6.00e-02,
615,2.40e-03,8.00e-02,
616,-2.80e-03,8.00e-02,
617,6.40e-03,4.00e-02,
618,-1.28e-02,8.00e-02,
619,1.72e-02,2.00e-02,
620,-1.76e-02,8.00e-02,
621,1.88e-02,2.00e-02,
622,8.80e-03,8.00e-02,
623,-6.00e-03,2.00e-02,
624,2.80e-03,8.00e-02,
625,-8.00e-04,2.00e-02,
626,1.60e-03,2.00e-02,
627,-4.00e-04,8.00e-02,
628,2.00e-03,6.00e-02,
629,-8.00e-04,2.00e-02,
630,0.00e+00,6.00e-02,
631,2.00e-03,2.00e-02,
632,2.40e-03,4.00e-02,
633,-1.60e-03,2.00e-02,
634,-2.00e-03,2.00e-02,
635,8.40e-03,1.98e+00,
636,8.00e-03,1.60e-01,
637,-4.00e-04,8.00e-02,
638,0.00e+00,1.00e-01,
639,2.00e-03,6.00e-02,
640,0.00e+00,6.00e-02,
641,2.00e-03,1.00e-01,
642,-4.00e-04,6.00e-02,
643,2.40e-03,8.00e-02,
644,2.40e-03,6.00e-02,
645,0.00e+00,8.00e-02,
646,-2.40e-03,6.00e-02,
647,5.60e-03,8.00e-02,
648,-1.28e-02,8.00e-02,
649,1.56e-02,2.00e-02,
650,-1.76e-02,8.00e-02,
651,1.80e-02,2.00e-02,
652,8.40e-03,8.00e-02,
653,-7.20e-03,2.00e-02,
654,2.80e-03,8.00e-02,
655,-8.00e-04,2.00e-02,
656,1.60e-03,8.00e-02,
657,-8.00e-04,2.00e-02,
658,2.00e-03,2.00e-02,
659,0.00e+00,8.00e-02,
660,2.00e-03,2.00e-02,
661,0.00e+00,6.00e-02,
662,2.00e-03,2.00e-02,
663,-1.20e-03,8.00e-02,
664,-1.60e-03,2.00e-02,
665,8.40e-03,1.90e+00,
666,8.00e-03,1.60e-01,
667,-4.00e-04,8.00e-02,
668,1.60e-03,1.00e-01,
669,0.00e+00,6.00e-02,
670,4.00e-04,6.00e-02,
671,2.00e-03,1.00e-01,
672,2.00e-03,6.00e-02,
673,0.00e+00,8.00e-02,
674,0.00e+00,8.00e-02,
675,2.40e-03,6.00e-02,
676,-2.40e-03,6.00e-02,
677,5.20e-03,8.00e-02,
678,-1.32e-02,8.00e-02,
679,1.68e-02,4.00e-02,
680,-1.72e-02,8.00e-02,
681,1.84e-02,2.00e-02,
682,9.20e-03,2.00e-02,
683,-6.00e-03,8.00e-02,
684,2.80e-03,8.00e-02,
685,-8.00e-04,2.00e-02,
686,0.00e+00,2.00e-02,
687,2.40e-03,6.00e-02,
688,2.00e-03,2.00e-02,
689,-8.00e-04,4.00e-02,
690,2.00e-03,4.00e-02,
691,4.00e-04,2.00e-02,
692,2.40e-03,4.00e-02,
693,-1.20e-03,2.00e-02,
694,-2.40e-03,2.00e-02,
695,9.60e-03,2.00e+00,
696,8.40e-03,1.60e-01,
697,0.00e+00,8.00e-02,
698,2.40e-03,1.00e-01,
699,0.00e+00,6.00e-02,
700,1.60e-03,6.00e-02,
701,-4.00e-04,8.00e-02,
702,0.00e+00,6.00e-02,
703,2.00e-03,8.00e-02,
704,-4.00e-04,6.00e-02,
705,2.40e-03,8.00e-02,
706,-3.60e-03,8.00e-02,
707,6.40e-03,6.00e-02,
708,-1.20e-02,8.00e-02,
709,1.60e-02,4.00e-02,
710,-1.76e-02,8.00e-02,
711,1.84e-02,2.00e-02,
712,8.00e-03,8.00e-02,
713,-6.00e-03,2.00e-02,
714,2.80e-03,8.00e-02,
715,-4.00e-04,2.00e-02,
716,1.60e-03,2.00e-02,
717,-4.00e-04,8.00e-02,
718,-4.00e-04,4.00e-02,
719,2.00e-03,2.00e-02,
720,1.20e-03,4.00e-02,
721,0.00e+00,2.00e-02,
722,2.40e-03,6.00e-02,
723,-1.20e-03,2.00e-02,
724,-2.80e-03,2.00e-02,
725,9.20e-03,1.94e+00,
726,8.40e-03,1.60e-01,
727,-4.00e-04,8.00e-02,
728,1.60e-03,1.00e-01,
729,0.00e+00,6.00e-02,
730,0.00e+00,1.00e-01,
731,2.00e-03,6.00e-02,
732,0.00e+00,6.00e-02,
733,2.00e-03,8.00e-02,
734,1.60e-03,8.00e-02,
735,0.00e+00,6.00e-02,
736,-2.40e-03,8.00e-02,
737,5.60e-03,6.00e-02,
738,-1.32e-02,8.00e-02,
739,1.64e-02,4.00e-02,
740,-1.64e-02,8.00e-02,
741,1.84e-02,4.00e-02,
742,9.20e-03,2.00e-02,
743,-6.80e-03,8.00e-02,
744,3.20e-03,2.00e-02,
745,-1.20e-03,8.00e-02,
746,2.40e-03,8.00e-02,
747,-4.00e-04,2.00e-02,
748,4.00e-04,2.00e-02,
749,2.40e-03,8.00e-02,
750,-4.00e-04,8.00e-02,
751,2.40e-03,2.00e-02,
752,1.60e-03,2.00e-02,
753,-1.20e-03,4.00e-02,
754,-1.60e-03,2.00e-02,
755,8.80e-03,2.00e+00,
756,8.00e-03,1.60e-01,
757,-4.00e-04,8.00e-02,
758,0.00e+00,1.00e-01,
759,2.00e-03,6.00e-02,
760,-4.00e-04,6.00e-02,
761,2.40e-03,1.00e-01,
762,0.00e+00,8.00e-02,
763,2.00e-03,6.00e-02,
764,2.00e-03,6.00e-02,
765,-8.00e-04,8.00e-02,
766,-2.80e-03,8.00e-02,
767,5.20e-03,4.00e-02,
768,-1.16e-02,8.00e-02,
769,1.68e-02,2.00e-02,
770,-1.60e-02,8.00e-02,
771,1.72e-02,2.00e-02,
772,8.40e-03,8.00e-02,
773,-5.60e-03,2.00e-02,
774,2.80e-03,2.00e-02,
775,-1.20e-03,8.00e-02,
776,2.00e-03,8.00e-02,
777,-8.00e-04,2.00e-02,
778,0.00e+00,4.00e-02,
779,1.60e-03,2.00e-02,
780,0.00e+00,2.00e-02,
781,2.00e-03,4.00e-02,
782,2.00e-03,4.00e-02,
783,-8.00e-04,2.00e-02,
784,-2.80e-03,2.00e-02,
785,8.80e-03,1.96e+00,
786,8.40e-03,1.60e-01,
787,-8.00e-04,8.00e-02,
788,0.00e+00,1.00e-01,
789,2.00e-03,6.00e-02,
790,0.00e+00,6.00e-02,
791,2.00e-03,8.00e-02,
792,2.00e-03,6.00e-02,
793,0.00e+00,8.00e-02,
794,0.00e+00,6.00e-02,
795,2.40e-03,8.00e-02,
796,-3.20e-03,8.00e-02,
797,5.20e-03,2.00e-02,
798,-1.16e-02,8.00e-02,
799,1.60e-02,2.00e-02,
800,-1.68e-02,8.00e-02,
801,1.80e-02,2.00e-02,
802,8.40e-03,8.00e-02,
803,-5.60e-03,2.00e-02,
804,2.40e-03,2.00e-02,
805,-8.00e-04,8.00e-02,
806,2.00e-03,8.00e-02,
807,0.00e+00,2.00e-02,
808,0.00e+00,2.00e-02,
809,1.60e-03,8.00e-02,
810,2.00e-03,6.00e-02,
811,0.00e+00,2.00e-02,
812,-8.00e-04,4.00e-02,
813,2.40e-03,2.00e-02,
814,-2.00e-03,2.00e-02,
815,9.60e-03,2.06e+00,
816,8.40e-03,1.60e-01,
817,0.00e+00,8.00e-02,
818,4.00e-04,1.00e-01,
819,1.60e-03,6.00e-02,
820,4.00e-04,1.00e-01,
821,2.00e-03,6.00e-02,
822,-8.00e-04,6.00e-02,
823,2.00e-03,8.00e-02,
824,0.00e+00,8.00e-02,
825,2.00e-03,6.00e-02,
826,-2.40e-03,6.00e-02,
827,5.20e-03,8.00e-02,
828,-1.24e-02,6.00e-02,
829,1.60e-02,8.00e-02,
830,-1.60e-02,8.00e-02,
831,1.72e-02,2.00e-02,
832,8.40e-03,8.00e-02,
833,-6.00e-03,2.00e-02,
834,2.80e-03,4.00e-02,
835,-8.00e-04,8.00e-02,
836,2.00e-03,2.00e-02,
837,-8.00e-04,8.00e-02,
838,0.00e+00,8.00e-02,
839,2.40e-03,2.00e-02,
840,-4.00e-04,2.00e-02,
841,2.00e-03,8.00e-02,
842,2.80e-03,6.00e-02,
843,-8.00e-04,2.00e-02,
844,-2.00e-03,2.00e-02,
845,8.80e-03,2.00e+00,
846,8.00e-03,1.60e-01,
847,0.00e+00,8.00e-02,
848,0.00e+00,1.00e-01,
849,2.00e-03,6.00e-02,
850,0.00e+00,6.00e-02,
851,2.00e-03,1.00e-01,
852,0.00e+00,6.00e-02,
853,2.00e-03,8.00e-02,
854,2.00e-03,8.00e-02,
855,-8.00e-04,6.00e-02,
856,-2.80e-03,8.00e-02,
857,5.20e-03,6.00e-02,
