CarrPurc_P1-19_P2-38_tauVary/Gly94/NewFile2.csv

X,CH1,CH2,Start,Increment,
Sequence,Volt,Volt,-6.000000e-04,1.000000e-04
0,8.00e-04,4.00e-02,
1,0.00e+00,2.00e-02,
2,0.00e+00,4.00e-02,
3,1.20e-03,2.00e-02,
4,1.20e-03,4.00e-02,
5,0.00e+00,2.00e-02,
6,0.00e+00,4.00e-02,
7,8.00e-04,0.00e+00,
8,8.00e-04,4.00e-02,
9,-4.00e-04,2.00e-02,
10,0.00e+00,1.90e+00,
11,5.20e-03,-2.00e-02,
12,4.80e-03,1.60e-01,
13,-2.88e-02,1.20e-01,
14,-1.48e-02,1.20e-01,
15,1.60e-02,8.00e-02,
16,8.00e-03,8.00e-02,
17,-7.60e-03,1.00e-01,
18,-2.40e-03,1.00e-01,
19,4.00e-03,6.00e-02,
20,-2.40e-03,6.00e-02,
21,2.40e-03,1.00e-01,
22,2.80e-03,6.00e-02,
23,-2.40e-03,8.00e-02,
24,-1.60e-03,8.00e-02,
25,2.40e-03,6.00e-02,
26,-1.20e-03,6.00e-02,
27,2.00e-03,8.00e-02,
28,-1.20e-03,6.00e-02,
29,1.20e-03,8.00e-02,
30,8.00e-04,6.00e-02,
31,7.20e-03,1.76e+00,
32,5.60e-03,1.60e-01,
33,-8.00e-03,1.20e-01,
34,-8.40e-03,1.20e-01,
35,6.80e-03,8.00e-02,
36,4.00e-03,1.00e-01,
37,-1.60e-03,8.00e-02,
38,-8.00e-04,1.00e-01,
39,2.00e-03,6.00e-02,
40,-1.20e-03,6.00e-02,
41,2.00e-03,1.00e-01,
42,2.00e-03,6.00e-02,
43,-8.00e-04,8.00e-02,
44,-3.60e-03,6.00e-02,
45,5.20e-03,8.00e-02,
46,8.40e-03,6.00e-02,
47,-1.00e-02,8.00e-02,
48,-1.44e-02,8.00e-02,
49,1.84e-02,6.00e-02,
50,-2.04e-02,6.00e-02,
51,2.08e-02,8.00e-02,
52,-1.76e-02,6.00e-02,
53,1.84e-02,8.00e-02,
54,1.12e-02,6.00e-02,
55,-7.60e-03,8.00e-02,
56,-5.60e-03,6.00e-02,
57,4.00e-03,8.00e-02,
58,2.00e-03,6.00e-02,
59,-1.20e-03,8.00e-02,
60,-8.00e-04,6.00e-02,
61,2.00e-03,8.00e-02,
62,-8.00e-04,8.00e-02,
63,2.40e-03,4.00e-02,
64,2.40e-03,8.00e-02,
65,-8.00e-04,2.00e-02,
66,1.20e-03,8.00e-02,
67,-4.00e-04,4.00e-02,
68,0.00e+00,8.00e-02,
69,1.20e-03,2.00e-02,
70,0.00e+00,2.00e-02,
71,6.80e-03,1.94e+00,
72,5.20e-03,1.60e-01,
73,0.00e+00,1.20e-01,
74,2.00e-03,1.40e-01,
75,-4.00e-04,8.00e-02,
76,2.00e-03,1.00e-01,
77,-8.00e-04,8.00e-02,
78,2.00e-03,1.00e-01,
79,-8.00e-04,6.00e-02,
80,0.00e+00,1.00e-01,
81,2.00e-03,6.00e-02,
82,2.40e-03,8.00e-02,
83,-1.20e-03,6.00e-02,
84,-3.60e-03,8.00e-02,
85,4.40e-03,6.00e-02,
86,-5.60e-03,6.00e-02,
87,7.20e-03,8.00e-02,
88,1.24e-02,8.00e-02,
89,-1.32e-02,6.00e-02,
90,1.68e-02,6.00e-02,
91,-1.64e-02,8.00e-02,
92,-1.36e-02,6.00e-02,
93,1.24e-02,8.00e-02,
94,7.60e-03,6.00e-02,
95,-5.20e-03,8.00e-02,
96,-2.80e-03,6.00e-02,
97,3.20e-03,8.00e-02,
98,2.40e-03,6.00e-02,
99,-1.20e-03,8.00e-02,
100,2.00e-03,8.00e-02,
101,-1.20e-03,2.00e-02,
102,1.20e-03,8.00e-02,
103,-1.20e-03,4.00e-02,
104,-1.20e-03,8.00e-02,
105,1.60e-03,4.00e-02,
106,2.80e-03,2.00e-02,
107,-2.40e-03,8.00e-02,
108,-4.00e-03,8.00e-02,
109,4.80e-03,2.00e-02,
110,2.80e-03,2.00e-02,
111,7.20e-03,1.76e+00,
112,5.60e-03,1.60e-01,
113,0.00e+00,1.20e-01,
114,2.40e-03,1.40e-01,
115,-4.00e-04,8.00e-02,
116,2.00e-03,1.00e-01,
117,-8.00e-04,8.00e-02,
118,2.00e-03,1.00e-01,
119,-8.00e-04,6.00e-02,
120,1.20e-03,6.00e-02,
121,-1.20e-03,8.00e-02,
122,-8.00e-04,6.00e-02,
123,2.40e-03,8.00e-02,
124,2.80e-03,6.00e-02,
125,-2.80e-03,8.00e-02,
126,-5.60e-03,8.00e-02,
127,6.40e-03,6.00e-02,
128,1.12e-02,6.00e-02,
129,-1.28e-02,8.00e-02,
130,-1.56e-02,6.00e-02,
131,1.52e-02,8.00e-02,
132,-1.24e-02,6.00e-02,
133,1.08e-02,8.00e-02,
134,6.80e-03,6.00e-02,
135,-5.60e-03,8.00e-02,
136,-3.60e-03,6.00e-02,
137,2.80e-03,8.00e-02,
138,2.00e-03,8.00e-02,
139,-8.00e-04,4.00e-02,
140,1.60e-03,8.00e-02,
141,-1.20e-03,2.00e-02,
142,1.20e-03,8.00e-02,
143,-1.20e-03,2.00e-02,
144,-1.20e-03,8.00e-02,
145,1.60e-03,2.00e-02,
146,2.00e-03,8.00e-02,
147,-1.20e-03,2.00e-02,
148,-2.80e-03,2.00e-02,
149,4.80e-03,8.00e-02,
150,3.60e-03,2.00e-02,
151,7.20e-03,1.90e+00,
152,5.60e-03,1.60e-01,
153,-8.00e-04,1.20e-01,
154,-8.00e-04,1.20e-01,
155,3.20e-03,8.00e-02,
156,1.60e-03,1.00e-01,
157,-8.00e-04,6.00e-02,
158,-8.00e-04,1.00e-01,
159,2.40e-03,6.00e-02,
160,-1.20e-03,1.00e-01,
161,2.00e-03,6.00e-02,
162,2.40e-03,6.00e-02,
163,-8.00e-04,8.00e-02,
164,-1.60e-03,6.00e-02,
165,2.80e-03,8.00e-02,
166,-3.20e-03,6.00e-02,
167,5.60e-03,8.00e-02,
168,7.60e-03,6.00e-02,
169,-8.40e-03,8.00e-02,
170,-1.16e-02,8.00e-02,
171,1.32e-02,6.00e-02,
172,-1.04e-02,6.00e-02,
173,1.04e-02,8.00e-02,
174,6.40e-03,6.00e-02,
175,-4.40e-03,8.00e-02,
176,-2.40e-03,8.00e-02,
177,2.40e-03,6.00e-02,
178,1.20e-03,8.00e-02,
179,-8.00e-04,4.00e-02,
180,1.20e-03,8.00e-02,
181,-4.00e-04,6.00e-02,
182,0.00e+00,8.00e-02,
183,1.20e-03,2.00e-02,
184,1.20e-03,8.00e-02,
185,-8.00e-04,2.00e-02,
186,-8.00e-04,8.00e-02,
187,2.00e-03,2.00e-02,
188,-1.60e-03,8.00e-02,
189,4.00e-03,2.00e-02,
190,3.20e-03,1.84e+00,
191,7.20e-03,-2.00e-02,
192,5.60e-03,1.60e-01,
193,-4.00e-04,1.20e-01,
194,2.40e-03,8.00e-02,
195,-8.00e-04,1.40e-01,
196,1.20e-03,1.00e-01,
197,-8.00e-04,8.00e-02,
198,-8.00e-04,1.00e-01,
199,2.00e-03,6.00e-02,
200,-8.00e-04,6.00e-02,
201,2.40e-03,1.00e-01,
202,2.00e-03,6.00e-02,
203,-4.00e-04,8.00e-02,
204,-2.00e-03,6.00e-02,
205,3.20e-03,8.00e-02,
206,-3.20e-03,6.00e-02,
207,5.60e-03,8.00e-02,
208,8.00e-03,8.00e-02,
209,-8.40e-03,6.00e-02,
210,-1.04e-02,6.00e-02,
211,1.16e-02,8.00e-02,
212,-9.60e-03,6.00e-02,
213,8.40e-03,8.00e-02,
214,5.20e-03,6.00e-02,
215,-3.60e-03,8.00e-02,
216,-1.60e-03,6.00e-02,
217,2.40e-03,8.00e-02,
218,-8.00e-04,8.00e-02,
219,2.00e-03,6.00e-02,
220,-8.00e-04,8.00e-02,
221,1.60e-03,2.00e-02,
222,2.00e-03,4.00e-02,
223,-8.00e-04,8.00e-02,
224,-8.00e-04,8.00e-02,
225,1.20e-03,2.00e-02,
226,-1.20e-03,8.00e-02,
227,1.60e-03,2.00e-02,
228,-2.40e-03,8.00e-02,
229,3.20e-03,2.00e-02,
230,2.00e-03,2.00e-02,
231,7.20e-03,1.84e+00,
232,5.60e-03,1.60e-01,
233,0.00e+00,1.20e-01,
234,3.60e-03,1.40e-01,
235,-4.00e-04,8.00e-02,
236,-4.00e-04,1.00e-01,
237,1.60e-03,8.00e-02,
238,2.00e-03,1.00e-01,
239,0.00e+00,6.00e-02,
240,-8.00e-04,6.00e-02,
241,1.20e-03,1.00e-01,
242,1.20e-03,6.00e-02,
243,-8.00e-04,8.00e-02,
244,2.40e-03,6.00e-02,
245,-1.60e-03,8.00e-02,
246,-2.80e-03,6.00e-02,
247,4.80e-03,8.00e-02,
248,7.20e-03,8.00e-02,
249,-7.60e-03,6.00e-02,
250,1.08e-02,8.00e-02,
251,-1.00e-02,6.00e-02,
252,-8.40e-03,6.00e-02,
253,7.20e-03,8.00e-02,
254,5.20e-03,8.00e-02,
255,-3.20e-03,6.00e-02,
256,-1.60e-03,8.00e-02,
257,2.40e-03,6.00e-02,
258,-1.20e-03,6.00e-02,
259,2.00e-03,8.00e-02,
260,-1.20e-03,8.00e-02,
261,1.60e-03,2.00e-02,
262,-8.00e-04,8.00e-02,
263,2.00e-03,2.00e-02,
264,-8.00e-04,8.00e-02,
265,2.00e-03,2.00e-02,
266,2.00e-03,8.00e-02,
267,-1.20e-03,2.00e-02,
268,-2.40e-03,8.00e-02,
269,3.60e-03,4.00e-02,
270,2.80e-03,4.00e-02,
271,7.60e-03,1.94e+00,
272,6.00e-03,1.60e-01,
273,-4.00e-04,1.20e-01,
274,3.60e-03,1.40e-01,
275,-8.00e-04,8.00e-02,
276,2.40e-03,8.00e-02,
277,-8.00e-04,1.00e-01,
278,2.40e-03,1.00e-01,
279,-1.20e-03,6.00e-02,
280,-8.00e-04,1.00e-01,
281,2.00e-03,6.00e-02,
282,2.00e-03,6.00e-02,
283,-8.00e-04,8.00e-02,
284,2.00e-03,6.00e-02,
285,-1.20e-03,8.00e-02,
286,-2.80e-03,6.00e-02,
287,4.00e-03,8.00e-02,
288,5.60e-03,6.00e-02,
289,-7.20e-03,8.00e-02,
290,-8.80e-03,6.00e-02,
291,8.80e-03,8.00e-02,
292,-7.60e-03,8.00e-02,
293,6.80e-03,6.00e-02,
294,4.00e-03,6.00e-02,
295,-3.20e-03,8.00e-02,
296,-2.40e-03,8.00e-02,
297,2.00e-03,6.00e-02,
298,1.20e-03,8.00e-02,
299,-8.00e-04,6.00e-02,
300,-1.20e-03,8.00e-02,
301,1.20e-03,2.00e-02,
302,2.00e-03,8.00e-02,
303,0.00e+00,2.00e-02,
304,-4.00e-04,8.00e-02,
305,1.20e-03,4.00e-02,
306,2.00e-03,8.00e-02,
307,-1.20e-03,2.00e-02,
308,2.80e-03,2.00e-02,
309,-2.40e-03,8.00e-02,
310,2.80e-03,1.92e+00,
311,7.20e-03,-2.00e-02,
312,5.60e-03,1.60e-01,
313,-8.00e-04,1.20e-01,
314,3.60e-03,1.20e-01,
315,-8.00e-04,8.00e-02,
316,2.00e-03,1.00e-01,
317,-1.20e-03,8.00e-02,
318,2.00e-03,1.00e-01,
319,-1.20e-03,6.00e-02,
320,-1.20e-03,1.00e-01,
321,2.00e-03,6.00e-02,
322,1.20e-03,6.00e-02,
323,-1.20e-03,8.00e-02,
324,2.40e-03,8.00e-02,
325,-1.60e-03,6.00e-02,
326,-2.40e-03,6.00e-02,
327,4.80e-03,8.00e-02,
328,6.40e-03,6.00e-02,
329,-5.60e-03,8.00e-02,
330,-7.60e-03,6.00e-02,
331,8.80e-03,8.00e-02,
332,-6.00e-03,8.00e-02,
333,6.40e-03,6.00e-02,
334,4.00e-03,6.00e-02,
335,-2.80e-03,8.00e-02,
336,-1.60e-03,6.00e-02,
337,2.40e-03,8.00e-02,
338,2.00e-03,8.00e-02,
339,0.00e+00,6.00e-02,
340,-8.00e-04,8.00e-02,
341,1.20e-03,4.00e-02,
342,-8.00e-04,4.00e-02,
343,1.60e-03,8.00e-02,
344,-8.00e-04,8.00e-02,
345,1.20e-03,2.00e-02,
346,2.00e-03,6.00e-02,
347,-1.20e-03,8.00e-02,
348,-3.20e-03,8.00e-02,
349,3.60e-03,2.00e-02,
350,3.20e-03,2.00e-02,
351,8.00e-03,1.70e+00,
352,5.60e-03,1.60e-01,
353,-8.00e-04,1.20e-01,
354,3.60e-03,1.40e-01,
355,-1.20e-03,8.00e-02,
356,1.20e-03,8.00e-02,
357,-1.20e-03,1.00e-01,
358,-1.20e-03,1.00e-01,
359,2.40e-03,6.00e-02,
360,0.00e+00,1.00e-01,
361,2.00e-03,6.00e-02,
362,-8.00e-04,6.00e-02,
363,2.00e-03,8.00e-02,
364,2.00e-03,8.00e-02,
365,-1.20e-03,6.00e-02,
366,-2.40e-03,6.00e-02,
367,3.60e-03,8.00e-02,
368,5.20e-03,6.00e-02,
369,-5.60e-03,8.00e-02,
370,-8.00e-03,6.00e-02,
371,8.00e-03,8.00e-02,
372,-6.00e-03,6.00e-02,
373,5.60e-03,8.00e-02,
374,4.00e-03,6.00e-02,
375,-2.40e-03,8.00e-02,
376,-1.60e-03,8.00e-02,
377,2.00e-03,4.00e-02,
378,1.20e-03,8.00e-02,
379,-4.00e-04,2.00e-02,
380,-8.00e-04,4.00e-02,
381,1.20e-03,8.00e-02,
382,2.00e-03,8.00e-02,
383,-8.00e-04,2.00e-02,
384,1.20e-03,8.00e-02,
385,-1.20e-03,2.00e-02,
386,-1.20e-03,8.00e-02,
387,1.60e-03,2.00e-02,
388,-2.80e-03,2.00e-02,
389,3.60e-03,8.00e-02,
390,3.60e-03,2.00e-02,
391,7.20e-03,1.98e+00,
392,5.20e-03,1.60e-01,
393,-8.00e-04,1.20e-01,
394,4.00e-03,8.00e-02,
395,-1.20e-03,1.40e-01,
396,-8.00e-04,1.00e-01,
397,2.40e-03,8.00e-02,
398,2.00e-03,1.00e-01,
399,-1.20e-03,6.00e-02,
400,-8.00e-04,1.00e-01,
401,1.60e-03,6.00e-02,
402,1.20e-03,8.00e-02,
403,0.00e+00,6.00e-02,
404,1.20e-03,6.00e-02,
405,-1.60e-03,8.00e-02,
406,-2.00e-03,6.00e-02,
407,3.60e-03,8.00e-02,
408,4.00e-03,6.00e-02,
409,-5.60e-03,8.00e-02,
410,6.40e-03,6.00e-02,
411,-7.20e-03,8.00e-02,
412,-6.00e-03,8.00e-02,
413,5.20e-03,6.00e-02,
414,3.60e-03,6.00e-02,
415,-2.40e-03,8.00e-02,
416,-1.60e-03,8.00e-02,
417,2.00e-03,4.00e-02,
418,1.60e-03,8.00e-02,
419,-8.00e-04,4.00e-02,
420,1.20e-03,8.00e-02,
421,-1.20e-03,2.00e-02,
422,1.20e-03,8.00e-02,
423,-8.00e-04,2.00e-02,
424,-1.20e-03,8.00e-02,
425,1.20e-03,2.00e-02,
426,-1.20e-03,8.00e-02,
427,2.40e-03,2.00e-02,
428,2.80e-03,8.00e-02,
429,-2.40e-03,2.00e-02,
430,3.20e-03,2.00e+00,
431,8.00e-03,-6.00e-02,
432,5.60e-03,1.60e-01,
433,4.00e-04,1.20e-01,
434,4.40e-03,1.20e-01,
435,-1.20e-03,8.00e-02,
436,-8.00e-04,1.00e-01,
437,2.40e-03,8.00e-02,
438,2.00e-03,1.00e-01,
439,-8.00e-04,6.00e-02,
440,-8.00e-04,6.00e-02,
441,2.00e-03,1.00e-01,
442,-8.00e-04,6.00e-02,
443,2.00e-03,8.00e-02,
444,-8.00e-04,8.00e-02,
445,2.40e-03,6.00e-02,
446,-1.60e-03,6.00e-02,
447,3.60e-03,8.00e-02,
448,4.40e-03,6.00e-02,
449,-5.20e-03,8.00e-02,
450,-6.00e-03,6.00e-02,
451,6.00e-03,8.00e-02,
452,-4.40e-03,8.00e-02,
453,4.80e-03,6.00e-02,
454,3.60e-03,6.00e-02,
455,-1.20e-03,8.00e-02,
456,-1.60e-03,8.00e-02,
457,1.20e-03,6.00e-02,
458,1.20e-03,6.00e-02,
459,-8.00e-04,8.00e-02,
460,-8.00e-04,8.00e-02,
461,1.20e-03,4.00e-02,
462,2.00e-03,8.00e-02,
463,-8.00e-04,4.00e-02,
464,1.20e-03,2.00e-02,
465,-1.20e-03,8.00e-02,
466,2.40e-03,8.00e-02,
467,-1.20e-03,2.00e-02,
468,2.80e-03,8.00e-02,
469,-3.60e-03,2.00e-02,
470,2.80e-03,2.00e-02,
471,7.20e-03,1.86e+00,
472,5.60e-03,1.60e-01,
473,0.00e+00,1.20e-01,
474,4.80e-03,1.20e-01,
475,-1.60e-03,8.00e-02,
476,2.40e-03,1.00e-01,
477,-1.20e-03,8.00e-02,
478,-8.00e-04,1.00e-01,
479,2.00e-03,6.00e-02,
480,-1.20e-03,1.00e-01,
481,2.00e-03,6.00e-02,
482,-1.20e-03,6.00e-02,
483,1.20e-03,8.00e-02,
484,1.60e-03,8.00e-02,
485,-8.00e-04,6.00e-02,
486,-1.20e-03,6.00e-02,
487,3.60e-03,8.00e-02,
488,4.00e-03,8.00e-02,
489,-4.00e-03,6.00e-02,
490,5.60e-03,6.00e-02,
491,-5.60e-03,8.00e-02,
492,-4.40e-03,6.00e-02,
493,4.40e-03,8.00e-02,
494,3.20e-03,6.00e-02,
495,-1.60e-03,8.00e-02,
496,-1.20e-03,6.00e-02,
497,2.00e-03,8.00e-02,
498,2.00e-03,6.00e-02,
499,-8.00e-04,8.00e-02,
500,-8.00e-04,6.00e-02,
501,1.20e-03,8.00e-02,
502,-1.20e-03,6.00e-02,
503,1.60e-03,8.00e-02,
504,-8.00e-04,8.00e-02,
505,1.60e-03,2.00e-02,
506,2.00e-03,8.00e-02,
507,-1.60e-03,2.00e-02,
508,3.20e-03,8.00e-02,
509,-3.20e-03,2.00e-02,
510,3.20e-03,1.90e+00,
511,8.00e-03,0.00e+00,
512,5.60e-03,1.60e-01,
513,-4.00e-04,1.20e-01,
514,5.20e-03,1.40e-01,
515,-8.00e-04,8.00e-02,
516,-1.20e-03,1.00e-01,
517,2.40e-03,8.00e-02,
518,2.00e-03,1.00e-01,
519,-8.00e-04,6.00e-02,
520,-8.00e-04,1.00e-01,
521,1.60e-03,6.00e-02,
522,0.00e+00,6.00e-02,
523,2.00e-03,8.00e-02,
524,1.20e-03,6.00e-02,
525,-1.20e-03,8.00e-02,
526,-1.60e-03,6.00e-02,
527,2.00e-03,8.00e-02,
528,3.60e-03,6.00e-02,
529,-3.60e-03,8.00e-02,
530,5.20e-03,6.00e-02,
531,-4.40e-03,8.00e-02,
532,-4.00e-03,8.00e-02,
533,3.60e-03,6.00e-02,
534,2.80e-03,8.00e-02,
535,-1.20e-03,6.00e-02,
536,1.20e-03,6.00e-02,
537,-1.20e-03,8.00e-02,
538,1.20e-03,8.00e-02,
539,-8.00e-04,6.00e-02,
540,-8.00e-04,6.00e-02,
541,8.00e-04,8.00e-02,
542,1.20e-03,8.00e-02,
543,-4.00e-04,4.00e-02,
544,-8.00e-04,8.00e-02,
545,1.20e-03,2.00e-02,
546,-1.20e-03,8.00e-02,
547,2.40e-03,2.00e-02,
548,4.00e-03,8.00e-02,
549,-2.80e-03,2.00e-02,
550,2.80e-03,1.88e+00,
551,7.60e-03,-2.00e-02,
552,5.60e-03,1.60e-01,
553,-4.00e-04,1.20e-01,
554,4.00e-03,1.40e-01,
555,-1.60e-03,8.00e-02,
556,2.00e-03,8.00e-02,
557,-1.20e-03,1.00e-01,
558,2.00e-03,1.00e-01,
559,-8.00e-04,6.00e-02,
560,-8.00e-04,1.00e-01,
561,2.00e-03,6.00e-02,
562,1.20e-03,6.00e-02,
563,-4.00e-04,8.00e-02,
564,-8.00e-04,6.00e-02,
565,1.20e-03,8.00e-02,
566,2.40e-03,6.00e-02,
567,-1.20e-03,8.00e-02,
568,4.00e-03,6.00e-02,
569,-3.20e-03,8.00e-02,
570,5.20e-03,8.00e-02,
571,-4.00e-03,6.00e-02,
572,-3.60e-03,6.00e-02,
573,4.00e-03,8.00e-02,
574,2.40e-03,8.00e-02,
575,-1.60e-03,6.00e-02,
576,-4.00e-04,8.00e-02,
577,2.00e-03,6.00e-02,
578,2.00e-03,6.00e-02,
579,0.00e+00,8.00e-02,
580,-1.20e-03,6.00e-02,
581,8.00e-04,8.00e-02,
582,-8.00e-04,8.00e-02,
583,2.40e-03,6.00e-02,
584,-8.00e-04,8.00e-02,
585,2.40e-03,2.00e-02,
586,2.40e-03,8.00e-02,
587,-1.60e-03,4.00e-02,
588,3.60e-03,8.00e-02,
589,-4.00e-03,2.00e-02,
590,2.40e-03,2.00e-02,
591,7.60e-03,1.86e+00,
592,6.40e-03,1.60e-01,
593,0.00e+00,1.20e-01,
594,4.80e-03,1.40e-01,
595,-8.00e-04,8.00e-02,
596,-8.00e-04,1.00e-01,
597,2.40e-03,8.00e-02,
598,2.40e-03,1.00e-01,
599,-8.00e-04,6.00e-02,
600,-4.00e-04,1.00e-01,
601,2.40e-03,6.00e-02,
602,1.20e-03,6.00e-02,
603,-4.00e-04,1.00e-01,
604,0.00e+00,6.00e-02,
605,1.20e-03,8.00e-02,
606,-1.60e-03,6.00e-02,
607,2.40e-03,8.00e-02,
608,2.80e-03,6.00e-02,
609,-2.80e-03,8.00e-02,
610,4.00e-03,6.00e-02,
611,-4.00e-03,8.00e-02,
612,-3.60e-03,8.00e-02,
613,3.60e-03,6.00e-02,
614,-1.20e-03,6.00e-02,
615,2.40e-03,8.00e-02,
616,1.20e-03,6.00e-02,
617,-8.00e-04,8.00e-02,
618,0.00e+00,6.00e-02,
619,1.20e-03,8.00e-02,
620,1.20e-03,8.00e-02,
621,-8.00e-04,2.00e-02,
622,1.20e-03,8.00e-02,
623,-8.00e-04,2.00e-02,
624,-1.20e-03,8.00e-02,
625,2.40e-03,2.00e-02,
626,2.80e-03,8.00e-02,
627,-1.20e-03,2.00e-02,
628,4.00e-03,8.00e-02,
629,-4.00e-03,2.00e-02,
630,2.00e-03,1.98e+00,
631,7.20e-03,0.00e+00,
632,5.60e-03,1.80e-01,
633,0.00e+00,1.20e-01,
634,4.40e-03,1.40e-01,
635,-1.20e-03,8.00e-02,
636,2.40e-03,8.00e-02,
637,-1.60e-03,1.00e-01,
638,2.40e-03,1.00e-01,
639,-8.00e-04,6.00e-02,
640,-1.20e-03,1.00e-01,
641,1.20e-03,6.00e-02,
642,1.20e-03,6.00e-02,
643,-8.00e-04,8.00e-02,
644,-8.00e-04,6.00e-02,
645,1.20e-03,8.00e-02,
646,-8.00e-04,6.00e-02,
647,2.40e-03,8.00e-02,
648,2.80e-03,6.00e-02,
649,-2.40e-03,8.00e-02,
650,-2.80e-03,6.00e-02,
651,4.80e-03,8.00e-02,
652,-2.40e-03,6.00e-02,
653,4.00e-03,8.00e-02,
654,2.40e-03,6.00e-02,
655,-1.20e-03,8.00e-02,
656,-8.00e-04,8.00e-02,
657,1.20e-03,6.00e-02,
658,2.00e-03,6.00e-02,
659,0.00e+00,8.00e-02,
660,-8.00e-04,8.00e-02,
661,1.20e-03,2.00e-02,
662,-4.00e-04,8.00e-02,
663,2.00e-03,4.00e-02,
664,-1.20e-03,2.00e-02,
665,1.60e-03,8.00e-02,
666,-1.60e-03,8.00e-02,
667,2.80e-03,2.00e-02,
668,3.60e-03,8.00e-02,
669,-4.40e-03,2.00e-02,
670,2.80e-03,2.00e-02,
671,8.00e-03,1.94e+00,
672,6.40e-03,1.60e-01,
673,-1.20e-03,1.20e-01,
674,5.20e-03,1.40e-01,
675,-1.60e-03,8.00e-02,
676,-1.20e-03,8.00e-02,
677,2.80e-03,1.00e-01,
678,2.40e-03,1.00e-01,
679,-1.20e-03,6.00e-02,
680,1.20e-03,6.00e-02,
681,-8.00e-04,1.00e-01,
682,0.00e+00,8.00e-02,
683,2.00e-03,6.00e-02,
684,1.20e-03,6.00e-02,
685,-1.20e-03,8.00e-02,
686,-1.20e-03,6.00e-02,
687,2.40e-03,8.00e-02,
688,2.80e-03,6.00e-02,
689,-2.40e-03,8.00e-02,
690,-3.20e-03,6.00e-02,
691,4.00e-03,8.00e-02,
692,-2.40e-03,6.00e-02,
693,2.80e-03,8.00e-02,
694,-8.00e-04,6.00e-02,
695,2.00e-03,8.00e-02,
696,1.20e-03,6.00e-02,
697,-1.20e-03,8.00e-02,
698,-8.00e-04,6.00e-02,
699,1.20e-03,8.00e-02,
700,0.00e+00,8.00e-02,
701,1.20e-03,4.00e-02,
702,2.00e-03,8.00e-02,
703,-4.00e-04,4.00e-02,
704,-1.20e-03,8.00e-02,
705,1.20e-03,4.00e-02,
706,-1.20e-03,8.00e-02,
707,3.20e-03,2.00e-02,
708,4.00e-03,2.00e-02,
709,-4.00e-03,8.00e-02,
710,2.40e-03,2.00e-02,
711,7.60e-03,1.64e+00,
712,5.60e-03,1.80e-01,
713,-8.00e-04,1.20e-01,
714,5.20e-03,8.00e-02,
715,-1.20e-03,1.40e-01,
716,-1.20e-03,1.00e-01,
717,2.40e-03,8.00e-02,
718,-8.00e-04,1.00e-01,
719,2.40e-03,6.00e-02,
720,1.20e-03,1.00e-01,
721,-1.20e-03,6.00e-02,
722,-8.00e-04,8.00e-02,
723,1.20e-03,6.00e-02,
724,-8.00e-04,6.00e-02,
725,8.00e-04,8.00e-02,
726,-8.00e-04,6.00e-02,
727,2.40e-03,8.00e-02,
728,2.00e-03,6.00e-02,
729,-1.60e-03,8.00e-02,
730,-2.00e-03,8.00e-02,
731,4.00e-03,6.00e-02,
732,-2.40e-03,6.00e-02,
733,2.40e-03,8.00e-02,
734,2.00e-03,8.00e-02,
735,-1.20e-03,6.00e-02,
736,1.20e-03,8.00e-02,
737,-8.00e-04,6.00e-02,
738,-4.00e-04,6.00e-02,
739,1.60e-03,8.00e-02,
740,-8.00e-04,8.00e-02,
741,1.60e-03,4.00e-02,
742,1.20e-03,8.00e-02,
743,-8.00e-04,2.00e-02,
744,-1.20e-03,8.00e-02,
745,2.40e-03,2.00e-02,
746,-1.60e-03,8.00e-02,
747,2.40e-03,4.00e-02,
748,4.00e-03,8.00e-02,
749,-4.00e-03,2.00e-02,
750,2.40e-03,1.90e+00,
751,8.00e-03,-2.00e-02,
752,6.40e-03,1.80e-01,
753,0.00e+00,1.20e-01,
754,5.20e-03,1.40e-01,
755,-1.60e-03,8.00e-02,
756,2.00e-03,1.00e-01,
757,-1.20e-03,8.00e-02,
758,2.40e-03,1.00e-01,
759,-8.00e-04,6.00e-02,
760,-1.20e-03,1.00e-01,
761,2.00e-03,6.00e-02,
762,0.00e+00,8.00e-02,
763,2.00e-03,6.00e-02,
764,2.00e-03,6.00e-02,
765,-8.00e-04,8.00e-02,
766,-1.20e-03,6.00e-02,
767,2.00e-03,8.00e-02,
768,2.40e-03,6.00e-02,
769,-1.60e-03,8.00e-02,
770,2.80e-03,8.00e-02,
771,-2.40e-03,6.00e-02,
772,-2.40e-03,8.00e-02,
773,2.40e-03,6.00e-02,
774,2.00e-03,6.00e-02,
775,-4.00e-04,8.00e-02,
776,1.20e-03,6.00e-02,
777,0.00e+00,8.00e-02,
778,1.20e-03,6.00e-02,
779,0.00e+00,8.00e-02,
780,1.20e-03,6.00e-02,
781,-4.00e-04,8.00e-02,
782,-8.00e-04,8.00e-02,
783,1.60e-03,4.00e-02,
784,1.20e-03,4.00e-02,
785,-1.20e-03,8.00e-02,
786,-1.60e-03,8.00e-02,
787,3.60e-03,4.00e-02,
788,4.00e-03,8.00e-02,
789,-4.40e-03,2.00e-02,
790,1.60e-03,2.00e-02,
791,7.60e-03,1.94e+00,
792,5.60e-03,1.80e-01,
793,0.00e+00,1.20e-01,
794,5.20e-03,1.40e-01,
795,-1.60e-03,8.00e-02,
796,-1.60e-03,1.00e-01,
797,2.40e-03,8.00e-02,
798,2.00e-03,1.00e-01,
799,-1.20e-03,6.00e-02,
800,-8.00e-04,1.00e-01,
801,1.20e-03,6.00e-02,
802,0.00e+00,6.00e-02,
803,1.20e-03,8.00e-02,
804,-8.00e-04,6.00e-02,
805,1.20e-03,8.00e-02,
806,2.00e-03,8.00e-02,
807,-8.00e-04,6.00e-02,
808,2.00e-03,8.00e-02,
809,-1.60e-03,6.00e-02,
810,2.80e-03,6.00e-02,
811,-2.40e-03,8.00e-02,
812,-2.40e-03,6.00e-02,
813,2.00e-03,8.00e-02,
814,2.00e-03,6.00e-02,
815,-8.00e-04,8.00e-02,
816,-4.00e-04,8.00e-02,
817,1.20e-03,4.00e-02,
818,8.00e-04,8.00e-02,
819,-8.00e-04,4.00e-02,
820,1.20e-03,8.00e-02,
821,-4.00e-04,2.00e-02,
822,2.00e-03,2.00e-02,
823,0.00e+00,8.00e-02,
824,2.40e-03,8.00e-02,
825,-1.20e-03,2.00e-02,
826,-2.40e-03,2.00e-02,
827,3.20e-03,8.00e-02,
828,4.40e-03,2.00e-02,
829,-4.40e-03,8.00e-02,
830,1.20e-03,4.00e-02,
831,8.00e-03,1.76e+00,
832,5.60e-03,1.80e-01,
833,-8.00e-04,1.20e-01,
834,5.60e-03,1.40e-01,
835,-1.60e-03,8.00e-02,
836,-1.60e-03,8.00e-02,
837,2.40e-03,1.00e-01,
838,-1.20e-03,1.00e-01,
839,2.40e-03,6.00e-02,
840,-8.00e-04,6.00e-02,
841,1.60e-03,1.00e-01,
842,-8.00e-04,8.00e-02,
843,2.00e-03,6.00e-02,
844,8.00e-04,6.00e-02,
845,-8.00e-04,8.00e-02,
846,-8.00e-04,8.00e-02,
847,2.00e-03,6.00e-02,
848,-1.20e-03,6.00e-02,
849,2.40e-03,8.00e-02,
850,2.80e-03,6.00e-02,
851,-2.40e-03,8.00e-02,
852,-1.60e-03,6.00e-02,
853,2.00e-03,8.00e-02,
