CarrPurc_P1-19_P2-38_tauVary/Gly94/NewFile7.csv

X,CH1,CH2,Start,Increment,
Sequence,Volt,Volt,-6.000000e-04,1.000000e-04
0,8.00e-04,4.00e-02,
1,0.00e+00,2.00e-02,
2,0.00e+00,4.00e-02,
3,1.20e-03,2.00e-02,
4,1.20e-03,4.00e-02,
5,0.00e+00,2.00e-02,
6,8.00e-04,2.00e-02,
7,0.00e+00,4.00e-02,
8,8.00e-04,4.00e-02,
9,0.00e+00,2.00e-02,
10,0.00e+00,2.00e-02,
11,5.20e-03,2.00e+00,
12,4.80e-03,1.60e-01,
13,-2.72e-02,8.00e-02,
14,-1.48e-02,1.20e-01,
15,1.40e-02,8.00e-02,
16,8.00e-03,1.00e-01,
17,-7.60e-03,6.00e-02,
18,3.60e-03,1.00e-01,
19,-2.40e-03,6.00e-02,
20,-1.60e-03,6.00e-02,
21,3.20e-03,1.00e-01,
22,2.80e-03,6.00e-02,
23,-1.20e-03,8.00e-02,
24,-1.60e-03,8.00e-02,
25,2.40e-03,6.00e-02,
26,1.60e-03,6.00e-02,
27,-1.20e-03,8.00e-02,
28,-8.00e-04,6.00e-02,
29,1.20e-03,8.00e-02,
30,8.00e-04,1.90e+00,
31,6.80e-03,4.00e-02,
32,5.60e-03,1.60e-01,
33,-6.40e-03,1.20e-01,
34,-6.80e-03,1.20e-01,
35,5.60e-03,8.00e-02,
36,4.00e-03,1.00e-01,
37,-1.60e-03,8.00e-02,
38,0.00e+00,1.00e-01,
39,2.00e-03,6.00e-02,
40,-1.20e-03,1.00e-01,
41,2.00e-03,6.00e-02,
42,1.20e-03,6.00e-02,
43,-1.20e-03,8.00e-02,
44,-2.80e-03,6.00e-02,
45,5.20e-03,8.00e-02,
46,8.40e-03,6.00e-02,
47,-9.60e-03,8.00e-02,
48,-1.48e-02,8.00e-02,
49,1.72e-02,6.00e-02,
50,-1.84e-02,6.00e-02,
51,2.16e-02,8.00e-02,
52,-1.88e-02,6.00e-02,
53,1.64e-02,8.00e-02,
54,1.12e-02,6.00e-02,
55,-7.60e-03,8.00e-02,
56,-5.60e-03,8.00e-02,
57,4.00e-03,2.00e-02,
58,2.40e-03,6.00e-02,
59,-1.20e-03,8.00e-02,
60,-1.20e-03,8.00e-02,
61,2.00e-03,4.00e-02,
62,1.60e-03,8.00e-02,
63,-8.00e-04,2.00e-02,
64,2.00e-03,8.00e-02,
65,-8.00e-04,2.00e-02,
66,2.00e-03,8.00e-02,
67,-8.00e-04,4.00e-02,
68,8.00e-04,8.00e-02,
69,-8.00e-04,2.00e-02,
70,4.00e-04,2.00e-02,
71,7.20e-03,1.92e+00,
72,5.20e-03,1.60e-01,
73,-8.00e-04,1.20e-01,
74,2.00e-03,1.40e-01,
75,-8.00e-04,8.00e-02,
76,-1.20e-03,1.00e-01,
77,2.00e-03,8.00e-02,
78,-8.00e-04,1.00e-01,
79,2.00e-03,6.00e-02,
80,-8.00e-04,6.00e-02,
81,2.00e-03,1.00e-01,
82,2.00e-03,1.00e-01,
83,-1.60e-03,6.00e-02,
84,-4.00e-03,8.00e-02,
85,4.00e-03,6.00e-02,
86,-6.40e-03,6.00e-02,
87,7.20e-03,8.00e-02,
88,1.12e-02,8.00e-02,
89,-1.28e-02,6.00e-02,
90,1.64e-02,6.00e-02,
91,-1.64e-02,8.00e-02,
92,-1.32e-02,6.00e-02,
93,1.16e-02,8.00e-02,
94,7.20e-03,6.00e-02,
95,-5.60e-03,8.00e-02,
96,-3.60e-03,6.00e-02,
97,2.80e-03,8.00e-02,
98,2.40e-03,6.00e-02,
99,-1.60e-03,8.00e-02,
100,-1.60e-03,8.00e-02,
101,1.20e-03,6.00e-02,
102,1.20e-03,8.00e-02,
103,-8.00e-04,4.00e-02,
104,-4.00e-04,8.00e-02,
105,2.00e-03,4.00e-02,
106,2.80e-03,8.00e-02,
107,-2.40e-03,2.00e-02,
108,-3.20e-03,8.00e-02,
109,5.60e-03,2.00e-02,
110,3.20e-03,2.00e-02,
111,7.20e-03,1.86e+00,
112,5.60e-03,1.60e-01,
113,0.00e+00,1.20e-01,
114,2.80e-03,1.40e-01,
115,-4.00e-04,8.00e-02,
116,2.00e-03,1.00e-01,
117,0.00e+00,8.00e-02,
118,-1.20e-03,1.00e-01,
119,2.00e-03,6.00e-02,
120,-4.00e-04,6.00e-02,
121,2.40e-03,1.00e-01,
122,2.00e-03,6.00e-02,
123,-8.00e-04,8.00e-02,
124,3.20e-03,6.00e-02,
125,-3.20e-03,8.00e-02,
126,-5.20e-03,8.00e-02,
127,6.80e-03,6.00e-02,
128,1.12e-02,6.00e-02,
129,-1.24e-02,8.00e-02,
130,-1.44e-02,6.00e-02,
131,1.56e-02,8.00e-02,
132,-1.16e-02,6.00e-02,
133,1.16e-02,8.00e-02,
134,7.60e-03,6.00e-02,
135,-5.60e-03,8.00e-02,
136,-3.60e-03,8.00e-02,
137,3.60e-03,4.00e-02,
138,-1.20e-03,8.00e-02,
139,2.00e-03,6.00e-02,
140,-8.00e-04,8.00e-02,
141,2.00e-03,4.00e-02,
142,2.00e-03,8.00e-02,
143,-1.20e-03,4.00e-02,
144,-8.00e-04,8.00e-02,
145,1.20e-03,2.00e-02,
146,2.00e-03,8.00e-02,
147,-1.20e-03,2.00e-02,
148,-3.20e-03,8.00e-02,
149,4.80e-03,2.00e-02,
150,2.80e-03,2.00e-02,
151,7.20e-03,2.00e+00,
152,5.60e-03,1.60e-01,
153,-1.20e-03,1.20e-01,
154,-1.20e-03,1.20e-01,
155,3.20e-03,8.00e-02,
156,2.00e-03,8.00e-02,
157,-8.00e-04,1.00e-01,
158,2.00e-03,1.00e-01,
159,-1.20e-03,6.00e-02,
160,-1.20e-03,1.00e-01,
161,2.00e-03,6.00e-02,
162,2.00e-03,6.00e-02,
163,-8.00e-04,8.00e-02,
164,2.80e-03,6.00e-02,
165,-2.40e-03,8.00e-02,
166,-4.00e-03,6.00e-02,
167,5.20e-03,8.00e-02,
168,8.00e-03,6.00e-02,
169,-8.40e-03,8.00e-02,
170,-1.16e-02,8.00e-02,
171,1.28e-02,6.00e-02,
172,-1.04e-02,6.00e-02,
173,1.00e-02,8.00e-02,
174,6.40e-03,8.00e-02,
175,-4.40e-03,4.00e-02,
176,-2.80e-03,8.00e-02,
177,2.80e-03,6.00e-02,
178,1.20e-03,8.00e-02,
179,-8.00e-04,4.00e-02,
180,1.20e-03,8.00e-02,
181,0.00e+00,2.00e-02,
182,-8.00e-04,8.00e-02,
183,1.20e-03,2.00e-02,
184,0.00e+00,8.00e-02,
185,1.20e-03,2.00e-02,
186,1.20e-03,8.00e-02,
187,-8.00e-04,2.00e-02,
188,-1.60e-03,8.00e-02,
189,2.80e-03,2.00e-02,
190,2.80e-03,4.00e-02,
191,7.20e-03,1.96e+00,
192,5.60e-03,1.60e-01,
193,0.00e+00,1.20e-01,
194,2.80e-03,1.20e-01,
195,-8.00e-04,8.00e-02,
196,1.20e-03,1.00e-01,
197,0.00e+00,8.00e-02,
198,1.60e-03,1.00e-01,
199,-8.00e-04,6.00e-02,
200,-8.00e-04,1.00e-01,
201,1.20e-03,6.00e-02,
202,1.20e-03,6.00e-02,
203,-8.00e-04,8.00e-02,
204,-2.40e-03,6.00e-02,
205,2.80e-03,8.00e-02,
206,-4.00e-03,6.00e-02,
207,5.20e-03,8.00e-02,
208,7.20e-03,8.00e-02,
209,-8.80e-03,6.00e-02,
210,1.12e-02,6.00e-02,
211,-1.04e-02,8.00e-02,
212,-9.20e-03,6.00e-02,
213,8.00e-03,8.00e-02,
214,5.60e-03,6.00e-02,
215,-4.00e-03,8.00e-02,
216,-2.00e-03,6.00e-02,
217,2.80e-03,8.00e-02,
218,2.40e-03,8.00e-02,
219,0.00e+00,6.00e-02,
220,-4.00e-04,8.00e-02,
221,2.00e-03,4.00e-02,
222,1.20e-03,8.00e-02,
223,-8.00e-04,2.00e-02,
224,-8.00e-04,8.00e-02,
225,1.20e-03,2.00e-02,
226,2.40e-03,8.00e-02,
227,-1.20e-03,2.00e-02,
228,-2.40e-03,8.00e-02,
229,3.60e-03,2.00e-02,
230,2.80e-03,2.00e-02,
231,8.00e-03,1.80e+00,
232,6.00e-03,1.60e-01,
233,4.00e-04,1.20e-01,
234,3.60e-03,1.40e-01,
235,-8.00e-04,8.00e-02,
236,-8.00e-04,1.00e-01,
237,1.60e-03,8.00e-02,
238,2.00e-03,1.00e-01,
239,-1.20e-03,6.00e-02,
240,-8.00e-04,1.00e-01,
241,2.00e-03,6.00e-02,
242,-4.00e-04,6.00e-02,
243,1.60e-03,1.00e-01,
244,-1.20e-03,6.00e-02,
245,2.40e-03,8.00e-02,
246,-2.40e-03,6.00e-02,
247,5.20e-03,8.00e-02,
248,7.20e-03,8.00e-02,
249,-7.60e-03,6.00e-02,
250,1.08e-02,8.00e-02,
251,-1.00e-02,6.00e-02,
252,-8.00e-03,6.00e-02,
253,8.00e-03,8.00e-02,
254,4.40e-03,8.00e-02,
255,-4.00e-03,6.00e-02,
256,-2.40e-03,8.00e-02,
257,2.80e-03,6.00e-02,
258,2.00e-03,8.00e-02,
259,-8.00e-04,4.00e-02,
260,-8.00e-04,8.00e-02,
261,1.60e-03,2.00e-02,
262,2.00e-03,8.00e-02,
263,-8.00e-04,4.00e-02,
264,-1.20e-03,2.00e-02,
265,2.00e-03,8.00e-02,
266,2.00e-03,8.00e-02,
267,-1.20e-03,4.00e-02,
268,-1.60e-03,2.00e-02,
269,4.00e-03,8.00e-02,
270,3.20e-03,2.00e-02,
271,7.20e-03,1.90e+00,
272,5.60e-03,1.60e-01,
273,8.00e-04,1.20e-01,
274,3.60e-03,1.40e-01,
275,-8.00e-04,8.00e-02,
276,2.00e-03,8.00e-02,
277,-1.60e-03,1.00e-01,
278,2.00e-03,1.00e-01,
279,-1.20e-03,6.00e-02,
280,-8.00e-04,1.00e-01,
281,2.40e-03,6.00e-02,
282,2.40e-03,6.00e-02,
283,-8.00e-04,8.00e-02,
284,-1.60e-03,6.00e-02,
285,2.40e-03,8.00e-02,
286,-2.00e-03,6.00e-02,
287,4.80e-03,8.00e-02,
288,6.00e-03,6.00e-02,
289,-6.80e-03,8.00e-02,
290,9.20e-03,6.00e-02,
291,-8.80e-03,8.00e-02,
292,-7.20e-03,8.00e-02,
293,8.00e-03,6.00e-02,
294,4.80e-03,6.00e-02,
295,-2.40e-03,8.00e-02,
296,-1.60e-03,8.00e-02,
297,2.40e-03,6.00e-02,
298,1.20e-03,8.00e-02,
299,-8.00e-04,6.00e-02,
300,2.00e-03,8.00e-02,
301,-8.00e-04,2.00e-02,
302,1.20e-03,8.00e-02,
303,-4.00e-04,2.00e-02,
304,1.20e-03,8.00e-02,
305,-8.00e-04,2.00e-02,
306,1.20e-03,8.00e-02,
307,-1.20e-03,2.00e-02,
308,3.20e-03,2.00e-02,
309,-2.40e-03,8.00e-02,
310,2.80e-03,2.00e-02,
311,8.00e-03,1.94e+00,
312,5.60e-03,1.60e-01,
313,-8.00e-04,1.20e-01,
314,3.60e-03,1.20e-01,
315,-1.20e-03,8.00e-02,
316,1.20e-03,1.00e-01,
317,-1.20e-03,6.00e-02,
318,2.00e-03,1.00e-01,
319,-8.00e-04,6.00e-02,
320,-8.00e-04,6.00e-02,
321,2.40e-03,1.00e-01,
322,1.20e-03,6.00e-02,
323,-8.00e-04,8.00e-02,
324,2.40e-03,8.00e-02,
325,-2.00e-03,6.00e-02,
326,-2.40e-03,6.00e-02,
327,4.80e-03,8.00e-02,
328,6.40e-03,6.00e-02,
329,-6.40e-03,8.00e-02,
330,-7.60e-03,6.00e-02,
331,8.80e-03,8.00e-02,
332,-6.40e-03,8.00e-02,
333,6.40e-03,6.00e-02,
334,4.00e-03,6.00e-02,
335,-2.40e-03,8.00e-02,
336,-1.60e-03,6.00e-02,
337,2.00e-03,8.00e-02,
338,1.20e-03,8.00e-02,
339,-8.00e-04,6.00e-02,
340,-8.00e-04,8.00e-02,
341,1.20e-03,4.00e-02,
342,1.20e-03,6.00e-02,
343,-8.00e-04,8.00e-02,
344,-8.00e-04,8.00e-02,
345,1.20e-03,4.00e-02,
346,1.60e-03,8.00e-02,
347,-1.20e-03,2.00e-02,
348,-2.80e-03,8.00e-02,
349,2.80e-03,2.00e-02,
350,2.80e-03,4.00e-02,
351,7.20e-03,1.78e+00,
352,5.60e-03,1.60e-01,
353,0.00e+00,1.20e-01,
354,3.60e-03,1.40e-01,
355,-8.00e-04,8.00e-02,
356,2.00e-03,8.00e-02,
357,-8.00e-04,1.00e-01,
358,1.60e-03,8.00e-02,
359,-8.00e-04,1.00e-01,
360,-8.00e-04,1.00e-01,
361,1.20e-03,6.00e-02,
362,0.00e+00,1.00e-01,
363,1.20e-03,6.00e-02,
364,2.00e-03,8.00e-02,
365,-1.20e-03,6.00e-02,
366,-2.80e-03,6.00e-02,
367,3.60e-03,8.00e-02,
368,5.60e-03,6.00e-02,
369,-5.20e-03,8.00e-02,
370,8.00e-03,6.00e-02,
371,-7.20e-03,8.00e-02,
372,-6.40e-03,6.00e-02,
373,5.20e-03,8.00e-02,
374,3.60e-03,6.00e-02,
375,-2.00e-03,8.00e-02,
376,-1.60e-03,6.00e-02,
377,2.00e-03,8.00e-02,
378,1.20e-03,8.00e-02,
379,-8.00e-04,4.00e-02,
380,-8.00e-04,6.00e-02,
381,1.20e-03,8.00e-02,
382,-8.00e-04,8.00e-02,
383,2.00e-03,4.00e-02,
384,1.60e-03,8.00e-02,
385,-1.60e-03,4.00e-02,
386,-1.20e-03,8.00e-02,
387,2.40e-03,2.00e-02,
388,-2.80e-03,2.00e-02,
389,3.20e-03,8.00e-02,
390,3.20e-03,1.98e+00,
391,8.00e-03,2.00e-02,
392,5.60e-03,1.60e-01,
393,-8.00e-04,1.20e-01,
394,4.00e-03,1.40e-01,
395,-8.00e-04,8.00e-02,
396,1.20e-03,1.00e-01,
397,-1.60e-03,8.00e-02,
398,-1.20e-03,1.00e-01,
399,2.00e-03,6.00e-02,
400,-1.20e-03,1.00e-01,
401,1.20e-03,6.00e-02,
402,1.20e-03,8.00e-02,
403,-8.00e-04,6.00e-02,
404,2.00e-03,6.00e-02,
405,-1.20e-03,8.00e-02,
406,-1.60e-03,6.00e-02,
407,3.60e-03,8.00e-02,
408,4.80e-03,6.00e-02,
409,-4.40e-03,8.00e-02,
410,-6.80e-03,6.00e-02,
411,6.80e-03,8.00e-02,
412,-6.80e-03,8.00e-02,
413,5.20e-03,6.00e-02,
414,4.00e-03,6.00e-02,
415,-1.60e-03,8.00e-02,
416,1.20e-03,6.00e-02,
417,-1.20e-03,8.00e-02,
418,1.60e-03,8.00e-02,
419,-8.00e-04,6.00e-02,
420,-1.20e-03,2.00e-02,
421,8.00e-04,8.00e-02,
422,-8.00e-04,8.00e-02,
423,1.60e-03,4.00e-02,
424,-8.00e-04,8.00e-02,
425,1.20e-03,2.00e-02,
426,2.40e-03,8.00e-02,
427,-8.00e-04,2.00e-02,
428,-2.80e-03,8.00e-02,
429,2.40e-03,2.00e-02,
430,2.00e-03,2.00e-02,
431,7.20e-03,1.74e+00,
432,5.20e-03,1.60e-01,
433,0.00e+00,1.20e-01,
434,4.00e-03,1.20e-01,
435,-1.20e-03,8.00e-02,
436,2.00e-03,1.00e-01,
437,-8.00e-04,8.00e-02,
438,2.40e-03,1.00e-01,
439,-8.00e-04,6.00e-02,
440,-8.00e-04,6.00e-02,
441,2.00e-03,1.00e-01,
442,-1.20e-03,6.00e-02,
443,1.20e-03,8.00e-02,
444,2.00e-03,8.00e-02,
445,-1.20e-03,6.00e-02,
446,-1.60e-03,6.00e-02,
447,3.60e-03,8.00e-02,
448,4.40e-03,6.00e-02,
449,-4.80e-03,8.00e-02,
450,-6.00e-03,6.00e-02,
451,6.80e-03,8.00e-02,
452,-5.20e-03,8.00e-02,
453,4.40e-03,6.00e-02,
454,4.00e-03,6.00e-02,
455,-2.40e-03,8.00e-02,
456,-1.20e-03,8.00e-02,
457,2.00e-03,6.00e-02,
458,1.20e-03,6.00e-02,
459,-8.00e-04,8.00e-02,
460,-8.00e-04,4.00e-02,
461,1.20e-03,8.00e-02,
462,2.00e-03,8.00e-02,
463,-8.00e-04,4.00e-02,
464,-1.20e-03,8.00e-02,
465,1.20e-03,4.00e-02,
466,-1.20e-03,8.00e-02,
467,2.40e-03,2.00e-02,
468,3.60e-03,8.00e-02,
469,-3.20e-03,2.00e-02,
470,2.80e-03,4.00e-02,
471,8.00e-03,1.94e+00,
472,5.60e-03,1.60e-01,
473,0.00e+00,1.20e-01,
474,4.00e-03,8.00e-02,
475,-1.20e-03,1.40e-01,
476,-8.00e-04,1.00e-01,
477,2.40e-03,8.00e-02,
478,-1.20e-03,1.00e-01,
479,2.40e-03,6.00e-02,
480,-8.00e-04,1.00e-01,
481,2.00e-03,6.00e-02,
482,1.20e-03,6.00e-02,
483,-8.00e-04,8.00e-02,
484,2.00e-03,8.00e-02,
485,-1.20e-03,6.00e-02,
486,2.40e-03,6.00e-02,
487,-2.00e-03,8.00e-02,
488,4.40e-03,8.00e-02,
489,-4.40e-03,6.00e-02,
490,-5.20e-03,6.00e-02,
491,6.40e-03,8.00e-02,
492,-4.40e-03,6.00e-02,
493,4.40e-03,8.00e-02,
494,3.60e-03,6.00e-02,
495,-2.00e-03,8.00e-02,
496,-1.60e-03,6.00e-02,
497,1.60e-03,8.00e-02,
498,-4.00e-04,6.00e-02,
499,2.00e-03,8.00e-02,
500,1.60e-03,8.00e-02,
501,-1.20e-03,4.00e-02,
502,-8.00e-04,8.00e-02,
503,1.60e-03,4.00e-02,
504,-8.00e-04,8.00e-02,
505,2.00e-03,2.00e-02,
506,2.40e-03,2.00e-02,
507,-1.20e-03,8.00e-02,
508,2.80e-03,8.00e-02,
509,-3.20e-03,2.00e-02,
510,3.20e-03,1.92e+00,
511,7.20e-03,-2.00e-02,
512,5.60e-03,1.60e-01,
513,0.00e+00,1.20e-01,
514,4.80e-03,1.40e-01,
515,-1.20e-03,8.00e-02,
516,-1.20e-03,1.00e-01,
517,2.40e-03,8.00e-02,
518,2.40e-03,6.00e-02,
519,-8.00e-04,1.00e-01,
520,1.20e-03,6.00e-02,
521,-8.00e-04,1.00e-01,
522,1.20e-03,6.00e-02,
523,0.00e+00,8.00e-02,
524,1.20e-03,6.00e-02,
525,-1.20e-03,8.00e-02,
526,-1.20e-03,6.00e-02,
527,3.60e-03,8.00e-02,
528,3.60e-03,6.00e-02,
529,-3.60e-03,8.00e-02,
530,5.20e-03,6.00e-02,
531,-4.40e-03,8.00e-02,
532,-4.00e-03,8.00e-02,
533,3.60e-03,6.00e-02,
534,2.40e-03,8.00e-02,
535,-1.60e-03,6.00e-02,
536,-1.20e-03,6.00e-02,
537,2.00e-03,8.00e-02,
538,1.20e-03,8.00e-02,
539,-8.00e-04,6.00e-02,
540,-8.00e-04,4.00e-02,
541,1.20e-03,8.00e-02,
542,2.00e-03,8.00e-02,
543,-8.00e-04,2.00e-02,
544,1.60e-03,8.00e-02,
545,-1.20e-03,2.00e-02,
546,2.00e-03,8.00e-02,
547,-1.20e-03,2.00e-02,
548,2.80e-03,2.00e-02,
549,-4.00e-03,8.00e-02,
550,2.80e-03,2.00e-02,
551,7.60e-03,1.74e+00,
552,5.60e-03,1.60e-01,
553,4.00e-04,1.20e-01,
554,4.80e-03,1.40e-01,
555,-1.20e-03,8.00e-02,
556,-1.20e-03,8.00e-02,
557,2.80e-03,1.00e-01,
558,2.00e-03,1.00e-01,
559,-1.20e-03,6.00e-02,
560,-8.00e-04,1.00e-01,
561,1.20e-03,6.00e-02,
562,2.00e-03,6.00e-02,
563,-8.00e-04,8.00e-02,
564,2.00e-03,6.00e-02,
565,-8.00e-04,8.00e-02,
566,2.40e-03,6.00e-02,
567,-1.60e-03,8.00e-02,
568,3.60e-03,6.00e-02,
569,-3.20e-03,8.00e-02,
570,-4.00e-03,8.00e-02,
571,5.60e-03,6.00e-02,
572,-2.80e-03,6.00e-02,
573,4.40e-03,8.00e-02,
574,2.40e-03,8.00e-02,
575,-1.20e-03,6.00e-02,
576,-8.00e-04,8.00e-02,
577,2.00e-03,6.00e-02,
578,0.00e+00,6.00e-02,
579,1.20e-03,8.00e-02,
580,0.00e+00,6.00e-02,
581,1.60e-03,8.00e-02,
582,2.00e-03,8.00e-02,
583,0.00e+00,6.00e-02,
584,2.00e-03,8.00e-02,
585,-1.20e-03,2.00e-02,
586,-1.60e-03,8.00e-02,
587,2.40e-03,2.00e-02,
588,3.20e-03,8.00e-02,
589,-3.20e-03,2.00e-02,
590,2.40e-03,2.00e-02,
591,7.20e-03,1.96e+00,
592,5.60e-03,1.60e-01,
593,0.00e+00,1.20e-01,
594,4.40e-03,1.40e-01,
595,-1.20e-03,8.00e-02,
596,-1.60e-03,1.00e-01,
597,2.40e-03,8.00e-02,
598,2.40e-03,1.00e-01,
599,-8.00e-04,6.00e-02,
600,-1.20e-03,6.00e-02,
601,1.60e-03,1.00e-01,
602,-4.00e-04,8.00e-02,
603,1.20e-03,6.00e-02,
604,2.00e-03,6.00e-02,
605,-8.00e-04,8.00e-02,
606,-1.20e-03,6.00e-02,
607,2.40e-03,8.00e-02,
608,2.80e-03,6.00e-02,
609,-2.40e-03,8.00e-02,
610,4.40e-03,6.00e-02,
611,-4.00e-03,8.00e-02,
612,-3.60e-03,8.00e-02,
613,3.20e-03,6.00e-02,
614,2.80e-03,6.00e-02,
615,-1.20e-03,8.00e-02,
616,-1.60e-03,6.00e-02,
617,1.20e-03,8.00e-02,
618,1.20e-03,6.00e-02,
619,-1.20e-03,8.00e-02,
620,-4.00e-04,6.00e-02,
621,2.00e-03,8.00e-02,
622,2.00e-03,8.00e-02,
623,-8.00e-04,2.00e-02,
624,2.40e-03,8.00e-02,
625,-1.20e-03,4.00e-02,
626,-8.00e-04,2.00e-02,
627,3.20e-03,8.00e-02,
628,3.60e-03,8.00e-02,
629,-3.20e-03,2.00e-02,
630,2.80e-03,2.00e+00,
631,7.60e-03,-2.00e-02,
632,5.60e-03,1.60e-01,
633,0.00e+00,1.20e-01,
634,4.40e-03,1.40e-01,
635,-1.20e-03,8.00e-02,
636,2.40e-03,8.00e-02,
637,-1.20e-03,1.00e-01,
638,2.40e-03,1.00e-01,
639,-1.20e-03,6.00e-02,
640,-8.00e-04,6.00e-02,
641,2.00e-03,1.00e-01,
642,1.20e-03,8.00e-02,
643,-8.00e-04,6.00e-02,
644,-8.00e-04,6.00e-02,
645,1.20e-03,8.00e-02,
646,-1.20e-03,6.00e-02,
647,2.40e-03,8.00e-02,
648,4.00e-03,6.00e-02,
649,-2.40e-03,8.00e-02,
650,4.40e-03,6.00e-02,
651,-2.80e-03,8.00e-02,
652,-2.80e-03,6.00e-02,
653,2.80e-03,8.00e-02,
654,2.00e-03,6.00e-02,
655,-1.20e-03,8.00e-02,
656,-8.00e-04,8.00e-02,
657,2.00e-03,6.00e-02,
658,1.20e-03,6.00e-02,
659,-8.00e-04,8.00e-02,
660,2.00e-03,8.00e-02,
661,-8.00e-04,4.00e-02,
662,1.20e-03,8.00e-02,
663,-1.20e-03,4.00e-02,
664,1.60e-03,2.00e-02,
665,-1.20e-03,8.00e-02,
666,2.40e-03,8.00e-02,
667,-1.60e-03,2.00e-02,
668,4.00e-03,8.00e-02,
669,-4.40e-03,2.00e-02,
670,2.00e-03,2.00e-02,
671,7.20e-03,1.76e+00,
672,5.60e-03,1.60e-01,
673,-8.00e-04,1.20e-01,
674,4.80e-03,1.40e-01,
675,-1.20e-03,8.00e-02,
676,-1.20e-03,8.00e-02,
677,2.40e-03,1.00e-01,
678,-8.00e-04,1.00e-01,
679,2.40e-03,6.00e-02,
680,0.00e+00,1.00e-01,
681,2.40e-03,6.00e-02,
682,2.00e-03,8.00e-02,
683,-8.00e-04,6.00e-02,
684,-8.00e-04,6.00e-02,
685,2.00e-03,8.00e-02,
686,2.40e-03,6.00e-02,
687,-8.00e-04,8.00e-02,
688,3.60e-03,6.00e-02,
689,-2.40e-03,8.00e-02,
690,4.00e-03,6.00e-02,
691,-2.40e-03,8.00e-02,
692,-2.80e-03,6.00e-02,
693,2.40e-03,8.00e-02,
694,2.40e-03,6.00e-02,
695,-1.20e-03,8.00e-02,
696,-8.00e-04,6.00e-02,
697,1.20e-03,8.00e-02,
698,-8.00e-04,6.00e-02,
699,1.20e-03,8.00e-02,
700,1.20e-03,6.00e-02,
701,-1.20e-03,8.00e-02,
702,1.60e-03,6.00e-02,
703,-8.00e-04,8.00e-02,
704,-8.00e-04,6.00e-02,
705,2.00e-03,8.00e-02,
706,2.40e-03,8.00e-02,
707,-8.00e-04,6.00e-02,
708,3.20e-03,4.00e-02,
709,-4.40e-03,8.00e-02,
710,1.20e-03,2.00e-02,
711,7.20e-03,1.96e+00,
712,5.20e-03,1.60e-01,
713,-8.00e-04,1.20e-01,
714,5.20e-03,1.20e-01,
715,-1.60e-03,8.00e-02,
716,-1.20e-03,1.00e-01,
717,2.40e-03,8.00e-02,
718,2.40e-03,1.00e-01,
719,-1.60e-03,6.00e-02,
720,1.20e-03,1.00e-01,
721,-1.20e-03,6.00e-02,
722,0.00e+00,8.00e-02,
723,2.00e-03,6.00e-02,
724,1.20e-03,6.00e-02,
725,-8.00e-04,8.00e-02,
726,-8.00e-04,6.00e-02,
727,2.00e-03,8.00e-02,
728,2.40e-03,6.00e-02,
729,-2.40e-03,8.00e-02,
730,3.60e-03,8.00e-02,
731,-2.80e-03,6.00e-02,
732,-2.80e-03,6.00e-02,
733,2.40e-03,8.00e-02,
734,2.40e-03,8.00e-02,
735,-8.00e-04,6.00e-02,
736,1.60e-03,8.00e-02,
737,-8.00e-04,6.00e-02,
738,2.00e-03,4.00e-02,
739,0.00e+00,8.00e-02,
740,2.00e-03,8.00e-02,
741,-1.20e-03,2.00e-02,
742,1.20e-03,8.00e-02,
743,-1.20e-03,2.00e-02,
744,-8.00e-04,2.00e-02,
745,2.40e-03,8.00e-02,
746,-1.60e-03,8.00e-02,
747,3.20e-03,2.00e-02,
748,4.00e-03,2.00e-02,
749,-3.60e-03,8.00e-02,
750,1.20e-03,1.94e+00,
751,7.20e-03,-4.00e-02,
752,5.60e-03,1.60e-01,
753,0.00e+00,1.20e-01,
754,5.60e-03,1.40e-01,
755,-8.00e-04,8.00e-02,
756,-1.20e-03,1.00e-01,
757,2.40e-03,8.00e-02,
758,2.40e-03,1.00e-01,
759,-1.20e-03,6.00e-02,
760,1.20e-03,1.00e-01,
761,-8.00e-04,6.00e-02,
762,1.20e-03,8.00e-02,
763,0.00e+00,6.00e-02,
764,1.20e-03,6.00e-02,
765,0.00e+00,8.00e-02,
766,2.00e-03,6.00e-02,
767,-8.00e-04,8.00e-02,
768,2.40e-03,6.00e-02,
769,-1.60e-03,8.00e-02,
770,3.60e-03,8.00e-02,
771,-1.60e-03,6.00e-02,
772,-1.60e-03,8.00e-02,
773,2.40e-03,6.00e-02,
774,2.00e-03,6.00e-02,
775,-1.20e-03,8.00e-02,
776,0.00e+00,6.00e-02,
777,1.60e-03,8.00e-02,
778,0.00e+00,6.00e-02,
779,1.20e-03,8.00e-02,
780,8.00e-04,8.00e-02,
781,-8.00e-04,4.00e-02,
782,2.00e-03,8.00e-02,
783,-1.20e-03,6.00e-02,
784,1.20e-03,8.00e-02,
785,-1.60e-03,2.00e-02,
786,2.40e-03,8.00e-02,
787,-1.60e-03,4.00e-02,
788,4.00e-03,8.00e-02,
789,-4.00e-03,4.00e-02,
790,1.60e-03,2.00e-02,
791,7.60e-03,1.92e+00,
792,5.60e-03,1.80e-01,
793,0.00e+00,1.20e-01,
794,5.20e-03,1.40e-01,
795,-1.60e-03,8.00e-02,
796,-1.60e-03,1.00e-01,
797,2.40e-03,8.00e-02,
798,2.40e-03,1.00e-01,
799,-1.20e-03,8.00e-02,
800,-4.00e-04,1.00e-01,
801,2.40e-03,6.00e-02,
802,0.00e+00,6.00e-02,
803,2.00e-03,8.00e-02,
804,1.20e-03,6.00e-02,
805,0.00e+00,8.00e-02,
806,-8.00e-04,8.00e-02,
807,2.40e-03,6.00e-02,
808,2.80e-03,8.00e-02,
809,-1.60e-03,6.00e-02,
810,2.80e-03,6.00e-02,
811,-2.40e-03,8.00e-02,
812,-1.60e-03,6.00e-02,
813,2.80e-03,8.00e-02,
814,2.00e-03,6.00e-02,
815,-8.00e-04,8.00e-02,
816,8.00e-04,6.00e-02,
817,-8.00e-04,8.00e-02,
818,-8.00e-04,8.00e-02,
819,1.20e-03,6.00e-02,
820,1.20e-03,6.00e-02,
821,-1.20e-03,8.00e-02,
822,0.00e+00,8.00e-02,
823,2.00e-03,4.00e-02,
824,-1.20e-03,8.00e-02,
825,2.40e-03,4.00e-02,
826,-1.60e-03,8.00e-02,
827,3.60e-03,4.00e-02,
828,4.00e-03,8.00e-02,
829,-4.00e-03,2.00e-02,
830,1.60e-03,4.00e-02,
831,7.60e-03,1.86e+00,
832,5.60e-03,1.60e-01,
833,-1.20e-03,1.20e-01,
834,5.20e-03,1.40e-01,
835,-2.40e-03,8.00e-02,
836,-1.20e-03,8.00e-02,
837,2.40e-03,1.00e-01,
838,2.40e-03,1.00e-01,
839,-8.00e-04,6.00e-02,
840,-8.00e-04,6.00e-02,
841,2.40e-03,1.00e-01,
842,-4.00e-04,8.00e-02,
843,2.00e-03,6.00e-02,
844,-8.00e-04,6.00e-02,
845,1.20e-03,8.00e-02,
846,1.60e-03,8.00e-02,
847,-4.00e-04,6.00e-02,
848,2.40e-03,6.00e-02,
849,-1.60e-03,8.00e-02,
850,2.80e-03,6.00e-02,
851,-1.60e-03,8.00e-02,
852,-1.60e-03,6.00e-02,
853,2.00e-03,8.00e-02,
854,2.40e-03,8.00e-02,
