CarrPurc_P1-19_P2-38_tauVary/Gly94/NewFile3.csv

X,CH1,CH2,Start,Increment,
Sequence,Volt,Volt,-6.000000e-04,1.000000e-04
0,8.00e-04,4.00e-02,
1,0.00e+00,2.00e-02,
2,0.00e+00,4.00e-02,
3,8.00e-04,2.00e-02,
4,0.00e+00,4.00e-02,
5,1.20e-03,2.00e-02,
6,4.00e-04,2.00e-02,
7,-8.00e-04,4.00e-02,
8,8.00e-04,4.00e-02,
9,0.00e+00,2.00e-02,
10,4.00e-04,2.00e+00,
11,5.20e-03,-2.00e-02,
12,5.20e-03,1.60e-01,
13,-2.76e-02,1.20e-01,
14,-1.44e-02,1.20e-01,
15,1.56e-02,8.00e-02,
16,8.00e-03,8.00e-02,
17,-7.60e-03,1.00e-01,
18,4.00e-03,1.00e-01,
19,-2.40e-03,6.00e-02,
20,2.80e-03,6.00e-02,
21,-2.40e-03,1.00e-01,
22,2.40e-03,6.00e-02,
23,-2.00e-03,8.00e-02,
24,-1.60e-03,8.00e-02,
25,2.40e-03,6.00e-02,
26,2.40e-03,6.00e-02,
27,-1.20e-03,8.00e-02,
28,-1.60e-03,6.00e-02,
29,1.20e-03,8.00e-02,
30,4.00e-04,1.84e+00,
31,7.60e-03,4.00e-02,
32,5.60e-03,1.60e-01,
33,-7.60e-03,1.20e-01,
34,-8.00e-03,1.20e-01,
35,6.40e-03,8.00e-02,
36,4.00e-03,1.00e-01,
37,-1.20e-03,8.00e-02,
38,-8.00e-04,1.00e-01,
39,1.60e-03,6.00e-02,
40,-1.20e-03,1.00e-01,
41,1.20e-03,6.00e-02,
42,1.20e-03,6.00e-02,
43,-4.00e-04,1.00e-01,
44,-3.60e-03,6.00e-02,
45,4.40e-03,8.00e-02,
46,8.40e-03,6.00e-02,
47,-9.60e-03,8.00e-02,
48,-1.44e-02,8.00e-02,
49,1.84e-02,6.00e-02,
50,-2.04e-02,6.00e-02,
51,2.12e-02,8.00e-02,
52,-1.92e-02,6.00e-02,
53,1.72e-02,8.00e-02,
54,1.12e-02,6.00e-02,
55,-8.40e-03,8.00e-02,
56,-5.20e-03,6.00e-02,
57,5.60e-03,8.00e-02,
58,2.80e-03,8.00e-02,
59,-1.20e-03,4.00e-02,
60,-1.20e-03,8.00e-02,
61,2.00e-03,4.00e-02,
62,-1.20e-03,8.00e-02,
63,1.60e-03,2.00e-02,
64,-1.20e-03,8.00e-02,
65,2.00e-03,4.00e-02,
66,1.20e-03,8.00e-02,
67,-8.00e-04,2.00e-02,
68,1.20e-03,8.00e-02,
69,-8.00e-04,2.00e-02,
70,4.00e-04,2.00e-02,
71,6.80e-03,1.92e+00,
72,5.20e-03,1.60e-01,
73,0.00e+00,1.20e-01,
74,2.40e-03,1.40e-01,
75,0.00e+00,8.00e-02,
76,1.20e-03,1.00e-01,
77,-1.60e-03,8.00e-02,
78,-1.20e-03,1.00e-01,
79,2.00e-03,6.00e-02,
80,2.00e-03,6.00e-02,
81,-8.00e-04,1.00e-01,
82,2.00e-03,8.00e-02,
83,-1.60e-03,6.00e-02,
84,-3.60e-03,8.00e-02,
85,4.40e-03,6.00e-02,
86,-5.60e-03,6.00e-02,
87,8.00e-03,8.00e-02,
88,1.12e-02,8.00e-02,
89,-1.32e-02,6.00e-02,
90,-1.52e-02,6.00e-02,
91,1.72e-02,8.00e-02,
92,-1.32e-02,6.00e-02,
93,1.16e-02,8.00e-02,
94,7.20e-03,6.00e-02,
95,-5.20e-03,8.00e-02,
96,-3.60e-03,6.00e-02,
97,3.60e-03,8.00e-02,
98,2.00e-03,6.00e-02,
99,-1.20e-03,8.00e-02,
100,-8.00e-04,8.00e-02,
101,2.40e-03,6.00e-02,
102,2.40e-03,8.00e-02,
103,-4.00e-04,4.00e-02,
104,-8.00e-04,8.00e-02,
105,2.00e-03,4.00e-02,
106,2.80e-03,2.00e-02,
107,-2.40e-03,8.00e-02,
108,-3.60e-03,8.00e-02,
109,4.80e-03,2.00e-02,
110,2.00e-03,2.00e-02,
111,7.60e-03,1.80e+00,
112,5.60e-03,1.60e-01,
113,1.20e-03,1.20e-01,
114,2.40e-03,1.40e-01,
115,0.00e+00,8.00e-02,
116,1.20e-03,1.00e-01,
117,-8.00e-04,8.00e-02,
118,-8.00e-04,1.00e-01,
119,2.40e-03,6.00e-02,
120,0.00e+00,1.00e-01,
121,2.00e-03,6.00e-02,
122,-8.00e-04,6.00e-02,
123,2.40e-03,8.00e-02,
124,2.40e-03,6.00e-02,
125,-3.20e-03,8.00e-02,
126,-5.20e-03,8.00e-02,
127,6.80e-03,6.00e-02,
128,1.08e-02,6.00e-02,
129,-1.28e-02,8.00e-02,
130,-1.44e-02,6.00e-02,
131,1.52e-02,8.00e-02,
132,-1.20e-02,6.00e-02,
133,1.08e-02,8.00e-02,
134,6.80e-03,6.00e-02,
135,-5.60e-03,8.00e-02,
136,-4.00e-03,6.00e-02,
137,2.80e-03,8.00e-02,
138,-8.00e-04,8.00e-02,
139,2.00e-03,6.00e-02,
140,1.60e-03,8.00e-02,
141,-8.00e-04,4.00e-02,
142,2.00e-03,8.00e-02,
143,-8.00e-04,2.00e-02,
144,-8.00e-04,8.00e-02,
145,1.20e-03,2.00e-02,
146,2.00e-03,8.00e-02,
147,-1.20e-03,2.00e-02,
148,-2.80e-03,2.00e-02,
149,4.80e-03,8.00e-02,
150,3.20e-03,2.00e-02,
151,7.20e-03,1.84e+00,
152,5.20e-03,1.60e-01,
153,-8.00e-04,1.20e-01,
154,2.40e-03,1.40e-01,
155,-1.20e-03,8.00e-02,
156,1.20e-03,8.00e-02,
157,-4.00e-04,1.00e-01,
158,2.00e-03,1.00e-01,
159,-8.00e-04,6.00e-02,
160,-1.20e-03,1.00e-01,
161,1.60e-03,6.00e-02,
162,-8.00e-04,6.00e-02,
163,2.40e-03,8.00e-02,
164,2.40e-03,6.00e-02,
165,-1.60e-03,8.00e-02,
166,-3.20e-03,6.00e-02,
167,5.20e-03,8.00e-02,
168,7.20e-03,6.00e-02,
169,-8.40e-03,8.00e-02,
170,-1.12e-02,8.00e-02,
171,1.28e-02,6.00e-02,
172,-1.04e-02,6.00e-02,
173,9.60e-03,8.00e-02,
174,6.40e-03,6.00e-02,
175,-4.40e-03,8.00e-02,
176,-2.80e-03,8.00e-02,
177,2.80e-03,6.00e-02,
178,2.00e-03,8.00e-02,
179,0.00e+00,6.00e-02,
180,-4.00e-04,8.00e-02,
181,1.60e-03,4.00e-02,
182,1.20e-03,8.00e-02,
183,-4.00e-04,6.00e-02,
184,1.20e-03,8.00e-02,
185,-8.00e-04,2.00e-02,
186,-8.00e-04,8.00e-02,
187,1.20e-03,2.00e-02,
188,-1.60e-03,8.00e-02,
189,2.80e-03,2.00e-02,
190,2.80e-03,2.00e-02,
191,8.00e-03,1.80e+00,
192,5.60e-03,1.60e-01,
193,-4.00e-04,1.20e-01,
194,0.00e+00,1.40e-01,
195,2.80e-03,8.00e-02,
196,0.00e+00,1.00e-01,
197,1.60e-03,8.00e-02,
198,2.00e-03,1.00e-01,
199,-8.00e-04,6.00e-02,
200,-8.00e-04,1.00e-01,
201,2.00e-03,6.00e-02,
202,1.20e-03,6.00e-02,
203,-1.20e-03,8.00e-02,
204,-2.40e-03,6.00e-02,
205,3.20e-03,8.00e-02,
206,-4.00e-03,6.00e-02,
207,6.40e-03,8.00e-02,
208,8.40e-03,8.00e-02,
209,-8.80e-03,6.00e-02,
210,-1.12e-02,6.00e-02,
211,1.12e-02,8.00e-02,
212,-9.60e-03,6.00e-02,
213,7.60e-03,8.00e-02,
214,5.60e-03,6.00e-02,
215,-3.20e-03,8.00e-02,
216,-2.40e-03,6.00e-02,
217,2.40e-03,8.00e-02,
218,2.00e-03,8.00e-02,
219,-8.00e-04,2.00e-02,
220,1.60e-03,8.00e-02,
221,-1.20e-03,2.00e-02,
222,1.60e-03,8.00e-02,
223,-1.20e-03,4.00e-02,
224,-1.20e-03,8.00e-02,
225,1.20e-03,2.00e-02,
226,1.20e-03,8.00e-02,
227,-1.20e-03,2.00e-02,
228,-1.60e-03,8.00e-02,
229,2.40e-03,2.00e-02,
230,2.00e-03,-1.60e-01,
231,7.20e-03,1.88e+00,
232,5.60e-03,1.60e-01,
233,4.00e-04,1.20e-01,
234,3.20e-03,1.40e-01,
235,-4.00e-04,8.00e-02,
236,-8.00e-04,1.00e-01,
237,1.20e-03,8.00e-02,
238,2.00e-03,1.00e-01,
239,-8.00e-04,6.00e-02,
240,-1.20e-03,1.00e-01,
241,8.00e-04,6.00e-02,
242,0.00e+00,6.00e-02,
243,1.20e-03,8.00e-02,
244,2.00e-03,6.00e-02,
245,-1.60e-03,8.00e-02,
246,-3.20e-03,6.00e-02,
247,5.20e-03,8.00e-02,
248,8.00e-03,8.00e-02,
249,-7.60e-03,6.00e-02,
250,-1.00e-02,8.00e-02,
251,1.12e-02,6.00e-02,
252,-8.80e-03,6.00e-02,
253,8.00e-03,8.00e-02,
254,5.20e-03,8.00e-02,
255,-3.20e-03,6.00e-02,
256,-2.40e-03,8.00e-02,
257,2.80e-03,6.00e-02,
258,2.00e-03,6.00e-02,
259,-1.20e-03,8.00e-02,
260,-1.20e-03,6.00e-02,
261,1.60e-03,8.00e-02,
262,-8.00e-04,8.00e-02,
263,2.00e-03,2.00e-02,
264,-8.00e-04,2.00e-02,
265,2.00e-03,8.00e-02,
266,2.00e-03,8.00e-02,
267,-1.20e-03,2.00e-02,
268,-2.40e-03,2.00e-02,
269,3.60e-03,8.00e-02,
270,3.20e-03,2.00e-02,
271,7.60e-03,1.94e+00,
272,6.40e-03,1.60e-01,
273,0.00e+00,1.20e-01,
274,3.60e-03,1.40e-01,
275,-1.20e-03,8.00e-02,
276,2.00e-03,8.00e-02,
277,-8.00e-04,1.00e-01,
278,2.00e-03,1.00e-01,
279,-1.20e-03,6.00e-02,
280,-1.20e-03,1.00e-01,
281,1.20e-03,6.00e-02,
282,-8.00e-04,6.00e-02,
283,1.60e-03,8.00e-02,
284,2.00e-03,6.00e-02,
285,-1.60e-03,8.00e-02,
286,-2.80e-03,6.00e-02,
287,4.80e-03,8.00e-02,
288,6.40e-03,6.00e-02,
289,-6.80e-03,8.00e-02,
290,-8.80e-03,6.00e-02,
291,9.60e-03,8.00e-02,
292,-7.20e-03,8.00e-02,
293,6.80e-03,6.00e-02,
294,5.20e-03,6.00e-02,
295,-4.00e-03,8.00e-02,
296,-2.40e-03,8.00e-02,
297,2.40e-03,6.00e-02,
298,1.20e-03,8.00e-02,
299,-8.00e-04,4.00e-02,
300,-8.00e-04,8.00e-02,
301,1.60e-03,4.00e-02,
302,1.20e-03,8.00e-02,
303,-8.00e-04,2.00e-02,
304,-8.00e-04,8.00e-02,
305,1.20e-03,2.00e-02,
306,-8.00e-04,2.00e-02,
307,2.00e-03,8.00e-02,
308,-2.40e-03,2.00e-02,
309,2.80e-03,8.00e-02,
310,2.80e-03,2.00e-02,
311,7.60e-03,1.70e+00,
312,5.60e-03,1.60e-01,
313,0.00e+00,1.20e-01,
314,2.80e-03,1.20e-01,
315,-1.20e-03,8.00e-02,
316,2.00e-03,1.00e-01,
317,-8.00e-04,6.00e-02,
318,2.00e-03,1.00e-01,
319,-8.00e-04,6.00e-02,
320,-8.00e-04,1.00e-01,
321,2.00e-03,6.00e-02,
322,-8.00e-04,6.00e-02,
323,1.60e-03,8.00e-02,
324,2.00e-03,8.00e-02,
325,-1.60e-03,6.00e-02,
326,-2.80e-03,6.00e-02,
327,4.40e-03,8.00e-02,
328,6.40e-03,6.00e-02,
329,-6.40e-03,8.00e-02,
330,9.20e-03,6.00e-02,
331,-7.20e-03,8.00e-02,
332,-6.40e-03,8.00e-02,
333,6.40e-03,6.00e-02,
334,4.40e-03,6.00e-02,
335,-2.80e-03,8.00e-02,
336,-1.20e-03,6.00e-02,
337,2.40e-03,8.00e-02,
338,1.20e-03,8.00e-02,
339,-8.00e-04,6.00e-02,
340,-8.00e-04,8.00e-02,
341,1.20e-03,4.00e-02,
342,1.20e-03,8.00e-02,
343,-1.20e-03,2.00e-02,
344,-1.20e-03,8.00e-02,
345,1.20e-03,2.00e-02,
346,-8.00e-04,8.00e-02,
347,2.00e-03,2.00e-02,
348,-2.40e-03,8.00e-02,
349,3.60e-03,2.00e-02,
350,2.80e-03,2.00e-02,
351,8.00e-03,1.92e+00,
352,6.00e-03,1.60e-01,
353,4.00e-04,1.20e-01,
354,3.60e-03,1.40e-01,
355,-1.20e-03,8.00e-02,
356,-8.00e-04,8.00e-02,
357,2.40e-03,1.00e-01,
358,2.00e-03,1.00e-01,
359,-8.00e-04,6.00e-02,
360,-8.00e-04,1.00e-01,
361,2.00e-03,6.00e-02,
362,0.00e+00,6.00e-02,
363,2.00e-03,8.00e-02,
364,2.40e-03,8.00e-02,
365,-1.20e-03,6.00e-02,
366,-2.40e-03,6.00e-02,
367,4.00e-03,8.00e-02,
368,5.20e-03,6.00e-02,
369,-5.60e-03,8.00e-02,
370,-7.20e-03,6.00e-02,
371,7.60e-03,8.00e-02,
372,-6.00e-03,6.00e-02,
373,5.20e-03,8.00e-02,
374,4.00e-03,6.00e-02,
375,-3.20e-03,8.00e-02,
376,-1.60e-03,6.00e-02,
377,2.00e-03,8.00e-02,
378,1.20e-03,8.00e-02,
379,-1.20e-03,6.00e-02,
380,-8.00e-04,8.00e-02,
381,1.20e-03,4.00e-02,
382,1.20e-03,6.00e-02,
383,-8.00e-04,8.00e-02,
384,-1.20e-03,8.00e-02,
385,1.60e-03,4.00e-02,
386,2.40e-03,8.00e-02,
387,-1.20e-03,2.00e-02,
388,-2.80e-03,2.00e-02,
389,3.20e-03,8.00e-02,
390,3.20e-03,2.00e-02,
391,7.20e-03,1.68e+00,
392,5.60e-03,1.60e-01,
393,-4.00e-04,1.20e-01,
394,4.00e-03,1.40e-01,
395,-1.60e-03,8.00e-02,
396,-1.20e-03,1.00e-01,
397,2.40e-03,8.00e-02,
398,2.00e-03,1.00e-01,
399,-1.20e-03,6.00e-02,
400,-1.20e-03,1.00e-01,
401,2.00e-03,6.00e-02,
402,0.00e+00,8.00e-02,
403,1.60e-03,6.00e-02,
404,-8.00e-04,6.00e-02,
405,2.40e-03,8.00e-02,
406,-2.40e-03,6.00e-02,
407,3.60e-03,8.00e-02,
408,4.80e-03,6.00e-02,
409,-4.80e-03,8.00e-02,
410,-6.80e-03,6.00e-02,
411,7.60e-03,8.00e-02,
412,-5.60e-03,8.00e-02,
413,5.20e-03,6.00e-02,
414,3.60e-03,6.00e-02,
415,-2.80e-03,8.00e-02,
416,-1.60e-03,6.00e-02,
417,2.40e-03,8.00e-02,
418,1.20e-03,8.00e-02,
419,-8.00e-04,4.00e-02,
420,2.00e-03,6.00e-02,
421,-8.00e-04,8.00e-02,
422,-8.00e-04,8.00e-02,
423,1.60e-03,4.00e-02,
424,2.00e-03,8.00e-02,
425,-8.00e-04,2.00e-02,
426,-8.00e-04,8.00e-02,
427,2.40e-03,2.00e-02,
428,2.80e-03,8.00e-02,
429,-2.80e-03,2.00e-02,
430,2.80e-03,2.00e-02,
431,8.00e-03,1.90e+00,
432,6.40e-03,1.60e-01,
433,4.00e-04,1.20e-01,
434,4.40e-03,1.40e-01,
435,-8.00e-04,8.00e-02,
436,-8.00e-04,1.00e-01,
437,2.40e-03,8.00e-02,
438,2.40e-03,1.00e-01,
439,-1.20e-03,6.00e-02,
440,-8.00e-04,1.00e-01,
441,1.20e-03,6.00e-02,
442,2.00e-03,6.00e-02,
443,-8.00e-04,8.00e-02,
444,-1.60e-03,8.00e-02,
445,2.00e-03,6.00e-02,
446,-2.40e-03,6.00e-02,
447,3.60e-03,8.00e-02,
448,4.40e-03,6.00e-02,
449,-4.40e-03,8.00e-02,
450,6.40e-03,6.00e-02,
451,-6.00e-03,8.00e-02,
452,-5.20e-03,8.00e-02,
453,5.20e-03,6.00e-02,
454,3.60e-03,6.00e-02,
455,-1.60e-03,8.00e-02,
456,-1.60e-03,8.00e-02,
457,1.20e-03,6.00e-02,
458,1.20e-03,6.00e-02,
459,-8.00e-04,8.00e-02,
460,-8.00e-04,6.00e-02,
461,1.20e-03,8.00e-02,
462,1.60e-03,6.00e-02,
463,-8.00e-04,8.00e-02,
464,2.00e-03,8.00e-02,
465,-1.20e-03,4.00e-02,
466,2.00e-03,6.00e-02,
467,-8.00e-04,8.00e-02,
468,2.80e-03,4.00e-02,
469,-2.80e-03,8.00e-02,
470,2.80e-03,2.00e-02,
471,7.60e-03,1.94e+00,
472,5.60e-03,1.60e-01,
473,0.00e+00,1.20e-01,
474,4.00e-03,1.40e-01,
475,-1.60e-03,8.00e-02,
476,-1.20e-03,1.00e-01,
477,2.00e-03,8.00e-02,
478,2.00e-03,1.00e-01,
479,-8.00e-04,6.00e-02,
480,1.60e-03,1.00e-01,
481,-8.00e-04,6.00e-02,
482,2.00e-03,6.00e-02,
483,0.00e+00,8.00e-02,
484,-8.00e-04,8.00e-02,
485,1.20e-03,6.00e-02,
486,-1.60e-03,6.00e-02,
487,2.80e-03,8.00e-02,
488,5.20e-03,8.00e-02,
489,-4.00e-03,6.00e-02,
490,-5.20e-03,6.00e-02,
491,6.40e-03,8.00e-02,
492,-4.00e-03,6.00e-02,
493,4.40e-03,8.00e-02,
494,3.20e-03,6.00e-02,
495,-1.60e-03,8.00e-02,
496,-1.20e-03,6.00e-02,
497,2.00e-03,8.00e-02,
498,2.00e-03,6.00e-02,
499,0.00e+00,8.00e-02,
500,1.20e-03,8.00e-02,
501,-1.20e-03,4.00e-02,
502,-8.00e-04,4.00e-02,
503,1.60e-03,8.00e-02,
504,-1.20e-03,2.00e-02,
505,1.20e-03,8.00e-02,
506,2.00e-03,8.00e-02,
507,-1.60e-03,2.00e-02,
508,2.80e-03,2.00e-02,
509,-3.20e-03,8.00e-02,
510,2.80e-03,4.00e-02,
511,7.60e-03,1.70e+00,
512,5.60e-03,1.60e-01,
513,0.00e+00,1.20e-01,
514,4.00e-03,1.40e-01,
515,-1.20e-03,8.00e-02,
516,-8.00e-04,1.00e-01,
517,2.40e-03,8.00e-02,
518,2.40e-03,1.00e-01,
519,-8.00e-04,6.00e-02,
520,-8.00e-04,6.00e-02,
521,2.40e-03,1.00e-01,
522,1.20e-03,6.00e-02,
523,-8.00e-04,8.00e-02,
524,2.00e-03,6.00e-02,
525,-1.20e-03,8.00e-02,
526,-1.60e-03,6.00e-02,
527,2.80e-03,8.00e-02,
528,4.00e-03,6.00e-02,
529,-3.20e-03,8.00e-02,
530,5.60e-03,6.00e-02,
531,-4.40e-03,8.00e-02,
532,-4.00e-03,8.00e-02,
533,5.20e-03,6.00e-02,
534,2.80e-03,8.00e-02,
535,-1.60e-03,6.00e-02,
536,1.20e-03,6.00e-02,
537,-1.20e-03,8.00e-02,
538,1.20e-03,8.00e-02,
539,-1.20e-03,4.00e-02,
540,1.20e-03,8.00e-02,
541,-1.20e-03,4.00e-02,
542,1.20e-03,8.00e-02,
543,-1.20e-03,2.00e-02,
544,-1.20e-03,8.00e-02,
545,1.60e-03,2.00e-02,
546,-1.20e-03,8.00e-02,
547,2.40e-03,2.00e-02,
548,2.80e-03,8.00e-02,
549,-3.20e-03,2.00e-02,
550,2.40e-03,1.88e+00,
551,7.60e-03,0.00e+00,
552,5.60e-03,1.60e-01,
553,0.00e+00,1.20e-01,
554,4.80e-03,1.40e-01,
555,-1.20e-03,8.00e-02,
556,-1.20e-03,8.00e-02,
557,2.40e-03,1.00e-01,
558,1.60e-03,1.00e-01,
559,-8.00e-04,6.00e-02,
560,-8.00e-04,1.00e-01,
561,1.20e-03,6.00e-02,
562,2.00e-03,6.00e-02,
563,0.00e+00,8.00e-02,
564,2.00e-03,6.00e-02,
565,-8.00e-04,8.00e-02,
566,-1.60e-03,6.00e-02,
567,2.80e-03,8.00e-02,
568,3.60e-03,6.00e-02,
569,-2.80e-03,8.00e-02,
570,5.60e-03,8.00e-02,
571,-4.00e-03,6.00e-02,
572,-3.60e-03,6.00e-02,
573,4.00e-03,8.00e-02,
574,2.40e-03,8.00e-02,
575,-1.60e-03,6.00e-02,
576,-8.00e-04,8.00e-02,
577,1.20e-03,6.00e-02,
578,0.00e+00,6.00e-02,
579,2.00e-03,8.00e-02,
580,2.00e-03,8.00e-02,
581,-4.00e-04,4.00e-02,
582,-8.00e-04,8.00e-02,
583,2.00e-03,2.00e-02,
584,-8.00e-04,8.00e-02,
585,1.60e-03,2.00e-02,
586,-1.60e-03,8.00e-02,
587,2.40e-03,2.00e-02,
588,3.60e-03,8.00e-02,
589,-3.20e-03,2.00e-02,
590,2.80e-03,4.00e-02,
591,7.20e-03,1.98e+00,
592,5.60e-03,1.60e-01,
593,0.00e+00,1.20e-01,
594,4.80e-03,1.40e-01,
595,-1.20e-03,8.00e-02,
596,-1.20e-03,1.00e-01,
597,2.40e-03,8.00e-02,
598,2.40e-03,1.00e-01,
599,-1.20e-03,6.00e-02,
600,-1.20e-03,6.00e-02,
601,1.20e-03,1.00e-01,
602,1.20e-03,8.00e-02,
603,-8.00e-04,6.00e-02,
604,-8.00e-04,6.00e-02,
605,2.00e-03,8.00e-02,
606,-1.20e-03,6.00e-02,
607,2.80e-03,8.00e-02,
608,3.60e-03,6.00e-02,
609,-2.80e-03,8.00e-02,
610,-4.00e-03,6.00e-02,
611,5.20e-03,8.00e-02,
612,-3.20e-03,8.00e-02,
613,4.00e-03,6.00e-02,
614,3.20e-03,6.00e-02,
615,-2.00e-03,8.00e-02,
616,-8.00e-04,6.00e-02,
617,1.60e-03,8.00e-02,
618,1.20e-03,8.00e-02,
619,-8.00e-04,4.00e-02,
620,-8.00e-04,8.00e-02,
621,1.20e-03,2.00e-02,
622,2.00e-03,8.00e-02,
623,-4.00e-04,2.00e-02,
624,2.40e-03,8.00e-02,
625,-1.20e-03,2.00e-02,
626,-1.20e-03,8.00e-02,
627,3.60e-03,2.00e-02,
628,4.00e-03,8.00e-02,
629,-4.00e-03,2.00e-02,
630,2.80e-03,2.00e-02,
631,7.60e-03,1.88e+00,
632,5.60e-03,1.60e-01,
633,-4.00e-04,1.20e-01,
634,4.00e-03,1.40e-01,
635,-1.60e-03,8.00e-02,
636,-1.60e-03,8.00e-02,
637,2.00e-03,1.00e-01,
638,-8.00e-04,1.00e-01,
639,2.40e-03,6.00e-02,
640,-8.00e-04,1.00e-01,
641,2.00e-03,6.00e-02,
642,1.20e-03,6.00e-02,
643,-8.00e-04,8.00e-02,
644,1.60e-03,6.00e-02,
645,-4.00e-04,8.00e-02,
646,-1.60e-03,6.00e-02,
647,2.00e-03,8.00e-02,
648,2.80e-03,6.00e-02,
649,-2.80e-03,8.00e-02,
650,4.00e-03,6.00e-02,
651,-3.60e-03,8.00e-02,
652,-2.40e-03,6.00e-02,
653,3.60e-03,8.00e-02,
654,2.40e-03,6.00e-02,
655,-1.20e-03,8.00e-02,
656,-8.00e-04,8.00e-02,
657,1.60e-03,6.00e-02,
658,-8.00e-04,8.00e-02,
659,1.20e-03,4.00e-02,
660,1.20e-03,4.00e-02,
661,-8.00e-04,8.00e-02,
662,1.20e-03,8.00e-02,
663,-1.20e-03,4.00e-02,
664,1.60e-03,8.00e-02,
665,-1.20e-03,2.00e-02,
666,-1.60e-03,8.00e-02,
667,2.80e-03,2.00e-02,
668,3.60e-03,8.00e-02,
669,-3.60e-03,2.00e-02,
670,2.00e-03,1.92e+00,
671,7.20e-03,-2.00e-02,
672,5.60e-03,1.60e-01,
673,0.00e+00,1.20e-01,
674,5.20e-03,1.40e-01,
675,-1.60e-03,8.00e-02,
676,-8.00e-04,8.00e-02,
677,2.40e-03,1.00e-01,
678,2.40e-03,1.00e-01,
679,-8.00e-04,6.00e-02,
680,2.00e-03,1.00e-01,
681,-8.00e-04,6.00e-02,
682,0.00e+00,8.00e-02,
683,2.00e-03,6.00e-02,
684,-8.00e-04,6.00e-02,
685,1.60e-03,8.00e-02,
686,2.00e-03,6.00e-02,
687,-1.20e-03,8.00e-02,
688,2.40e-03,6.00e-02,
689,-2.80e-03,8.00e-02,
690,3.60e-03,6.00e-02,
691,-3.20e-03,8.00e-02,
692,-2.80e-03,6.00e-02,
693,2.80e-03,8.00e-02,
694,-1.20e-03,6.00e-02,
695,2.40e-03,8.00e-02,
696,-8.00e-04,6.00e-02,
697,2.00e-03,8.00e-02,
698,1.20e-03,8.00e-02,
699,0.00e+00,4.00e-02,
700,0.00e+00,6.00e-02,
701,1.60e-03,8.00e-02,
702,1.20e-03,8.00e-02,
703,-8.00e-04,4.00e-02,
704,-8.00e-04,8.00e-02,
705,2.40e-03,4.00e-02,
706,2.40e-03,8.00e-02,
707,-1.20e-03,2.00e-02,
708,3.60e-03,8.00e-02,
709,-3.60e-03,2.00e-02,
710,2.40e-03,2.00e-02,
711,8.00e-03,1.96e+00,
712,5.60e-03,1.60e-01,
713,4.00e-04,1.20e-01,
714,4.80e-03,1.40e-01,
715,-1.60e-03,8.00e-02,
716,-1.20e-03,1.00e-01,
717,2.40e-03,8.00e-02,
718,2.40e-03,1.00e-01,
719,-1.20e-03,6.00e-02,
720,-8.00e-04,1.00e-01,
721,1.60e-03,6.00e-02,
722,1.20e-03,8.00e-02,
723,-8.00e-04,6.00e-02,
724,-4.00e-04,6.00e-02,
725,1.20e-03,8.00e-02,
726,-8.00e-04,6.00e-02,
727,2.40e-03,8.00e-02,
728,3.20e-03,6.00e-02,
729,-2.40e-03,8.00e-02,
730,4.00e-03,8.00e-02,
731,-2.40e-03,6.00e-02,
732,-2.40e-03,6.00e-02,
733,2.80e-03,8.00e-02,
734,-1.60e-03,8.00e-02,
735,2.00e-03,6.00e-02,
736,-8.00e-04,8.00e-02,
737,1.20e-03,6.00e-02,
738,1.20e-03,6.00e-02,
739,-8.00e-04,8.00e-02,
740,-1.20e-03,6.00e-02,
741,1.20e-03,8.00e-02,
742,1.20e-03,8.00e-02,
743,-8.00e-04,4.00e-02,
744,-8.00e-04,8.00e-02,
745,2.00e-03,4.00e-02,
746,-1.60e-03,8.00e-02,
747,2.80e-03,6.00e-02,
748,4.00e-03,8.00e-02,
749,-4.00e-03,2.00e-02,
750,2.40e-03,2.00e-02,
751,7.20e-03,1.86e+00,
752,5.60e-03,1.60e-01,
753,0.00e+00,1.20e-01,
754,5.20e-03,1.40e-01,
755,-1.60e-03,8.00e-02,
756,-1.60e-03,1.00e-01,
757,2.40e-03,8.00e-02,
758,2.40e-03,1.00e-01,
759,-1.20e-03,6.00e-02,
760,-8.00e-04,1.00e-01,
761,1.20e-03,6.00e-02,
762,-8.00e-04,8.00e-02,
763,1.20e-03,6.00e-02,
764,0.00e+00,6.00e-02,
765,1.20e-03,8.00e-02,
766,2.00e-03,6.00e-02,
767,-8.00e-04,8.00e-02,
768,2.40e-03,6.00e-02,
769,-1.60e-03,8.00e-02,
770,3.60e-03,8.00e-02,
771,-2.80e-03,6.00e-02,
772,-1.60e-03,8.00e-02,
773,2.40e-03,6.00e-02,
774,2.40e-03,6.00e-02,
775,-8.00e-04,8.00e-02,
776,-4.00e-04,6.00e-02,
777,1.20e-03,8.00e-02,
778,1.20e-03,6.00e-02,
779,-8.00e-04,8.00e-02,
780,1.20e-03,6.00e-02,
781,-8.00e-04,8.00e-02,
782,2.40e-03,8.00e-02,
783,-4.00e-04,2.00e-02,
784,2.00e-03,8.00e-02,
785,-1.20e-03,2.00e-02,
786,-1.60e-03,8.00e-02,
787,3.60e-03,2.00e-02,
788,3.60e-03,8.00e-02,
789,-4.40e-03,2.00e-02,
790,1.60e-03,1.90e+00,
791,7.60e-03,-2.00e-02,
792,5.60e-03,1.80e-01,
793,-8.00e-04,1.20e-01,
794,5.20e-03,1.40e-01,
795,-1.60e-03,8.00e-02,
796,-1.60e-03,1.00e-01,
797,2.40e-03,8.00e-02,
798,2.40e-03,1.00e-01,
799,-1.60e-03,6.00e-02,
800,1.20e-03,1.00e-01,
801,-8.00e-04,6.00e-02,
802,1.20e-03,6.00e-02,
803,-8.00e-04,8.00e-02,
804,-8.00e-04,6.00e-02,
805,2.00e-03,8.00e-02,
806,2.00e-03,8.00e-02,
807,-8.00e-04,6.00e-02,
808,-1.20e-03,8.00e-02,
809,2.40e-03,6.00e-02,
810,4.00e-03,6.00e-02,
811,-1.60e-03,8.00e-02,
812,-1.60e-03,6.00e-02,
813,2.00e-03,8.00e-02,
814,2.00e-03,6.00e-02,
815,-1.20e-03,8.00e-02,
816,8.00e-04,6.00e-02,
817,-1.20e-03,8.00e-02,
818,1.20e-03,8.00e-02,
819,-4.00e-04,6.00e-02,
820,2.00e-03,8.00e-02,
821,-8.00e-04,4.00e-02,
822,1.20e-03,2.00e-02,
823,-8.00e-04,8.00e-02,
824,-1.60e-03,8.00e-02,
825,2.00e-03,2.00e-02,
826,-1.60e-03,2.00e-02,
827,3.20e-03,8.00e-02,
828,4.00e-03,8.00e-02,
829,-4.00e-03,2.00e-02,
830,1.20e-03,4.00e-02,
831,7.20e-03,1.96e+00,
832,5.60e-03,1.80e-01,
833,0.00e+00,1.20e-01,
834,5.20e-03,1.40e-01,
835,-1.60e-03,8.00e-02,
836,-1.60e-03,8.00e-02,
837,2.40e-03,1.00e-01,
838,2.00e-03,1.00e-01,
839,-1.20e-03,6.00e-02,
840,1.20e-03,1.00e-01,
841,-8.00e-04,6.00e-02,
842,1.20e-03,6.00e-02,
843,-1.20e-03,1.00e-01,
844,-8.00e-04,6.00e-02,
845,1.20e-03,8.00e-02,
846,-8.00e-04,8.00e-02,
847,2.00e-03,6.00e-02,
848,-1.20e-03,6.00e-02,
849,2.40e-03,8.00e-02,
850,-2.40e-03,6.00e-02,
851,2.80e-03,8.00e-02,
852,-1.20e-03,6.00e-02,
853,2.40e-03,8.00e-02,
