CarrPurc_P1-19_P2-38_tauVary/Gly94/NewFile8.csv

X,CH1,CH2,Start,Increment,
Sequence,Volt,Volt,-6.000000e-04,1.000000e-04
0,1.20e-03,4.00e-02,
1,0.00e+00,0.00e+00,
2,0.00e+00,4.00e-02,
3,8.00e-04,0.00e+00,
4,1.20e-03,4.00e-02,
5,0.00e+00,2.00e-02,
6,0.00e+00,2.00e-02,
7,1.20e-03,4.00e-02,
8,8.00e-04,4.00e-02,
9,-8.00e-04,2.00e-02,
10,0.00e+00,2.00e-02,
11,5.20e-03,1.86e+00,
12,4.80e-03,1.60e-01,
13,-2.80e-02,8.00e-02,
14,-1.44e-02,1.20e-01,
15,1.52e-02,8.00e-02,
16,7.20e-03,1.00e-01,
17,-7.60e-03,6.00e-02,
18,4.00e-03,6.00e-02,
19,-2.40e-03,1.00e-01,
20,-1.60e-03,6.00e-02,
21,2.40e-03,1.00e-01,
22,2.80e-03,6.00e-02,
23,-1.20e-03,8.00e-02,
24,-1.20e-03,8.00e-02,
25,2.40e-03,6.00e-02,
26,1.20e-03,6.00e-02,
27,-1.20e-03,8.00e-02,
28,-8.00e-04,6.00e-02,
29,2.00e-03,8.00e-02,
30,1.20e-03,1.88e+00,
31,7.20e-03,2.00e-02,
32,5.60e-03,1.60e-01,
33,-7.60e-03,1.20e-01,
34,-8.00e-03,1.20e-01,
35,6.40e-03,8.00e-02,
36,3.60e-03,1.00e-01,
37,-1.60e-03,8.00e-02,
38,0.00e+00,1.00e-01,
39,2.00e-03,6.00e-02,
40,-8.00e-04,6.00e-02,
41,2.40e-03,1.00e-01,
42,2.00e-03,6.00e-02,
43,-4.00e-04,1.00e-01,
44,-3.60e-03,6.00e-02,
45,5.20e-03,8.00e-02,
46,8.80e-03,6.00e-02,
47,-8.80e-03,8.00e-02,
48,-1.44e-02,8.00e-02,
49,1.80e-02,6.00e-02,
50,-1.88e-02,6.00e-02,
51,2.12e-02,8.00e-02,
52,-1.88e-02,6.00e-02,
53,1.64e-02,8.00e-02,
54,1.12e-02,6.00e-02,
55,-8.80e-03,8.00e-02,
56,-5.20e-03,8.00e-02,
57,5.20e-03,4.00e-02,
58,2.40e-03,8.00e-02,
59,-1.20e-03,2.00e-02,
60,1.20e-03,8.00e-02,
61,-8.00e-04,2.00e-02,
62,-1.60e-03,8.00e-02,
63,1.60e-03,2.00e-02,
64,2.00e-03,8.00e-02,
65,-8.00e-04,2.00e-02,
66,-8.00e-04,8.00e-02,
67,1.60e-03,2.00e-02,
68,1.20e-03,8.00e-02,
69,0.00e+00,2.00e-02,
70,4.00e-04,2.00e-02,
71,7.20e-03,1.86e+00,
72,5.20e-03,1.60e-01,
73,0.00e+00,1.20e-01,
74,2.40e-03,1.40e-01,
75,0.00e+00,8.00e-02,
76,-8.00e-04,1.00e-01,
77,1.20e-03,8.00e-02,
78,-1.20e-03,1.00e-01,
79,2.00e-03,6.00e-02,
80,2.00e-03,1.00e-01,
81,-4.00e-04,6.00e-02,
82,2.40e-03,8.00e-02,
83,-1.20e-03,6.00e-02,
84,-3.60e-03,8.00e-02,
85,5.20e-03,6.00e-02,
86,-6.40e-03,6.00e-02,
87,7.60e-03,8.00e-02,
88,1.08e-02,8.00e-02,
89,-1.40e-02,6.00e-02,
90,-1.72e-02,6.00e-02,
91,1.72e-02,8.00e-02,
92,-1.32e-02,6.00e-02,
93,1.24e-02,8.00e-02,
94,8.40e-03,8.00e-02,
95,-5.60e-03,4.00e-02,
96,-2.40e-03,8.00e-02,
97,4.00e-03,4.00e-02,
98,3.60e-03,8.00e-02,
99,-8.00e-04,2.00e-02,
100,-8.00e-04,8.00e-02,
101,2.00e-03,2.00e-02,
102,2.00e-03,8.00e-02,
103,-8.00e-04,2.00e-02,
104,2.00e-03,8.00e-02,
105,-4.00e-04,2.00e-02,
106,3.20e-03,2.00e-02,
107,-2.40e-03,8.00e-02,
108,-4.00e-03,8.00e-02,
109,5.20e-03,2.00e-02,
110,2.00e-03,2.00e-02,
111,7.20e-03,1.98e+00,
112,5.60e-03,1.60e-01,
113,4.00e-04,1.20e-01,
114,2.40e-03,1.40e-01,
115,-8.00e-04,8.00e-02,
116,2.40e-03,1.00e-01,
117,-4.00e-04,8.00e-02,
118,-8.00e-04,1.00e-01,
119,2.40e-03,6.00e-02,
120,2.00e-03,1.00e-01,
121,-8.00e-04,6.00e-02,
122,-1.20e-03,6.00e-02,
123,2.00e-03,1.00e-01,
124,2.80e-03,6.00e-02,
125,-2.80e-03,8.00e-02,
126,-4.40e-03,8.00e-02,
127,6.40e-03,6.00e-02,
128,1.04e-02,6.00e-02,
129,-1.16e-02,8.00e-02,
130,-1.40e-02,6.00e-02,
131,1.44e-02,8.00e-02,
132,-1.12e-02,6.00e-02,
133,9.60e-03,8.00e-02,
134,7.60e-03,6.00e-02,
135,-4.40e-03,8.00e-02,
136,-3.20e-03,8.00e-02,
137,3.60e-03,4.00e-02,
138,2.40e-03,8.00e-02,
139,-8.00e-04,4.00e-02,
140,-1.20e-03,2.00e-02,
141,2.00e-03,8.00e-02,
142,2.00e-03,8.00e-02,
143,-1.20e-03,2.00e-02,
144,-4.00e-04,8.00e-02,
145,1.60e-03,2.00e-02,
146,2.00e-03,8.00e-02,
147,-1.60e-03,2.00e-02,
148,-2.80e-03,2.00e-02,
149,4.80e-03,8.00e-02,
150,3.60e-03,2.00e-02,
151,7.60e-03,1.94e+00,
152,5.60e-03,1.60e-01,
153,-1.60e-03,1.20e-01,
154,-1.60e-03,8.00e-02,
155,2.40e-03,1.40e-01,
156,2.00e-03,8.00e-02,
157,-8.00e-04,1.00e-01,
158,-1.20e-03,1.00e-01,
159,2.40e-03,6.00e-02,
160,-8.00e-04,6.00e-02,
161,2.40e-03,1.00e-01,
162,2.40e-03,8.00e-02,
163,0.00e+00,6.00e-02,
164,2.40e-03,6.00e-02,
165,-2.40e-03,8.00e-02,
166,-3.20e-03,6.00e-02,
167,5.60e-03,8.00e-02,
168,7.60e-03,6.00e-02,
169,-8.80e-03,8.00e-02,
170,-1.28e-02,8.00e-02,
171,1.32e-02,6.00e-02,
172,-1.16e-02,6.00e-02,
173,1.08e-02,8.00e-02,
174,6.40e-03,6.00e-02,
175,-4.40e-03,8.00e-02,
176,-3.20e-03,8.00e-02,
177,2.80e-03,2.00e-02,
178,2.00e-03,8.00e-02,
179,-8.00e-04,2.00e-02,
180,0.00e+00,8.00e-02,
181,1.20e-03,2.00e-02,
182,1.20e-03,8.00e-02,
183,-4.00e-04,2.00e-02,
184,1.20e-03,8.00e-02,
185,-8.00e-04,2.00e-02,
186,2.00e-03,8.00e-02,
187,-1.20e-03,2.00e-02,
188,-2.40e-03,8.00e-02,
189,3.60e-03,2.00e-02,
190,2.80e-03,2.00e-02,
191,7.20e-03,1.82e+00,
192,5.60e-03,1.60e-01,
193,4.00e-04,8.00e-02,
194,2.80e-03,1.20e-01,
195,-4.00e-04,8.00e-02,
196,1.20e-03,1.00e-01,
197,0.00e+00,6.00e-02,
198,2.00e-03,1.00e-01,
199,-1.20e-03,6.00e-02,
200,0.00e+00,6.00e-02,
201,2.00e-03,8.00e-02,
202,2.00e-03,6.00e-02,
203,-4.00e-04,8.00e-02,
204,-1.60e-03,6.00e-02,
205,2.80e-03,8.00e-02,
206,-3.20e-03,6.00e-02,
207,5.60e-03,8.00e-02,
208,7.20e-03,8.00e-02,
209,-7.20e-03,6.00e-02,
210,-1.00e-02,6.00e-02,
211,1.12e-02,8.00e-02,
212,-8.00e-03,8.00e-02,
213,8.00e-03,4.00e-02,
214,5.20e-03,8.00e-02,
215,-3.20e-03,2.00e-02,
216,-1.60e-03,8.00e-02,
217,2.80e-03,2.00e-02,
218,1.60e-03,8.00e-02,
219,-8.00e-04,2.00e-02,
220,-8.00e-04,8.00e-02,
221,2.00e-03,2.00e-02,
222,2.00e-03,2.00e-02,
223,-8.00e-04,8.00e-02,
224,-8.00e-04,8.00e-02,
225,2.00e-03,2.00e-02,
226,2.00e-03,8.00e-02,
227,-1.20e-03,2.00e-02,
228,-1.20e-03,8.00e-02,
229,3.60e-03,2.00e-02,
230,2.80e-03,2.00e-02,
231,7.20e-03,1.80e+00,
232,5.60e-03,1.60e-01,
233,4.00e-04,1.00e-01,
234,3.60e-03,1.40e-01,
235,-4.00e-04,8.00e-02,
236,1.20e-03,1.00e-01,
237,-8.00e-04,8.00e-02,
238,2.00e-03,1.00e-01,
239,-8.00e-04,6.00e-02,
240,2.00e-03,1.00e-01,
241,-8.00e-04,6.00e-02,
242,-8.00e-04,6.00e-02,
243,1.60e-03,1.00e-01,
244,2.40e-03,6.00e-02,
245,-1.20e-03,8.00e-02,
246,-3.20e-03,6.00e-02,
247,4.40e-03,8.00e-02,
248,6.80e-03,8.00e-02,
249,-7.60e-03,6.00e-02,
250,1.00e-02,8.00e-02,
251,-9.60e-03,6.00e-02,
252,-7.60e-03,6.00e-02,
253,6.80e-03,8.00e-02,
254,4.40e-03,8.00e-02,
255,-3.20e-03,6.00e-02,
256,-1.60e-03,8.00e-02,
257,3.60e-03,6.00e-02,
258,2.00e-03,6.00e-02,
259,-8.00e-04,8.00e-02,
260,1.20e-03,8.00e-02,
261,-8.00e-04,4.00e-02,
262,2.00e-03,8.00e-02,
263,-8.00e-04,4.00e-02,
264,-8.00e-04,2.00e-02,
265,1.20e-03,8.00e-02,
266,-8.00e-04,8.00e-02,
267,2.40e-03,2.00e-02,
268,-1.20e-03,2.00e-02,
269,4.00e-03,8.00e-02,
270,3.20e-03,2.00e-02,
271,7.20e-03,2.00e+00,
272,5.60e-03,1.60e-01,
273,1.20e-03,1.20e-01,
274,4.00e-03,1.40e-01,
275,-4.00e-04,8.00e-02,
276,2.00e-03,8.00e-02,
277,-8.00e-04,1.00e-01,
278,2.40e-03,1.00e-01,
279,-8.00e-04,6.00e-02,
280,2.40e-03,1.00e-01,
281,-8.00e-04,6.00e-02,
282,2.00e-03,6.00e-02,
283,-8.00e-04,1.00e-01,
284,-1.20e-03,6.00e-02,
285,2.00e-03,8.00e-02,
286,-2.40e-03,6.00e-02,
287,4.00e-03,8.00e-02,
288,5.60e-03,6.00e-02,
289,-6.00e-03,8.00e-02,
290,-7.60e-03,6.00e-02,
291,8.80e-03,8.00e-02,
292,-7.20e-03,8.00e-02,
293,6.00e-03,6.00e-02,
294,4.80e-03,8.00e-02,
295,-3.20e-03,4.00e-02,
296,-2.40e-03,8.00e-02,
297,2.40e-03,6.00e-02,
298,2.00e-03,8.00e-02,
299,0.00e+00,4.00e-02,
300,4.00e-04,8.00e-02,
301,2.00e-03,2.00e-02,
302,1.20e-03,8.00e-02,
303,0.00e+00,2.00e-02,
304,-8.00e-04,2.00e-02,
305,1.20e-03,8.00e-02,
306,1.20e-03,2.00e-02,
307,-1.20e-03,8.00e-02,
308,-1.60e-03,2.00e-02,
309,3.20e-03,8.00e-02,
310,3.20e-03,2.00e-02,
311,7.60e-03,1.94e+00,
312,5.60e-03,1.60e-01,
313,4.00e-04,1.20e-01,
314,3.60e-03,1.20e-01,
315,0.00e+00,8.00e-02,
316,2.00e-03,1.00e-01,
317,-8.00e-04,8.00e-02,
318,-8.00e-04,1.00e-01,
319,2.40e-03,6.00e-02,
320,-8.00e-04,6.00e-02,
321,1.60e-03,1.00e-01,
322,2.00e-03,6.00e-02,
323,-4.00e-04,8.00e-02,
324,-1.20e-03,8.00e-02,
325,2.40e-03,6.00e-02,
326,-2.80e-03,6.00e-02,
327,4.00e-03,8.00e-02,
328,6.40e-03,6.00e-02,
329,-6.80e-03,8.00e-02,
330,-8.40e-03,6.00e-02,
331,8.80e-03,8.00e-02,
332,-6.00e-03,8.00e-02,
333,6.40e-03,6.00e-02,
334,4.00e-03,6.00e-02,
335,-2.80e-03,8.00e-02,
336,-1.60e-03,6.00e-02,
337,2.40e-03,8.00e-02,
338,1.20e-03,8.00e-02,
339,-8.00e-04,4.00e-02,
340,-8.00e-04,8.00e-02,
341,1.20e-03,4.00e-02,
342,1.20e-03,8.00e-02,
343,-4.00e-04,2.00e-02,
344,-8.00e-04,8.00e-02,
345,1.20e-03,2.00e-02,
346,1.60e-03,8.00e-02,
347,-1.60e-03,2.00e-02,
348,-2.80e-03,2.00e-02,
349,4.00e-03,8.00e-02,
350,3.60e-03,2.00e-02,
351,8.00e-03,1.80e+00,
352,5.60e-03,1.60e-01,
353,0.00e+00,1.20e-01,
354,3.20e-03,1.40e-01,
355,-1.20e-03,8.00e-02,
356,2.00e-03,8.00e-02,
357,-4.00e-04,1.00e-01,
358,2.00e-03,1.00e-01,
359,-8.00e-04,6.00e-02,
360,-8.00e-04,1.00e-01,
361,1.20e-03,6.00e-02,
362,-8.00e-04,6.00e-02,
363,2.00e-03,1.00e-01,
364,2.40e-03,8.00e-02,
365,-1.20e-03,6.00e-02,
366,-2.40e-03,6.00e-02,
367,3.60e-03,8.00e-02,
368,4.80e-03,6.00e-02,
369,-5.20e-03,8.00e-02,
370,-8.00e-03,6.00e-02,
371,7.60e-03,8.00e-02,
372,-6.00e-03,6.00e-02,
373,5.60e-03,8.00e-02,
374,4.80e-03,6.00e-02,
375,-1.60e-03,8.00e-02,
376,-1.20e-03,6.00e-02,
377,2.40e-03,8.00e-02,
378,1.20e-03,8.00e-02,
379,-1.20e-03,2.00e-02,
380,0.00e+00,8.00e-02,
381,2.40e-03,2.00e-02,
382,-8.00e-04,8.00e-02,
383,1.60e-03,2.00e-02,
384,-8.00e-04,8.00e-02,
385,2.00e-03,2.00e-02,
386,2.00e-03,8.00e-02,
387,-1.20e-03,2.00e-02,
388,-2.00e-03,8.00e-02,
389,3.20e-03,2.00e-02,
390,3.20e-03,2.00e-02,
391,7.20e-03,1.92e+00,
392,5.60e-03,1.60e-01,
393,0.00e+00,1.20e-01,
394,4.00e-03,1.40e-01,
395,-1.60e-03,8.00e-02,
396,2.00e-03,1.00e-01,
397,-1.20e-03,8.00e-02,
398,2.00e-03,1.00e-01,
399,-1.20e-03,6.00e-02,
400,0.00e+00,1.00e-01,
401,2.00e-03,6.00e-02,
402,2.00e-03,8.00e-02,
403,-4.00e-04,6.00e-02,
404,-1.20e-03,6.00e-02,
405,2.00e-03,8.00e-02,
406,-2.40e-03,6.00e-02,
407,3.60e-03,8.00e-02,
408,4.00e-03,6.00e-02,
409,-4.40e-03,8.00e-02,
410,6.80e-03,6.00e-02,
411,-6.40e-03,8.00e-02,
412,-6.00e-03,8.00e-02,
413,5.60e-03,6.00e-02,
414,-2.40e-03,6.00e-02,
415,3.60e-03,8.00e-02,
416,-1.20e-03,4.00e-02,
417,2.40e-03,8.00e-02,
418,1.20e-03,8.00e-02,
419,-8.00e-04,2.00e-02,
420,-8.00e-04,8.00e-02,
421,1.20e-03,2.00e-02,
422,1.20e-03,2.00e-02,
423,-8.00e-04,8.00e-02,
424,1.20e-03,4.00e-02,
425,-1.20e-03,8.00e-02,
426,-1.20e-03,8.00e-02,
427,2.00e-03,2.00e-02,
428,-2.80e-03,8.00e-02,
429,2.80e-03,2.00e-02,
430,2.80e-03,2.00e-02,
431,8.00e-03,2.00e+00,
432,5.60e-03,1.60e-01,
433,-8.00e-04,1.20e-01,
434,4.00e-03,8.00e-02,
435,-1.20e-03,1.40e-01,
436,-1.20e-03,1.00e-01,
437,2.40e-03,6.00e-02,
438,3.20e-03,1.00e-01,
439,-8.00e-04,6.00e-02,
440,-4.00e-04,6.00e-02,
441,2.00e-03,1.00e-01,
442,1.60e-03,6.00e-02,
443,-1.20e-03,8.00e-02,
444,-1.20e-03,8.00e-02,
445,2.00e-03,6.00e-02,
446,-1.60e-03,6.00e-02,
447,3.60e-03,8.00e-02,
448,4.00e-03,6.00e-02,
449,-4.40e-03,8.00e-02,
450,-6.00e-03,6.00e-02,
451,6.00e-03,8.00e-02,
452,-5.20e-03,8.00e-02,
453,4.80e-03,6.00e-02,
454,4.00e-03,6.00e-02,
455,-1.60e-03,8.00e-02,
456,-8.00e-04,8.00e-02,
457,2.00e-03,6.00e-02,
458,2.00e-03,8.00e-02,
459,-8.00e-04,2.00e-02,
460,-8.00e-04,8.00e-02,
461,1.20e-03,4.00e-02,
462,-1.20e-03,8.00e-02,
463,2.00e-03,2.00e-02,
464,-8.00e-04,2.00e-02,
465,2.00e-03,8.00e-02,
466,-1.60e-03,2.00e-02,
467,2.00e-03,8.00e-02,
468,3.60e-03,8.00e-02,
469,-3.20e-03,2.00e-02,
470,3.20e-03,2.00e-02,
471,7.20e-03,1.72e+00,
472,5.60e-03,1.60e-01,
473,0.00e+00,1.20e-01,
474,4.80e-03,8.00e-02,
475,-8.00e-04,1.40e-01,
476,-1.20e-03,1.00e-01,
477,2.40e-03,8.00e-02,
478,-4.00e-04,1.00e-01,
479,2.40e-03,6.00e-02,
480,0.00e+00,1.00e-01,
481,2.40e-03,6.00e-02,
482,2.00e-03,6.00e-02,
483,0.00e+00,8.00e-02,
484,-1.20e-03,8.00e-02,
485,1.20e-03,6.00e-02,
486,-8.00e-04,6.00e-02,
487,2.80e-03,8.00e-02,
488,4.40e-03,8.00e-02,
489,-4.00e-03,6.00e-02,
490,5.60e-03,6.00e-02,
491,-5.20e-03,8.00e-02,
492,-3.60e-03,6.00e-02,
493,4.00e-03,8.00e-02,
494,4.00e-03,6.00e-02,
495,-1.60e-03,8.00e-02,
496,1.20e-03,2.00e-02,
497,-1.20e-03,8.00e-02,
498,-8.00e-04,8.00e-02,
499,1.20e-03,4.00e-02,
500,1.20e-03,8.00e-02,
501,-8.00e-04,2.00e-02,
502,1.20e-03,8.00e-02,
503,-4.00e-04,2.00e-02,
504,1.20e-03,2.00e-02,
505,-1.20e-03,8.00e-02,
506,-1.20e-03,8.00e-02,
507,2.40e-03,2.00e-02,
508,2.80e-03,2.00e-02,
509,-4.00e-03,8.00e-02,
510,2.80e-03,4.00e-02,
511,7.20e-03,1.88e+00,
512,5.60e-03,1.60e-01,
513,4.00e-04,1.20e-01,
514,5.20e-03,1.40e-01,
515,-8.00e-04,8.00e-02,
516,-8.00e-04,1.00e-01,
517,2.80e-03,8.00e-02,
518,2.00e-03,1.00e-01,
519,-8.00e-04,6.00e-02,
520,1.20e-03,1.00e-01,
521,-1.20e-03,6.00e-02,
522,1.20e-03,8.00e-02,
523,-8.00e-04,6.00e-02,
524,1.20e-03,6.00e-02,
525,-1.20e-03,8.00e-02,
526,-1.20e-03,6.00e-02,
527,2.80e-03,8.00e-02,
528,3.60e-03,6.00e-02,
529,-3.20e-03,8.00e-02,
530,-4.40e-03,6.00e-02,
531,5.20e-03,8.00e-02,
532,-4.00e-03,8.00e-02,
533,3.60e-03,6.00e-02,
534,2.80e-03,8.00e-02,
535,-1.60e-03,6.00e-02,
536,-8.00e-04,8.00e-02,
537,2.00e-03,2.00e-02,
538,1.20e-03,8.00e-02,
539,-8.00e-04,2.00e-02,
540,1.20e-03,8.00e-02,
541,-8.00e-04,2.00e-02,
542,0.00e+00,8.00e-02,
543,2.00e-03,2.00e-02,
544,-8.00e-04,8.00e-02,
545,1.20e-03,2.00e-02,
546,-8.00e-04,8.00e-02,
547,2.80e-03,2.00e-02,
548,4.00e-03,2.00e-02,
549,-2.80e-03,8.00e-02,
550,2.40e-03,1.90e+00,
551,7.60e-03,0.00e+00,
552,5.60e-03,1.60e-01,
553,0.00e+00,1.20e-01,
554,4.00e-03,8.00e-02,
555,-1.60e-03,1.40e-01,
556,-8.00e-04,8.00e-02,
557,2.40e-03,1.00e-01,
558,2.40e-03,1.00e-01,
559,-1.20e-03,6.00e-02,
560,-8.00e-04,6.00e-02,
561,2.00e-03,1.00e-01,
562,1.20e-03,6.00e-02,
563,-1.20e-03,8.00e-02,
564,-1.20e-03,6.00e-02,
565,1.20e-03,8.00e-02,
566,-8.00e-04,6.00e-02,
567,3.60e-03,8.00e-02,
568,3.60e-03,6.00e-02,
569,-3.20e-03,8.00e-02,
570,-4.00e-03,8.00e-02,
571,5.20e-03,6.00e-02,
572,-3.60e-03,6.00e-02,
573,3.60e-03,8.00e-02,
574,2.80e-03,8.00e-02,
575,-1.20e-03,6.00e-02,
576,2.00e-03,8.00e-02,
577,-8.00e-04,6.00e-02,
578,1.60e-03,8.00e-02,
579,-4.00e-04,2.00e-02,
580,-8.00e-04,8.00e-02,
581,1.60e-03,4.00e-02,
582,2.00e-03,8.00e-02,
583,-8.00e-04,4.00e-02,
584,-8.00e-04,8.00e-02,
585,2.00e-03,2.00e-02,
586,-1.60e-03,8.00e-02,
587,2.80e-03,2.00e-02,
588,3.60e-03,8.00e-02,
589,-4.00e-03,2.00e-02,
590,2.80e-03,2.00e-02,
591,7.60e-03,1.86e+00,
592,5.60e-03,1.60e-01,
593,-4.00e-04,1.20e-01,
594,4.00e-03,1.40e-01,
595,-1.60e-03,8.00e-02,
596,-1.20e-03,1.00e-01,
597,2.80e-03,8.00e-02,
598,2.40e-03,1.00e-01,
599,-8.00e-04,6.00e-02,
600,1.20e-03,6.00e-02,
601,-8.00e-04,1.00e-01,
602,2.00e-03,1.00e-01,
603,4.00e-04,6.00e-02,
604,-4.00e-04,6.00e-02,
605,1.60e-03,8.00e-02,
606,-8.00e-04,6.00e-02,
607,3.60e-03,8.00e-02,
608,2.80e-03,6.00e-02,
609,-2.80e-03,8.00e-02,
610,4.00e-03,6.00e-02,
611,-3.20e-03,8.00e-02,
612,-3.60e-03,8.00e-02,
613,2.40e-03,6.00e-02,
614,2.40e-03,8.00e-02,
615,-8.00e-04,4.00e-02,
616,-1.20e-03,6.00e-02,
617,1.60e-03,8.00e-02,
618,0.00e+00,8.00e-02,
619,1.20e-03,2.00e-02,
620,2.00e-03,8.00e-02,
621,-4.00e-04,4.00e-02,
622,1.20e-03,8.00e-02,
623,-8.00e-04,2.00e-02,
624,-1.20e-03,8.00e-02,
625,2.40e-03,2.00e-02,
626,-1.20e-03,8.00e-02,
627,3.20e-03,2.00e-02,
628,3.60e-03,8.00e-02,
629,-4.00e-03,2.00e-02,
630,1.60e-03,1.98e+00,
631,7.20e-03,0.00e+00,
632,5.60e-03,1.60e-01,
633,-8.00e-04,1.20e-01,
634,5.20e-03,1.40e-01,
635,-1.60e-03,8.00e-02,
636,-1.60e-03,8.00e-02,
637,2.40e-03,1.00e-01,
638,2.40e-03,1.00e-01,
639,-8.00e-04,6.00e-02,
640,-1.20e-03,6.00e-02,
641,2.00e-03,1.00e-01,
642,2.00e-03,6.00e-02,
643,-1.20e-03,1.00e-01,
644,1.20e-03,6.00e-02,
645,-1.20e-03,8.00e-02,
646,-8.00e-04,6.00e-02,
647,2.40e-03,8.00e-02,
648,2.80e-03,6.00e-02,
649,-2.80e-03,8.00e-02,
650,4.00e-03,6.00e-02,
651,-2.80e-03,8.00e-02,
652,-3.20e-03,6.00e-02,
653,2.80e-03,8.00e-02,
654,2.80e-03,8.00e-02,
655,-1.60e-03,2.00e-02,
656,-1.20e-03,8.00e-02,
657,1.20e-03,2.00e-02,
658,1.20e-03,8.00e-02,
659,0.00e+00,4.00e-02,
660,-8.00e-04,4.00e-02,
661,1.20e-03,8.00e-02,
662,-1.20e-03,8.00e-02,
663,2.00e-03,2.00e-02,
664,-1.20e-03,2.00e-02,
665,1.60e-03,8.00e-02,
666,-1.20e-03,8.00e-02,
667,3.60e-03,2.00e-02,
668,4.00e-03,8.00e-02,
669,-4.40e-03,2.00e-02,
670,8.00e-04,1.92e+00,
671,8.00e-03,-2.00e-02,
672,5.60e-03,1.60e-01,
673,-8.00e-04,1.20e-01,
674,4.80e-03,1.40e-01,
675,-1.60e-03,8.00e-02,
676,-1.60e-03,8.00e-02,
677,2.40e-03,1.00e-01,
678,2.80e-03,1.00e-01,
679,-8.00e-04,6.00e-02,
680,-8.00e-04,1.00e-01,
681,2.00e-03,6.00e-02,
682,2.00e-03,8.00e-02,
683,-8.00e-04,6.00e-02,
684,2.40e-03,6.00e-02,
685,-1.20e-03,8.00e-02,
686,-1.20e-03,6.00e-02,
687,2.40e-03,8.00e-02,
688,2.80e-03,6.00e-02,
689,-2.40e-03,8.00e-02,
690,4.00e-03,6.00e-02,
691,-3.20e-03,8.00e-02,
692,-2.80e-03,6.00e-02,
693,3.20e-03,8.00e-02,
694,2.40e-03,6.00e-02,
695,-8.00e-04,8.00e-02,
696,-8.00e-04,6.00e-02,
697,1.20e-03,8.00e-02,
698,1.20e-03,6.00e-02,
699,-8.00e-04,8.00e-02,
700,-4.00e-04,8.00e-02,
701,1.20e-03,4.00e-02,
702,2.40e-03,8.00e-02,
703,-8.00e-04,2.00e-02,
704,-8.00e-04,8.00e-02,
705,2.40e-03,2.00e-02,
706,-1.60e-03,8.00e-02,
707,3.20e-03,2.00e-02,
708,4.00e-03,2.00e-02,
709,-4.40e-03,8.00e-02,
710,2.00e-03,2.00e-02,
711,7.20e-03,1.90e+00,
712,5.60e-03,1.60e-01,
713,0.00e+00,1.20e-01,
714,5.20e-03,1.20e-01,
715,-1.20e-03,8.00e-02,
716,2.40e-03,1.00e-01,
717,-1.60e-03,8.00e-02,
718,2.00e-03,1.00e-01,
719,-8.00e-04,6.00e-02,
720,-8.00e-04,6.00e-02,
721,2.00e-03,1.00e-01,
722,-8.00e-04,8.00e-02,
723,1.20e-03,6.00e-02,
724,-4.00e-04,6.00e-02,
725,1.60e-03,8.00e-02,
726,-8.00e-04,6.00e-02,
727,2.00e-03,8.00e-02,
728,2.40e-03,6.00e-02,
729,-1.60e-03,8.00e-02,
730,-2.00e-03,8.00e-02,
731,3.60e-03,6.00e-02,
732,-2.40e-03,8.00e-02,
733,2.40e-03,4.00e-02,
734,2.40e-03,8.00e-02,
735,-4.00e-04,2.00e-02,
736,-8.00e-04,8.00e-02,
737,1.60e-03,2.00e-02,
738,1.20e-03,8.00e-02,
739,-8.00e-04,2.00e-02,
740,2.00e-03,8.00e-02,
741,-1.20e-03,2.00e-02,
742,-8.00e-04,8.00e-02,
743,2.00e-03,2.00e-02,
744,1.60e-03,2.00e-02,
745,-1.20e-03,8.00e-02,
746,-1.60e-03,8.00e-02,
747,3.20e-03,2.00e-02,
748,3.60e-03,2.00e-02,
749,-4.00e-03,8.00e-02,
750,2.40e-03,1.92e+00,
751,8.00e-03,0.00e+00,
752,6.00e-03,1.60e-01,
753,0.00e+00,1.20e-01,
754,5.20e-03,1.40e-01,
755,-1.60e-03,8.00e-02,
756,-1.20e-03,1.00e-01,
757,2.80e-03,8.00e-02,
758,2.40e-03,1.00e-01,
759,-2.00e-03,6.00e-02,
760,-8.00e-04,6.00e-02,
761,2.40e-03,1.00e-01,
762,2.00e-03,8.00e-02,
763,0.00e+00,6.00e-02,
764,1.20e-03,6.00e-02,
765,-8.00e-04,8.00e-02,
766,-8.00e-04,6.00e-02,
767,2.40e-03,8.00e-02,
768,2.40e-03,6.00e-02,
769,-1.60e-03,8.00e-02,
770,2.80e-03,8.00e-02,
771,-2.40e-03,6.00e-02,
772,-1.60e-03,8.00e-02,
773,2.40e-03,6.00e-02,
774,1.20e-03,6.00e-02,
775,-1.60e-03,8.00e-02,
776,-8.00e-04,8.00e-02,
777,2.40e-03,2.00e-02,
778,0.00e+00,8.00e-02,
779,1.20e-03,4.00e-02,
780,-4.00e-04,8.00e-02,
781,1.20e-03,2.00e-02,
782,2.00e-03,8.00e-02,
783,-8.00e-04,4.00e-02,
784,-1.20e-03,8.00e-02,
785,2.00e-03,2.00e-02,
786,-1.60e-03,8.00e-02,
787,2.80e-03,2.00e-02,
788,3.60e-03,8.00e-02,
789,-4.00e-03,2.00e-02,
790,1.20e-03,-8.00e-02,
791,7.60e-03,1.96e+00,
792,5.60e-03,1.60e-01,
793,0.00e+00,1.20e-01,
794,5.20e-03,1.40e-01,
795,-1.60e-03,8.00e-02,
796,-1.20e-03,1.00e-01,
797,2.40e-03,8.00e-02,
798,2.00e-03,1.00e-01,
799,-1.20e-03,6.00e-02,
800,2.00e-03,1.00e-01,
801,-8.00e-04,6.00e-02,
802,1.20e-03,6.00e-02,
803,-8.00e-04,8.00e-02,
804,-8.00e-04,6.00e-02,
805,1.60e-03,8.00e-02,
806,2.00e-03,8.00e-02,
807,0.00e+00,6.00e-02,
808,2.40e-03,8.00e-02,
809,-1.60e-03,6.00e-02,
810,-2.40e-03,6.00e-02,
811,2.80e-03,8.00e-02,
812,-1.60e-03,6.00e-02,
813,2.40e-03,8.00e-02,
814,2.00e-03,6.00e-02,
815,-8.00e-04,8.00e-02,
816,1.20e-03,6.00e-02,
817,0.00e+00,8.00e-02,
818,1.20e-03,8.00e-02,
819,-8.00e-04,6.00e-02,
820,-8.00e-04,2.00e-02,
821,8.00e-04,8.00e-02,
822,0.00e+00,8.00e-02,
823,2.40e-03,2.00e-02,
824,1.60e-03,8.00e-02,
825,-1.20e-03,4.00e-02,
826,-1.60e-03,2.00e-02,
827,3.20e-03,8.00e-02,
828,4.00e-03,2.00e-02,
829,-4.00e-03,8.00e-02,
830,1.20e-03,2.00e-02,
831,8.00e-03,1.78e+00,
832,6.40e-03,1.60e-01,
833,-8.00e-04,1.20e-01,
834,5.60e-03,1.40e-01,
835,-1.60e-03,8.00e-02,
836,-1.60e-03,8.00e-02,
837,2.80e-03,1.00e-01,
838,2.40e-03,1.00e-01,
839,-8.00e-04,6.00e-02,
840,-8.00e-04,1.00e-01,
841,1.20e-03,6.00e-02,
842,2.40e-03,8.00e-02,
843,0.00e+00,6.00e-02,
844,-8.00e-04,6.00e-02,
845,1.20e-03,8.00e-02,
846,-8.00e-04,8.00e-02,
847,2.00e-03,6.00e-02,
848,2.40e-03,6.00e-02,
849,-2.40e-03,8.00e-02,
850,-2.80e-03,6.00e-02,
851,2.80e-03,8.00e-02,
852,-1.20e-03,6.00e-02,
853,2.80e-03,8.00e-02,
854,2.00e-03,8.00e-02,
