CarrPurc_P1-19_P2-38_tauVary/Gly94/NewFile4.csv

X,CH1,CH2,Start,Increment,
Sequence,Volt,Volt,-6.000000e-04,1.000000e-04
0,8.00e-04,4.00e-02,
1,0.00e+00,2.00e-02,
2,0.00e+00,4.00e-02,
3,8.00e-04,2.00e-02,
4,8.00e-04,4.00e-02,
5,0.00e+00,2.00e-02,
6,0.00e+00,2.00e-02,
7,1.20e-03,4.00e-02,
8,0.00e+00,4.00e-02,
9,8.00e-04,2.00e-02,
10,4.00e-04,1.88e+00,
11,5.20e-03,-4.00e-02,
12,4.80e-03,1.60e-01,
13,-2.88e-02,8.00e-02,
14,-1.48e-02,1.20e-01,
15,1.68e-02,8.00e-02,
16,8.00e-03,1.00e-01,
17,-8.40e-03,6.00e-02,
18,-2.40e-03,1.00e-01,
19,3.60e-03,6.00e-02,
20,3.20e-03,6.00e-02,
21,-1.60e-03,1.00e-01,
22,2.80e-03,6.00e-02,
23,-1.20e-03,8.00e-02,
24,-1.20e-03,8.00e-02,
25,2.80e-03,6.00e-02,
26,2.40e-03,6.00e-02,
27,-8.00e-04,8.00e-02,
28,-8.00e-04,6.00e-02,
29,2.00e-03,8.00e-02,
30,1.20e-03,6.00e-02,
31,7.60e-03,1.94e+00,
32,5.60e-03,1.60e-01,
33,-8.00e-03,1.20e-01,
34,-8.40e-03,1.20e-01,
35,5.20e-03,8.00e-02,
36,3.20e-03,1.00e-01,
37,-1.60e-03,8.00e-02,
38,-4.00e-04,1.00e-01,
39,2.40e-03,6.00e-02,
40,-1.20e-03,1.00e-01,
41,2.40e-03,6.00e-02,
42,2.40e-03,6.00e-02,
43,-8.00e-04,8.00e-02,
44,-2.80e-03,6.00e-02,
45,5.60e-03,8.00e-02,
46,9.20e-03,6.00e-02,
47,-8.80e-03,8.00e-02,
48,-1.56e-02,8.00e-02,
49,1.84e-02,6.00e-02,
50,-2.04e-02,6.00e-02,
51,2.16e-02,8.00e-02,
52,-2.00e-02,6.00e-02,
53,1.72e-02,8.00e-02,
54,1.08e-02,6.00e-02,
55,-8.40e-03,8.00e-02,
56,-4.40e-03,6.00e-02,
57,4.80e-03,8.00e-02,
58,2.40e-03,8.00e-02,
59,-4.00e-04,4.00e-02,
60,-8.00e-04,6.00e-02,
61,2.00e-03,8.00e-02,
62,-1.20e-03,8.00e-02,
63,1.60e-03,4.00e-02,
64,2.00e-03,8.00e-02,
65,-8.00e-04,2.00e-02,
66,1.20e-03,8.00e-02,
67,-8.00e-04,2.00e-02,
68,1.20e-03,8.00e-02,
69,-8.00e-04,2.00e-02,
70,4.00e-04,2.00e-02,
71,6.80e-03,1.94e+00,
72,5.20e-03,1.60e-01,
73,0.00e+00,1.20e-01,
74,2.80e-03,1.40e-01,
75,0.00e+00,8.00e-02,
76,2.00e-03,1.00e-01,
77,-1.20e-03,8.00e-02,
78,1.20e-03,1.00e-01,
79,-1.60e-03,6.00e-02,
80,-1.20e-03,1.00e-01,
81,1.20e-03,6.00e-02,
82,2.40e-03,8.00e-02,
83,-1.60e-03,6.00e-02,
84,-2.80e-03,8.00e-02,
85,5.20e-03,6.00e-02,
86,-5.60e-03,6.00e-02,
87,7.20e-03,8.00e-02,
88,1.08e-02,8.00e-02,
89,-1.28e-02,6.00e-02,
90,1.68e-02,6.00e-02,
91,-1.60e-02,8.00e-02,
92,-1.32e-02,6.00e-02,
93,1.04e-02,8.00e-02,
94,8.40e-03,6.00e-02,
95,-4.80e-03,8.00e-02,
96,-3.20e-03,6.00e-02,
97,3.20e-03,8.00e-02,
98,-1.20e-03,6.00e-02,
99,2.40e-03,8.00e-02,
100,-8.00e-04,8.00e-02,
101,2.40e-03,4.00e-02,
102,2.40e-03,4.00e-02,
103,-8.00e-04,8.00e-02,
104,-4.00e-04,8.00e-02,
105,2.00e-03,2.00e-02,
106,2.80e-03,2.00e-02,
107,-2.40e-03,8.00e-02,
108,-3.20e-03,2.00e-02,
109,5.20e-03,8.00e-02,
110,2.80e-03,2.00e-02,
111,7.60e-03,1.92e+00,
112,5.60e-03,1.60e-01,
113,4.00e-04,1.20e-01,
114,3.60e-03,8.00e-02,
115,0.00e+00,1.40e-01,
116,2.00e-03,1.00e-01,
117,-8.00e-04,8.00e-02,
118,-8.00e-04,1.00e-01,
119,2.00e-03,6.00e-02,
120,2.00e-03,1.00e-01,
121,-1.20e-03,6.00e-02,
122,-1.20e-03,6.00e-02,
123,2.40e-03,8.00e-02,
124,3.20e-03,6.00e-02,
125,-2.80e-03,8.00e-02,
126,-4.40e-03,8.00e-02,
127,7.20e-03,6.00e-02,
128,1.04e-02,6.00e-02,
129,-1.32e-02,8.00e-02,
130,1.64e-02,6.00e-02,
131,-1.44e-02,8.00e-02,
132,-1.20e-02,6.00e-02,
133,1.12e-02,8.00e-02,
134,7.20e-03,6.00e-02,
135,-5.60e-03,8.00e-02,
136,-3.60e-03,6.00e-02,
137,3.60e-03,8.00e-02,
138,-8.00e-04,8.00e-02,
139,2.00e-03,6.00e-02,
140,-8.00e-04,6.00e-02,
141,2.00e-03,8.00e-02,
142,2.40e-03,8.00e-02,
143,-8.00e-04,4.00e-02,
144,-8.00e-04,8.00e-02,
145,1.20e-03,2.00e-02,
146,2.00e-03,8.00e-02,
147,-1.60e-03,2.00e-02,
148,-2.80e-03,8.00e-02,
149,4.40e-03,2.00e-02,
150,3.20e-03,2.00e-02,
151,7.20e-03,2.00e+00,
152,5.60e-03,1.60e-01,
153,-1.20e-03,1.20e-01,
154,-1.20e-03,1.40e-01,
155,2.80e-03,8.00e-02,
156,1.60e-03,8.00e-02,
157,-8.00e-04,1.00e-01,
158,2.00e-03,1.00e-01,
159,-8.00e-04,6.00e-02,
160,-1.20e-03,6.00e-02,
161,2.00e-03,1.00e-01,
162,2.00e-03,6.00e-02,
163,-1.20e-03,8.00e-02,
164,2.40e-03,6.00e-02,
165,-2.40e-03,8.00e-02,
166,-3.20e-03,6.00e-02,
167,5.20e-03,8.00e-02,
168,7.20e-03,6.00e-02,
169,-8.80e-03,8.00e-02,
170,-1.12e-02,8.00e-02,
171,1.20e-02,6.00e-02,
172,-1.00e-02,6.00e-02,
173,9.60e-03,8.00e-02,
174,6.40e-03,6.00e-02,
175,-4.00e-03,8.00e-02,
176,-1.60e-03,8.00e-02,
177,2.80e-03,6.00e-02,
178,1.60e-03,8.00e-02,
179,-8.00e-04,6.00e-02,
180,-4.00e-04,8.00e-02,
181,1.20e-03,2.00e-02,
182,1.20e-03,8.00e-02,
183,-4.00e-04,2.00e-02,
184,-4.00e-04,8.00e-02,
185,2.00e-03,2.00e-02,
186,2.00e-03,8.00e-02,
187,-1.20e-03,2.00e-02,
188,-2.40e-03,8.00e-02,
189,3.20e-03,2.00e-02,
190,2.80e-03,2.00e-02,
191,8.00e-03,1.94e+00,
192,5.60e-03,1.60e-01,
193,-4.00e-04,8.00e-02,
194,0.00e+00,1.20e-01,
195,2.80e-03,8.00e-02,
196,1.20e-03,1.00e-01,
197,0.00e+00,8.00e-02,
198,2.00e-03,1.00e-01,
199,-8.00e-04,6.00e-02,
200,-8.00e-04,6.00e-02,
201,1.20e-03,1.00e-01,
202,2.40e-03,6.00e-02,
203,-1.20e-03,8.00e-02,
204,-2.80e-03,6.00e-02,
205,3.20e-03,8.00e-02,
206,-3.20e-03,6.00e-02,
207,5.60e-03,8.00e-02,
208,7.20e-03,8.00e-02,
209,-8.40e-03,6.00e-02,
210,-1.00e-02,6.00e-02,
211,1.08e-02,8.00e-02,
212,-9.20e-03,6.00e-02,
213,8.40e-03,8.00e-02,
214,4.80e-03,6.00e-02,
215,-2.80e-03,8.00e-02,
216,-2.40e-03,8.00e-02,
217,2.40e-03,2.00e-02,
218,-8.00e-04,8.00e-02,
219,2.00e-03,4.00e-02,
220,-8.00e-04,8.00e-02,
221,1.20e-03,2.00e-02,
222,-8.00e-04,8.00e-02,
223,2.00e-03,2.00e-02,
224,-8.00e-04,8.00e-02,
225,2.00e-03,2.00e-02,
226,1.60e-03,8.00e-02,
227,-1.20e-03,4.00e-02,
228,-1.60e-03,8.00e-02,
229,3.60e-03,2.00e-02,
230,2.80e-03,4.00e-02,
231,7.20e-03,1.64e+00,
232,5.60e-03,1.60e-01,
233,4.00e-04,1.20e-01,
234,3.60e-03,1.40e-01,
235,0.00e+00,8.00e-02,
236,1.20e-03,1.00e-01,
237,-8.00e-04,8.00e-02,
238,2.40e-03,1.00e-01,
239,-8.00e-04,6.00e-02,
240,1.20e-03,1.00e-01,
241,-1.20e-03,6.00e-02,
242,-8.00e-04,6.00e-02,
243,2.40e-03,8.00e-02,
244,2.40e-03,6.00e-02,
245,-1.60e-03,8.00e-02,
246,-3.20e-03,6.00e-02,
247,4.40e-03,8.00e-02,
248,7.20e-03,8.00e-02,
249,-7.60e-03,6.00e-02,
250,1.00e-02,8.00e-02,
251,-9.60e-03,6.00e-02,
252,-8.40e-03,6.00e-02,
253,7.20e-03,8.00e-02,
254,4.40e-03,8.00e-02,
255,-4.00e-03,6.00e-02,
256,-1.60e-03,8.00e-02,
257,2.40e-03,6.00e-02,
258,1.20e-03,6.00e-02,
259,-8.00e-04,8.00e-02,
260,-8.00e-04,8.00e-02,
261,1.20e-03,4.00e-02,
262,2.00e-03,8.00e-02,
263,0.00e+00,4.00e-02,
264,-8.00e-04,8.00e-02,
265,2.00e-03,4.00e-02,
266,-8.00e-04,8.00e-02,
267,2.40e-03,4.00e-02,
268,-2.40e-03,8.00e-02,
269,3.60e-03,2.00e-02,
270,3.20e-03,2.00e-02,
271,7.60e-03,1.98e+00,
272,6.40e-03,1.60e-01,
273,0.00e+00,1.20e-01,
274,3.60e-03,1.40e-01,
275,-1.20e-03,8.00e-02,
276,2.40e-03,8.00e-02,
277,-1.20e-03,1.00e-01,
278,-8.00e-04,1.00e-01,
279,2.40e-03,6.00e-02,
280,-8.00e-04,1.00e-01,
281,1.60e-03,6.00e-02,
282,0.00e+00,6.00e-02,
283,2.00e-03,8.00e-02,
284,2.40e-03,6.00e-02,
285,-1.20e-03,8.00e-02,
286,-2.40e-03,6.00e-02,
287,3.60e-03,8.00e-02,
288,5.60e-03,6.00e-02,
289,-6.80e-03,8.00e-02,
290,8.80e-03,6.00e-02,
291,-8.40e-03,8.00e-02,
292,-7.20e-03,8.00e-02,
293,6.80e-03,6.00e-02,
294,4.80e-03,6.00e-02,
295,-3.20e-03,8.00e-02,
296,-1.60e-03,8.00e-02,
297,2.40e-03,6.00e-02,
298,1.60e-03,8.00e-02,
299,-8.00e-04,6.00e-02,
300,1.20e-03,8.00e-02,
301,-8.00e-04,2.00e-02,
302,8.00e-04,8.00e-02,
303,-1.20e-03,4.00e-02,
304,-8.00e-04,8.00e-02,
305,1.20e-03,4.00e-02,
306,2.00e-03,8.00e-02,
307,-1.20e-03,2.00e-02,
308,-2.80e-03,8.00e-02,
309,2.80e-03,2.00e-02,
310,3.20e-03,2.00e-02,
311,7.60e-03,1.88e+00,
312,5.60e-03,1.60e-01,
313,0.00e+00,1.20e-01,
314,3.60e-03,1.20e-01,
315,-8.00e-04,8.00e-02,
316,2.00e-03,1.00e-01,
317,-1.20e-03,8.00e-02,
318,-8.00e-04,1.00e-01,
319,2.00e-03,6.00e-02,
320,-8.00e-04,1.00e-01,
321,2.00e-03,6.00e-02,
322,2.00e-03,6.00e-02,
323,-8.00e-04,8.00e-02,
324,2.40e-03,8.00e-02,
325,-1.60e-03,6.00e-02,
326,-2.40e-03,6.00e-02,
327,4.00e-03,8.00e-02,
328,5.60e-03,6.00e-02,
329,-6.40e-03,8.00e-02,
330,-7.60e-03,6.00e-02,
331,8.80e-03,8.00e-02,
332,-6.40e-03,8.00e-02,
333,5.60e-03,6.00e-02,
334,4.00e-03,6.00e-02,
335,-2.80e-03,8.00e-02,
336,-1.20e-03,6.00e-02,
337,2.00e-03,8.00e-02,
338,1.20e-03,8.00e-02,
339,-8.00e-04,6.00e-02,
340,-1.20e-03,8.00e-02,
341,1.20e-03,4.00e-02,
342,1.20e-03,8.00e-02,
343,-1.20e-03,2.00e-02,
344,-8.00e-04,8.00e-02,
345,1.20e-03,6.00e-02,
346,2.00e-03,8.00e-02,
347,-1.20e-03,4.00e-02,
348,-2.80e-03,8.00e-02,
349,3.60e-03,2.00e-02,
350,3.20e-03,2.00e-02,
351,8.00e-03,1.80e+00,
352,6.40e-03,1.60e-01,
353,-8.00e-04,1.20e-01,
354,4.00e-03,1.40e-01,
355,-1.20e-03,8.00e-02,
356,2.40e-03,8.00e-02,
357,-8.00e-04,1.00e-01,
358,2.00e-03,1.00e-01,
359,-8.00e-04,6.00e-02,
360,0.00e+00,6.00e-02,
361,2.00e-03,1.00e-01,
362,2.00e-03,6.00e-02,
363,0.00e+00,8.00e-02,
364,2.00e-03,8.00e-02,
365,-1.20e-03,6.00e-02,
366,-2.40e-03,6.00e-02,
367,3.60e-03,8.00e-02,
368,4.80e-03,6.00e-02,
369,-6.00e-03,8.00e-02,
370,-6.80e-03,6.00e-02,
371,7.20e-03,8.00e-02,
372,-6.00e-03,6.00e-02,
373,5.20e-03,8.00e-02,
374,3.60e-03,6.00e-02,
375,-2.40e-03,8.00e-02,
376,-1.60e-03,6.00e-02,
377,2.40e-03,8.00e-02,
378,2.00e-03,8.00e-02,
379,0.00e+00,6.00e-02,
380,2.00e-03,6.00e-02,
381,-8.00e-04,8.00e-02,
382,1.60e-03,8.00e-02,
383,-8.00e-04,2.00e-02,
384,-8.00e-04,8.00e-02,
385,1.60e-03,4.00e-02,
386,2.00e-03,8.00e-02,
387,-1.20e-03,2.00e-02,
388,-2.80e-03,2.00e-02,
389,3.20e-03,8.00e-02,
390,3.20e-03,4.00e-02,
391,7.20e-03,1.90e+00,
392,5.60e-03,1.60e-01,
393,-8.00e-04,1.20e-01,
394,3.60e-03,1.20e-01,
395,-8.00e-04,8.00e-02,
396,-8.00e-04,1.00e-01,
397,2.40e-03,8.00e-02,
398,2.00e-03,1.00e-01,
399,-1.20e-03,6.00e-02,
400,-1.20e-03,1.00e-01,
401,1.20e-03,6.00e-02,
402,1.20e-03,1.00e-01,
403,-4.00e-04,6.00e-02,
404,2.00e-03,6.00e-02,
405,-1.20e-03,8.00e-02,
406,-1.60e-03,6.00e-02,
407,3.60e-03,8.00e-02,
408,4.80e-03,6.00e-02,
409,-4.40e-03,8.00e-02,
410,-5.60e-03,6.00e-02,
411,6.80e-03,8.00e-02,
412,-5.20e-03,8.00e-02,
413,5.60e-03,6.00e-02,
414,3.60e-03,6.00e-02,
415,-1.60e-03,8.00e-02,
416,-1.60e-03,6.00e-02,
417,2.00e-03,8.00e-02,
418,1.20e-03,8.00e-02,
419,-8.00e-04,6.00e-02,
420,-8.00e-04,6.00e-02,
421,1.20e-03,8.00e-02,
422,-8.00e-04,6.00e-02,
423,2.00e-03,8.00e-02,
424,-8.00e-04,8.00e-02,
425,2.00e-03,4.00e-02,
426,2.00e-03,8.00e-02,
427,-1.20e-03,6.00e-02,
428,3.60e-03,8.00e-02,
429,-2.80e-03,4.00e-02,
430,3.20e-03,2.00e-02,
431,8.00e-03,1.98e+00,
432,5.60e-03,1.60e-01,
433,0.00e+00,1.20e-01,
434,4.40e-03,8.00e-02,
435,-1.20e-03,1.40e-01,
436,-1.20e-03,1.00e-01,
437,2.00e-03,8.00e-02,
438,2.40e-03,1.00e-01,
439,-8.00e-04,6.00e-02,
440,-4.00e-04,1.00e-01,
441,2.00e-03,6.00e-02,
442,2.00e-03,6.00e-02,
443,-8.00e-04,1.00e-01,
444,2.00e-03,8.00e-02,
445,-1.20e-03,6.00e-02,
446,-1.60e-03,6.00e-02,
447,3.60e-03,8.00e-02,
448,4.40e-03,6.00e-02,
449,-4.40e-03,8.00e-02,
450,-5.60e-03,6.00e-02,
451,6.40e-03,8.00e-02,
452,-4.80e-03,8.00e-02,
453,5.20e-03,6.00e-02,
454,2.80e-03,6.00e-02,
455,-1.20e-03,8.00e-02,
456,-8.00e-04,8.00e-02,
457,2.00e-03,4.00e-02,
458,1.20e-03,6.00e-02,
459,-8.00e-04,8.00e-02,
460,2.00e-03,8.00e-02,
461,-4.00e-04,4.00e-02,
462,-8.00e-04,8.00e-02,
463,2.00e-03,2.00e-02,
464,2.00e-03,6.00e-02,
465,-8.00e-04,8.00e-02,
466,-1.20e-03,6.00e-02,
467,2.40e-03,8.00e-02,
468,3.60e-03,8.00e-02,
469,-3.20e-03,2.00e-02,
470,2.80e-03,4.00e-02,
471,7.60e-03,1.92e+00,
472,5.20e-03,1.60e-01,
473,-8.00e-04,1.20e-01,
474,4.80e-03,1.40e-01,
475,-8.00e-04,8.00e-02,
476,-1.20e-03,1.00e-01,
477,2.00e-03,8.00e-02,
478,2.40e-03,1.00e-01,
479,-1.20e-03,6.00e-02,
480,-8.00e-04,1.00e-01,
481,1.60e-03,6.00e-02,
482,2.00e-03,6.00e-02,
483,0.00e+00,8.00e-02,
484,2.40e-03,8.00e-02,
485,-1.60e-03,6.00e-02,
486,-1.20e-03,6.00e-02,
487,2.40e-03,8.00e-02,
488,4.00e-03,8.00e-02,
489,-4.00e-03,6.00e-02,
490,5.60e-03,6.00e-02,
491,-4.40e-03,8.00e-02,
492,-4.40e-03,6.00e-02,
493,4.00e-03,8.00e-02,
494,3.20e-03,6.00e-02,
495,-1.60e-03,8.00e-02,
496,-8.00e-04,6.00e-02,
497,1.60e-03,8.00e-02,
498,-8.00e-04,8.00e-02,
499,1.20e-03,2.00e-02,
500,2.00e-03,8.00e-02,
501,-8.00e-04,2.00e-02,
502,2.00e-03,8.00e-02,
503,-8.00e-04,4.00e-02,
504,2.00e-03,8.00e-02,
505,-8.00e-04,2.00e-02,
506,2.40e-03,8.00e-02,
507,-1.60e-03,2.00e-02,
508,3.20e-03,8.00e-02,
509,-4.00e-03,2.00e-02,
510,2.80e-03,2.00e+00,
511,8.00e-03,0.00e+00,
512,5.60e-03,1.60e-01,
513,0.00e+00,1.20e-01,
514,4.80e-03,1.40e-01,
515,-1.20e-03,8.00e-02,
516,-1.60e-03,1.00e-01,
517,2.40e-03,8.00e-02,
518,2.00e-03,1.00e-01,
519,-1.20e-03,6.00e-02,
520,-1.20e-03,6.00e-02,
521,1.60e-03,1.00e-01,
522,1.20e-03,6.00e-02,
523,-8.00e-04,8.00e-02,
524,-8.00e-04,6.00e-02,
525,1.20e-03,8.00e-02,
526,2.40e-03,6.00e-02,
527,-1.60e-03,8.00e-02,
528,3.60e-03,6.00e-02,
529,-3.20e-03,8.00e-02,
530,5.20e-03,6.00e-02,
531,-4.40e-03,8.00e-02,
532,-4.00e-03,8.00e-02,
533,4.00e-03,6.00e-02,
534,2.40e-03,8.00e-02,
535,-1.60e-03,6.00e-02,
536,-8.00e-04,8.00e-02,
537,2.00e-03,4.00e-02,
538,2.00e-03,8.00e-02,
539,0.00e+00,6.00e-02,
540,1.20e-03,6.00e-02,
541,-8.00e-04,8.00e-02,
542,2.00e-03,8.00e-02,
543,0.00e+00,4.00e-02,
544,-8.00e-04,8.00e-02,
545,1.60e-03,4.00e-02,
546,2.00e-03,8.00e-02,
547,-1.60e-03,2.00e-02,
548,3.60e-03,8.00e-02,
549,-4.00e-03,2.00e-02,
550,2.80e-03,2.00e-02,
551,7.60e-03,1.90e+00,
552,5.60e-03,1.60e-01,
553,-4.00e-04,1.20e-01,
554,4.80e-03,1.40e-01,
555,-1.60e-03,8.00e-02,
556,-8.00e-04,8.00e-02,
557,2.40e-03,1.00e-01,
558,-1.20e-03,1.00e-01,
559,2.40e-03,6.00e-02,
560,1.20e-03,1.00e-01,
561,-8.00e-04,6.00e-02,
562,1.20e-03,6.00e-02,
563,0.00e+00,8.00e-02,
564,1.20e-03,6.00e-02,
565,-1.20e-03,8.00e-02,
566,-1.20e-03,6.00e-02,
567,2.80e-03,8.00e-02,
568,2.80e-03,6.00e-02,
569,-3.20e-03,8.00e-02,
570,5.20e-03,8.00e-02,
571,-4.00e-03,6.00e-02,
572,-3.60e-03,6.00e-02,
573,3.60e-03,8.00e-02,
574,2.40e-03,8.00e-02,
575,-1.60e-03,6.00e-02,
576,-1.20e-03,8.00e-02,
577,1.20e-03,6.00e-02,
578,1.20e-03,6.00e-02,
579,-4.00e-04,8.00e-02,
580,-8.00e-04,6.00e-02,
581,1.20e-03,8.00e-02,
582,1.20e-03,8.00e-02,
583,-1.20e-03,6.00e-02,
584,-8.00e-04,6.00e-02,
585,1.20e-03,8.00e-02,
586,-1.60e-03,8.00e-02,
587,2.40e-03,4.00e-02,
588,3.60e-03,8.00e-02,
589,-4.00e-03,2.00e-02,
590,2.40e-03,2.00e-02,
591,7.60e-03,1.96e+00,
592,5.60e-03,1.60e-01,
593,-4.00e-04,1.20e-01,
594,4.80e-03,1.40e-01,
595,-2.00e-03,8.00e-02,
596,-1.60e-03,1.00e-01,
597,2.40e-03,8.00e-02,
598,-1.20e-03,1.00e-01,
599,2.00e-03,6.00e-02,
600,-8.00e-04,1.00e-01,
601,2.00e-03,6.00e-02,
602,1.60e-03,8.00e-02,
603,-8.00e-04,6.00e-02,
604,-8.00e-04,6.00e-02,
605,1.20e-03,8.00e-02,
606,2.40e-03,6.00e-02,
607,-1.20e-03,8.00e-02,
608,2.80e-03,6.00e-02,
609,-3.60e-03,8.00e-02,
610,-4.00e-03,6.00e-02,
611,4.80e-03,8.00e-02,
612,-2.80e-03,8.00e-02,
613,3.60e-03,6.00e-02,
614,2.40e-03,6.00e-02,
615,-1.60e-03,8.00e-02,
616,-1.20e-03,6.00e-02,
617,1.60e-03,8.00e-02,
618,1.20e-03,6.00e-02,
619,0.00e+00,8.00e-02,
620,1.20e-03,6.00e-02,
621,-8.00e-04,8.00e-02,
622,2.00e-03,8.00e-02,
623,-8.00e-04,2.00e-02,
624,2.00e-03,6.00e-02,
625,-1.20e-03,8.00e-02,
626,-1.60e-03,8.00e-02,
627,2.40e-03,2.00e-02,
628,4.00e-03,2.00e-02,
629,-4.00e-03,8.00e-02,
630,1.20e-03,2.00e-02,
631,7.60e-03,1.96e+00,
632,5.60e-03,1.60e-01,
633,0.00e+00,1.20e-01,
634,5.20e-03,8.00e-02,
635,-1.60e-03,1.40e-01,
636,-1.60e-03,8.00e-02,
637,2.40e-03,1.00e-01,
638,2.00e-03,1.00e-01,
639,-1.20e-03,8.00e-02,
640,-8.00e-04,6.00e-02,
641,1.20e-03,1.00e-01,
642,0.00e+00,6.00e-02,
643,1.20e-03,8.00e-02,
644,-8.00e-04,6.00e-02,
645,1.20e-03,8.00e-02,
646,-1.20e-03,6.00e-02,
647,2.40e-03,8.00e-02,
648,2.40e-03,6.00e-02,
649,-2.40e-03,8.00e-02,
650,4.00e-03,6.00e-02,
651,-2.80e-03,8.00e-02,
652,-3.20e-03,6.00e-02,
653,3.60e-03,8.00e-02,
654,2.00e-03,6.00e-02,
655,-1.20e-03,8.00e-02,
656,1.20e-03,8.00e-02,
657,-8.00e-04,6.00e-02,
658,-8.00e-04,6.00e-02,
659,1.20e-03,8.00e-02,
660,-8.00e-04,6.00e-02,
661,8.00e-04,8.00e-02,
662,-8.00e-04,8.00e-02,
663,2.00e-03,6.00e-02,
664,-1.20e-03,4.00e-02,
665,1.60e-03,8.00e-02,
666,-1.60e-03,8.00e-02,
667,2.80e-03,4.00e-02,
668,4.00e-03,8.00e-02,
669,-4.00e-03,4.00e-02,
670,2.00e-03,4.00e-02,
671,7.20e-03,1.90e+00,
672,5.60e-03,1.80e-01,
673,0.00e+00,1.20e-01,
674,5.20e-03,1.40e-01,
675,-1.60e-03,8.00e-02,
676,-1.60e-03,8.00e-02,
677,2.00e-03,1.00e-01,
678,2.00e-03,1.00e-01,
679,-1.20e-03,6.00e-02,
680,-8.00e-04,1.00e-01,
681,1.20e-03,6.00e-02,
682,0.00e+00,8.00e-02,
683,2.00e-03,6.00e-02,
684,1.20e-03,6.00e-02,
685,-8.00e-04,8.00e-02,
686,2.40e-03,6.00e-02,
687,-1.20e-03,8.00e-02,
688,2.40e-03,6.00e-02,
689,-2.80e-03,8.00e-02,
690,-3.20e-03,6.00e-02,
691,4.00e-03,8.00e-02,
692,-2.80e-03,6.00e-02,
693,2.80e-03,8.00e-02,
694,2.00e-03,6.00e-02,
695,-1.20e-03,8.00e-02,
696,-8.00e-04,6.00e-02,
697,1.20e-03,8.00e-02,
698,0.00e+00,6.00e-02,
699,1.20e-03,8.00e-02,
700,-8.00e-04,6.00e-02,
701,1.20e-03,8.00e-02,
702,-1.20e-03,8.00e-02,
703,2.40e-03,4.00e-02,
704,-8.00e-04,8.00e-02,
705,2.40e-03,2.00e-02,
706,-1.20e-03,8.00e-02,
707,3.20e-03,2.00e-02,
708,4.00e-03,2.00e-02,
709,-4.40e-03,8.00e-02,
710,1.20e-03,4.00e-02,
711,7.20e-03,1.98e+00,
712,5.60e-03,1.80e-01,
713,0.00e+00,1.20e-01,
714,4.80e-03,1.20e-01,
715,-2.80e-03,8.00e-02,
716,-1.60e-03,1.00e-01,
717,2.00e-03,8.00e-02,
718,2.40e-03,1.00e-01,
719,-8.00e-04,6.00e-02,
720,-8.00e-04,1.00e-01,
721,2.00e-03,6.00e-02,
722,0.00e+00,8.00e-02,
723,1.20e-03,6.00e-02,
724,0.00e+00,6.00e-02,
725,1.20e-03,8.00e-02,
726,2.00e-03,6.00e-02,
727,-8.00e-04,8.00e-02,
728,2.40e-03,6.00e-02,
729,-2.40e-03,8.00e-02,
730,3.20e-03,8.00e-02,
731,-2.80e-03,6.00e-02,
732,-2.40e-03,6.00e-02,
733,2.40e-03,8.00e-02,
734,2.00e-03,8.00e-02,
735,-1.20e-03,6.00e-02,
736,-1.20e-03,8.00e-02,
737,1.20e-03,4.00e-02,
738,1.20e-03,8.00e-02,
739,-8.00e-04,4.00e-02,
740,-8.00e-04,6.00e-02,
741,1.20e-03,8.00e-02,
742,-8.00e-04,8.00e-02,
743,2.00e-03,4.00e-02,
744,-1.20e-03,8.00e-02,
745,2.00e-03,2.00e-02,
746,-1.60e-03,8.00e-02,
747,2.80e-03,2.00e-02,
748,4.00e-03,8.00e-02,
749,-4.40e-03,2.00e-02,
750,1.60e-03,4.00e-02,
751,7.20e-03,1.98e+00,
752,5.60e-03,1.60e-01,
753,-4.00e-04,1.20e-01,
754,5.20e-03,1.40e-01,
755,-1.60e-03,8.00e-02,
756,-1.20e-03,1.00e-01,
757,2.80e-03,8.00e-02,
758,2.40e-03,1.00e-01,
759,-1.20e-03,6.00e-02,
760,-8.00e-04,1.00e-01,
761,2.40e-03,6.00e-02,
762,0.00e+00,8.00e-02,
763,1.20e-03,6.00e-02,
764,1.20e-03,6.00e-02,
765,-8.00e-04,8.00e-02,
766,-8.00e-04,6.00e-02,
767,2.00e-03,8.00e-02,
768,2.40e-03,6.00e-02,
769,-1.60e-03,8.00e-02,
770,2.80e-03,8.00e-02,
771,-2.80e-03,6.00e-02,
772,-2.40e-03,8.00e-02,
773,2.40e-03,6.00e-02,
774,2.00e-03,6.00e-02,
775,-8.00e-04,8.00e-02,
776,-1.20e-03,6.00e-02,
777,1.20e-03,8.00e-02,
778,1.20e-03,6.00e-02,
779,0.00e+00,8.00e-02,
780,1.20e-03,6.00e-02,
781,-8.00e-04,8.00e-02,
782,2.00e-03,8.00e-02,
783,-8.00e-04,6.00e-02,
784,1.20e-03,8.00e-02,
785,-1.20e-03,4.00e-02,
786,-1.60e-03,8.00e-02,
787,2.80e-03,2.00e-02,
788,4.00e-03,8.00e-02,
789,-4.40e-03,2.00e-02,
790,1.60e-03,-1.00e-01,
791,8.00e-03,1.88e+00,
792,5.60e-03,1.80e-01,
793,0.00e+00,1.20e-01,
794,5.60e-03,1.40e-01,
795,-1.20e-03,8.00e-02,
796,-1.20e-03,1.00e-01,
797,2.40e-03,8.00e-02,
798,2.40e-03,1.00e-01,
799,-1.20e-03,8.00e-02,
800,-8.00e-04,1.00e-01,
801,2.00e-03,6.00e-02,
802,1.20e-03,6.00e-02,
803,-8.00e-04,1.00e-01,
804,-8.00e-04,6.00e-02,
805,1.20e-03,8.00e-02,
806,2.00e-03,8.00e-02,
807,-8.00e-04,6.00e-02,
808,2.40e-03,8.00e-02,
809,-1.60e-03,6.00e-02,
810,2.80e-03,6.00e-02,
811,-2.40e-03,8.00e-02,
812,-1.60e-03,6.00e-02,
813,2.80e-03,8.00e-02,
814,2.00e-03,6.00e-02,
815,-1.20e-03,8.00e-02,
816,0.00e+00,6.00e-02,
817,1.60e-03,8.00e-02,
818,1.20e-03,8.00e-02,
819,-4.00e-04,6.00e-02,
820,1.20e-03,8.00e-02,
821,-8.00e-04,4.00e-02,
822,-8.00e-04,6.00e-02,
823,2.00e-03,8.00e-02,
824,1.60e-03,8.00e-02,
825,-1.60e-03,2.00e-02,
826,-1.60e-03,8.00e-02,
827,3.60e-03,2.00e-02,
828,4.00e-03,2.00e-02,
829,-4.40e-03,8.00e-02,
830,1.20e-03,4.00e-02,
831,7.20e-03,1.90e+00,
832,5.60e-03,1.60e-01,
833,-8.00e-04,1.20e-01,
834,5.20e-03,1.40e-01,
835,-2.40e-03,8.00e-02,
836,-1.60e-03,8.00e-02,
837,2.00e-03,1.00e-01,
838,-1.20e-03,1.00e-01,
839,2.40e-03,6.00e-02,
840,-8.00e-04,6.00e-02,
841,2.00e-03,1.00e-01,
842,2.00e-03,8.00e-02,
843,0.00e+00,6.00e-02,
844,-4.00e-04,6.00e-02,
845,2.00e-03,8.00e-02,
846,-8.00e-04,8.00e-02,
847,2.00e-03,6.00e-02,
848,2.40e-03,6.00e-02,
849,-1.20e-03,8.00e-02,
850,2.40e-03,6.00e-02,
851,-2.00e-03,8.00e-02,
852,-1.60e-03,6.00e-02,
853,2.40e-03,8.00e-02,
854,1.20e-03,8.00e-02,
