CarrPurc_P1-19_P2-38_tauVary/Gly98/NewFile1.csv

X,CH1,CH2,Start,Increment,
Sequence,Volt,Volt,-6.000000e-04,1.000000e-04
0,4.00e-04,4.00e-02,
1,1.20e-03,2.00e-02,
2,1.20e-03,4.00e-02,
3,-4.00e-04,2.00e-02,
4,1.20e-03,4.00e-02,
5,-4.00e-04,2.00e-02,
6,-8.00e-04,2.00e-02,
7,8.00e-04,4.00e-02,
8,0.00e+00,4.00e-02,
9,8.00e-04,2.00e-02,
10,4.00e-04,2.00e-02,
11,5.20e-03,1.60e+00,
12,4.00e-03,1.60e-01,
13,-2.64e-02,1.00e-01,
14,-1.48e-02,1.20e-01,
15,1.40e-02,8.00e-02,
16,7.20e-03,8.00e-02,
17,-7.60e-03,1.00e-01,
18,-2.00e-03,1.00e-01,
19,4.40e-03,6.00e-02,
20,2.80e-03,8.00e-02,
21,-2.40e-03,6.00e-02,
22,2.40e-03,6.00e-02,
23,-1.60e-03,8.00e-02,
24,-1.20e-03,8.00e-02,
25,2.00e-03,6.00e-02,
26,2.00e-03,6.00e-02,
27,-1.20e-03,8.00e-02,
28,-8.00e-04,6.00e-02,
29,2.40e-03,8.00e-02,
30,1.60e-03,6.00e-02,
31,7.60e-03,1.96e+00,
32,4.40e-03,1.60e-01,
33,-7.20e-03,1.20e-01,
34,-8.00e-03,1.20e-01,
35,5.60e-03,8.00e-02,
36,2.80e-03,1.00e-01,
37,-1.20e-03,8.00e-02,
38,0.00e+00,1.00e-01,
39,2.00e-03,6.00e-02,
40,-8.00e-04,1.00e-01,
41,2.00e-03,6.00e-02,
42,2.00e-03,6.00e-02,
43,-4.00e-04,8.00e-02,
44,-2.80e-03,6.00e-02,
45,5.20e-03,8.00e-02,
46,7.20e-03,6.00e-02,
47,-8.40e-03,8.00e-02,
48,-1.28e-02,8.00e-02,
49,1.56e-02,6.00e-02,
50,-1.60e-02,6.00e-02,
51,1.88e-02,8.00e-02,
52,-1.60e-02,6.00e-02,
53,1.52e-02,8.00e-02,
54,9.60e-03,6.00e-02,
55,-7.20e-03,8.00e-02,
56,-4.40e-03,6.00e-02,
57,4.00e-03,8.00e-02,
58,2.80e-03,6.00e-02,
59,-8.00e-04,8.00e-02,
60,-4.00e-04,8.00e-02,
61,2.00e-03,4.00e-02,
62,-8.00e-04,6.00e-02,
63,1.60e-03,8.00e-02,
64,2.00e-03,8.00e-02,
65,-8.00e-04,2.00e-02,
66,-8.00e-04,8.00e-02,
67,1.20e-03,4.00e-02,
68,0.00e+00,8.00e-02,
69,1.20e-03,4.00e-02,
70,4.00e-04,6.00e-02,
71,6.80e-03,1.82e+00,
72,4.00e-03,1.60e-01,
73,-8.00e-04,1.20e-01,
74,2.40e-03,1.40e-01,
75,-8.00e-04,8.00e-02,
76,-8.00e-04,1.00e-01,
77,2.00e-03,8.00e-02,
78,2.00e-03,1.00e-01,
79,-8.00e-04,6.00e-02,
80,-8.00e-04,6.00e-02,
81,1.20e-03,1.00e-01,
82,2.00e-03,8.00e-02,
83,-1.20e-03,6.00e-02,
84,-2.00e-03,8.00e-02,
85,4.40e-03,6.00e-02,
86,-4.00e-03,6.00e-02,
87,6.80e-03,8.00e-02,
88,1.00e-02,8.00e-02,
89,-1.08e-02,6.00e-02,
90,1.44e-02,6.00e-02,
91,-1.28e-02,8.00e-02,
92,-1.04e-02,6.00e-02,
93,9.60e-03,8.00e-02,
94,6.80e-03,6.00e-02,
95,-3.20e-03,8.00e-02,
96,-2.80e-03,6.00e-02,
97,3.60e-03,8.00e-02,
98,2.40e-03,6.00e-02,
99,-1.20e-03,8.00e-02,
100,-8.00e-04,8.00e-02,
101,2.00e-03,6.00e-02,
102,1.20e-03,6.00e-02,
103,-8.00e-04,8.00e-02,
104,-8.00e-04,8.00e-02,
105,2.00e-03,2.00e-02,
106,-1.60e-03,2.00e-02,
107,1.60e-03,8.00e-02,
108,-2.40e-03,2.00e-02,
109,4.00e-03,8.00e-02,
110,2.80e-03,2.00e-02,
111,7.20e-03,1.84e+00,
112,4.80e-03,1.60e-01,
113,0.00e+00,1.20e-01,
114,0.00e+00,8.00e-02,
115,2.40e-03,1.40e-01,
116,1.20e-03,1.00e-01,
117,-8.00e-04,8.00e-02,
118,0.00e+00,1.00e-01,
119,2.00e-03,6.00e-02,
120,-8.00e-04,6.00e-02,
121,2.00e-03,1.00e-01,
122,-8.00e-04,6.00e-02,
123,2.40e-03,8.00e-02,
124,2.80e-03,6.00e-02,
125,-2.40e-03,8.00e-02,
126,-4.00e-03,8.00e-02,
127,5.20e-03,6.00e-02,
128,8.40e-03,6.00e-02,
129,-8.80e-03,8.00e-02,
130,1.20e-02,6.00e-02,
131,-1.12e-02,8.00e-02,
132,-9.60e-03,6.00e-02,
133,8.00e-03,8.00e-02,
134,6.80e-03,6.00e-02,
135,-4.00e-03,8.00e-02,
136,-2.40e-03,8.00e-02,
137,2.80e-03,4.00e-02,
138,2.40e-03,8.00e-02,
139,0.00e+00,4.00e-02,
140,-8.00e-04,8.00e-02,
141,2.40e-03,2.00e-02,
142,2.00e-03,8.00e-02,
143,-8.00e-04,4.00e-02,
144,1.20e-03,8.00e-02,
145,-8.00e-04,2.00e-02,
146,-4.00e-04,8.00e-02,
147,2.40e-03,2.00e-02,
148,-1.60e-03,8.00e-02,
149,3.60e-03,2.00e-02,
150,2.80e-03,2.00e-02,
151,7.20e-03,1.98e+00,
152,4.80e-03,1.60e-01,
153,-8.00e-04,1.20e-01,
154,2.40e-03,8.00e-02,
155,-1.20e-03,1.40e-01,
156,1.20e-03,8.00e-02,
157,-8.00e-04,1.00e-01,
158,-8.00e-04,1.00e-01,
159,2.40e-03,6.00e-02,
160,-8.00e-04,6.00e-02,
161,2.40e-03,1.00e-01,
162,-8.00e-04,6.00e-02,
163,2.00e-03,8.00e-02,
164,2.40e-03,6.00e-02,
165,-1.20e-03,8.00e-02,
166,-2.40e-03,6.00e-02,
167,4.80e-03,8.00e-02,
168,5.60e-03,6.00e-02,
169,-5.60e-03,8.00e-02,
170,-8.80e-03,8.00e-02,
171,9.60e-03,6.00e-02,
172,-8.40e-03,6.00e-02,
173,7.20e-03,8.00e-02,
174,5.20e-03,6.00e-02,
175,-3.20e-03,8.00e-02,
176,-2.40e-03,8.00e-02,
177,2.80e-03,6.00e-02,
178,2.40e-03,8.00e-02,
179,0.00e+00,6.00e-02,
180,0.00e+00,8.00e-02,
181,1.20e-03,6.00e-02,
182,1.20e-03,8.00e-02,
183,-4.00e-04,2.00e-02,
184,1.20e-03,8.00e-02,
185,-4.00e-04,4.00e-02,
186,-8.00e-04,8.00e-02,
187,1.60e-03,4.00e-02,
188,2.40e-03,8.00e-02,
189,-1.60e-03,2.00e-02,
190,2.00e-03,2.00e-02,
191,7.20e-03,1.86e+00,
192,4.00e-03,1.60e-01,
193,-8.00e-04,1.20e-01,
194,0.00e+00,8.00e-02,
195,2.80e-03,1.40e-01,
196,2.00e-03,1.00e-01,
197,0.00e+00,8.00e-02,
198,2.00e-03,1.00e-01,
199,-8.00e-04,6.00e-02,
200,1.20e-03,6.00e-02,
201,-8.00e-04,1.00e-01,
202,1.20e-03,6.00e-02,
203,-4.00e-04,8.00e-02,
204,2.40e-03,6.00e-02,
205,-1.60e-03,8.00e-02,
206,-2.40e-03,6.00e-02,
207,4.00e-03,8.00e-02,
208,6.40e-03,8.00e-02,
209,-5.60e-03,6.00e-02,
210,8.00e-03,6.00e-02,
211,-7.20e-03,8.00e-02,
212,-6.00e-03,6.00e-02,
213,5.60e-03,8.00e-02,
214,3.60e-03,6.00e-02,
215,-2.40e-03,8.00e-02,
216,-1.20e-03,6.00e-02,
217,2.00e-03,8.00e-02,
218,1.20e-03,8.00e-02,
219,-8.00e-04,6.00e-02,
220,1.60e-03,8.00e-02,
221,-8.00e-04,4.00e-02,
222,1.20e-03,8.00e-02,
223,-8.00e-04,4.00e-02,
224,-1.20e-03,8.00e-02,
225,8.00e-04,4.00e-02,
226,2.00e-03,8.00e-02,
227,-1.20e-03,2.00e-02,
228,-1.60e-03,8.00e-02,
229,2.80e-03,4.00e-02,
230,2.40e-03,-3.00e-01,
231,7.20e-03,1.98e+00,
232,4.00e-03,1.60e-01,
233,-8.00e-04,1.20e-01,
234,3.20e-03,1.40e-01,
235,-8.00e-04,8.00e-02,
236,-8.00e-04,1.00e-01,
237,2.00e-03,8.00e-02,
238,2.00e-03,1.00e-01,
239,-8.00e-04,6.00e-02,
240,-4.00e-04,1.00e-01,
241,1.60e-03,6.00e-02,
242,1.20e-03,6.00e-02,
243,-8.00e-04,8.00e-02,
244,-8.00e-04,6.00e-02,
245,2.00e-03,8.00e-02,
246,-2.40e-03,6.00e-02,
247,3.60e-03,8.00e-02,
248,5.20e-03,8.00e-02,
249,-4.40e-03,6.00e-02,
250,7.60e-03,8.00e-02,
251,-6.00e-03,6.00e-02,
252,-5.60e-03,6.00e-02,
253,4.80e-03,8.00e-02,
254,4.40e-03,8.00e-02,
255,-1.60e-03,6.00e-02,
256,2.40e-03,8.00e-02,
257,-8.00e-04,6.00e-02,
258,2.00e-03,6.00e-02,
259,-8.00e-04,8.00e-02,
260,-1.20e-03,8.00e-02,
261,1.20e-03,2.00e-02,
262,-1.20e-03,8.00e-02,
263,1.20e-03,4.00e-02,
264,1.20e-03,8.00e-02,
265,-8.00e-04,4.00e-02,
266,2.40e-03,8.00e-02,
267,-4.00e-04,2.00e-02,
268,-1.60e-03,8.00e-02,
269,2.80e-03,2.00e-02,
270,2.80e-03,2.00e-02,
271,7.20e-03,1.96e+00,
272,4.80e-03,1.60e-01,
273,0.00e+00,1.20e-01,
274,4.00e-03,1.40e-01,
275,-1.20e-03,8.00e-02,
276,2.80e-03,8.00e-02,
277,-8.00e-04,1.00e-01,
278,-8.00e-04,1.00e-01,
279,2.40e-03,6.00e-02,
280,-1.20e-03,1.00e-01,
281,2.00e-03,6.00e-02,
282,1.60e-03,6.00e-02,
283,0.00e+00,8.00e-02,
284,1.20e-03,6.00e-02,
285,-1.20e-03,8.00e-02,
286,-1.20e-03,6.00e-02,
287,2.80e-03,8.00e-02,
288,4.00e-03,6.00e-02,
289,-4.00e-03,8.00e-02,
290,-5.60e-03,6.00e-02,
291,6.00e-03,8.00e-02,
292,-4.40e-03,8.00e-02,
293,4.40e-03,6.00e-02,
294,3.20e-03,6.00e-02,
295,-1.60e-03,8.00e-02,
296,-8.00e-04,8.00e-02,
297,2.00e-03,6.00e-02,
298,1.20e-03,8.00e-02,
299,-8.00e-04,6.00e-02,
300,1.20e-03,8.00e-02,
301,-8.00e-04,6.00e-02,
302,1.20e-03,8.00e-02,
303,-8.00e-04,4.00e-02,
304,0.00e+00,8.00e-02,
305,2.00e-03,4.00e-02,
306,2.40e-03,8.00e-02,
307,-8.00e-04,2.00e-02,
308,2.80e-03,8.00e-02,
309,-1.60e-03,2.00e-02,
310,2.80e-03,4.00e-02,
311,7.20e-03,1.72e+00,
312,4.40e-03,1.60e-01,
313,-8.00e-04,1.20e-01,
314,4.00e-03,1.20e-01,
315,-1.20e-03,8.00e-02,
316,2.40e-03,1.00e-01,
317,-1.20e-03,8.00e-02,
318,2.40e-03,1.00e-01,
319,-8.00e-04,6.00e-02,
320,1.20e-03,6.00e-02,
321,-8.00e-04,1.00e-01,
322,0.00e+00,6.00e-02,
323,1.60e-03,8.00e-02,
324,2.40e-03,8.00e-02,
325,-1.20e-03,6.00e-02,
326,-1.20e-03,6.00e-02,
327,3.60e-03,8.00e-02,
328,4.00e-03,6.00e-02,
329,-4.00e-03,8.00e-02,
330,5.60e-03,6.00e-02,
331,-4.80e-03,8.00e-02,
332,-4.00e-03,8.00e-02,
333,3.60e-03,6.00e-02,
334,2.40e-03,6.00e-02,
335,-2.40e-03,8.00e-02,
336,-1.20e-03,6.00e-02,
337,2.00e-03,8.00e-02,
338,0.00e+00,8.00e-02,
339,1.20e-03,4.00e-02,
340,1.20e-03,8.00e-02,
341,-8.00e-04,2.00e-02,
342,1.60e-03,8.00e-02,
343,0.00e+00,2.00e-02,
344,-8.00e-04,8.00e-02,
345,2.00e-03,2.00e-02,
346,2.00e-03,8.00e-02,
347,-8.00e-04,2.00e-02,
348,2.40e-03,2.00e-02,
349,-2.80e-03,8.00e-02,
350,2.00e-03,2.00e-02,
351,7.20e-03,1.84e+00,
352,4.00e-03,1.60e-01,
353,-1.20e-03,1.20e-01,
354,4.00e-03,1.40e-01,
355,-1.20e-03,8.00e-02,
356,-8.00e-04,8.00e-02,
357,2.40e-03,1.00e-01,
358,2.40e-03,1.00e-01,
359,-8.00e-04,6.00e-02,
360,-8.00e-04,6.00e-02,
361,1.20e-03,1.00e-01,
362,1.20e-03,6.00e-02,
363,0.00e+00,8.00e-02,
364,-4.00e-04,8.00e-02,
365,2.00e-03,6.00e-02,
366,2.40e-03,6.00e-02,
367,-1.60e-03,8.00e-02,
368,3.60e-03,6.00e-02,
369,-2.80e-03,8.00e-02,
370,5.20e-03,6.00e-02,
371,-4.00e-03,8.00e-02,
372,-2.80e-03,6.00e-02,
373,3.60e-03,8.00e-02,
374,2.40e-03,6.00e-02,
375,-1.20e-03,8.00e-02,
376,-4.00e-04,6.00e-02,
377,2.40e-03,8.00e-02,
378,1.20e-03,8.00e-02,
379,0.00e+00,2.00e-02,
380,1.20e-03,8.00e-02,
381,-4.00e-04,2.00e-02,
382,0.00e+00,2.00e-02,
383,2.00e-03,8.00e-02,
384,2.00e-03,8.00e-02,
385,-8.00e-04,2.00e-02,
386,2.00e-03,2.00e-02,
387,-4.00e-04,8.00e-02,
388,2.80e-03,2.00e-02,
389,-2.80e-03,8.00e-02,
390,1.60e-03,2.00e-02,
391,7.20e-03,1.96e+00,
392,4.00e-03,1.60e-01,
393,-8.00e-04,1.20e-01,
394,4.00e-03,8.00e-02,
395,-1.20e-03,1.40e-01,
396,-1.20e-03,1.00e-01,
397,2.40e-03,8.00e-02,
398,2.40e-03,1.00e-01,
399,-8.00e-04,6.00e-02,
400,2.00e-03,1.00e-01,
401,-8.00e-04,6.00e-02,
402,-8.00e-04,8.00e-02,
403,1.20e-03,6.00e-02,
404,2.00e-03,6.00e-02,
405,-8.00e-04,8.00e-02,
406,-8.00e-04,6.00e-02,
407,2.40e-03,8.00e-02,
408,2.40e-03,6.00e-02,
409,-2.40e-03,8.00e-02,
410,-4.00e-03,6.00e-02,
411,4.80e-03,8.00e-02,
412,-2.80e-03,8.00e-02,
413,3.60e-03,6.00e-02,
414,2.80e-03,6.00e-02,
415,-8.00e-04,8.00e-02,
416,1.20e-03,6.00e-02,
417,-1.20e-03,8.00e-02,
418,8.00e-04,8.00e-02,
419,-4.00e-04,4.00e-02,
420,1.20e-03,8.00e-02,
421,-1.20e-03,2.00e-02,
422,-8.00e-04,8.00e-02,
423,2.00e-03,4.00e-02,
424,2.40e-03,8.00e-02,
425,-8.00e-04,2.00e-02,
426,2.40e-03,8.00e-02,
427,-8.00e-04,2.00e-02,
428,3.60e-03,8.00e-02,
429,-2.80e-03,2.00e-02,
430,2.80e-03,2.00e-02,
431,7.60e-03,1.96e+00,
432,4.80e-03,1.60e-01,
433,-8.00e-04,1.20e-01,
434,5.20e-03,1.20e-01,
435,-1.20e-03,8.00e-02,
436,-1.60e-03,1.00e-01,
437,2.40e-03,8.00e-02,
438,2.40e-03,1.00e-01,
439,-8.00e-04,6.00e-02,
440,-8.00e-04,6.00e-02,
441,2.00e-03,1.00e-01,
442,2.40e-03,6.00e-02,
443,4.00e-04,8.00e-02,
444,-8.00e-04,8.00e-02,
445,2.00e-03,6.00e-02,
446,2.40e-03,6.00e-02,
447,-1.20e-03,8.00e-02,
448,2.40e-03,6.00e-02,
449,-2.80e-03,8.00e-02,
450,-2.80e-03,6.00e-02,
451,4.00e-03,8.00e-02,
452,-1.60e-03,8.00e-02,
453,2.80e-03,6.00e-02,
454,-1.20e-03,6.00e-02,
455,1.60e-03,8.00e-02,
456,-8.00e-04,8.00e-02,
457,1.20e-03,6.00e-02,
458,1.20e-03,8.00e-02,
459,0.00e+00,2.00e-02,
460,2.00e-03,8.00e-02,
461,-4.00e-04,4.00e-02,
462,0.00e+00,8.00e-02,
463,2.00e-03,4.00e-02,
464,1.20e-03,2.00e-02,
465,-8.00e-04,8.00e-02,
466,2.40e-03,8.00e-02,
467,-1.20e-03,4.00e-02,
468,3.60e-03,8.00e-02,
469,-2.80e-03,2.00e-02,
470,2.40e-03,4.00e-02,
471,7.20e-03,1.76e+00,
472,4.40e-03,1.60e-01,
473,-1.20e-03,1.20e-01,
474,4.00e-03,1.40e-01,
475,-1.20e-03,8.00e-02,
476,-1.20e-03,1.00e-01,
477,2.40e-03,8.00e-02,
478,2.00e-03,1.00e-01,
479,-8.00e-04,8.00e-02,
480,0.00e+00,1.00e-01,
481,2.00e-03,6.00e-02,
482,2.00e-03,6.00e-02,
483,0.00e+00,1.00e-01,
484,-4.00e-04,8.00e-02,
485,1.20e-03,6.00e-02,
486,-4.00e-04,6.00e-02,
487,2.40e-03,8.00e-02,
488,2.80e-03,8.00e-02,
489,-1.20e-03,6.00e-02,
490,3.60e-03,6.00e-02,
491,-2.40e-03,8.00e-02,
492,-2.00e-03,6.00e-02,
493,2.80e-03,8.00e-02,
494,2.00e-03,6.00e-02,
495,-8.00e-04,8.00e-02,
496,-1.20e-03,6.00e-02,
497,1.20e-03,8.00e-02,
498,0.00e+00,8.00e-02,
499,1.20e-03,4.00e-02,
500,-8.00e-04,8.00e-02,
501,1.20e-03,4.00e-02,
502,0.00e+00,8.00e-02,
503,2.40e-03,2.00e-02,
504,-8.00e-04,8.00e-02,
505,2.00e-03,2.00e-02,
506,2.40e-03,2.00e-02,
507,-1.20e-03,8.00e-02,
508,3.60e-03,2.00e-02,
509,-3.20e-03,8.00e-02,
510,1.60e-03,2.00e+00,
511,7.20e-03,-2.00e-02,
512,4.40e-03,1.60e-01,
513,-1.20e-03,1.00e-01,
514,4.80e-03,1.40e-01,
515,-1.60e-03,8.00e-02,
516,-1.20e-03,1.00e-01,
517,2.40e-03,8.00e-02,
518,2.40e-03,1.00e-01,
519,-8.00e-04,6.00e-02,
520,-8.00e-04,6.00e-02,
521,1.60e-03,1.00e-01,
522,0.00e+00,6.00e-02,
523,1.20e-03,8.00e-02,
524,0.00e+00,6.00e-02,
525,1.20e-03,8.00e-02,
526,-8.00e-04,6.00e-02,
527,2.00e-03,8.00e-02,
528,2.00e-03,6.00e-02,
529,-1.20e-03,8.00e-02,
530,-2.40e-03,6.00e-02,
531,3.20e-03,8.00e-02,
532,-1.60e-03,8.00e-02,
533,2.00e-03,6.00e-02,
534,-8.00e-04,8.00e-02,
535,2.00e-03,6.00e-02,
536,0.00e+00,6.00e-02,
537,1.60e-03,8.00e-02,
538,1.20e-03,8.00e-02,
539,0.00e+00,2.00e-02,
540,1.20e-03,6.00e-02,
541,-8.00e-04,8.00e-02,
542,1.20e-03,8.00e-02,
543,-8.00e-04,2.00e-02,
544,2.00e-03,8.00e-02,
545,-1.20e-03,2.00e-02,
546,-1.20e-03,8.00e-02,
547,2.40e-03,2.00e-02,
548,3.60e-03,8.00e-02,
549,-4.00e-03,2.00e-02,
550,1.20e-03,2.00e+00,
551,7.60e-03,0.00e+00,
552,4.00e-03,1.60e-01,
553,-1.20e-03,1.20e-01,
554,4.80e-03,1.40e-01,
555,-1.60e-03,8.00e-02,
556,-1.60e-03,8.00e-02,
557,2.40e-03,1.00e-01,
558,2.00e-03,1.00e-01,
559,-1.20e-03,6.00e-02,
560,1.60e-03,1.00e-01,
561,-1.20e-03,6.00e-02,
562,0.00e+00,6.00e-02,
563,1.20e-03,8.00e-02,
564,0.00e+00,6.00e-02,
565,1.20e-03,8.00e-02,
566,-1.20e-03,6.00e-02,
567,2.00e-03,8.00e-02,
568,2.40e-03,6.00e-02,
569,-1.20e-03,8.00e-02,
570,-1.60e-03,8.00e-02,
571,2.80e-03,6.00e-02,
572,-1.60e-03,6.00e-02,
573,2.00e-03,8.00e-02,
574,2.00e-03,8.00e-02,
575,-8.00e-04,6.00e-02,
576,1.20e-03,8.00e-02,
577,-8.00e-04,6.00e-02,
578,0.00e+00,6.00e-02,
579,2.00e-03,8.00e-02,
580,1.20e-03,8.00e-02,
581,-8.00e-04,2.00e-02,
582,-8.00e-04,8.00e-02,
583,2.00e-03,2.00e-02,
584,-8.00e-04,8.00e-02,
585,2.00e-03,2.00e-02,
586,2.80e-03,8.00e-02,
587,-8.00e-04,2.00e-02,
588,4.00e-03,8.00e-02,
589,-3.60e-03,2.00e-02,
590,2.40e-03,2.00e-02,
591,7.60e-03,1.74e+00,
592,4.80e-03,1.60e-01,
593,-1.60e-03,1.20e-01,
594,5.20e-03,1.40e-01,
595,-1.20e-03,8.00e-02,
596,-1.20e-03,1.00e-01,
597,2.80e-03,8.00e-02,
598,2.40e-03,1.00e-01,
599,-8.00e-04,6.00e-02,
600,-1.20e-03,1.00e-01,
601,2.00e-03,6.00e-02,
602,1.20e-03,8.00e-02,
603,0.00e+00,6.00e-02,
604,2.40e-03,6.00e-02,
605,0.00e+00,8.00e-02,
606,1.20e-03,6.00e-02,
607,-8.00e-04,8.00e-02,
608,2.40e-03,6.00e-02,
609,-1.20e-03,8.00e-02,
610,2.40e-03,6.00e-02,
611,-1.20e-03,8.00e-02,
612,-8.00e-04,8.00e-02,
613,2.40e-03,6.00e-02,
614,-8.00e-04,6.00e-02,
615,1.60e-03,8.00e-02,
616,0.00e+00,6.00e-02,
617,1.20e-03,8.00e-02,
618,1.20e-03,8.00e-02,
619,0.00e+00,4.00e-02,
620,1.20e-03,8.00e-02,
621,-4.00e-04,4.00e-02,
622,0.00e+00,8.00e-02,
623,2.00e-03,4.00e-02,
624,2.00e-03,8.00e-02,
625,-8.00e-04,2.00e-02,
626,-1.20e-03,2.00e-02,
627,2.40e-03,8.00e-02,
628,4.00e-03,8.00e-02,
629,-4.00e-03,2.00e-02,
630,1.60e-03,1.96e+00,
631,7.20e-03,-2.00e-02,
632,4.80e-03,1.60e-01,
633,-8.00e-04,1.20e-01,
634,5.20e-03,1.40e-01,
635,-1.20e-03,8.00e-02,
636,2.40e-03,8.00e-02,
637,-1.20e-03,1.00e-01,
638,2.00e-03,1.00e-01,
639,-1.20e-03,6.00e-02,
640,-8.00e-04,6.00e-02,
641,1.20e-03,1.00e-01,
642,2.00e-03,6.00e-02,
643,0.00e+00,8.00e-02,
644,-8.00e-04,6.00e-02,
645,8.00e-04,8.00e-02,
646,1.20e-03,6.00e-02,
647,-8.00e-04,8.00e-02,
648,2.00e-03,6.00e-02,
649,-8.00e-04,8.00e-02,
650,2.40e-03,6.00e-02,
651,-1.20e-03,8.00e-02,
652,-1.20e-03,6.00e-02,
653,2.00e-03,8.00e-02,
654,0.00e+00,6.00e-02,
655,1.60e-03,8.00e-02,
656,8.00e-04,8.00e-02,
657,-8.00e-04,6.00e-02,
658,0.00e+00,8.00e-02,
659,1.20e-03,4.00e-02,
660,0.00e+00,8.00e-02,
661,1.20e-03,4.00e-02,
662,2.00e-03,8.00e-02,
663,-8.00e-04,4.00e-02,
664,-1.20e-03,8.00e-02,
665,1.60e-03,2.00e-02,
666,-1.20e-03,8.00e-02,
667,2.40e-03,2.00e-02,
668,4.00e-03,2.00e-02,
669,-4.00e-03,8.00e-02,
670,4.00e-04,1.92e+00,
671,7.20e-03,-2.00e-02,
672,4.80e-03,1.60e-01,
673,-4.00e-04,1.20e-01,
674,5.20e-03,1.40e-01,
675,-1.60e-03,8.00e-02,
676,-1.60e-03,8.00e-02,
677,2.40e-03,1.00e-01,
678,2.00e-03,1.00e-01,
679,-1.20e-03,6.00e-02,
680,-8.00e-04,1.00e-01,
681,1.20e-03,6.00e-02,
682,2.00e-03,8.00e-02,
683,0.00e+00,6.00e-02,
684,0.00e+00,6.00e-02,
685,1.20e-03,8.00e-02,
686,2.00e-03,6.00e-02,
687,0.00e+00,8.00e-02,
688,-8.00e-04,6.00e-02,
689,1.60e-03,8.00e-02,
690,2.40e-03,6.00e-02,
691,-8.00e-04,8.00e-02,
692,1.60e-03,6.00e-02,
693,-8.00e-04,8.00e-02,
694,1.20e-03,6.00e-02,
695,-8.00e-04,8.00e-02,
696,1.20e-03,6.00e-02,
697,0.00e+00,8.00e-02,
698,1.20e-03,8.00e-02,
699,0.00e+00,2.00e-02,
700,-8.00e-04,8.00e-02,
701,1.20e-03,2.00e-02,
702,1.20e-03,8.00e-02,
703,-4.00e-04,2.00e-02,
704,-1.20e-03,8.00e-02,
705,2.00e-03,2.00e-02,
706,-1.60e-03,8.00e-02,
707,3.20e-03,2.00e-02,
708,4.00e-03,2.00e-02,
709,-3.60e-03,8.00e-02,
710,8.00e-04,2.00e-02,
711,7.20e-03,1.88e+00,
712,4.00e-03,1.60e-01,
713,-1.20e-03,1.20e-01,
714,5.20e-03,1.20e-01,
715,-2.40e-03,8.00e-02,
716,-1.20e-03,1.00e-01,
717,2.40e-03,8.00e-02,
718,2.40e-03,1.00e-01,
719,-8.00e-04,6.00e-02,
720,1.20e-03,6.00e-02,
721,-8.00e-04,1.00e-01,
722,1.20e-03,8.00e-02,
723,0.00e+00,6.00e-02,
724,8.00e-04,6.00e-02,
725,0.00e+00,8.00e-02,
726,1.20e-03,6.00e-02,
727,0.00e+00,8.00e-02,
728,0.00e+00,6.00e-02,
729,1.20e-03,8.00e-02,
730,2.40e-03,8.00e-02,
731,-8.00e-04,6.00e-02,
732,-8.00e-04,6.00e-02,
733,1.20e-03,8.00e-02,
734,1.20e-03,8.00e-02,
735,-8.00e-04,6.00e-02,
736,0.00e+00,8.00e-02,
737,1.20e-03,6.00e-02,
738,0.00e+00,8.00e-02,
739,1.20e-03,4.00e-02,
740,-4.00e-04,8.00e-02,
741,2.00e-03,4.00e-02,
742,1.60e-03,8.00e-02,
743,-8.00e-04,4.00e-02,
744,-8.00e-04,2.00e-02,
745,2.00e-03,8.00e-02,
746,2.80e-03,8.00e-02,
747,-1.60e-03,2.00e-02,
748,4.00e-03,2.00e-02,
749,-4.40e-03,8.00e-02,
750,0.00e+00,1.92e+00,
751,7.20e-03,0.00e+00,
752,4.80e-03,1.60e-01,
753,-1.20e-03,1.00e-01,
754,5.20e-03,1.40e-01,
755,-1.60e-03,8.00e-02,
756,2.80e-03,1.00e-01,
757,-1.20e-03,8.00e-02,
758,2.40e-03,1.00e-01,
759,-8.00e-04,6.00e-02,
760,1.20e-03,6.00e-02,
761,-1.20e-03,1.00e-01,
762,2.00e-03,8.00e-02,
763,0.00e+00,6.00e-02,
764,-8.00e-04,6.00e-02,
765,1.20e-03,8.00e-02,
766,0.00e+00,6.00e-02,
767,1.60e-03,8.00e-02,
768,1.20e-03,6.00e-02,
769,-1.20e-03,8.00e-02,
770,-8.00e-04,8.00e-02,
771,2.00e-03,6.00e-02,
772,-8.00e-04,8.00e-02,
773,1.60e-03,6.00e-02,
774,1.20e-03,6.00e-02,
775,0.00e+00,8.00e-02,
776,1.60e-03,6.00e-02,
777,0.00e+00,8.00e-02,
778,1.20e-03,8.00e-02,
779,0.00e+00,4.00e-02,
780,1.20e-03,8.00e-02,
781,-1.20e-03,4.00e-02,
782,-4.00e-04,8.00e-02,
783,2.00e-03,2.00e-02,
784,2.00e-03,8.00e-02,
785,-1.20e-03,2.00e-02,
786,-1.60e-03,4.00e-02,
787,3.60e-03,8.00e-02,
788,4.00e-03,8.00e-02,
789,-4.00e-03,2.00e-02,
790,8.00e-04,2.00e-02,
791,7.60e-03,1.88e+00,
792,4.00e-03,1.80e-01,
793,-1.20e-03,1.20e-01,
794,4.80e-03,1.40e-01,
795,-2.40e-03,8.00e-02,
796,-1.20e-03,1.00e-01,
797,2.40e-03,8.00e-02,
798,2.40e-03,1.00e-01,
799,-1.20e-03,6.00e-02,
800,-8.00e-04,1.00e-01,
801,2.00e-03,6.00e-02,
802,1.20e-03,6.00e-02,
803,0.00e+00,8.00e-02,
804,0.00e+00,6.00e-02,
805,1.20e-03,8.00e-02,
806,0.00e+00,8.00e-02,
807,1.20e-03,6.00e-02,
808,1.20e-03,8.00e-02,
809,-8.00e-04,6.00e-02,
810,1.20e-03,6.00e-02,
811,-4.00e-04,8.00e-02,
812,-4.00e-04,6.00e-02,
813,1.20e-03,8.00e-02,
814,4.00e-04,6.00e-02,
815,2.00e-03,8.00e-02,
816,1.20e-03,6.00e-02,
817,0.00e+00,8.00e-02,
818,1.60e-03,8.00e-02,
819,0.00e+00,2.00e-02,
820,-8.00e-04,8.00e-02,
821,1.20e-03,2.00e-02,
822,1.20e-03,2.00e-02,
823,-8.00e-04,8.00e-02,
824,-1.20e-03,8.00e-02,
825,1.20e-03,2.00e-02,
826,2.40e-03,2.00e-02,
827,-1.60e-03,8.00e-02,
828,3.60e-03,2.00e-02,
829,-4.40e-03,8.00e-02,
830,0.00e+00,2.00e-02,
831,7.20e-03,1.74e+00,
832,4.80e-03,1.60e-01,
833,-8.00e-04,1.20e-01,
834,6.40e-03,1.40e-01,
835,-1.20e-03,8.00e-02,
836,-2.00e-03,8.00e-02,
837,2.40e-03,1.00e-01,
838,2.40e-03,1.00e-01,
839,-8.00e-04,6.00e-02,
840,-8.00e-04,6.00e-02,
841,1.60e-03,1.00e-01,
842,1.20e-03,8.00e-02,
843,-4.00e-04,6.00e-02,
844,1.20e-03,6.00e-02,
845,0.00e+00,8.00e-02,
846,4.00e-04,8.00e-02,
847,1.20e-03,6.00e-02,
848,0.00e+00,6.00e-02,
849,1.20e-03,8.00e-02,
850,1.60e-03,6.00e-02,
851,0.00e+00,8.00e-02,
852,8.00e-04,6.00e-02,
853,-8.00e-04,8.00e-02,
854,0.00e+00,8.00e-02,
855,1.20e-03,6.00e-02,
