CarrPurc_P1-19_P2-38_tauVary/Gly98/NewFile3.csv

X,CH1,CH2,Start,Increment,
Sequence,Volt,Volt,-6.000000e-04,1.000000e-04
0,8.00e-04,4.00e-02,
1,-8.00e-04,2.00e-02,
2,1.20e-03,4.00e-02,
3,-8.00e-04,2.00e-02,
4,1.20e-03,4.00e-02,
5,0.00e+00,2.00e-02,
6,2.00e-03,2.00e-02,
7,4.00e-04,4.00e-02,
8,1.20e-03,4.00e-02,
9,4.00e-04,2.00e-02,
10,4.00e-04,1.90e+00,
11,5.20e-03,-4.00e-02,
12,4.00e-03,1.60e-01,
13,-2.68e-02,1.20e-01,
14,-1.64e-02,1.20e-01,
15,1.36e-02,8.00e-02,
16,6.80e-03,8.00e-02,
17,-7.60e-03,1.00e-01,
18,-1.60e-03,6.00e-02,
19,4.00e-03,1.00e-01,
20,-1.60e-03,1.00e-01,
21,3.60e-03,6.00e-02,
22,2.80e-03,6.00e-02,
23,-1.60e-03,8.00e-02,
24,2.40e-03,8.00e-02,
25,-1.60e-03,6.00e-02,
26,2.00e-03,6.00e-02,
27,-1.20e-03,8.00e-02,
28,2.00e-03,6.00e-02,
29,-8.00e-04,8.00e-02,
30,1.60e-03,6.00e-02,
31,7.60e-03,1.74e+00,
32,4.80e-03,1.60e-01,
33,-7.60e-03,1.20e-01,
34,-8.00e-03,1.20e-01,
35,4.80e-03,8.00e-02,
36,3.20e-03,1.00e-01,
37,-1.20e-03,8.00e-02,
38,-8.00e-04,1.00e-01,
39,2.00e-03,8.00e-02,
40,-1.20e-03,1.00e-01,
41,2.40e-03,6.00e-02,
42,2.00e-03,6.00e-02,
43,-8.00e-04,8.00e-02,
44,-2.40e-03,6.00e-02,
45,4.40e-03,8.00e-02,
46,7.20e-03,6.00e-02,
47,-8.40e-03,8.00e-02,
48,-1.32e-02,8.00e-02,
49,1.44e-02,6.00e-02,
50,-1.88e-02,6.00e-02,
51,1.80e-02,8.00e-02,
52,-1.64e-02,6.00e-02,
53,1.52e-02,8.00e-02,
54,9.60e-03,6.00e-02,
55,-7.20e-03,8.00e-02,
56,-4.40e-03,6.00e-02,
57,4.00e-03,8.00e-02,
58,2.00e-03,8.00e-02,
59,-8.00e-04,4.00e-02,
60,0.00e+00,8.00e-02,
61,2.00e-03,4.00e-02,
62,-4.00e-04,8.00e-02,
63,1.60e-03,4.00e-02,
64,2.00e-03,8.00e-02,
65,-8.00e-04,2.00e-02,
66,1.20e-03,2.00e-02,
67,-4.00e-04,8.00e-02,
68,1.20e-03,8.00e-02,
69,-8.00e-04,2.00e-02,
70,4.00e-04,2.00e-02,
71,6.80e-03,1.94e+00,
72,4.00e-03,1.60e-01,
73,0.00e+00,1.20e-01,
74,2.40e-03,1.40e-01,
75,-8.00e-04,8.00e-02,
76,-8.00e-04,1.00e-01,
77,2.40e-03,8.00e-02,
78,2.00e-03,1.00e-01,
79,-8.00e-04,6.00e-02,
80,-8.00e-04,1.00e-01,
81,2.00e-03,6.00e-02,
82,2.80e-03,8.00e-02,
83,-1.20e-03,6.00e-02,
84,-2.80e-03,8.00e-02,
85,4.00e-03,6.00e-02,
86,-4.00e-03,6.00e-02,
87,6.80e-03,8.00e-02,
88,9.60e-03,8.00e-02,
89,-1.08e-02,6.00e-02,
90,1.40e-02,6.00e-02,
91,-1.28e-02,8.00e-02,
92,-1.12e-02,6.00e-02,
93,1.00e-02,8.00e-02,
94,6.40e-03,6.00e-02,
95,-4.40e-03,8.00e-02,
96,-2.40e-03,6.00e-02,
97,2.40e-03,8.00e-02,
98,1.60e-03,6.00e-02,
99,-8.00e-04,8.00e-02,
100,-1.20e-03,8.00e-02,
101,1.20e-03,4.00e-02,
102,1.20e-03,8.00e-02,
103,-8.00e-04,2.00e-02,
104,-1.20e-03,8.00e-02,
105,1.60e-03,4.00e-02,
106,-1.20e-03,2.00e-02,
107,2.40e-03,8.00e-02,
108,-1.60e-03,4.00e-02,
109,4.80e-03,8.00e-02,
110,3.20e-03,4.00e-02,
111,7.20e-03,1.66e+00,
112,4.80e-03,1.60e-01,
113,0.00e+00,1.20e-01,
114,2.80e-03,1.40e-01,
115,-8.00e-04,8.00e-02,
116,2.00e-03,1.00e-01,
117,-8.00e-04,8.00e-02,
118,-8.00e-04,1.00e-01,
119,2.00e-03,6.00e-02,
120,-1.20e-03,1.00e-01,
121,1.60e-03,6.00e-02,
122,2.00e-03,6.00e-02,
123,-8.00e-04,1.00e-01,
124,2.80e-03,6.00e-02,
125,-2.40e-03,8.00e-02,
126,-4.00e-03,8.00e-02,
127,5.60e-03,6.00e-02,
128,8.40e-03,6.00e-02,
129,-1.00e-02,8.00e-02,
130,1.16e-02,6.00e-02,
131,-1.20e-02,8.00e-02,
132,-8.40e-03,6.00e-02,
133,8.40e-03,8.00e-02,
134,5.60e-03,6.00e-02,
135,-4.00e-03,8.00e-02,
136,-2.80e-03,6.00e-02,
137,2.80e-03,8.00e-02,
138,1.20e-03,8.00e-02,
139,-1.20e-03,6.00e-02,
140,-8.00e-04,6.00e-02,
141,2.00e-03,8.00e-02,
142,2.40e-03,8.00e-02,
143,-8.00e-04,4.00e-02,
144,-4.00e-04,8.00e-02,
145,8.00e-04,4.00e-02,
146,-8.00e-04,8.00e-02,
147,1.20e-03,4.00e-02,
148,-2.40e-03,8.00e-02,
149,3.60e-03,4.00e-02,
150,2.80e-03,2.00e-02,
151,7.20e-03,1.88e+00,
152,4.00e-03,1.60e-01,
153,-1.60e-03,1.20e-01,
154,-1.20e-03,1.40e-01,
155,2.80e-03,8.00e-02,
156,-8.00e-04,8.00e-02,
157,1.60e-03,1.00e-01,
158,2.00e-03,1.00e-01,
159,-8.00e-04,8.00e-02,
160,-8.00e-04,1.00e-01,
161,1.60e-03,6.00e-02,
162,0.00e+00,6.00e-02,
163,2.00e-03,8.00e-02,
164,2.40e-03,6.00e-02,
165,-1.20e-03,8.00e-02,
166,-2.40e-03,6.00e-02,
167,4.00e-03,8.00e-02,
168,6.40e-03,6.00e-02,
169,-5.60e-03,8.00e-02,
170,-8.80e-03,8.00e-02,
171,9.60e-03,6.00e-02,
172,-7.60e-03,6.00e-02,
173,6.80e-03,8.00e-02,
174,5.20e-03,6.00e-02,
175,-2.80e-03,8.00e-02,
176,-1.20e-03,8.00e-02,
177,2.40e-03,6.00e-02,
178,0.00e+00,8.00e-02,
179,2.00e-03,4.00e-02,
180,1.20e-03,8.00e-02,
181,0.00e+00,6.00e-02,
182,1.20e-03,8.00e-02,
183,-8.00e-04,2.00e-02,
184,0.00e+00,8.00e-02,
185,1.20e-03,2.00e-02,
186,1.20e-03,8.00e-02,
187,-1.20e-03,4.00e-02,
188,2.40e-03,8.00e-02,
189,-1.60e-03,4.00e-02,
190,2.00e-03,1.94e+00,
191,8.00e-03,-2.00e-02,
192,4.40e-03,1.60e-01,
193,-8.00e-04,1.20e-01,
194,3.60e-03,1.20e-01,
195,0.00e+00,8.00e-02,
196,2.00e-03,1.00e-01,
197,-8.00e-04,8.00e-02,
198,2.00e-03,1.00e-01,
199,0.00e+00,6.00e-02,
200,1.60e-03,6.00e-02,
201,-1.20e-03,1.00e-01,
202,-8.00e-04,6.00e-02,
203,1.20e-03,8.00e-02,
204,2.40e-03,6.00e-02,
205,-1.60e-03,8.00e-02,
206,-2.40e-03,6.00e-02,
207,4.00e-03,8.00e-02,
208,5.20e-03,8.00e-02,
209,-6.00e-03,6.00e-02,
210,-7.20e-03,6.00e-02,
211,8.00e-03,8.00e-02,
212,-6.40e-03,6.00e-02,
213,5.20e-03,8.00e-02,
214,4.00e-03,6.00e-02,
215,-1.60e-03,8.00e-02,
216,-1.20e-03,6.00e-02,
217,2.00e-03,8.00e-02,
218,1.20e-03,8.00e-02,
219,-8.00e-04,6.00e-02,
220,2.00e-03,6.00e-02,
221,-8.00e-04,8.00e-02,
222,2.00e-03,8.00e-02,
223,-8.00e-04,4.00e-02,
224,-1.20e-03,4.00e-02,
225,1.20e-03,8.00e-02,
226,2.00e-03,8.00e-02,
227,-1.20e-03,2.00e-02,
228,-1.60e-03,8.00e-02,
229,2.80e-03,2.00e-02,
230,2.80e-03,2.00e-02,
231,7.20e-03,1.74e+00,
232,4.40e-03,1.60e-01,
233,-1.20e-03,1.20e-01,
234,3.60e-03,1.40e-01,
235,-8.00e-04,8.00e-02,
236,-8.00e-04,1.00e-01,
237,2.40e-03,8.00e-02,
238,2.00e-03,8.00e-02,
239,-8.00e-04,1.00e-01,
240,-8.00e-04,1.00e-01,
241,2.00e-03,6.00e-02,
242,0.00e+00,6.00e-02,
243,1.60e-03,8.00e-02,
244,2.00e-03,6.00e-02,
245,-1.20e-03,8.00e-02,
246,-2.00e-03,6.00e-02,
247,3.20e-03,8.00e-02,
248,4.80e-03,8.00e-02,
249,-4.40e-03,6.00e-02,
250,6.80e-03,8.00e-02,
251,-6.00e-03,6.00e-02,
252,-5.20e-03,6.00e-02,
253,4.80e-03,8.00e-02,
254,3.60e-03,8.00e-02,
255,-1.60e-03,6.00e-02,
256,2.00e-03,8.00e-02,
257,-1.20e-03,6.00e-02,
258,1.20e-03,6.00e-02,
259,-8.00e-04,8.00e-02,
260,-8.00e-04,8.00e-02,
261,1.20e-03,4.00e-02,
262,1.20e-03,8.00e-02,
263,-8.00e-04,2.00e-02,
264,-8.00e-04,2.00e-02,
265,2.00e-03,8.00e-02,
266,-1.20e-03,8.00e-02,
267,2.00e-03,2.00e-02,
268,-2.40e-03,2.00e-02,
269,2.80e-03,8.00e-02,
270,2.80e-03,2.00e-02,
271,7.60e-03,1.94e+00,
272,4.80e-03,1.60e-01,
273,-4.00e-04,1.20e-01,
274,4.80e-03,1.40e-01,
275,-1.20e-03,8.00e-02,
276,2.40e-03,8.00e-02,
277,-8.00e-04,1.00e-01,
278,2.00e-03,1.00e-01,
279,-1.20e-03,6.00e-02,
280,-1.60e-03,8.00e-02,
281,2.00e-03,6.00e-02,
282,1.60e-03,6.00e-02,
283,-4.00e-04,8.00e-02,
284,1.60e-03,6.00e-02,
285,-8.00e-04,8.00e-02,
286,-1.20e-03,6.00e-02,
287,2.80e-03,8.00e-02,
288,4.00e-03,6.00e-02,
289,-3.60e-03,8.00e-02,
290,-5.60e-03,6.00e-02,
291,5.60e-03,8.00e-02,
292,-5.20e-03,8.00e-02,
293,4.80e-03,4.00e-02,
294,2.80e-03,8.00e-02,
295,-1.60e-03,4.00e-02,
296,-8.00e-04,8.00e-02,
297,1.60e-03,4.00e-02,
298,1.20e-03,4.00e-02,
299,-8.00e-04,8.00e-02,
300,-8.00e-04,8.00e-02,
301,2.00e-03,2.00e-02,
302,1.20e-03,8.00e-02,
303,-8.00e-04,2.00e-02,
304,2.00e-03,2.00e-02,
305,-8.00e-04,8.00e-02,
306,-8.00e-04,2.00e-02,
307,2.00e-03,8.00e-02,
308,2.80e-03,2.00e-02,
309,-2.40e-03,8.00e-02,
310,2.00e-03,1.94e+00,
311,7.60e-03,-6.00e-02,
312,4.00e-03,1.60e-01,
313,-1.20e-03,1.20e-01,
314,3.60e-03,1.20e-01,
315,-8.00e-04,8.00e-02,
316,2.40e-03,1.00e-01,
317,-8.00e-04,8.00e-02,
318,2.40e-03,1.00e-01,
319,-4.00e-04,6.00e-02,
320,-8.00e-04,6.00e-02,
321,2.00e-03,1.00e-01,
322,1.20e-03,6.00e-02,
323,-8.00e-04,8.00e-02,
324,2.00e-03,8.00e-02,
325,-8.00e-04,6.00e-02,
326,-1.60e-03,6.00e-02,
327,2.80e-03,8.00e-02,
328,2.80e-03,6.00e-02,
329,-3.60e-03,8.00e-02,
330,5.20e-03,6.00e-02,
331,-4.40e-03,8.00e-02,
332,-3.60e-03,8.00e-02,
333,3.60e-03,6.00e-02,
334,2.40e-03,8.00e-02,
335,-1.20e-03,4.00e-02,
336,-8.00e-04,6.00e-02,
337,2.00e-03,8.00e-02,
338,-8.00e-04,8.00e-02,
339,1.60e-03,6.00e-02,
340,-4.00e-04,6.00e-02,
341,2.00e-03,8.00e-02,
342,1.60e-03,6.00e-02,
343,-4.00e-04,8.00e-02,
344,-8.00e-04,8.00e-02,
345,2.00e-03,4.00e-02,
346,-1.20e-03,2.00e-02,
347,2.40e-03,8.00e-02,
348,2.80e-03,8.00e-02,
349,-2.40e-03,2.00e-02,
350,2.80e-03,2.00e-02,
351,7.20e-03,1.88e+00,
352,4.80e-03,1.60e-01,
353,-8.00e-04,1.20e-01,
354,4.00e-03,1.40e-01,
355,-1.60e-03,8.00e-02,
356,-1.60e-03,8.00e-02,
357,2.40e-03,1.00e-01,
358,2.00e-03,1.00e-01,
359,-8.00e-04,6.00e-02,
360,-1.20e-03,6.00e-02,
361,1.20e-03,1.00e-01,
362,1.20e-03,6.00e-02,
363,0.00e+00,8.00e-02,
364,1.60e-03,8.00e-02,
365,-8.00e-04,6.00e-02,
366,-8.00e-04,6.00e-02,
367,2.80e-03,8.00e-02,
368,2.80e-03,6.00e-02,
369,-2.80e-03,8.00e-02,
370,5.20e-03,6.00e-02,
371,-4.00e-03,8.00e-02,
372,-2.80e-03,6.00e-02,
373,3.60e-03,8.00e-02,
374,2.80e-03,6.00e-02,
375,-8.00e-04,8.00e-02,
376,-8.00e-04,6.00e-02,
377,2.00e-03,8.00e-02,
378,-8.00e-04,8.00e-02,
379,2.00e-03,6.00e-02,
380,1.20e-03,6.00e-02,
381,-1.20e-03,8.00e-02,
382,-1.20e-03,8.00e-02,
383,2.00e-03,4.00e-02,
384,-4.00e-04,8.00e-02,
385,2.00e-03,2.00e-02,
386,2.40e-03,8.00e-02,
387,-1.20e-03,2.00e-02,
388,3.60e-03,2.00e-02,
389,-3.20e-03,8.00e-02,
390,2.00e-03,2.00e-02,
391,7.20e-03,1.94e+00,
392,4.00e-03,1.60e-01,
393,-1.20e-03,1.20e-01,
394,3.60e-03,1.20e-01,
395,-1.20e-03,8.00e-02,
396,2.40e-03,1.00e-01,
397,-1.20e-03,8.00e-02,
398,1.60e-03,1.00e-01,
399,-1.20e-03,6.00e-02,
400,-4.00e-04,1.00e-01,
401,1.20e-03,6.00e-02,
402,1.20e-03,8.00e-02,
403,0.00e+00,6.00e-02,
404,1.20e-03,6.00e-02,
405,-8.00e-04,8.00e-02,
406,2.00e-03,6.00e-02,
407,-1.20e-03,8.00e-02,
408,2.80e-03,6.00e-02,
409,-2.40e-03,8.00e-02,
410,-2.80e-03,6.00e-02,
411,4.40e-03,8.00e-02,
412,-2.40e-03,8.00e-02,
413,3.20e-03,6.00e-02,
414,2.00e-03,6.00e-02,
415,-8.00e-04,8.00e-02,
416,-8.00e-04,6.00e-02,
417,1.20e-03,8.00e-02,
418,0.00e+00,8.00e-02,
419,1.20e-03,6.00e-02,
420,-8.00e-04,6.00e-02,
421,1.20e-03,8.00e-02,
422,-8.00e-04,8.00e-02,
423,2.00e-03,4.00e-02,
424,-8.00e-04,8.00e-02,
425,2.00e-03,4.00e-02,
426,2.00e-03,8.00e-02,
427,-1.20e-03,2.00e-02,
428,2.80e-03,8.00e-02,
429,-3.20e-03,4.00e-02,
430,2.00e-03,1.94e+00,
431,7.20e-03,-2.00e-02,
432,4.80e-03,1.60e-01,
433,-8.00e-04,1.20e-01,
434,4.00e-03,1.20e-01,
435,-1.20e-03,8.00e-02,
436,-1.20e-03,1.00e-01,
437,2.40e-03,8.00e-02,
438,2.40e-03,1.00e-01,
439,-8.00e-04,6.00e-02,
440,-8.00e-04,6.00e-02,
441,1.20e-03,1.00e-01,
442,1.20e-03,6.00e-02,
443,-8.00e-04,8.00e-02,
444,-8.00e-04,8.00e-02,
445,1.20e-03,6.00e-02,
446,-1.20e-03,6.00e-02,
447,2.40e-03,8.00e-02,
448,2.80e-03,6.00e-02,
449,-2.40e-03,8.00e-02,
450,2.80e-03,6.00e-02,
451,-2.40e-03,8.00e-02,
452,-2.40e-03,8.00e-02,
453,2.40e-03,6.00e-02,
454,-1.20e-03,6.00e-02,
455,1.60e-03,8.00e-02,
456,1.20e-03,8.00e-02,
457,-4.00e-04,6.00e-02,
458,1.20e-03,6.00e-02,
459,-1.20e-03,8.00e-02,
460,-4.00e-04,6.00e-02,
461,1.20e-03,8.00e-02,
462,-8.00e-04,8.00e-02,
463,1.20e-03,4.00e-02,
464,-8.00e-04,8.00e-02,
465,1.20e-03,4.00e-02,
466,-8.00e-04,8.00e-02,
467,2.80e-03,4.00e-02,
468,3.60e-03,8.00e-02,
469,-2.80e-03,2.00e-02,
470,2.40e-03,4.00e-02,
471,7.20e-03,1.88e+00,
472,4.40e-03,1.80e-01,
473,0.00e+00,1.20e-01,
474,5.20e-03,1.40e-01,
475,-8.00e-04,8.00e-02,
476,-1.20e-03,1.00e-01,
477,2.40e-03,8.00e-02,
478,2.40e-03,1.00e-01,
479,-4.00e-04,8.00e-02,
480,-8.00e-04,1.00e-01,
481,1.60e-03,6.00e-02,
482,0.00e+00,6.00e-02,
483,2.00e-03,8.00e-02,
484,1.20e-03,8.00e-02,
485,0.00e+00,6.00e-02,
486,-8.00e-04,6.00e-02,
487,2.00e-03,8.00e-02,
488,2.00e-03,8.00e-02,
489,-1.60e-03,6.00e-02,
490,2.80e-03,6.00e-02,
491,-2.40e-03,8.00e-02,
492,-1.60e-03,6.00e-02,
493,2.40e-03,8.00e-02,
494,2.40e-03,6.00e-02,
495,-8.00e-04,8.00e-02,
496,0.00e+00,6.00e-02,
497,2.00e-03,8.00e-02,
498,1.20e-03,6.00e-02,
499,0.00e+00,8.00e-02,
500,0.00e+00,8.00e-02,
501,1.20e-03,4.00e-02,
502,2.40e-03,8.00e-02,
503,0.00e+00,4.00e-02,
504,-8.00e-04,8.00e-02,
505,2.00e-03,2.00e-02,
506,-1.20e-03,8.00e-02,
507,3.20e-03,2.00e-02,
508,2.80e-03,8.00e-02,
509,-3.20e-03,2.00e-02,
510,2.00e-03,1.94e+00,
511,7.20e-03,0.00e+00,
512,4.00e-03,1.60e-01,
513,-1.20e-03,1.20e-01,
514,5.20e-03,1.40e-01,
515,-1.20e-03,8.00e-02,
516,-8.00e-04,1.00e-01,
517,2.40e-03,8.00e-02,
518,2.00e-03,1.00e-01,
519,-8.00e-04,6.00e-02,
520,-8.00e-04,1.00e-01,
521,1.20e-03,6.00e-02,
522,-8.00e-04,6.00e-02,
523,1.20e-03,8.00e-02,
524,-8.00e-04,6.00e-02,
525,2.00e-03,8.00e-02,
526,-8.00e-04,6.00e-02,
527,2.00e-03,8.00e-02,
528,-8.00e-04,6.00e-02,
529,2.00e-03,8.00e-02,
530,2.40e-03,6.00e-02,
531,-2.40e-03,8.00e-02,
532,-1.60e-03,8.00e-02,
533,2.00e-03,6.00e-02,
534,0.00e+00,8.00e-02,
535,2.00e-03,6.00e-02,
536,1.20e-03,6.00e-02,
537,0.00e+00,8.00e-02,
538,-1.20e-03,8.00e-02,
539,1.20e-03,6.00e-02,
540,-8.00e-04,8.00e-02,
541,8.00e-04,4.00e-02,
542,0.00e+00,8.00e-02,
543,2.00e-03,4.00e-02,
544,2.40e-03,8.00e-02,
545,-1.20e-03,2.00e-02,
546,-1.20e-03,8.00e-02,
547,2.80e-03,2.00e-02,
548,3.60e-03,8.00e-02,
549,-4.00e-03,2.00e-02,
550,2.40e-03,1.94e+00,
551,7.60e-03,-2.00e-02,
552,4.00e-03,1.60e-01,
553,-1.20e-03,1.20e-01,
554,4.80e-03,1.40e-01,
555,-2.40e-03,8.00e-02,
556,-1.20e-03,8.00e-02,
557,2.40e-03,1.00e-01,
558,2.80e-03,1.00e-01,
559,-8.00e-04,6.00e-02,
560,1.20e-03,1.00e-01,
561,-8.00e-04,6.00e-02,
562,0.00e+00,6.00e-02,
563,1.20e-03,8.00e-02,
564,1.20e-03,6.00e-02,
565,-8.00e-04,8.00e-02,
566,1.20e-03,6.00e-02,
567,-4.00e-04,8.00e-02,
568,2.00e-03,6.00e-02,
569,-1.20e-03,8.00e-02,
570,-1.20e-03,8.00e-02,
571,2.80e-03,6.00e-02,
572,-1.60e-03,6.00e-02,
573,2.00e-03,8.00e-02,
574,-8.00e-04,8.00e-02,
575,2.00e-03,6.00e-02,
576,-4.00e-04,8.00e-02,
577,1.20e-03,6.00e-02,
578,-4.00e-04,6.00e-02,
579,1.20e-03,8.00e-02,
580,8.00e-04,6.00e-02,
581,-1.20e-03,8.00e-02,
582,1.20e-03,8.00e-02,
583,-8.00e-04,4.00e-02,
584,-1.20e-03,8.00e-02,
585,1.20e-03,4.00e-02,
586,-1.20e-03,8.00e-02,
587,2.80e-03,2.00e-02,
588,4.00e-03,8.00e-02,
589,-3.60e-03,2.00e-02,
590,2.00e-03,4.00e-02,
591,7.20e-03,1.88e+00,
592,4.80e-03,1.60e-01,
593,-8.00e-04,1.20e-01,
594,5.20e-03,1.40e-01,
595,-1.60e-03,8.00e-02,
596,2.40e-03,1.00e-01,
597,-1.60e-03,8.00e-02,
598,-8.00e-04,1.00e-01,
599,2.40e-03,6.00e-02,
600,0.00e+00,1.00e-01,
601,2.00e-03,6.00e-02,
602,1.20e-03,6.00e-02,
603,0.00e+00,1.00e-01,
604,-8.00e-04,6.00e-02,
605,1.20e-03,8.00e-02,
606,1.20e-03,6.00e-02,
607,-8.00e-04,8.00e-02,
608,2.00e-03,6.00e-02,
609,-1.20e-03,8.00e-02,
610,-1.20e-03,6.00e-02,
611,2.80e-03,8.00e-02,
612,-1.20e-03,8.00e-02,
613,2.00e-03,6.00e-02,
614,1.20e-03,6.00e-02,
615,-8.00e-04,8.00e-02,
616,0.00e+00,6.00e-02,
617,2.00e-03,8.00e-02,
618,1.20e-03,8.00e-02,
619,-8.00e-04,4.00e-02,
620,8.00e-04,8.00e-02,
621,-8.00e-04,2.00e-02,
622,-8.00e-04,8.00e-02,
623,2.00e-03,2.00e-02,
624,-1.20e-03,8.00e-02,
625,2.00e-03,4.00e-02,
626,-1.20e-03,4.00e-02,
627,3.20e-03,8.00e-02,
628,4.00e-03,8.00e-02,
629,-3.20e-03,2.00e-02,
630,1.20e-03,1.90e+00,
631,7.60e-03,0.00e+00,
632,4.80e-03,1.60e-01,
633,-8.00e-04,1.20e-01,
634,4.40e-03,1.40e-01,
635,-2.40e-03,8.00e-02,
636,-1.60e-03,8.00e-02,
637,2.40e-03,1.00e-01,
638,2.40e-03,1.00e-01,
639,-1.20e-03,6.00e-02,
640,-8.00e-04,1.00e-01,
641,1.20e-03,6.00e-02,
642,8.00e-04,6.00e-02,
643,-4.00e-04,8.00e-02,
644,0.00e+00,6.00e-02,
645,1.20e-03,8.00e-02,
646,1.20e-03,6.00e-02,
647,-8.00e-04,8.00e-02,
648,-8.00e-04,6.00e-02,
649,2.00e-03,8.00e-02,
650,2.00e-03,6.00e-02,
651,-1.20e-03,8.00e-02,
652,1.20e-03,6.00e-02,
653,-1.20e-03,8.00e-02,
654,1.20e-03,6.00e-02,
655,-8.00e-04,8.00e-02,
656,1.20e-03,8.00e-02,
657,0.00e+00,6.00e-02,
658,0.00e+00,6.00e-02,
659,1.20e-03,8.00e-02,
660,1.20e-03,8.00e-02,
661,-8.00e-04,4.00e-02,
662,0.00e+00,8.00e-02,
663,2.00e-03,4.00e-02,
664,-8.00e-04,8.00e-02,
665,1.60e-03,2.00e-02,
666,-1.60e-03,8.00e-02,
667,2.80e-03,2.00e-02,
668,3.60e-03,8.00e-02,
669,-4.00e-03,2.00e-02,
670,8.00e-04,2.00e-02,
671,7.20e-03,1.94e+00,
672,4.00e-03,1.60e-01,
673,-1.60e-03,1.20e-01,
674,4.40e-03,1.40e-01,
675,-1.60e-03,8.00e-02,
676,-1.20e-03,8.00e-02,
677,2.80e-03,1.00e-01,
678,2.40e-03,1.00e-01,
679,-8.00e-04,6.00e-02,
680,-8.00e-04,1.00e-01,
681,2.00e-03,6.00e-02,
682,0.00e+00,8.00e-02,
683,1.60e-03,6.00e-02,
684,2.00e-03,6.00e-02,
685,0.00e+00,8.00e-02,
686,-8.00e-04,6.00e-02,
687,2.40e-03,8.00e-02,
688,2.00e-03,6.00e-02,
689,-8.00e-04,8.00e-02,
690,2.00e-03,6.00e-02,
691,-1.20e-03,8.00e-02,
692,-1.20e-03,6.00e-02,
693,1.20e-03,8.00e-02,
694,0.00e+00,6.00e-02,
695,2.00e-03,8.00e-02,
696,2.00e-03,6.00e-02,
697,4.00e-04,8.00e-02,
698,2.40e-03,6.00e-02,
699,0.00e+00,8.00e-02,
700,-8.00e-04,6.00e-02,
701,1.20e-03,8.00e-02,
702,1.20e-03,8.00e-02,
703,0.00e+00,2.00e-02,
704,2.00e-03,8.00e-02,
705,-1.20e-03,2.00e-02,
706,-2.40e-03,8.00e-02,
707,2.80e-03,2.00e-02,
708,4.00e-03,2.00e-02,
709,-4.40e-03,8.00e-02,
710,0.00e+00,2.00e-02,
711,7.20e-03,1.88e+00,
712,4.40e-03,1.80e-01,
713,-1.60e-03,1.20e-01,
714,4.80e-03,8.00e-02,
715,-1.60e-03,1.40e-01,
716,-1.20e-03,1.00e-01,
717,2.40e-03,8.00e-02,
718,2.40e-03,1.00e-01,
719,-8.00e-04,6.00e-02,
720,1.20e-03,1.00e-01,
721,-8.00e-04,6.00e-02,
722,-8.00e-04,8.00e-02,
723,1.20e-03,6.00e-02,
724,-8.00e-04,6.00e-02,
725,1.20e-03,8.00e-02,
726,1.20e-03,6.00e-02,
727,0.00e+00,8.00e-02,
728,1.20e-03,6.00e-02,
729,-8.00e-04,8.00e-02,
730,2.00e-03,8.00e-02,
731,-8.00e-04,6.00e-02,
732,-8.00e-04,6.00e-02,
733,1.20e-03,8.00e-02,
734,1.20e-03,8.00e-02,
735,-8.00e-04,6.00e-02,
736,1.20e-03,8.00e-02,
737,-1.20e-03,6.00e-02,
738,1.20e-03,8.00e-02,
739,-8.00e-04,4.00e-02,
740,8.00e-04,6.00e-02,
741,-8.00e-04,8.00e-02,
742,-8.00e-04,8.00e-02,
743,2.00e-03,2.00e-02,
744,-8.00e-04,8.00e-02,
745,2.00e-03,4.00e-02,
746,-1.60e-03,8.00e-02,
747,2.40e-03,2.00e-02,
748,3.20e-03,8.00e-02,
749,-3.60e-03,2.00e-02,
750,1.20e-03,1.94e+00,
751,7.20e-03,-2.00e-02,
752,4.00e-03,1.60e-01,
753,-1.20e-03,1.20e-01,
754,5.20e-03,1.40e-01,
755,-1.20e-03,8.00e-02,
756,-1.60e-03,1.00e-01,
757,2.80e-03,8.00e-02,
758,2.40e-03,1.00e-01,
759,-1.20e-03,6.00e-02,
760,-4.00e-04,1.00e-01,
761,2.40e-03,6.00e-02,
762,0.00e+00,8.00e-02,
763,1.20e-03,6.00e-02,
764,-8.00e-04,6.00e-02,
765,1.20e-03,8.00e-02,
766,1.20e-03,6.00e-02,
767,0.00e+00,8.00e-02,
768,1.20e-03,6.00e-02,
769,-8.00e-04,8.00e-02,
770,-8.00e-04,8.00e-02,
771,2.00e-03,6.00e-02,
772,-8.00e-04,8.00e-02,
773,1.20e-03,6.00e-02,
774,1.20e-03,6.00e-02,
775,0.00e+00,8.00e-02,
776,1.20e-03,6.00e-02,
777,0.00e+00,8.00e-02,
778,1.20e-03,6.00e-02,
779,-8.00e-04,8.00e-02,
780,-4.00e-04,8.00e-02,
781,1.20e-03,4.00e-02,
782,2.00e-03,8.00e-02,
783,-1.20e-03,4.00e-02,
784,-8.00e-04,4.00e-02,
785,2.00e-03,8.00e-02,
786,-1.60e-03,8.00e-02,
787,2.80e-03,4.00e-02,
788,3.60e-03,8.00e-02,
789,-4.00e-03,4.00e-02,
790,0.00e+00,2.00e-02,
791,7.60e-03,1.94e+00,
792,4.80e-03,1.80e-01,
793,-1.20e-03,1.20e-01,
794,5.20e-03,1.40e-01,
795,-1.60e-03,8.00e-02,
796,-1.20e-03,1.00e-01,
797,2.40e-03,8.00e-02,
798,2.40e-03,1.00e-01,
799,-1.20e-03,6.00e-02,
800,-8.00e-04,1.00e-01,
801,1.20e-03,6.00e-02,
802,1.20e-03,6.00e-02,
803,0.00e+00,8.00e-02,
804,-8.00e-04,6.00e-02,
805,4.00e-04,8.00e-02,
806,0.00e+00,8.00e-02,
807,1.20e-03,6.00e-02,
808,1.20e-03,8.00e-02,
809,-8.00e-04,6.00e-02,
810,2.00e-03,6.00e-02,
811,0.00e+00,8.00e-02,
812,0.00e+00,6.00e-02,
813,2.00e-03,8.00e-02,
814,1.20e-03,6.00e-02,
815,0.00e+00,8.00e-02,
816,0.00e+00,6.00e-02,
817,1.20e-03,8.00e-02,
818,4.00e-04,8.00e-02,
819,1.20e-03,6.00e-02,
820,1.20e-03,6.00e-02,
821,-8.00e-04,8.00e-02,
822,2.00e-03,6.00e-02,
823,0.00e+00,8.00e-02,
824,2.00e-03,8.00e-02,
825,-1.20e-03,4.00e-02,
826,-1.60e-03,8.00e-02,
827,2.40e-03,2.00e-02,
828,4.00e-03,8.00e-02,
829,-3.60e-03,2.00e-02,
830,1.20e-03,4.00e-02,
831,7.20e-03,1.88e+00,
832,4.80e-03,1.60e-01,
833,-8.00e-04,1.20e-01,
834,5.20e-03,1.40e-01,
835,-2.40e-03,8.00e-02,
836,-1.20e-03,8.00e-02,
837,2.80e-03,1.00e-01,
838,2.40e-03,1.00e-01,
839,-8.00e-04,6.00e-02,
840,-8.00e-04,6.00e-02,
841,2.00e-03,1.00e-01,
842,0.00e+00,8.00e-02,
843,1.20e-03,6.00e-02,
844,-8.00e-04,6.00e-02,
845,8.00e-04,8.00e-02,
846,1.20e-03,8.00e-02,
847,-4.00e-04,6.00e-02,
848,-4.00e-04,6.00e-02,
849,2.00e-03,8.00e-02,
850,-8.00e-04,6.00e-02,
851,2.00e-03,8.00e-02,
852,1.20e-03,6.00e-02,
853,-8.00e-04,8.00e-02,
854,0.00e+00,8.00e-02,
