CarrPurc_P1-19_P2-38_tauVary/Gly98/NewFile4.csv

X,CH1,CH2,Start,Increment,
Sequence,Volt,Volt,-6.000000e-04,1.000000e-04
0,4.00e-04,4.00e-02,
1,1.20e-03,2.00e-02,
2,1.20e-03,4.00e-02,
3,0.00e+00,2.00e-02,
4,1.20e-03,4.00e-02,
5,0.00e+00,2.00e-02,
6,0.00e+00,4.00e-02,
7,8.00e-04,0.00e+00,
8,0.00e+00,4.00e-02,
9,1.20e-03,2.00e-02,
10,4.00e-04,2.00e-02,
11,5.20e-03,1.64e+00,
12,4.00e-03,1.60e-01,
13,-2.56e-02,8.00e-02,
14,-1.48e-02,1.20e-01,
15,1.36e-02,8.00e-02,
16,7.20e-03,8.00e-02,
17,-7.20e-03,1.00e-01,
18,3.60e-03,1.00e-01,
19,-2.40e-03,6.00e-02,
20,-1.60e-03,6.00e-02,
21,2.80e-03,1.00e-01,
22,-1.20e-03,6.00e-02,
23,2.80e-03,8.00e-02,
24,-1.20e-03,8.00e-02,
25,2.00e-03,6.00e-02,
26,2.00e-03,6.00e-02,
27,-8.00e-04,8.00e-02,
28,-8.00e-04,6.00e-02,
29,2.00e-03,8.00e-02,
30,4.00e-04,6.00e-02,
31,6.80e-03,1.96e+00,
32,4.40e-03,1.60e-01,
33,-7.20e-03,1.20e-01,
34,-8.00e-03,1.20e-01,
35,5.20e-03,8.00e-02,
36,3.60e-03,1.00e-01,
37,-1.20e-03,8.00e-02,
38,0.00e+00,1.00e-01,
39,2.00e-03,6.00e-02,
40,2.00e-03,6.00e-02,
41,-1.20e-03,1.00e-01,
42,2.00e-03,6.00e-02,
43,-8.00e-04,8.00e-02,
44,-1.60e-03,6.00e-02,
45,5.20e-03,8.00e-02,
46,7.20e-03,6.00e-02,
47,-8.40e-03,8.00e-02,
48,-1.28e-02,8.00e-02,
49,1.60e-02,6.00e-02,
50,-1.68e-02,6.00e-02,
51,1.88e-02,8.00e-02,
52,-1.76e-02,6.00e-02,
53,1.44e-02,8.00e-02,
54,9.60e-03,6.00e-02,
55,-7.20e-03,8.00e-02,
56,-4.40e-03,8.00e-02,
57,4.00e-03,4.00e-02,
58,2.00e-03,6.00e-02,
59,-1.20e-03,8.00e-02,
60,-1.20e-03,8.00e-02,
61,2.00e-03,2.00e-02,
62,-8.00e-04,8.00e-02,
63,2.40e-03,4.00e-02,
64,2.40e-03,8.00e-02,
65,-8.00e-04,2.00e-02,
66,1.20e-03,8.00e-02,
67,-8.00e-04,2.00e-02,
68,0.00e+00,8.00e-02,
69,1.20e-03,2.00e-02,
70,8.00e-04,2.00e-02,
71,7.20e-03,1.84e+00,
72,4.00e-03,1.60e-01,
73,0.00e+00,1.20e-01,
74,2.80e-03,1.40e-01,
75,0.00e+00,8.00e-02,
76,2.00e-03,1.00e-01,
77,-8.00e-04,8.00e-02,
78,1.20e-03,1.00e-01,
79,-1.20e-03,6.00e-02,
80,1.20e-03,8.00e-02,
81,-8.00e-04,6.00e-02,
82,2.40e-03,8.00e-02,
83,-1.20e-03,6.00e-02,
84,-2.00e-03,8.00e-02,
85,3.60e-03,6.00e-02,
86,-4.40e-03,6.00e-02,
87,6.80e-03,8.00e-02,
88,9.20e-03,8.00e-02,
89,-9.60e-03,6.00e-02,
90,1.40e-02,6.00e-02,
91,-1.32e-02,8.00e-02,
92,-1.04e-02,6.00e-02,
93,9.60e-03,8.00e-02,
94,6.40e-03,6.00e-02,
95,-4.40e-03,8.00e-02,
96,-2.00e-03,6.00e-02,
97,2.40e-03,8.00e-02,
98,2.40e-03,8.00e-02,
99,-8.00e-04,4.00e-02,
100,0.00e+00,8.00e-02,
101,2.00e-03,2.00e-02,
102,1.20e-03,8.00e-02,
103,-8.00e-04,2.00e-02,
104,-8.00e-04,8.00e-02,
105,1.60e-03,2.00e-02,
106,2.00e-03,2.00e-02,
107,-1.60e-03,8.00e-02,
108,-2.80e-03,2.00e-02,
109,3.60e-03,8.00e-02,
110,2.00e-03,2.00e-02,
111,6.80e-03,1.94e+00,
112,4.00e-03,1.60e-01,
113,-8.00e-04,1.20e-01,
114,0.00e+00,1.40e-01,
115,2.40e-03,8.00e-02,
116,2.00e-03,1.00e-01,
117,-8.00e-04,8.00e-02,
118,2.00e-03,1.00e-01,
119,-8.00e-04,6.00e-02,
120,-8.00e-04,6.00e-02,
121,1.20e-03,1.00e-01,
122,-8.00e-04,6.00e-02,
123,2.00e-03,8.00e-02,
124,2.80e-03,6.00e-02,
125,-2.00e-03,8.00e-02,
126,-4.00e-03,8.00e-02,
127,5.60e-03,6.00e-02,
128,8.80e-03,6.00e-02,
129,-1.00e-02,8.00e-02,
130,-1.00e-02,6.00e-02,
131,1.24e-02,8.00e-02,
132,-9.60e-03,6.00e-02,
133,8.40e-03,8.00e-02,
134,5.60e-03,6.00e-02,
135,-4.00e-03,8.00e-02,
136,-2.40e-03,6.00e-02,
137,2.80e-03,8.00e-02,
138,2.00e-03,8.00e-02,
139,-1.60e-03,4.00e-02,
140,1.20e-03,8.00e-02,
141,-8.00e-04,2.00e-02,
142,2.00e-03,8.00e-02,
143,-8.00e-04,4.00e-02,
144,-8.00e-04,8.00e-02,
145,1.20e-03,2.00e-02,
146,1.20e-03,8.00e-02,
147,-1.20e-03,2.00e-02,
148,-2.40e-03,8.00e-02,
149,3.20e-03,2.00e-02,
150,2.80e-03,2.00e-02,
151,7.60e-03,1.88e+00,
152,4.80e-03,1.60e-01,
153,-1.20e-03,1.20e-01,
154,-8.00e-04,1.20e-01,
155,3.60e-03,8.00e-02,
156,0.00e+00,8.00e-02,
157,2.00e-03,1.00e-01,
158,-8.00e-04,1.00e-01,
159,2.40e-03,6.00e-02,
160,-1.20e-03,1.00e-01,
161,1.20e-03,6.00e-02,
162,2.00e-03,6.00e-02,
163,-8.00e-04,8.00e-02,
164,2.00e-03,6.00e-02,
165,-1.60e-03,8.00e-02,
166,-2.40e-03,6.00e-02,
167,4.00e-03,8.00e-02,
168,5.60e-03,6.00e-02,
169,-5.60e-03,8.00e-02,
170,-7.60e-03,8.00e-02,
171,8.80e-03,6.00e-02,
172,-7.20e-03,6.00e-02,
173,6.80e-03,8.00e-02,
174,4.00e-03,6.00e-02,
175,-2.80e-03,8.00e-02,
176,-1.20e-03,8.00e-02,
177,2.40e-03,6.00e-02,
178,2.00e-03,8.00e-02,
179,0.00e+00,6.00e-02,
180,1.20e-03,8.00e-02,
181,0.00e+00,4.00e-02,
182,0.00e+00,8.00e-02,
183,1.20e-03,2.00e-02,
184,0.00e+00,8.00e-02,
185,1.20e-03,2.00e-02,
186,1.20e-03,8.00e-02,
187,-4.00e-04,2.00e-02,
188,-1.60e-03,8.00e-02,
189,2.40e-03,2.00e-02,
190,2.00e-03,2.00e-02,
191,6.80e-03,1.90e+00,
192,4.00e-03,1.60e-01,
193,-4.00e-04,1.20e-01,
194,2.40e-03,1.20e-01,
195,-8.00e-04,8.00e-02,
196,1.20e-03,1.00e-01,
197,0.00e+00,8.00e-02,
198,1.20e-03,1.00e-01,
199,-4.00e-04,6.00e-02,
200,-8.00e-04,1.00e-01,
201,1.20e-03,6.00e-02,
202,-8.00e-04,6.00e-02,
203,2.00e-03,8.00e-02,
204,-1.20e-03,6.00e-02,
205,2.80e-03,8.00e-02,
206,-2.40e-03,6.00e-02,
207,4.00e-03,8.00e-02,
208,5.20e-03,8.00e-02,
209,-5.60e-03,6.00e-02,
210,7.60e-03,6.00e-02,
211,-7.20e-03,8.00e-02,
212,-5.20e-03,6.00e-02,
213,5.60e-03,8.00e-02,
214,4.40e-03,6.00e-02,
215,-3.20e-03,8.00e-02,
216,-1.60e-03,6.00e-02,
217,2.00e-03,8.00e-02,
218,1.20e-03,8.00e-02,
219,-1.20e-03,4.00e-02,
220,-4.00e-04,6.00e-02,
221,2.00e-03,8.00e-02,
222,2.00e-03,6.00e-02,
223,-8.00e-04,8.00e-02,
224,-1.20e-03,8.00e-02,
225,2.00e-03,2.00e-02,
226,2.00e-03,8.00e-02,
227,-8.00e-04,2.00e-02,
228,2.80e-03,8.00e-02,
229,-2.00e-03,4.00e-02,
230,2.00e-03,1.80e+00,
231,7.20e-03,-2.00e-02,
232,4.00e-03,1.60e-01,
233,-8.00e-04,1.20e-01,
234,3.60e-03,1.40e-01,
235,-8.00e-04,8.00e-02,
236,-8.00e-04,1.00e-01,
237,2.00e-03,8.00e-02,
238,-8.00e-04,1.00e-01,
239,1.60e-03,6.00e-02,
240,-8.00e-04,1.00e-01,
241,1.20e-03,6.00e-02,
242,1.20e-03,6.00e-02,
243,-8.00e-04,8.00e-02,
244,1.60e-03,6.00e-02,
245,-1.20e-03,8.00e-02,
246,-1.60e-03,6.00e-02,
247,3.60e-03,8.00e-02,
248,5.20e-03,8.00e-02,
249,-4.40e-03,6.00e-02,
250,6.80e-03,8.00e-02,
251,-5.20e-03,6.00e-02,
252,-4.40e-03,6.00e-02,
253,4.80e-03,8.00e-02,
254,3.60e-03,8.00e-02,
255,-1.60e-03,6.00e-02,
256,-1.20e-03,8.00e-02,
257,2.40e-03,6.00e-02,
258,2.00e-03,6.00e-02,
259,0.00e+00,8.00e-02,
260,0.00e+00,6.00e-02,
261,2.00e-03,8.00e-02,
262,1.20e-03,8.00e-02,
263,-1.20e-03,6.00e-02,
264,-1.20e-03,6.00e-02,
265,1.20e-03,8.00e-02,
266,2.00e-03,8.00e-02,
267,-8.00e-04,2.00e-02,
268,-1.60e-03,2.00e-02,
269,2.80e-03,8.00e-02,
270,2.80e-03,2.00e-02,
271,7.20e-03,1.94e+00,
272,4.00e-03,1.60e-01,
273,-4.00e-04,1.20e-01,
274,3.60e-03,1.40e-01,
275,-8.00e-04,8.00e-02,
276,-1.20e-03,8.00e-02,
277,2.00e-03,1.00e-01,
278,2.40e-03,8.00e-02,
279,-8.00e-04,1.00e-01,
280,-8.00e-04,1.00e-01,
281,1.60e-03,6.00e-02,
282,2.00e-03,6.00e-02,
283,-4.00e-04,8.00e-02,
284,1.20e-03,6.00e-02,
285,-1.20e-03,8.00e-02,
286,-1.60e-03,6.00e-02,
287,2.40e-03,8.00e-02,
288,3.60e-03,6.00e-02,
289,-4.00e-03,8.00e-02,
290,5.60e-03,6.00e-02,
291,-4.40e-03,8.00e-02,
292,-4.40e-03,8.00e-02,
293,5.20e-03,6.00e-02,
294,2.80e-03,6.00e-02,
295,-2.40e-03,8.00e-02,
296,-8.00e-04,8.00e-02,
297,1.60e-03,6.00e-02,
298,1.20e-03,8.00e-02,
299,-4.00e-04,4.00e-02,
300,-8.00e-04,8.00e-02,
301,1.20e-03,4.00e-02,
302,2.00e-03,6.00e-02,
303,0.00e+00,8.00e-02,
304,-8.00e-04,8.00e-02,
305,1.20e-03,2.00e-02,
306,1.20e-03,2.00e-02,
307,-8.00e-04,8.00e-02,
308,2.00e-03,8.00e-02,
309,-2.40e-03,2.00e-02,
310,2.00e-03,2.00e-02,
311,7.60e-03,1.86e+00,
312,4.80e-03,1.60e-01,
313,0.00e+00,1.20e-01,
314,4.00e-03,1.20e-01,
315,-8.00e-04,8.00e-02,
316,-1.20e-03,1.00e-01,
317,2.00e-03,8.00e-02,
318,2.00e-03,1.00e-01,
319,-8.00e-04,6.00e-02,
320,-1.20e-03,1.00e-01,
321,2.00e-03,6.00e-02,
322,2.00e-03,6.00e-02,
323,-8.00e-04,8.00e-02,
324,-8.00e-04,8.00e-02,
325,2.40e-03,6.00e-02,
326,-1.60e-03,6.00e-02,
327,2.80e-03,8.00e-02,
328,3.60e-03,6.00e-02,
329,-3.60e-03,8.00e-02,
330,5.60e-03,6.00e-02,
331,-4.00e-03,8.00e-02,
332,-3.60e-03,8.00e-02,
333,3.60e-03,6.00e-02,
334,2.40e-03,6.00e-02,
335,-1.60e-03,8.00e-02,
336,-8.00e-04,6.00e-02,
337,2.00e-03,8.00e-02,
338,1.60e-03,8.00e-02,
339,0.00e+00,6.00e-02,
340,1.60e-03,8.00e-02,
341,-4.00e-04,4.00e-02,
342,1.60e-03,6.00e-02,
343,-8.00e-04,8.00e-02,
344,-1.20e-03,8.00e-02,
345,1.20e-03,4.00e-02,
346,-1.20e-03,8.00e-02,
347,2.00e-03,2.00e-02,
348,2.80e-03,8.00e-02,
349,-2.00e-03,4.00e-02,
350,2.40e-03,6.00e-02,
351,7.20e-03,1.78e+00,
352,4.40e-03,1.60e-01,
353,-8.00e-04,1.20e-01,
354,4.00e-03,1.40e-01,
355,-1.20e-03,8.00e-02,
356,-8.00e-04,8.00e-02,
357,2.00e-03,1.00e-01,
358,2.40e-03,1.00e-01,
359,0.00e+00,6.00e-02,
360,-8.00e-04,1.00e-01,
361,2.00e-03,6.00e-02,
362,-8.00e-04,6.00e-02,
363,1.20e-03,8.00e-02,
364,-8.00e-04,8.00e-02,
365,1.60e-03,6.00e-02,
366,2.40e-03,6.00e-02,
367,-1.20e-03,8.00e-02,
368,3.60e-03,6.00e-02,
369,-2.80e-03,8.00e-02,
370,-4.00e-03,6.00e-02,
371,4.80e-03,8.00e-02,
372,-3.20e-03,6.00e-02,
373,3.60e-03,8.00e-02,
374,2.40e-03,6.00e-02,
375,-1.20e-03,8.00e-02,
376,-8.00e-04,6.00e-02,
377,2.00e-03,8.00e-02,
378,1.20e-03,8.00e-02,
379,-8.00e-04,6.00e-02,
380,0.00e+00,6.00e-02,
381,1.60e-03,8.00e-02,
382,1.20e-03,8.00e-02,
383,-8.00e-04,2.00e-02,
384,2.00e-03,8.00e-02,
385,-1.20e-03,2.00e-02,
386,-1.20e-03,8.00e-02,
387,2.40e-03,2.00e-02,
388,2.80e-03,2.00e-02,
389,-2.40e-03,8.00e-02,
390,2.80e-03,4.00e-02,
391,7.20e-03,1.96e+00,
392,4.00e-03,1.60e-01,
393,-1.20e-03,1.20e-01,
394,4.00e-03,1.40e-01,
395,-1.60e-03,8.00e-02,
396,-1.20e-03,1.00e-01,
397,2.00e-03,8.00e-02,
398,2.00e-03,1.00e-01,
399,-8.00e-04,6.00e-02,
400,-8.00e-04,1.00e-01,
401,1.20e-03,6.00e-02,
402,1.20e-03,8.00e-02,
403,-4.00e-04,6.00e-02,
404,-1.20e-03,6.00e-02,
405,1.20e-03,8.00e-02,
406,-1.20e-03,6.00e-02,
407,2.40e-03,8.00e-02,
408,2.80e-03,6.00e-02,
409,-1.60e-03,8.00e-02,
410,4.00e-03,6.00e-02,
411,-2.80e-03,8.00e-02,
412,-2.40e-03,8.00e-02,
413,3.20e-03,6.00e-02,
414,2.00e-03,6.00e-02,
415,-4.00e-04,8.00e-02,
416,-8.00e-04,6.00e-02,
417,8.00e-04,8.00e-02,
418,-8.00e-04,8.00e-02,
419,2.00e-03,6.00e-02,
420,1.20e-03,8.00e-02,
421,-4.00e-04,4.00e-02,
422,2.00e-03,8.00e-02,
423,0.00e+00,2.00e-02,
424,-8.00e-04,8.00e-02,
425,2.40e-03,4.00e-02,
426,2.00e-03,8.00e-02,
427,-1.60e-03,2.00e-02,
428,-2.40e-03,8.00e-02,
429,3.20e-03,2.00e-02,
430,2.80e-03,2.00e-02,
431,7.20e-03,1.86e+00,
432,4.00e-03,1.60e-01,
433,-1.20e-03,1.20e-01,
434,4.40e-03,1.20e-01,
435,-1.20e-03,8.00e-02,
436,-8.00e-04,1.00e-01,
437,2.40e-03,8.00e-02,
438,2.40e-03,1.00e-01,
439,-8.00e-04,6.00e-02,
440,-1.20e-03,6.00e-02,
441,1.20e-03,1.00e-01,
442,0.00e+00,6.00e-02,
443,1.60e-03,8.00e-02,
444,0.00e+00,8.00e-02,
445,2.00e-03,6.00e-02,
446,2.40e-03,6.00e-02,
447,-1.20e-03,8.00e-02,
448,-1.60e-03,6.00e-02,
449,2.40e-03,8.00e-02,
450,-2.80e-03,6.00e-02,
451,3.20e-03,8.00e-02,
452,-1.60e-03,8.00e-02,
453,2.80e-03,6.00e-02,
454,2.40e-03,6.00e-02,
455,-8.00e-04,8.00e-02,
456,0.00e+00,8.00e-02,
457,1.60e-03,6.00e-02,
458,2.00e-03,6.00e-02,
459,0.00e+00,8.00e-02,
460,1.20e-03,8.00e-02,
461,-4.00e-04,4.00e-02,
462,2.00e-03,8.00e-02,
463,-8.00e-04,4.00e-02,
464,-1.20e-03,8.00e-02,
465,1.60e-03,4.00e-02,
466,2.40e-03,8.00e-02,
467,-1.60e-03,2.00e-02,
468,2.80e-03,8.00e-02,
469,-3.20e-03,2.00e-02,
470,2.40e-03,4.00e-02,
471,7.60e-03,1.84e+00,
472,4.80e-03,1.60e-01,
473,-1.20e-03,1.20e-01,
474,4.40e-03,8.00e-02,
475,-1.60e-03,1.40e-01,
476,-1.20e-03,1.00e-01,
477,2.00e-03,8.00e-02,
478,-8.00e-04,1.00e-01,
479,2.40e-03,6.00e-02,
480,1.20e-03,1.00e-01,
481,-1.20e-03,6.00e-02,
482,-8.00e-04,6.00e-02,
483,1.20e-03,8.00e-02,
484,-8.00e-04,8.00e-02,
485,1.20e-03,6.00e-02,
486,2.00e-03,6.00e-02,
487,-4.00e-04,8.00e-02,
488,2.40e-03,8.00e-02,
489,-1.60e-03,6.00e-02,
490,3.20e-03,6.00e-02,
491,-1.60e-03,8.00e-02,
492,-1.20e-03,6.00e-02,
493,2.80e-03,8.00e-02,
494,2.40e-03,6.00e-02,
495,-8.00e-04,8.00e-02,
496,1.20e-03,6.00e-02,
497,-4.00e-04,8.00e-02,
498,4.00e-04,6.00e-02,
499,1.60e-03,8.00e-02,
500,1.20e-03,8.00e-02,
501,-4.00e-04,4.00e-02,
502,1.20e-03,8.00e-02,
503,-8.00e-04,4.00e-02,
504,-8.00e-04,8.00e-02,
505,2.00e-03,4.00e-02,
506,2.40e-03,8.00e-02,
507,-8.00e-04,2.00e-02,
508,2.80e-03,4.00e-02,
509,-2.80e-03,8.00e-02,
510,1.60e-03,2.00e-02,
511,7.20e-03,1.78e+00,
512,4.80e-03,1.60e-01,
513,-1.20e-03,1.20e-01,
514,4.80e-03,1.40e-01,
515,-1.20e-03,8.00e-02,
516,-8.00e-04,1.00e-01,
517,3.60e-03,8.00e-02,
518,2.40e-03,1.00e-01,
519,-8.00e-04,6.00e-02,
520,-8.00e-04,1.00e-01,
521,1.20e-03,6.00e-02,
522,1.20e-03,6.00e-02,
523,-8.00e-04,8.00e-02,
524,0.00e+00,6.00e-02,
525,1.20e-03,8.00e-02,
526,0.00e+00,6.00e-02,
527,2.00e-03,8.00e-02,
528,2.00e-03,6.00e-02,
529,-1.20e-03,8.00e-02,
530,2.80e-03,6.00e-02,
531,-1.60e-03,8.00e-02,
532,-1.60e-03,8.00e-02,
533,2.40e-03,6.00e-02,
534,1.20e-03,8.00e-02,
535,-8.00e-04,6.00e-02,
536,1.20e-03,6.00e-02,
537,0.00e+00,8.00e-02,
538,4.00e-04,8.00e-02,
539,1.20e-03,6.00e-02,
540,0.00e+00,8.00e-02,
541,1.20e-03,4.00e-02,
542,0.00e+00,8.00e-02,
543,2.00e-03,4.00e-02,
544,-8.00e-04,8.00e-02,
545,1.20e-03,4.00e-02,
546,2.40e-03,8.00e-02,
547,-1.60e-03,2.00e-02,
548,4.00e-03,8.00e-02,
549,-2.80e-03,2.00e-02,
550,1.60e-03,-2.00e-02,
551,7.60e-03,1.80e+00,
552,4.00e-03,1.60e-01,
553,-1.20e-03,1.20e-01,
554,4.00e-03,1.40e-01,
555,-2.40e-03,8.00e-02,
556,-1.20e-03,8.00e-02,
557,2.40e-03,1.00e-01,
558,2.00e-03,1.00e-01,
559,-1.60e-03,8.00e-02,
560,-1.20e-03,1.00e-01,
561,1.20e-03,6.00e-02,
562,-4.00e-04,6.00e-02,
563,1.60e-03,8.00e-02,
564,1.20e-03,6.00e-02,
565,-8.00e-04,8.00e-02,
566,1.20e-03,6.00e-02,
567,-8.00e-04,8.00e-02,
568,-1.20e-03,6.00e-02,
569,2.00e-03,8.00e-02,
570,3.60e-03,8.00e-02,
571,-1.60e-03,6.00e-02,
572,-1.60e-03,6.00e-02,
573,1.20e-03,8.00e-02,
574,0.00e+00,8.00e-02,
575,2.00e-03,6.00e-02,
576,-4.00e-04,8.00e-02,
577,1.20e-03,6.00e-02,
578,1.20e-03,6.00e-02,
579,-4.00e-04,8.00e-02,
580,0.00e+00,6.00e-02,
581,2.00e-03,8.00e-02,
582,2.40e-03,8.00e-02,
583,0.00e+00,4.00e-02,
584,-8.00e-04,8.00e-02,
585,2.40e-03,2.00e-02,
586,-1.20e-03,8.00e-02,
587,2.40e-03,2.00e-02,
588,4.00e-03,8.00e-02,
589,-3.60e-03,2.00e-02,
590,1.60e-03,2.00e-02,
591,7.20e-03,1.92e+00,
592,4.80e-03,1.60e-01,
593,-1.20e-03,1.20e-01,
594,4.80e-03,1.40e-01,
595,-1.20e-03,8.00e-02,
596,-1.20e-03,1.00e-01,
597,2.40e-03,8.00e-02,
598,2.00e-03,1.00e-01,
599,-8.00e-04,6.00e-02,
600,-4.00e-04,6.00e-02,
601,2.00e-03,1.00e-01,
602,1.20e-03,8.00e-02,
603,0.00e+00,6.00e-02,
604,8.00e-04,6.00e-02,
605,-8.00e-04,8.00e-02,
606,0.00e+00,6.00e-02,
607,1.60e-03,8.00e-02,
608,-8.00e-04,6.00e-02,
609,2.00e-03,8.00e-02,
610,2.40e-03,6.00e-02,
611,-1.20e-03,8.00e-02,
612,-8.00e-04,8.00e-02,
613,2.00e-03,6.00e-02,
614,1.20e-03,6.00e-02,
615,-8.00e-04,8.00e-02,
616,0.00e+00,6.00e-02,
617,1.20e-03,8.00e-02,
618,2.40e-03,8.00e-02,
619,0.00e+00,4.00e-02,
620,-1.20e-03,8.00e-02,
621,8.00e-04,2.00e-02,
622,-8.00e-04,8.00e-02,
623,1.20e-03,4.00e-02,
624,-1.60e-03,8.00e-02,
625,1.60e-03,2.00e-02,
626,2.40e-03,2.00e-02,
627,-1.60e-03,8.00e-02,
628,3.60e-03,8.00e-02,
629,-3.20e-03,2.00e-02,
630,1.60e-03,4.00e-02,
631,7.20e-03,1.80e+00,
632,4.80e-03,1.80e-01,
633,-1.20e-03,1.20e-01,
634,4.80e-03,1.40e-01,
635,-2.40e-03,8.00e-02,
636,2.40e-03,8.00e-02,
637,-1.60e-03,1.00e-01,
638,2.00e-03,1.00e-01,
639,-1.20e-03,6.00e-02,
640,-8.00e-04,1.00e-01,
641,2.00e-03,6.00e-02,
642,2.00e-03,6.00e-02,
643,4.00e-04,8.00e-02,
644,-8.00e-04,6.00e-02,
645,1.20e-03,8.00e-02,
646,1.20e-03,6.00e-02,
647,-8.00e-04,8.00e-02,
648,-1.20e-03,6.00e-02,
649,1.20e-03,8.00e-02,
650,2.40e-03,6.00e-02,
651,-1.20e-03,8.00e-02,
652,-1.20e-03,6.00e-02,
653,2.00e-03,8.00e-02,
654,1.20e-03,6.00e-02,
655,-8.00e-04,8.00e-02,
656,-4.00e-04,8.00e-02,
657,1.20e-03,6.00e-02,
658,1.20e-03,6.00e-02,
659,0.00e+00,8.00e-02,
660,2.00e-03,6.00e-02,
661,-4.00e-04,8.00e-02,
662,-8.00e-04,8.00e-02,
663,2.00e-03,4.00e-02,
664,-1.20e-03,6.00e-02,
665,1.20e-03,8.00e-02,
666,-1.60e-03,8.00e-02,
667,2.40e-03,2.00e-02,
668,4.00e-03,8.00e-02,
669,-3.60e-03,2.00e-02,
670,4.00e-04,2.00e-02,
671,7.20e-03,1.88e+00,
672,4.80e-03,1.60e-01,
673,-1.20e-03,1.20e-01,
674,4.80e-03,1.40e-01,
675,-1.60e-03,8.00e-02,
676,-1.20e-03,8.00e-02,
677,2.80e-03,1.00e-01,
678,2.00e-03,1.00e-01,
679,-8.00e-04,6.00e-02,
680,1.20e-03,1.00e-01,
681,-8.00e-04,6.00e-02,
682,-4.00e-04,6.00e-02,
683,1.20e-03,1.00e-01,
684,-4.00e-04,6.00e-02,
685,1.20e-03,8.00e-02,
686,-8.00e-04,6.00e-02,
687,1.60e-03,8.00e-02,
688,-8.00e-04,6.00e-02,
689,1.20e-03,8.00e-02,
690,2.00e-03,6.00e-02,
691,-1.20e-03,8.00e-02,
692,-1.20e-03,6.00e-02,
693,2.00e-03,8.00e-02,
694,4.00e-04,6.00e-02,
695,1.60e-03,8.00e-02,
696,0.00e+00,6.00e-02,
697,1.20e-03,8.00e-02,
698,0.00e+00,6.00e-02,
699,1.20e-03,8.00e-02,
700,1.20e-03,6.00e-02,
701,-8.00e-04,8.00e-02,
702,1.20e-03,6.00e-02,
703,-8.00e-04,8.00e-02,
704,2.00e-03,8.00e-02,
705,-1.20e-03,4.00e-02,
706,-1.60e-03,8.00e-02,
707,3.20e-03,2.00e-02,
708,3.20e-03,8.00e-02,
709,-4.40e-03,2.00e-02,
710,4.00e-04,4.00e-02,
711,7.20e-03,1.94e+00,
712,4.80e-03,1.80e-01,
713,-1.20e-03,1.20e-01,
714,5.20e-03,8.00e-02,
715,-2.40e-03,1.40e-01,
716,-8.00e-04,1.00e-01,
717,2.80e-03,8.00e-02,
718,2.40e-03,1.00e-01,
719,-8.00e-04,6.00e-02,
720,-8.00e-04,1.00e-01,
721,2.00e-03,6.00e-02,
722,-8.00e-04,8.00e-02,
723,1.20e-03,6.00e-02,
724,0.00e+00,6.00e-02,
725,2.00e-03,8.00e-02,
726,1.20e-03,6.00e-02,
727,-8.00e-04,8.00e-02,
728,-8.00e-04,6.00e-02,
729,2.00e-03,8.00e-02,
730,2.40e-03,8.00e-02,
731,0.00e+00,6.00e-02,
732,-8.00e-04,6.00e-02,
733,1.20e-03,8.00e-02,
734,0.00e+00,8.00e-02,
735,2.00e-03,6.00e-02,
736,8.00e-04,8.00e-02,
737,-1.20e-03,6.00e-02,
738,1.20e-03,6.00e-02,
739,-4.00e-04,8.00e-02,
740,-1.20e-03,8.00e-02,
741,8.00e-04,2.00e-02,
742,-8.00e-04,8.00e-02,
743,2.00e-03,4.00e-02,
744,-1.20e-03,8.00e-02,
745,1.60e-03,2.00e-02,
746,-1.60e-03,2.00e-02,
747,3.20e-03,8.00e-02,
748,4.00e-03,8.00e-02,
749,-4.00e-03,2.00e-02,
750,8.00e-04,2.00e-02,
751,7.20e-03,1.80e+00,
752,4.40e-03,1.60e-01,
753,-4.00e-04,1.20e-01,
754,5.60e-03,1.40e-01,
755,-1.60e-03,8.00e-02,
756,-1.60e-03,1.00e-01,
757,2.40e-03,8.00e-02,
758,2.40e-03,1.00e-01,
759,-8.00e-04,6.00e-02,
760,-8.00e-04,1.00e-01,
761,2.40e-03,6.00e-02,
762,-8.00e-04,8.00e-02,
763,1.20e-03,6.00e-02,
764,0.00e+00,6.00e-02,
765,1.20e-03,8.00e-02,
766,1.20e-03,6.00e-02,
767,-4.00e-04,8.00e-02,
768,-8.00e-04,6.00e-02,
769,1.20e-03,8.00e-02,
770,1.20e-03,8.00e-02,
771,-1.20e-03,6.00e-02,
772,0.00e+00,8.00e-02,
773,1.20e-03,6.00e-02,
774,1.20e-03,6.00e-02,
775,0.00e+00,8.00e-02,
776,0.00e+00,6.00e-02,
777,1.20e-03,8.00e-02,
778,1.20e-03,6.00e-02,
779,0.00e+00,8.00e-02,
780,8.00e-04,6.00e-02,
781,-8.00e-04,8.00e-02,
782,1.20e-03,8.00e-02,
783,-1.20e-03,4.00e-02,
784,-1.20e-03,8.00e-02,
785,2.00e-03,4.00e-02,
786,-1.60e-03,8.00e-02,
787,2.80e-03,4.00e-02,
788,4.00e-03,4.00e-02,
789,-3.60e-03,8.00e-02,
790,0.00e+00,2.00e-02,
791,7.60e-03,2.00e+00,
792,4.00e-03,1.80e-01,
793,-1.20e-03,1.20e-01,
794,5.20e-03,1.40e-01,
795,-2.00e-03,8.00e-02,
796,-1.20e-03,1.00e-01,
797,2.40e-03,8.00e-02,
798,2.00e-03,1.00e-01,
799,-8.00e-04,6.00e-02,
800,0.00e+00,1.00e-01,
801,2.00e-03,6.00e-02,
802,0.00e+00,6.00e-02,
803,1.20e-03,8.00e-02,
804,1.20e-03,6.00e-02,
805,0.00e+00,8.00e-02,
806,1.20e-03,8.00e-02,
807,-4.00e-04,6.00e-02,
808,1.20e-03,8.00e-02,
809,-8.00e-04,6.00e-02,
810,1.20e-03,6.00e-02,
811,-8.00e-04,8.00e-02,
812,-4.00e-04,6.00e-02,
813,1.20e-03,8.00e-02,
814,1.20e-03,6.00e-02,
815,0.00e+00,8.00e-02,
816,8.00e-04,6.00e-02,
817,0.00e+00,8.00e-02,
818,1.20e-03,8.00e-02,
819,0.00e+00,6.00e-02,
820,-8.00e-04,8.00e-02,
821,1.20e-03,4.00e-02,
822,-4.00e-04,6.00e-02,
823,2.00e-03,8.00e-02,
824,2.00e-03,8.00e-02,
825,-1.60e-03,2.00e-02,
826,-1.20e-03,2.00e-02,
827,2.80e-03,8.00e-02,
828,4.00e-03,8.00e-02,
829,-5.20e-03,2.00e-02,
830,0.00e+00,1.98e+00,
831,7.20e-03,-2.00e-02,
832,4.80e-03,1.60e-01,
833,-8.00e-04,1.20e-01,
834,5.20e-03,1.40e-01,
835,-1.60e-03,8.00e-02,
836,-1.20e-03,8.00e-02,
837,2.40e-03,1.00e-01,
838,2.80e-03,1.00e-01,
839,-8.00e-04,6.00e-02,
840,-8.00e-04,6.00e-02,
841,1.20e-03,1.00e-01,
842,2.00e-03,8.00e-02,
843,-4.00e-04,6.00e-02,
844,0.00e+00,6.00e-02,
845,1.20e-03,8.00e-02,
846,0.00e+00,8.00e-02,
847,1.20e-03,6.00e-02,
848,8.00e-04,6.00e-02,
849,-8.00e-04,8.00e-02,
850,1.20e-03,6.00e-02,
851,-8.00e-04,8.00e-02,
852,8.00e-04,6.00e-02,
853,-8.00e-04,8.00e-02,
854,0.00e+00,8.00e-02,
855,1.20e-03,6.00e-02,
