CarrPurc_P1-19_P2-38_tauVary/Gly98/NewFile5.csv

X,CH1,CH2,Start,Increment,
Sequence,Volt,Volt,-6.000000e-04,1.000000e-04
0,1.20e-03,4.00e-02,
1,0.00e+00,2.00e-02,
2,8.00e-04,4.00e-02,
3,-8.00e-04,2.00e-02,
4,0.00e+00,4.00e-02,
5,1.20e-03,2.00e-02,
6,1.20e-03,2.00e-02,
7,0.00e+00,4.00e-02,
8,8.00e-04,4.00e-02,
9,0.00e+00,2.00e-02,
10,0.00e+00,2.00e-02,
11,5.20e-03,1.64e+00,
12,4.00e-03,1.60e-01,
13,-2.60e-02,1.20e-01,
14,-1.60e-02,1.20e-01,
15,1.28e-02,8.00e-02,
16,8.00e-03,8.00e-02,
17,-6.80e-03,1.00e-01,
18,-2.00e-03,1.00e-01,
19,4.00e-03,6.00e-02,
20,-1.60e-03,8.00e-02,
21,3.20e-03,6.00e-02,
22,2.80e-03,6.00e-02,
23,-1.60e-03,8.00e-02,
24,-1.20e-03,8.00e-02,
25,2.80e-03,6.00e-02,
26,2.00e-03,6.00e-02,
27,-8.00e-04,8.00e-02,
28,-4.00e-04,6.00e-02,
29,2.40e-03,8.00e-02,
30,1.20e-03,6.00e-02,
31,7.20e-03,1.96e+00,
32,4.40e-03,1.60e-01,
33,-7.20e-03,1.20e-01,
34,-7.20e-03,1.20e-01,
35,5.60e-03,8.00e-02,
36,4.00e-03,1.00e-01,
37,-1.20e-03,8.00e-02,
38,-4.00e-04,1.00e-01,
39,1.60e-03,6.00e-02,
40,-8.00e-04,6.00e-02,
41,2.40e-03,1.00e-01,
42,2.00e-03,6.00e-02,
43,-4.00e-04,8.00e-02,
44,-2.80e-03,6.00e-02,
45,5.20e-03,8.00e-02,
46,8.00e-03,6.00e-02,
47,-8.40e-03,8.00e-02,
48,-1.32e-02,8.00e-02,
49,1.56e-02,6.00e-02,
50,-1.84e-02,6.00e-02,
51,1.96e-02,8.00e-02,
52,-1.84e-02,6.00e-02,
53,1.44e-02,8.00e-02,
54,1.04e-02,6.00e-02,
55,-7.20e-03,8.00e-02,
56,-5.20e-03,6.00e-02,
57,4.40e-03,8.00e-02,
58,2.80e-03,8.00e-02,
59,-1.20e-03,2.00e-02,
60,-4.00e-04,8.00e-02,
61,2.00e-03,2.00e-02,
62,-8.00e-04,8.00e-02,
63,2.00e-03,4.00e-02,
64,2.40e-03,8.00e-02,
65,0.00e+00,2.00e-02,
66,1.20e-03,8.00e-02,
67,-8.00e-04,2.00e-02,
68,1.20e-03,8.00e-02,
69,0.00e+00,2.00e-02,
70,8.00e-04,2.00e-02,
71,6.80e-03,1.88e+00,
72,4.00e-03,1.60e-01,
73,-8.00e-04,1.20e-01,
74,2.80e-03,1.20e-01,
75,-4.00e-04,8.00e-02,
76,2.40e-03,1.00e-01,
77,-8.00e-04,8.00e-02,
78,2.40e-03,1.00e-01,
79,-4.00e-04,6.00e-02,
80,-8.00e-04,1.00e-01,
81,2.00e-03,6.00e-02,
82,2.00e-03,8.00e-02,
83,-1.20e-03,6.00e-02,
84,-2.80e-03,8.00e-02,
85,3.60e-03,6.00e-02,
86,-4.40e-03,6.00e-02,
87,6.80e-03,8.00e-02,
88,9.60e-03,8.00e-02,
89,-1.12e-02,6.00e-02,
90,1.40e-02,6.00e-02,
91,-1.44e-02,8.00e-02,
92,-1.12e-02,6.00e-02,
93,1.04e-02,8.00e-02,
94,7.20e-03,6.00e-02,
95,-4.00e-03,8.00e-02,
96,-2.40e-03,6.00e-02,
97,2.80e-03,8.00e-02,
98,-8.00e-04,6.00e-02,
99,2.40e-03,8.00e-02,
100,-8.00e-04,8.00e-02,
101,1.60e-03,6.00e-02,
102,2.00e-03,8.00e-02,
103,0.00e+00,2.00e-02,
104,-4.00e-04,2.00e-02,
105,1.60e-03,8.00e-02,
106,2.40e-03,2.00e-02,
107,-1.60e-03,8.00e-02,
108,-2.80e-03,8.00e-02,
109,4.00e-03,2.00e-02,
110,2.00e-03,2.00e-02,
111,7.20e-03,1.88e+00,
112,4.00e-03,1.60e-01,
113,0.00e+00,1.20e-01,
114,2.40e-03,1.40e-01,
115,0.00e+00,8.00e-02,
116,2.00e-03,1.00e-01,
117,-8.00e-04,8.00e-02,
118,-8.00e-04,1.00e-01,
119,2.00e-03,6.00e-02,
120,-8.00e-04,6.00e-02,
121,2.00e-03,1.00e-01,
122,0.00e+00,6.00e-02,
123,2.40e-03,8.00e-02,
124,2.80e-03,6.00e-02,
125,-1.60e-03,8.00e-02,
126,-3.20e-03,8.00e-02,
127,5.60e-03,6.00e-02,
128,9.20e-03,6.00e-02,
129,-1.00e-02,8.00e-02,
130,1.24e-02,6.00e-02,
131,-1.16e-02,8.00e-02,
132,-8.80e-03,6.00e-02,
133,8.40e-03,8.00e-02,
134,5.60e-03,6.00e-02,
135,-4.00e-03,8.00e-02,
136,-2.80e-03,6.00e-02,
137,2.40e-03,8.00e-02,
138,2.00e-03,8.00e-02,
139,-8.00e-04,4.00e-02,
140,0.00e+00,8.00e-02,
141,2.40e-03,4.00e-02,
142,2.00e-03,8.00e-02,
143,-8.00e-04,4.00e-02,
144,-8.00e-04,8.00e-02,
145,1.20e-03,4.00e-02,
146,2.00e-03,8.00e-02,
147,-1.60e-03,2.00e-02,
148,-2.40e-03,8.00e-02,
149,3.20e-03,2.00e-02,
150,2.00e-03,2.00e-02,
151,7.20e-03,1.78e+00,
152,4.80e-03,1.60e-01,
153,-1.20e-03,1.20e-01,
154,2.40e-03,8.00e-02,
155,-1.20e-03,1.40e-01,
156,1.60e-03,8.00e-02,
157,-1.20e-03,1.00e-01,
158,-8.00e-04,1.00e-01,
159,2.40e-03,6.00e-02,
160,1.20e-03,6.00e-02,
161,-1.20e-03,1.00e-01,
162,-8.00e-04,6.00e-02,
163,2.00e-03,8.00e-02,
164,-1.20e-03,6.00e-02,
165,2.40e-03,8.00e-02,
166,-2.80e-03,6.00e-02,
167,4.80e-03,8.00e-02,
168,6.40e-03,6.00e-02,
169,-6.00e-03,8.00e-02,
170,-8.40e-03,8.00e-02,
171,9.60e-03,6.00e-02,
172,-8.00e-03,6.00e-02,
173,7.20e-03,8.00e-02,
174,5.20e-03,8.00e-02,
175,-2.80e-03,2.00e-02,
176,-1.60e-03,8.00e-02,
177,2.40e-03,4.00e-02,
178,1.20e-03,8.00e-02,
179,0.00e+00,6.00e-02,
180,0.00e+00,8.00e-02,
181,1.20e-03,4.00e-02,
182,1.20e-03,8.00e-02,
183,-4.00e-04,4.00e-02,
184,0.00e+00,8.00e-02,
185,1.20e-03,2.00e-02,
186,0.00e+00,8.00e-02,
187,1.60e-03,2.00e-02,
188,-1.20e-03,8.00e-02,
189,2.80e-03,2.00e-02,
190,2.00e-03,2.00e-02,
191,7.20e-03,1.90e+00,
192,4.80e-03,1.60e-01,
193,0.00e+00,1.20e-01,
194,2.80e-03,1.20e-01,
195,-8.00e-04,8.00e-02,
196,1.20e-03,1.00e-01,
197,-8.00e-04,8.00e-02,
198,2.00e-03,1.00e-01,
199,-4.00e-04,6.00e-02,
200,1.20e-03,6.00e-02,
201,-8.00e-04,1.00e-01,
202,2.00e-03,6.00e-02,
203,-4.00e-04,8.00e-02,
204,-2.40e-03,6.00e-02,
205,2.40e-03,8.00e-02,
206,-2.40e-03,6.00e-02,
207,4.40e-03,8.00e-02,
208,5.60e-03,8.00e-02,
209,-6.80e-03,6.00e-02,
210,-7.60e-03,6.00e-02,
211,8.40e-03,8.00e-02,
212,-6.80e-03,6.00e-02,
213,6.80e-03,8.00e-02,
214,4.00e-03,6.00e-02,
215,-2.80e-03,8.00e-02,
216,-1.60e-03,6.00e-02,
217,2.40e-03,8.00e-02,
218,1.60e-03,8.00e-02,
219,-8.00e-04,6.00e-02,
220,0.00e+00,8.00e-02,
221,1.20e-03,4.00e-02,
222,-8.00e-04,8.00e-02,
223,1.60e-03,2.00e-02,
224,-8.00e-04,8.00e-02,
225,2.00e-03,2.00e-02,
226,2.40e-03,8.00e-02,
227,-1.20e-03,2.00e-02,
228,2.40e-03,2.00e-02,
229,-2.00e-03,8.00e-02,
230,2.40e-03,1.92e+00,
231,7.20e-03,-2.00e-02,
232,4.00e-03,1.60e-01,
233,-8.00e-04,1.20e-01,
234,3.60e-03,1.40e-01,
235,-8.00e-04,8.00e-02,
236,-8.00e-04,1.00e-01,
237,2.00e-03,8.00e-02,
238,-8.00e-04,1.00e-01,
239,2.00e-03,6.00e-02,
240,0.00e+00,6.00e-02,
241,2.40e-03,8.00e-02,
242,2.00e-03,6.00e-02,
243,0.00e+00,8.00e-02,
244,2.00e-03,6.00e-02,
245,-1.20e-03,8.00e-02,
246,-1.60e-03,6.00e-02,
247,4.40e-03,8.00e-02,
248,5.20e-03,8.00e-02,
249,-5.60e-03,6.00e-02,
250,-6.80e-03,8.00e-02,
251,8.00e-03,6.00e-02,
252,-5.60e-03,6.00e-02,
253,5.20e-03,8.00e-02,
254,4.00e-03,8.00e-02,
255,-1.60e-03,6.00e-02,
256,-1.20e-03,8.00e-02,
257,2.00e-03,6.00e-02,
258,2.00e-03,8.00e-02,
259,-8.00e-04,2.00e-02,
260,-8.00e-04,8.00e-02,
261,1.20e-03,2.00e-02,
262,1.60e-03,8.00e-02,
263,-8.00e-04,2.00e-02,
264,-8.00e-04,2.00e-02,
265,1.20e-03,8.00e-02,
266,-1.20e-03,8.00e-02,
267,2.00e-03,2.00e-02,
268,2.40e-03,2.00e-02,
269,-2.40e-03,8.00e-02,
270,2.40e-03,2.00e-02,
271,7.20e-03,1.82e+00,
272,4.00e-03,1.60e-01,
273,-4.00e-04,1.20e-01,
274,3.60e-03,1.40e-01,
275,-1.20e-03,8.00e-02,
276,2.40e-03,8.00e-02,
277,-8.00e-04,1.00e-01,
278,2.40e-03,1.00e-01,
279,-8.00e-04,6.00e-02,
280,-1.20e-03,6.00e-02,
281,2.00e-03,1.00e-01,
282,2.00e-03,6.00e-02,
283,-4.00e-04,8.00e-02,
284,-8.00e-04,6.00e-02,
285,2.00e-03,8.00e-02,
286,-1.60e-03,6.00e-02,
287,2.80e-03,8.00e-02,
288,4.00e-03,6.00e-02,
289,-4.00e-03,8.00e-02,
290,-4.80e-03,8.00e-02,
291,7.20e-03,4.00e-02,
292,-4.40e-03,8.00e-02,
293,5.20e-03,6.00e-02,
294,3.60e-03,6.00e-02,
295,-1.60e-03,8.00e-02,
296,-1.60e-03,8.00e-02,
297,1.20e-03,6.00e-02,
298,1.20e-03,8.00e-02,
299,-8.00e-04,4.00e-02,
300,-8.00e-04,4.00e-02,
301,1.20e-03,8.00e-02,
302,4.00e-04,2.00e-02,
303,2.40e-03,8.00e-02,
304,0.00e+00,8.00e-02,
305,2.00e-03,2.00e-02,
306,-8.00e-04,8.00e-02,
307,2.00e-03,2.00e-02,
308,-1.60e-03,8.00e-02,
309,3.20e-03,2.00e-02,
310,3.20e-03,2.00e-02,
311,7.60e-03,1.84e+00,
312,4.80e-03,1.60e-01,
313,-8.00e-04,1.20e-01,
314,3.60e-03,1.20e-01,
315,-1.60e-03,8.00e-02,
316,-1.20e-03,1.00e-01,
317,2.40e-03,8.00e-02,
318,2.40e-03,1.00e-01,
319,-8.00e-04,6.00e-02,
320,1.20e-03,1.00e-01,
321,-8.00e-04,6.00e-02,
322,0.00e+00,6.00e-02,
323,2.00e-03,8.00e-02,
324,2.00e-03,8.00e-02,
325,-8.00e-04,6.00e-02,
326,-1.20e-03,6.00e-02,
327,3.60e-03,8.00e-02,
328,4.00e-03,6.00e-02,
329,-4.00e-03,8.00e-02,
330,-5.20e-03,6.00e-02,
331,5.60e-03,8.00e-02,
332,-4.00e-03,8.00e-02,
333,4.00e-03,6.00e-02,
334,2.80e-03,6.00e-02,
335,-1.60e-03,8.00e-02,
336,-8.00e-04,6.00e-02,
337,1.60e-03,8.00e-02,
338,1.20e-03,8.00e-02,
339,-8.00e-04,6.00e-02,
340,0.00e+00,6.00e-02,
341,1.20e-03,8.00e-02,
342,1.60e-03,8.00e-02,
343,-4.00e-04,4.00e-02,
344,-8.00e-04,8.00e-02,
345,2.00e-03,2.00e-02,
346,2.00e-03,8.00e-02,
347,-1.20e-03,4.00e-02,
348,2.80e-03,8.00e-02,
349,-2.40e-03,2.00e-02,
350,2.80e-03,2.00e-02,
351,7.20e-03,1.86e+00,
352,4.00e-03,1.60e-01,
353,-8.00e-04,1.20e-01,
354,4.00e-03,1.40e-01,
355,-1.20e-03,8.00e-02,
356,-8.00e-04,8.00e-02,
357,2.40e-03,1.00e-01,
358,2.40e-03,1.00e-01,
359,-8.00e-04,6.00e-02,
360,1.20e-03,6.00e-02,
361,-8.00e-04,1.00e-01,
362,0.00e+00,6.00e-02,
363,1.20e-03,8.00e-02,
364,-8.00e-04,8.00e-02,
365,1.60e-03,6.00e-02,
366,2.40e-03,6.00e-02,
367,-1.60e-03,8.00e-02,
368,2.80e-03,6.00e-02,
369,-3.20e-03,8.00e-02,
370,5.20e-03,6.00e-02,
371,-4.40e-03,8.00e-02,
372,-3.20e-03,6.00e-02,
373,3.60e-03,8.00e-02,
374,2.40e-03,6.00e-02,
375,-1.20e-03,8.00e-02,
376,-1.20e-03,6.00e-02,
377,2.00e-03,8.00e-02,
378,-4.00e-04,8.00e-02,
379,1.60e-03,6.00e-02,
380,1.60e-03,8.00e-02,
381,-4.00e-04,4.00e-02,
382,2.00e-03,8.00e-02,
383,-1.20e-03,2.00e-02,
384,2.40e-03,8.00e-02,
385,-8.00e-04,2.00e-02,
386,2.40e-03,8.00e-02,
387,-1.20e-03,2.00e-02,
388,3.60e-03,2.00e-02,
389,-2.80e-03,8.00e-02,
390,2.80e-03,2.00e-02,
391,7.60e-03,1.74e+00,
392,4.80e-03,1.60e-01,
393,-8.00e-04,1.20e-01,
394,4.80e-03,1.40e-01,
395,-1.60e-03,8.00e-02,
396,-1.20e-03,1.00e-01,
397,2.40e-03,8.00e-02,
398,-8.00e-04,1.00e-01,
399,2.40e-03,6.00e-02,
400,-8.00e-04,1.00e-01,
401,2.00e-03,6.00e-02,
402,1.20e-03,8.00e-02,
403,0.00e+00,6.00e-02,
404,2.00e-03,6.00e-02,
405,-8.00e-04,8.00e-02,
406,-1.60e-03,6.00e-02,
407,2.00e-03,8.00e-02,
408,3.60e-03,6.00e-02,
409,-2.80e-03,8.00e-02,
410,4.00e-03,6.00e-02,
411,-4.00e-03,8.00e-02,
412,-2.80e-03,8.00e-02,
413,3.60e-03,6.00e-02,
414,2.40e-03,6.00e-02,
415,-1.20e-03,8.00e-02,
416,-8.00e-04,6.00e-02,
417,1.20e-03,8.00e-02,
418,0.00e+00,8.00e-02,
419,2.00e-03,6.00e-02,
420,1.20e-03,8.00e-02,
421,0.00e+00,4.00e-02,
422,-8.00e-04,6.00e-02,
423,1.60e-03,8.00e-02,
424,-8.00e-04,8.00e-02,
425,2.00e-03,2.00e-02,
426,-1.20e-03,4.00e-02,
427,2.40e-03,8.00e-02,
428,2.80e-03,8.00e-02,
429,-2.80e-03,2.00e-02,
430,2.80e-03,1.90e+00,
431,7.20e-03,0.00e+00,
432,4.00e-03,1.60e-01,
433,-8.00e-04,1.20e-01,
434,4.40e-03,1.20e-01,
435,-1.20e-03,8.00e-02,
436,-1.20e-03,1.00e-01,
437,2.40e-03,8.00e-02,
438,2.40e-03,1.00e-01,
439,-8.00e-04,6.00e-02,
440,-8.00e-04,1.00e-01,
441,1.20e-03,6.00e-02,
442,1.20e-03,6.00e-02,
443,0.00e+00,8.00e-02,
444,2.00e-03,8.00e-02,
445,-8.00e-04,6.00e-02,
446,-8.00e-04,6.00e-02,
447,2.40e-03,8.00e-02,
448,2.80e-03,6.00e-02,
449,-2.40e-03,8.00e-02,
450,4.00e-03,6.00e-02,
451,-2.40e-03,8.00e-02,
452,-2.40e-03,8.00e-02,
453,2.00e-03,6.00e-02,
454,-8.00e-04,6.00e-02,
455,1.60e-03,8.00e-02,
456,-8.00e-04,8.00e-02,
457,2.00e-03,6.00e-02,
458,1.20e-03,6.00e-02,
459,0.00e+00,8.00e-02,
460,-8.00e-04,8.00e-02,
461,1.60e-03,4.00e-02,
462,-8.00e-04,6.00e-02,
463,2.00e-03,8.00e-02,
464,-8.00e-04,8.00e-02,
465,2.00e-03,2.00e-02,
466,2.40e-03,8.00e-02,
467,-1.20e-03,4.00e-02,
468,3.60e-03,8.00e-02,
469,-3.20e-03,2.00e-02,
470,2.40e-03,2.00e-02,
471,7.60e-03,1.90e+00,
472,4.80e-03,1.60e-01,
473,-8.00e-04,1.20e-01,
474,4.80e-03,8.00e-02,
475,-1.60e-03,1.40e-01,
476,-1.20e-03,1.00e-01,
477,2.40e-03,8.00e-02,
478,2.40e-03,1.00e-01,
479,-8.00e-04,6.00e-02,
480,1.20e-03,1.00e-01,
481,-8.00e-04,6.00e-02,
482,0.00e+00,6.00e-02,
483,1.60e-03,8.00e-02,
484,1.20e-03,8.00e-02,
485,-8.00e-04,6.00e-02,
486,-8.00e-04,6.00e-02,
487,2.40e-03,8.00e-02,
488,2.40e-03,8.00e-02,
489,-2.40e-03,6.00e-02,
490,-2.80e-03,6.00e-02,
491,3.60e-03,8.00e-02,
492,-1.60e-03,6.00e-02,
493,2.40e-03,8.00e-02,
494,2.00e-03,6.00e-02,
495,-1.20e-03,8.00e-02,
496,-1.20e-03,6.00e-02,
497,1.20e-03,8.00e-02,
498,1.20e-03,6.00e-02,
499,0.00e+00,8.00e-02,
500,0.00e+00,8.00e-02,
501,1.20e-03,2.00e-02,
502,1.20e-03,8.00e-02,
503,-8.00e-04,2.00e-02,
504,-8.00e-04,8.00e-02,
505,1.20e-03,2.00e-02,
506,2.40e-03,8.00e-02,
507,-1.20e-03,2.00e-02,
508,4.00e-03,2.00e-02,
509,-3.20e-03,8.00e-02,
510,1.60e-03,2.00e-02,
511,7.20e-03,1.86e+00,
512,4.80e-03,1.60e-01,
513,-8.00e-04,1.20e-01,
514,4.80e-03,1.40e-01,
515,-1.60e-03,8.00e-02,
516,-1.20e-03,1.00e-01,
517,2.40e-03,8.00e-02,
518,2.00e-03,1.00e-01,
519,-1.20e-03,6.00e-02,
520,1.20e-03,1.00e-01,
521,-1.20e-03,6.00e-02,
522,4.00e-04,6.00e-02,
523,1.20e-03,8.00e-02,
524,1.20e-03,6.00e-02,
525,-8.00e-04,8.00e-02,
526,-1.20e-03,6.00e-02,
527,2.40e-03,8.00e-02,
528,2.40e-03,6.00e-02,
529,-1.20e-03,8.00e-02,
530,-1.60e-03,6.00e-02,
531,3.20e-03,8.00e-02,
532,-1.60e-03,8.00e-02,
533,2.00e-03,6.00e-02,
534,2.40e-03,8.00e-02,
535,-8.00e-04,6.00e-02,
536,-1.20e-03,6.00e-02,
537,1.20e-03,8.00e-02,
538,-8.00e-04,8.00e-02,
539,1.20e-03,6.00e-02,
540,-8.00e-04,8.00e-02,
541,1.60e-03,2.00e-02,
542,2.00e-03,8.00e-02,
543,-8.00e-04,2.00e-02,
544,2.00e-03,8.00e-02,
545,-1.20e-03,2.00e-02,
546,2.40e-03,8.00e-02,
547,-1.20e-03,2.00e-02,
548,2.80e-03,8.00e-02,
549,-3.20e-03,2.00e-02,
550,1.60e-03,-2.00e-01,
551,8.00e-03,1.96e+00,
552,4.80e-03,1.60e-01,
553,-4.00e-04,1.20e-01,
554,4.00e-03,1.20e-01,
555,-1.60e-03,8.00e-02,
556,-8.00e-04,8.00e-02,
557,2.40e-03,1.00e-01,
558,2.40e-03,1.00e-01,
559,-8.00e-04,6.00e-02,
560,-4.00e-04,6.00e-02,
561,2.00e-03,1.00e-01,
562,2.00e-03,6.00e-02,
563,0.00e+00,8.00e-02,
564,1.20e-03,6.00e-02,
565,-8.00e-04,8.00e-02,
566,-1.20e-03,6.00e-02,
567,1.60e-03,8.00e-02,
568,-1.20e-03,6.00e-02,
569,2.00e-03,8.00e-02,
570,2.80e-03,8.00e-02,
571,-1.20e-03,6.00e-02,
572,-1.60e-03,6.00e-02,
573,2.00e-03,8.00e-02,
574,0.00e+00,8.00e-02,
575,2.00e-03,6.00e-02,
576,1.20e-03,8.00e-02,
577,-4.00e-04,6.00e-02,
578,8.00e-04,8.00e-02,
579,-8.00e-04,2.00e-02,
580,1.20e-03,8.00e-02,
581,-4.00e-04,2.00e-02,
582,1.60e-03,8.00e-02,
583,-8.00e-04,2.00e-02,
584,-8.00e-04,8.00e-02,
585,1.20e-03,2.00e-02,
586,2.40e-03,8.00e-02,
587,-1.60e-03,2.00e-02,
588,3.60e-03,8.00e-02,
589,-3.20e-03,2.00e-02,
590,2.00e-03,2.00e-02,
591,7.20e-03,1.94e+00,
592,4.00e-03,1.60e-01,
593,-1.60e-03,1.20e-01,
594,4.80e-03,1.40e-01,
595,-2.00e-03,8.00e-02,
596,-1.20e-03,1.00e-01,
597,2.40e-03,8.00e-02,
598,2.40e-03,6.00e-02,
599,-4.00e-04,1.00e-01,
600,-8.00e-04,6.00e-02,
601,2.00e-03,1.00e-01,
602,1.20e-03,8.00e-02,
603,-8.00e-04,6.00e-02,
604,0.00e+00,6.00e-02,
605,1.20e-03,8.00e-02,
606,1.20e-03,6.00e-02,
607,-8.00e-04,8.00e-02,
608,-8.00e-04,6.00e-02,
609,2.40e-03,8.00e-02,
610,-1.60e-03,6.00e-02,
611,2.40e-03,8.00e-02,
612,-8.00e-04,8.00e-02,
613,2.40e-03,6.00e-02,
614,1.20e-03,6.00e-02,
615,0.00e+00,8.00e-02,
616,1.20e-03,6.00e-02,
617,0.00e+00,8.00e-02,
618,1.20e-03,6.00e-02,
619,0.00e+00,8.00e-02,
620,-8.00e-04,6.00e-02,
621,1.20e-03,8.00e-02,
622,2.00e-03,8.00e-02,
623,-8.00e-04,2.00e-02,
624,2.00e-03,8.00e-02,
625,-1.20e-03,2.00e-02,
626,2.40e-03,8.00e-02,
627,-1.60e-03,2.00e-02,
628,4.00e-03,2.00e-02,
629,-3.20e-03,8.00e-02,
630,1.20e-03,2.00e-02,
631,8.00e-03,1.84e+00,
632,4.80e-03,1.60e-01,
633,-1.20e-03,1.20e-01,
634,4.40e-03,1.40e-01,
635,-1.60e-03,8.00e-02,
636,-1.20e-03,8.00e-02,
637,3.60e-03,1.00e-01,
638,2.80e-03,1.00e-01,
639,-8.00e-04,6.00e-02,
640,-8.00e-04,1.00e-01,
641,1.20e-03,6.00e-02,
642,0.00e+00,6.00e-02,
643,1.20e-03,8.00e-02,
644,-8.00e-04,6.00e-02,
645,1.60e-03,8.00e-02,
646,1.60e-03,6.00e-02,
647,-8.00e-04,8.00e-02,
648,-8.00e-04,6.00e-02,
649,1.20e-03,8.00e-02,
650,2.00e-03,6.00e-02,
651,-8.00e-04,8.00e-02,
652,-1.20e-03,6.00e-02,
653,1.20e-03,8.00e-02,
654,-8.00e-04,6.00e-02,
655,1.20e-03,8.00e-02,
656,-8.00e-04,8.00e-02,
657,1.20e-03,6.00e-02,
658,1.20e-03,6.00e-02,
659,-8.00e-04,8.00e-02,
660,2.00e-03,8.00e-02,
661,-8.00e-04,2.00e-02,
662,2.00e-03,8.00e-02,
663,0.00e+00,2.00e-02,
664,-1.20e-03,2.00e-02,
665,1.20e-03,8.00e-02,
666,-1.20e-03,8.00e-02,
667,2.80e-03,2.00e-02,
668,3.60e-03,8.00e-02,
669,-3.60e-03,2.00e-02,
670,8.00e-04,2.00e-02,
671,7.20e-03,2.00e+00,
672,4.80e-03,1.60e-01,
673,-1.60e-03,1.20e-01,
674,4.40e-03,1.40e-01,
675,-1.60e-03,8.00e-02,
676,-1.20e-03,8.00e-02,
677,2.80e-03,1.00e-01,
678,-1.20e-03,1.00e-01,
679,2.40e-03,6.00e-02,
680,1.60e-03,6.00e-02,
681,-8.00e-04,1.00e-01,
682,0.00e+00,8.00e-02,
683,1.20e-03,6.00e-02,
684,1.20e-03,6.00e-02,
685,-4.00e-04,8.00e-02,
686,1.60e-03,6.00e-02,
687,0.00e+00,8.00e-02,
688,1.60e-03,6.00e-02,
689,-8.00e-04,8.00e-02,
690,2.40e-03,6.00e-02,
691,-8.00e-04,8.00e-02,
692,-1.20e-03,6.00e-02,
693,1.20e-03,8.00e-02,
694,0.00e+00,6.00e-02,
695,2.00e-03,8.00e-02,
696,1.20e-03,6.00e-02,
697,0.00e+00,8.00e-02,
698,1.20e-03,6.00e-02,
699,0.00e+00,8.00e-02,
700,-8.00e-04,6.00e-02,
701,1.20e-03,8.00e-02,
702,2.00e-03,8.00e-02,
703,-4.00e-04,4.00e-02,
704,-8.00e-04,8.00e-02,
705,2.00e-03,2.00e-02,
706,-1.60e-03,8.00e-02,
707,3.20e-03,2.00e-02,
708,4.00e-03,2.00e-02,
709,-2.80e-03,8.00e-02,
710,8.00e-04,2.00e-02,
711,7.20e-03,1.96e+00,
712,4.80e-03,1.60e-01,
713,-1.20e-03,1.20e-01,
714,5.60e-03,1.20e-01,
715,-1.20e-03,8.00e-02,
716,2.40e-03,1.00e-01,
717,-1.60e-03,8.00e-02,
718,2.40e-03,1.00e-01,
719,-1.20e-03,6.00e-02,
720,2.40e-03,1.00e-01,
721,-8.00e-04,6.00e-02,
722,-8.00e-04,8.00e-02,
723,1.20e-03,6.00e-02,
724,-8.00e-04,6.00e-02,
725,1.20e-03,8.00e-02,
726,2.00e-03,6.00e-02,
727,0.00e+00,8.00e-02,
728,1.20e-03,6.00e-02,
729,-8.00e-04,8.00e-02,
730,2.40e-03,8.00e-02,
731,-8.00e-04,6.00e-02,
732,-1.20e-03,6.00e-02,
733,2.00e-03,8.00e-02,
734,0.00e+00,8.00e-02,
735,2.00e-03,6.00e-02,
736,4.00e-04,8.00e-02,
737,2.00e-03,6.00e-02,
738,1.20e-03,8.00e-02,
739,0.00e+00,4.00e-02,
740,-8.00e-04,8.00e-02,
741,1.20e-03,4.00e-02,
742,-8.00e-04,8.00e-02,
743,2.00e-03,2.00e-02,
744,-1.20e-03,8.00e-02,
745,1.60e-03,4.00e-02,
746,2.40e-03,8.00e-02,
747,-1.60e-03,2.00e-02,
748,4.80e-03,2.00e-02,
749,-3.20e-03,8.00e-02,
750,1.20e-03,2.00e-02,
751,7.20e-03,1.84e+00,
752,4.40e-03,1.60e-01,
753,-4.00e-04,1.20e-01,
754,5.20e-03,1.40e-01,
755,-1.60e-03,8.00e-02,
756,-1.20e-03,1.00e-01,
757,2.80e-03,8.00e-02,
758,2.40e-03,8.00e-02,
759,-1.20e-03,1.00e-01,
760,-8.00e-04,1.00e-01,
761,2.00e-03,6.00e-02,
762,1.20e-03,8.00e-02,
763,0.00e+00,6.00e-02,
764,1.20e-03,6.00e-02,
765,0.00e+00,8.00e-02,
766,2.00e-03,6.00e-02,
767,4.00e-04,8.00e-02,
768,1.20e-03,6.00e-02,
769,-8.00e-04,8.00e-02,
770,-8.00e-04,8.00e-02,
771,2.00e-03,6.00e-02,
772,-8.00e-04,8.00e-02,
773,1.20e-03,6.00e-02,
774,2.00e-03,6.00e-02,
775,0.00e+00,8.00e-02,
776,1.20e-03,6.00e-02,
777,0.00e+00,8.00e-02,
778,1.20e-03,8.00e-02,
779,0.00e+00,4.00e-02,
780,1.20e-03,8.00e-02,
781,-8.00e-04,2.00e-02,
782,2.00e-03,8.00e-02,
783,-4.00e-04,4.00e-02,
784,2.00e-03,4.00e-02,
785,-1.20e-03,8.00e-02,
786,-1.20e-03,8.00e-02,
787,2.80e-03,2.00e-02,
788,4.00e-03,8.00e-02,
789,-3.20e-03,2.00e-02,
790,8.00e-04,2.00e-02,
791,7.60e-03,2.00e+00,
792,4.80e-03,1.60e-01,
793,-1.20e-03,1.20e-01,
794,5.20e-03,8.00e-02,
795,-2.40e-03,1.40e-01,
796,-2.40e-03,1.00e-01,
797,2.00e-03,6.00e-02,
798,2.40e-03,1.00e-01,
799,-4.00e-04,6.00e-02,
800,-8.00e-04,6.00e-02,
801,2.00e-03,8.00e-02,
802,8.00e-04,6.00e-02,
803,-1.20e-03,8.00e-02,
804,-8.00e-04,6.00e-02,
805,2.00e-03,8.00e-02,
806,2.00e-03,8.00e-02,
807,0.00e+00,6.00e-02,
808,1.20e-03,8.00e-02,
809,-8.00e-04,6.00e-02,
810,2.00e-03,6.00e-02,
811,-4.00e-04,8.00e-02,
812,-8.00e-04,6.00e-02,
813,2.00e-03,8.00e-02,
814,0.00e+00,6.00e-02,
815,1.20e-03,8.00e-02,
816,4.00e-04,6.00e-02,
817,1.60e-03,8.00e-02,
818,1.20e-03,8.00e-02,
819,-4.00e-04,2.00e-02,
820,-1.20e-03,8.00e-02,
821,1.20e-03,4.00e-02,
822,1.20e-03,8.00e-02,
823,-8.00e-04,2.00e-02,
824,-1.20e-03,8.00e-02,
825,2.40e-03,2.00e-02,
826,-1.20e-03,2.00e-02,
827,3.20e-03,8.00e-02,
828,4.00e-03,4.00e-02,
829,-4.40e-03,8.00e-02,
830,4.00e-04,2.00e-02,
831,7.20e-03,2.00e+00,
832,4.80e-03,1.80e-01,
833,-1.20e-03,1.20e-01,
834,5.20e-03,1.40e-01,
835,-1.60e-03,8.00e-02,
836,-1.20e-03,8.00e-02,
837,2.80e-03,1.00e-01,
838,2.40e-03,1.00e-01,
839,-8.00e-04,6.00e-02,
840,1.60e-03,6.00e-02,
841,-8.00e-04,1.00e-01,
842,0.00e+00,8.00e-02,
843,1.20e-03,6.00e-02,
844,1.20e-03,6.00e-02,
845,-4.00e-04,8.00e-02,
846,0.00e+00,8.00e-02,
847,1.20e-03,6.00e-02,
848,0.00e+00,6.00e-02,
849,1.20e-03,8.00e-02,
850,1.60e-03,6.00e-02,
851,0.00e+00,8.00e-02,
852,-4.00e-04,6.00e-02,
853,1.60e-03,8.00e-02,
854,0.00e+00,8.00e-02,
855,1.20e-03,6.00e-02,
