CarrPurc_P1-19_P2-38_tauVary/Gly98/NewFile9.csv

X,CH1,CH2,Start,Increment,
Sequence,Volt,Volt,-6.000000e-04,1.000000e-04
0,1.20e-03,4.00e-02,
1,0.00e+00,2.00e-02,
2,1.20e-03,4.00e-02,
3,0.00e+00,2.00e-02,
4,0.00e+00,4.00e-02,
5,2.00e-03,0.00e+00,
6,1.20e-03,2.00e-02,
7,0.00e+00,4.00e-02,
8,0.00e+00,4.00e-02,
9,8.00e-04,2.00e-02,
10,0.00e+00,1.88e+00,
11,5.20e-03,-4.00e-02,
12,4.00e-03,1.60e-01,
13,-2.76e-02,8.00e-02,
14,-1.60e-02,1.20e-01,
15,1.40e-02,8.00e-02,
16,6.80e-03,8.00e-02,
17,-8.80e-03,1.00e-01,
18,3.60e-03,1.00e-01,
19,-2.40e-03,6.00e-02,
20,2.80e-03,6.00e-02,
21,-2.40e-03,1.00e-01,
22,2.80e-03,6.00e-02,
23,-1.60e-03,8.00e-02,
24,-1.60e-03,8.00e-02,
25,2.40e-03,6.00e-02,
26,2.40e-03,6.00e-02,
27,-8.00e-04,8.00e-02,
28,-1.20e-03,6.00e-02,
29,1.60e-03,8.00e-02,
30,8.00e-04,1.90e+00,
31,7.20e-03,2.00e-02,
32,4.40e-03,1.60e-01,
33,-7.60e-03,1.20e-01,
34,-8.00e-03,1.20e-01,
35,5.60e-03,8.00e-02,
36,4.40e-03,1.00e-01,
37,-1.20e-03,8.00e-02,
38,2.00e-03,1.00e-01,
39,0.00e+00,6.00e-02,
40,-1.20e-03,6.00e-02,
41,2.00e-03,1.00e-01,
42,1.20e-03,6.00e-02,
43,-8.00e-04,1.00e-01,
44,-2.40e-03,6.00e-02,
45,5.60e-03,8.00e-02,
46,8.00e-03,6.00e-02,
47,-9.60e-03,8.00e-02,
48,-1.40e-02,8.00e-02,
49,1.60e-02,6.00e-02,
50,-1.88e-02,6.00e-02,
51,2.08e-02,8.00e-02,
52,-1.76e-02,6.00e-02,
53,1.80e-02,8.00e-02,
54,1.08e-02,6.00e-02,
55,-7.20e-03,8.00e-02,
56,-4.00e-03,8.00e-02,
57,5.20e-03,4.00e-02,
58,2.40e-03,8.00e-02,
59,0.00e+00,4.00e-02,
60,-1.20e-03,2.00e-02,
61,2.00e-03,8.00e-02,
62,-1.20e-03,8.00e-02,
63,1.60e-03,2.00e-02,
64,2.00e-03,8.00e-02,
65,-8.00e-04,2.00e-02,
66,1.20e-03,8.00e-02,
67,-8.00e-04,2.00e-02,
68,0.00e+00,8.00e-02,
69,2.00e-03,2.00e-02,
70,4.00e-04,2.00e-02,
71,7.20e-03,1.88e+00,
72,4.40e-03,1.60e-01,
73,-8.00e-04,1.20e-01,
74,2.40e-03,1.40e-01,
75,-8.00e-04,8.00e-02,
76,-8.00e-04,1.00e-01,
77,1.60e-03,6.00e-02,
78,2.40e-03,1.00e-01,
79,-1.60e-03,6.00e-02,
80,-8.00e-04,6.00e-02,
81,1.20e-03,1.00e-01,
82,2.40e-03,8.00e-02,
83,-1.20e-03,6.00e-02,
84,-3.60e-03,8.00e-02,
85,4.40e-03,6.00e-02,
86,-5.20e-03,6.00e-02,
87,6.80e-03,8.00e-02,
88,1.04e-02,8.00e-02,
89,-1.28e-02,6.00e-02,
90,1.40e-02,6.00e-02,
91,-1.60e-02,8.00e-02,
92,-1.32e-02,2.00e-02,
93,1.00e-02,8.00e-02,
94,6.40e-03,8.00e-02,
95,-4.00e-03,2.00e-02,
96,-2.80e-03,8.00e-02,
97,2.80e-03,2.00e-02,
98,2.00e-03,8.00e-02,
99,-1.20e-03,2.00e-02,
100,-8.00e-04,8.00e-02,
101,2.00e-03,2.00e-02,
102,1.60e-03,8.00e-02,
103,-8.00e-04,2.00e-02,
104,0.00e+00,2.00e-02,
105,2.00e-03,8.00e-02,
106,2.40e-03,2.00e-02,
107,-1.60e-03,8.00e-02,
108,-2.80e-03,2.00e-02,
109,4.00e-03,8.00e-02,
110,2.00e-03,2.00e-02,
111,7.20e-03,1.66e+00,
112,4.00e-03,1.60e-01,
113,-4.00e-04,1.20e-01,
114,2.80e-03,8.00e-02,
115,-8.00e-04,1.40e-01,
116,0.00e+00,1.00e-01,
117,2.40e-03,6.00e-02,
118,2.40e-03,1.00e-01,
119,0.00e+00,6.00e-02,
120,1.60e-03,6.00e-02,
121,0.00e+00,1.00e-01,
122,-4.00e-04,6.00e-02,
123,2.40e-03,8.00e-02,
124,2.40e-03,6.00e-02,
125,-2.80e-03,8.00e-02,
126,-4.40e-03,8.00e-02,
127,5.60e-03,6.00e-02,
128,1.04e-02,6.00e-02,
129,-1.12e-02,8.00e-02,
130,1.32e-02,6.00e-02,
131,-1.28e-02,8.00e-02,
132,-1.12e-02,8.00e-02,
133,9.60e-03,4.00e-02,
134,7.20e-03,8.00e-02,
135,-4.40e-03,2.00e-02,
136,-2.40e-03,8.00e-02,
137,2.80e-03,2.00e-02,
138,2.40e-03,8.00e-02,
139,-8.00e-04,2.00e-02,
140,1.20e-03,8.00e-02,
141,-1.60e-03,2.00e-02,
142,8.00e-04,2.00e-02,
143,-1.20e-03,8.00e-02,
144,-4.00e-04,8.00e-02,
145,1.20e-03,2.00e-02,
146,-8.00e-04,8.00e-02,
147,2.00e-03,2.00e-02,
148,-1.60e-03,2.00e-02,
149,4.00e-03,8.00e-02,
150,3.20e-03,2.00e-02,
151,7.60e-03,2.00e+00,
152,4.80e-03,1.60e-01,
153,-1.60e-03,1.00e-01,
154,-1.20e-03,8.00e-02,
155,2.80e-03,1.40e-01,
156,-4.00e-04,1.00e-01,
157,2.00e-03,6.00e-02,
158,2.00e-03,1.00e-01,
159,-8.00e-04,6.00e-02,
160,-8.00e-04,6.00e-02,
161,1.20e-03,8.00e-02,
162,2.40e-03,6.00e-02,
163,-8.00e-04,8.00e-02,
164,-1.20e-03,6.00e-02,
165,2.80e-03,8.00e-02,
166,-3.20e-03,6.00e-02,
167,4.80e-03,8.00e-02,
168,7.20e-03,6.00e-02,
169,-6.80e-03,8.00e-02,
170,-9.60e-03,8.00e-02,
171,1.04e-02,6.00e-02,
172,-8.00e-03,6.00e-02,
173,8.00e-03,8.00e-02,
174,5.20e-03,8.00e-02,
175,-3.20e-03,2.00e-02,
176,-2.40e-03,8.00e-02,
177,2.40e-03,2.00e-02,
178,2.00e-03,8.00e-02,
179,-4.00e-04,2.00e-02,
180,0.00e+00,8.00e-02,
181,1.20e-03,2.00e-02,
182,1.20e-03,8.00e-02,
183,0.00e+00,2.00e-02,
184,1.20e-03,8.00e-02,
185,-4.00e-04,2.00e-02,
186,-1.20e-03,8.00e-02,
187,1.60e-03,2.00e-02,
188,2.40e-03,8.00e-02,
189,-1.60e-03,2.00e-02,
190,2.00e-03,2.00e-02,
191,7.20e-03,1.96e+00,
192,4.00e-03,1.60e-01,
193,-8.00e-04,1.00e-01,
194,2.40e-03,8.00e-02,
195,-1.20e-03,1.40e-01,
196,-8.00e-04,1.00e-01,
197,2.40e-03,8.00e-02,
198,2.00e-03,1.00e-01,
199,0.00e+00,6.00e-02,
200,-1.20e-03,1.00e-01,
201,1.20e-03,6.00e-02,
202,0.00e+00,6.00e-02,
203,2.40e-03,8.00e-02,
204,2.40e-03,6.00e-02,
205,-1.60e-03,8.00e-02,
206,-2.80e-03,6.00e-02,
207,4.40e-03,8.00e-02,
208,6.40e-03,8.00e-02,
209,-7.60e-03,6.00e-02,
210,8.40e-03,8.00e-02,
211,-8.80e-03,4.00e-02,
212,-6.80e-03,8.00e-02,
213,6.80e-03,4.00e-02,
214,4.00e-03,6.00e-02,
215,-2.80e-03,8.00e-02,
216,-1.60e-03,8.00e-02,
217,2.40e-03,4.00e-02,
218,1.20e-03,8.00e-02,
219,-8.00e-04,2.00e-02,
220,1.20e-03,8.00e-02,
221,-1.20e-03,2.00e-02,
222,2.00e-03,2.00e-02,
223,-8.00e-04,8.00e-02,
224,2.40e-03,8.00e-02,
225,-8.00e-04,2.00e-02,
226,1.20e-03,8.00e-02,
227,-1.20e-03,2.00e-02,
228,-2.00e-03,2.00e-02,
229,2.40e-03,8.00e-02,
230,2.00e-03,2.00e-02,
231,7.20e-03,1.92e+00,
232,4.80e-03,1.60e-01,
233,-8.00e-04,1.20e-01,
234,3.60e-03,1.40e-01,
235,-1.20e-03,8.00e-02,
236,2.00e-03,1.00e-01,
237,-1.20e-03,6.00e-02,
238,1.60e-03,1.00e-01,
239,-8.00e-04,6.00e-02,
240,-8.00e-04,6.00e-02,
241,2.40e-03,1.00e-01,
242,1.60e-03,6.00e-02,
243,0.00e+00,8.00e-02,
244,2.00e-03,6.00e-02,
245,-1.20e-03,8.00e-02,
246,-2.40e-03,6.00e-02,
247,2.80e-03,8.00e-02,
248,5.20e-03,8.00e-02,
249,-5.60e-03,6.00e-02,
250,-6.80e-03,8.00e-02,
251,8.40e-03,6.00e-02,
252,-5.60e-03,6.00e-02,
253,5.60e-03,8.00e-02,
254,4.00e-03,8.00e-02,
255,-1.60e-03,6.00e-02,
256,-1.20e-03,8.00e-02,
257,2.00e-03,4.00e-02,
258,1.20e-03,8.00e-02,
259,-8.00e-04,4.00e-02,
260,-4.00e-04,8.00e-02,
261,1.60e-03,2.00e-02,
262,2.00e-03,8.00e-02,
263,-4.00e-04,2.00e-02,
264,-4.00e-04,2.00e-02,
265,1.20e-03,8.00e-02,
266,-8.00e-04,8.00e-02,
267,2.00e-03,2.00e-02,
268,2.80e-03,2.00e-02,
269,-1.60e-03,8.00e-02,
270,2.80e-03,2.00e-02,
271,7.20e-03,1.98e+00,
272,4.00e-03,1.60e-01,
273,-1.20e-03,1.20e-01,
274,4.00e-03,1.40e-01,
275,-1.20e-03,8.00e-02,
276,-1.20e-03,1.00e-01,
277,2.40e-03,6.00e-02,
278,-1.20e-03,1.00e-01,
279,2.80e-03,6.00e-02,
280,-4.00e-04,1.00e-01,
281,2.00e-03,6.00e-02,
282,1.20e-03,6.00e-02,
283,-8.00e-04,8.00e-02,
284,-1.20e-03,6.00e-02,
285,2.00e-03,8.00e-02,
286,-2.40e-03,6.00e-02,
287,2.80e-03,8.00e-02,
288,4.80e-03,6.00e-02,
289,-4.40e-03,8.00e-02,
290,-6.00e-03,6.00e-02,
291,6.80e-03,8.00e-02,
292,-4.80e-03,8.00e-02,
293,5.60e-03,6.00e-02,
294,4.00e-03,8.00e-02,
295,-1.60e-03,4.00e-02,
296,-1.20e-03,8.00e-02,
297,2.00e-03,2.00e-02,
298,1.20e-03,8.00e-02,
299,-8.00e-04,4.00e-02,
300,-8.00e-04,8.00e-02,
301,1.60e-03,2.00e-02,
302,2.40e-03,2.00e-02,
303,-8.00e-04,8.00e-02,
304,-4.00e-04,8.00e-02,
305,1.60e-03,2.00e-02,
306,-4.00e-04,2.00e-02,
307,2.40e-03,8.00e-02,
308,2.40e-03,2.00e-02,
309,-1.60e-03,8.00e-02,
310,2.80e-03,1.94e+00,
311,7.60e-03,-6.00e-02,
312,4.40e-03,1.60e-01,
313,-8.00e-04,8.00e-02,
314,4.00e-03,1.20e-01,
315,-8.00e-04,8.00e-02,
316,-4.00e-04,1.00e-01,
317,2.40e-03,6.00e-02,
318,2.40e-03,6.00e-02,
319,-8.00e-04,1.00e-01,
320,0.00e+00,6.00e-02,
321,2.00e-03,1.00e-01,
322,0.00e+00,6.00e-02,
323,1.60e-03,8.00e-02,
324,2.40e-03,8.00e-02,
325,-1.20e-03,6.00e-02,
326,-1.60e-03,6.00e-02,
327,3.60e-03,8.00e-02,
328,5.20e-03,8.00e-02,
329,-4.00e-03,4.00e-02,
330,-4.80e-03,6.00e-02,
331,6.80e-03,8.00e-02,
332,-3.60e-03,8.00e-02,
333,4.00e-03,6.00e-02,
334,2.80e-03,6.00e-02,
335,-1.60e-03,8.00e-02,
336,-1.20e-03,8.00e-02,
337,2.40e-03,2.00e-02,
338,4.00e-04,8.00e-02,
339,2.40e-03,2.00e-02,
340,0.00e+00,2.00e-02,
341,1.60e-03,8.00e-02,
342,1.60e-03,8.00e-02,
343,0.00e+00,2.00e-02,
344,-8.00e-04,8.00e-02,
345,1.20e-03,2.00e-02,
346,-8.00e-04,2.00e-02,
347,2.40e-03,8.00e-02,
348,-1.60e-03,2.00e-02,
349,3.60e-03,6.00e-02,
350,3.60e-03,2.00e-02,
351,7.20e-03,1.70e+00,
352,4.80e-03,1.60e-01,
353,-1.20e-03,8.00e-02,
354,4.00e-03,1.40e-01,
355,-1.60e-03,8.00e-02,
356,-8.00e-04,8.00e-02,
357,2.80e-03,1.00e-01,
358,2.00e-03,1.00e-01,
359,-1.20e-03,6.00e-02,
360,-8.00e-04,6.00e-02,
361,1.20e-03,1.00e-01,
362,-4.00e-04,6.00e-02,
363,2.00e-03,8.00e-02,
364,-1.20e-03,8.00e-02,
365,2.00e-03,6.00e-02,
366,-1.60e-03,6.00e-02,
367,3.60e-03,8.00e-02,
368,3.60e-03,6.00e-02,
369,-3.20e-03,8.00e-02,
370,-5.20e-03,6.00e-02,
371,5.20e-03,8.00e-02,
372,-3.20e-03,6.00e-02,
373,4.00e-03,8.00e-02,
374,2.80e-03,8.00e-02,
375,-1.60e-03,2.00e-02,
376,-8.00e-04,8.00e-02,
377,2.40e-03,4.00e-02,
378,1.20e-03,8.00e-02,
379,-4.00e-04,2.00e-02,
380,1.20e-03,8.00e-02,
381,-8.00e-04,2.00e-02,
382,-8.00e-04,8.00e-02,
383,2.00e-03,2.00e-02,
384,-8.00e-04,8.00e-02,
385,2.40e-03,2.00e-02,
386,-4.00e-04,2.00e-02,
387,2.80e-03,8.00e-02,
388,2.80e-03,2.00e-02,
389,-2.80e-03,8.00e-02,
390,2.80e-03,2.00e-02,
391,7.60e-03,1.94e+00,
392,4.80e-03,1.60e-01,
393,-8.00e-04,8.00e-02,
394,4.00e-03,1.20e-01,
395,-1.20e-03,8.00e-02,
396,-1.60e-03,1.00e-01,
397,2.40e-03,6.00e-02,
398,2.40e-03,1.00e-01,
399,-4.00e-04,6.00e-02,
400,1.20e-03,6.00e-02,
401,-8.00e-04,1.00e-01,
402,2.00e-03,8.00e-02,
403,4.00e-04,6.00e-02,
404,2.00e-03,6.00e-02,
405,-1.20e-03,8.00e-02,
406,-1.20e-03,6.00e-02,
407,2.40e-03,8.00e-02,
408,2.80e-03,6.00e-02,
409,-2.80e-03,8.00e-02,
410,-2.80e-03,6.00e-02,
411,5.20e-03,8.00e-02,
412,-2.80e-03,8.00e-02,
413,3.60e-03,6.00e-02,
414,2.40e-03,6.00e-02,
415,-1.60e-03,8.00e-02,
416,-8.00e-04,6.00e-02,
417,1.60e-03,8.00e-02,
418,0.00e+00,8.00e-02,
419,2.00e-03,4.00e-02,
420,0.00e+00,8.00e-02,
421,1.20e-03,2.00e-02,
422,-4.00e-04,8.00e-02,
423,2.00e-03,2.00e-02,
424,2.00e-03,8.00e-02,
425,-8.00e-04,2.00e-02,
426,-8.00e-04,8.00e-02,
427,2.40e-03,2.00e-02,
428,3.60e-03,8.00e-02,
429,-2.40e-03,2.00e-02,
430,2.80e-03,2.00e-02,
431,7.20e-03,1.94e+00,
432,4.00e-03,1.60e-01,
433,-8.00e-04,1.20e-01,
434,4.80e-03,8.00e-02,
435,-1.60e-03,1.40e-01,
436,-1.20e-03,1.00e-01,
437,2.40e-03,8.00e-02,
438,2.40e-03,1.00e-01,
439,-8.00e-04,6.00e-02,
440,-8.00e-04,6.00e-02,
441,2.00e-03,1.00e-01,
442,1.20e-03,6.00e-02,
443,0.00e+00,8.00e-02,
444,-8.00e-04,8.00e-02,
445,2.00e-03,6.00e-02,
446,-1.20e-03,6.00e-02,
447,2.40e-03,8.00e-02,
448,2.80e-03,6.00e-02,
449,-2.00e-03,8.00e-02,
450,4.00e-03,6.00e-02,
451,-2.80e-03,8.00e-02,
452,-2.80e-03,8.00e-02,
453,3.60e-03,6.00e-02,
454,2.40e-03,6.00e-02,
455,-1.20e-03,8.00e-02,
456,-8.00e-04,8.00e-02,
457,2.00e-03,2.00e-02,
458,0.00e+00,8.00e-02,
459,2.00e-03,2.00e-02,
460,1.60e-03,8.00e-02,
461,-4.00e-04,2.00e-02,
462,1.20e-03,2.00e-02,
463,-8.00e-04,8.00e-02,
464,-8.00e-04,2.00e-02,
465,1.20e-03,8.00e-02,
466,-1.60e-03,2.00e-02,
467,2.40e-03,8.00e-02,
468,4.80e-03,8.00e-02,
469,-2.80e-03,2.00e-02,
470,2.80e-03,2.00e-02,
471,8.00e-03,1.72e+00,
472,4.80e-03,1.60e-01,
473,-8.00e-04,1.00e-01,
474,4.40e-03,8.00e-02,
475,-1.20e-03,1.20e-01,
476,-1.20e-03,1.00e-01,
477,3.20e-03,6.00e-02,
478,2.40e-03,1.00e-01,
479,-8.00e-04,6.00e-02,
480,0.00e+00,6.00e-02,
481,2.40e-03,8.00e-02,
482,2.00e-03,6.00e-02,
483,0.00e+00,8.00e-02,
484,1.20e-03,8.00e-02,
485,-8.00e-04,6.00e-02,
486,-8.00e-04,6.00e-02,
487,2.40e-03,8.00e-02,
488,2.40e-03,8.00e-02,
489,-2.40e-03,6.00e-02,
490,-2.40e-03,6.00e-02,
491,3.60e-03,8.00e-02,
492,-2.40e-03,6.00e-02,
493,2.80e-03,8.00e-02,
494,-8.00e-04,6.00e-02,
495,2.40e-03,8.00e-02,
496,-8.00e-04,8.00e-02,
497,1.20e-03,2.00e-02,
498,1.20e-03,8.00e-02,
499,-1.20e-03,2.00e-02,
500,-8.00e-04,8.00e-02,
501,1.20e-03,2.00e-02,
502,1.20e-03,8.00e-02,
503,-1.20e-03,2.00e-02,
504,1.60e-03,2.00e-02,
505,-1.20e-03,8.00e-02,
506,-1.60e-03,2.00e-02,
507,3.20e-03,8.00e-02,
508,3.60e-03,2.00e-02,
509,-2.80e-03,8.00e-02,
510,2.80e-03,2.00e-02,
511,7.20e-03,1.94e+00,
512,4.80e-03,1.60e-01,
513,-1.20e-03,1.00e-01,
514,4.00e-03,8.00e-02,
515,-1.60e-03,1.40e-01,
516,-1.20e-03,1.00e-01,
517,2.80e-03,8.00e-02,
518,-8.00e-04,1.00e-01,
519,2.40e-03,6.00e-02,
520,-4.00e-04,6.00e-02,
521,2.00e-03,1.00e-01,
522,1.20e-03,6.00e-02,
523,-8.00e-04,8.00e-02,
524,0.00e+00,6.00e-02,
525,1.20e-03,8.00e-02,
526,-8.00e-04,6.00e-02,
527,2.00e-03,8.00e-02,
528,2.40e-03,6.00e-02,
529,-1.20e-03,8.00e-02,
530,-1.60e-03,6.00e-02,
531,4.00e-03,8.00e-02,
532,-1.60e-03,8.00e-02,
533,2.40e-03,6.00e-02,
534,2.40e-03,8.00e-02,
535,-8.00e-04,4.00e-02,
536,-8.00e-04,8.00e-02,
537,1.20e-03,2.00e-02,
538,1.20e-03,8.00e-02,
539,0.00e+00,2.00e-02,
540,8.00e-04,8.00e-02,
541,-1.20e-03,2.00e-02,
542,-8.00e-04,8.00e-02,
543,2.00e-03,2.00e-02,
544,1.60e-03,8.00e-02,
545,-8.00e-04,2.00e-02,
546,-8.00e-04,8.00e-02,
547,2.80e-03,2.00e-02,
548,4.00e-03,2.00e-02,
549,-3.20e-03,8.00e-02,
550,1.60e-03,-8.00e-02,
551,7.60e-03,1.90e+00,
552,4.80e-03,1.60e-01,
553,-4.00e-04,1.00e-01,
554,5.20e-03,1.20e-01,
555,-1.60e-03,8.00e-02,
556,-1.60e-03,8.00e-02,
557,2.40e-03,1.00e-01,
558,2.80e-03,1.00e-01,
559,-8.00e-04,6.00e-02,
560,-8.00e-04,6.00e-02,
561,2.00e-03,1.00e-01,
562,-8.00e-04,6.00e-02,
563,1.20e-03,8.00e-02,
564,0.00e+00,6.00e-02,
565,2.00e-03,8.00e-02,
566,2.00e-03,6.00e-02,
567,-8.00e-04,8.00e-02,
568,-1.20e-03,6.00e-02,
569,2.00e-03,8.00e-02,
570,2.80e-03,8.00e-02,
571,-1.60e-03,4.00e-02,
572,-1.20e-03,6.00e-02,
573,2.40e-03,8.00e-02,
574,1.20e-03,8.00e-02,
575,-8.00e-04,4.00e-02,
576,1.20e-03,8.00e-02,
577,-8.00e-04,2.00e-02,
578,1.20e-03,8.00e-02,
579,-8.00e-04,2.00e-02,
580,0.00e+00,2.00e-02,
581,2.00e-03,8.00e-02,
582,-8.00e-04,8.00e-02,
583,2.00e-03,2.00e-02,
584,-8.00e-04,8.00e-02,
585,1.60e-03,2.00e-02,
586,-1.60e-03,8.00e-02,
587,2.40e-03,2.00e-02,
588,4.00e-03,8.00e-02,
589,-3.60e-03,2.00e-02,
590,1.60e-03,2.00e-02,
591,7.20e-03,1.76e+00,
592,4.40e-03,1.60e-01,
593,-1.20e-03,1.00e-01,
594,5.20e-03,1.40e-01,
595,-1.60e-03,8.00e-02,
596,-1.20e-03,1.00e-01,
597,2.80e-03,8.00e-02,
598,2.40e-03,6.00e-02,
599,-8.00e-04,1.00e-01,
600,0.00e+00,6.00e-02,
601,2.00e-03,1.00e-01,
602,1.20e-03,8.00e-02,
603,0.00e+00,6.00e-02,
604,0.00e+00,6.00e-02,
605,2.40e-03,8.00e-02,
606,0.00e+00,6.00e-02,
607,2.40e-03,8.00e-02,
608,2.40e-03,6.00e-02,
609,-8.00e-04,8.00e-02,
610,-1.20e-03,8.00e-02,
611,2.80e-03,4.00e-02,
612,-1.20e-03,8.00e-02,
613,2.00e-03,6.00e-02,
614,1.60e-03,8.00e-02,
615,-8.00e-04,4.00e-02,
616,-8.00e-04,8.00e-02,
617,1.20e-03,4.00e-02,
618,0.00e+00,8.00e-02,
619,1.20e-03,2.00e-02,
620,0.00e+00,8.00e-02,
621,1.20e-03,2.00e-02,
622,0.00e+00,8.00e-02,
623,2.00e-03,2.00e-02,
624,-1.20e-03,2.00e-02,
625,2.40e-03,8.00e-02,
626,-1.20e-03,2.00e-02,
627,3.20e-03,8.00e-02,
628,4.80e-03,2.00e-02,
629,-4.00e-03,8.00e-02,
630,1.20e-03,2.00e-02,
631,8.00e-03,1.92e+00,
632,4.80e-03,1.60e-01,
633,-1.20e-03,1.20e-01,
634,5.20e-03,8.00e-02,
635,-1.60e-03,1.40e-01,
636,-1.20e-03,1.00e-01,
637,2.80e-03,6.00e-02,
638,2.80e-03,1.00e-01,
639,-1.20e-03,6.00e-02,
640,-1.20e-03,6.00e-02,
641,1.60e-03,1.00e-01,
642,1.20e-03,6.00e-02,
643,-8.00e-04,8.00e-02,
644,0.00e+00,6.00e-02,
645,2.00e-03,8.00e-02,
646,4.00e-04,6.00e-02,
647,2.00e-03,8.00e-02,
648,2.40e-03,6.00e-02,
649,-1.20e-03,8.00e-02,
650,-1.20e-03,6.00e-02,
651,2.80e-03,8.00e-02,
652,-1.20e-03,6.00e-02,
653,1.60e-03,8.00e-02,
654,2.00e-03,8.00e-02,
655,-8.00e-04,4.00e-02,
656,0.00e+00,8.00e-02,
657,2.00e-03,2.00e-02,
658,1.20e-03,8.00e-02,
659,-4.00e-04,2.00e-02,
660,-4.00e-04,8.00e-02,
661,1.20e-03,2.00e-02,
662,1.60e-03,8.00e-02,
663,-8.00e-04,2.00e-02,
664,-8.00e-04,2.00e-02,
665,1.60e-03,8.00e-02,
666,-1.60e-03,8.00e-02,
667,3.60e-03,2.00e-02,
668,4.00e-03,8.00e-02,
669,-2.80e-03,2.00e-02,
670,2.80e-03,2.00e-02,
671,8.00e-03,1.96e+00,
672,4.80e-03,1.60e-01,
673,-1.20e-03,1.00e-01,
674,5.20e-03,1.40e-01,
675,-1.60e-03,8.00e-02,
676,-1.60e-03,1.00e-01,
677,2.40e-03,6.00e-02,
678,2.00e-03,6.00e-02,
679,-1.20e-03,1.00e-01,
680,-8.00e-04,6.00e-02,
681,2.00e-03,1.00e-01,
682,1.20e-03,8.00e-02,
683,0.00e+00,6.00e-02,
684,0.00e+00,6.00e-02,
685,2.00e-03,8.00e-02,
686,-8.00e-04,6.00e-02,
687,2.00e-03,8.00e-02,
688,1.20e-03,6.00e-02,
689,-1.20e-03,8.00e-02,
690,-1.60e-03,6.00e-02,
691,1.60e-03,8.00e-02,
692,-1.20e-03,6.00e-02,
693,1.20e-03,8.00e-02,
694,2.00e-03,8.00e-02,
695,-8.00e-04,2.00e-02,
696,-8.00e-04,8.00e-02,
697,1.20e-03,2.00e-02,
698,8.00e-04,8.00e-02,
699,-8.00e-04,2.00e-02,
700,-8.00e-04,8.00e-02,
701,1.20e-03,2.00e-02,
702,1.20e-03,8.00e-02,
703,-4.00e-04,2.00e-02,
704,-1.20e-03,2.00e-02,
705,2.40e-03,8.00e-02,
706,-1.60e-03,8.00e-02,
707,3.20e-03,2.00e-02,
708,4.00e-03,2.00e-02,
709,-4.00e-03,8.00e-02,
710,1.20e-03,2.00e-02,
711,7.60e-03,1.64e+00,
712,4.00e-03,1.60e-01,
713,-1.60e-03,1.20e-01,
714,4.80e-03,1.20e-01,
715,-1.60e-03,8.00e-02,
716,-1.20e-03,1.00e-01,
717,2.80e-03,6.00e-02,
718,-8.00e-04,1.00e-01,
719,2.80e-03,6.00e-02,
720,3.20e-03,6.00e-02,
721,0.00e+00,1.00e-01,
722,2.00e-03,8.00e-02,
723,4.00e-04,6.00e-02,
724,0.00e+00,6.00e-02,
725,1.20e-03,8.00e-02,
726,1.20e-03,6.00e-02,
727,-8.00e-04,8.00e-02,
728,-8.00e-04,6.00e-02,
729,2.00e-03,8.00e-02,
730,2.40e-03,8.00e-02,
731,-1.20e-03,6.00e-02,
732,-4.00e-04,8.00e-02,
733,2.00e-03,4.00e-02,
734,1.20e-03,8.00e-02,
735,-8.00e-04,6.00e-02,
736,1.20e-03,8.00e-02,
737,0.00e+00,2.00e-02,
738,-8.00e-04,8.00e-02,
739,1.20e-03,2.00e-02,
740,1.20e-03,8.00e-02,
741,-8.00e-04,2.00e-02,
742,-8.00e-04,2.00e-02,
743,2.00e-03,8.00e-02,
744,2.00e-03,8.00e-02,
745,-1.20e-03,2.00e-02,
746,-1.60e-03,8.00e-02,
747,2.80e-03,2.00e-02,
748,4.00e-03,8.00e-02,
749,-4.00e-03,2.00e-02,
750,1.20e-03,2.00e-02,
751,7.20e-03,1.88e+00,
752,4.00e-03,1.60e-01,
753,-1.20e-03,1.20e-01,
754,5.60e-03,1.40e-01,
755,-2.40e-03,8.00e-02,
756,-1.20e-03,1.00e-01,
757,2.40e-03,8.00e-02,
758,-1.20e-03,1.00e-01,
759,2.40e-03,6.00e-02,
760,-8.00e-04,6.00e-02,
761,2.00e-03,1.00e-01,
762,0.00e+00,8.00e-02,
763,1.20e-03,6.00e-02,
764,8.00e-04,6.00e-02,
765,-8.00e-04,8.00e-02,
766,1.20e-03,6.00e-02,
767,0.00e+00,8.00e-02,
768,-8.00e-04,6.00e-02,
769,1.20e-03,8.00e-02,
770,2.40e-03,8.00e-02,
771,0.00e+00,6.00e-02,
772,-8.00e-04,8.00e-02,
773,1.60e-03,6.00e-02,
774,1.60e-03,8.00e-02,
775,0.00e+00,2.00e-02,
776,1.20e-03,8.00e-02,
777,0.00e+00,2.00e-02,
778,0.00e+00,8.00e-02,
779,1.60e-03,2.00e-02,
780,1.20e-03,8.00e-02,
781,-8.00e-04,2.00e-02,
782,0.00e+00,8.00e-02,
783,2.40e-03,2.00e-02,
784,-8.00e-04,2.00e-02,
785,2.40e-03,8.00e-02,
786,-1.20e-03,2.00e-02,
787,3.60e-03,8.00e-02,
788,4.00e-03,2.00e-02,
789,-4.40e-03,8.00e-02,
790,8.00e-04,2.00e-02,
791,7.60e-03,2.00e+00,
792,4.80e-03,1.80e-01,
793,-1.20e-03,1.20e-01,
794,5.20e-03,8.00e-02,
795,-1.60e-03,1.40e-01,
796,-1.20e-03,1.00e-01,
797,3.60e-03,8.00e-02,
798,2.40e-03,1.00e-01,
799,-1.20e-03,6.00e-02,
800,-8.00e-04,6.00e-02,
801,2.00e-03,1.00e-01,
802,2.00e-03,6.00e-02,
803,0.00e+00,8.00e-02,
804,4.00e-04,6.00e-02,
805,2.40e-03,8.00e-02,
806,2.00e-03,8.00e-02,
807,0.00e+00,6.00e-02,
808,2.00e-03,8.00e-02,
809,-8.00e-04,6.00e-02,
810,1.20e-03,6.00e-02,
811,-1.20e-03,8.00e-02,
812,-4.00e-04,6.00e-02,
813,1.20e-03,8.00e-02,
814,0.00e+00,8.00e-02,
815,1.20e-03,4.00e-02,
816,8.00e-04,2.00e-02,
817,-8.00e-04,8.00e-02,
818,0.00e+00,8.00e-02,
819,1.60e-03,2.00e-02,
820,1.20e-03,2.00e-02,
821,-4.00e-04,8.00e-02,
822,-8.00e-04,2.00e-02,
823,2.40e-03,8.00e-02,
824,2.80e-03,8.00e-02,
825,-1.20e-03,2.00e-02,
826,-2.40e-03,2.00e-02,
827,2.80e-03,8.00e-02,
828,4.00e-03,2.00e-02,
829,-4.00e-03,8.00e-02,
830,4.00e-04,2.00e-02,
831,7.20e-03,1.74e+00,
832,4.80e-03,1.60e-01,
833,-8.00e-04,1.20e-01,
834,6.40e-03,1.40e-01,
835,-1.60e-03,8.00e-02,
836,-1.60e-03,8.00e-02,
837,2.80e-03,1.00e-01,
838,2.40e-03,1.00e-01,
839,-1.20e-03,6.00e-02,
840,1.60e-03,6.00e-02,
841,-8.00e-04,1.00e-01,
842,0.00e+00,8.00e-02,
843,2.00e-03,6.00e-02,
844,4.00e-04,6.00e-02,
845,2.00e-03,8.00e-02,
846,1.20e-03,8.00e-02,
847,0.00e+00,6.00e-02,
848,1.60e-03,6.00e-02,
849,-8.00e-04,8.00e-02,
850,2.00e-03,6.00e-02,
851,0.00e+00,8.00e-02,
852,0.00e+00,6.00e-02,
853,1.20e-03,8.00e-02,
854,4.00e-04,8.00e-02,
855,2.00e-03,4.00e-02,
