CarrPurc_P1-19_P2-38_tauVary/Gly60/NewFile5.csv

X,CH1,CH2,Start,Increment,
Sequence,Volt,Volt,-3.600000e-03,2.000000e-04
0,1.20e-03,4.00e-02,
1,-4.00e-04,0.00e+00,
2,-8.00e-04,4.00e-02,
3,1.20e-03,0.00e+00,
4,2.00e-03,4.00e-02,
5,0.00e+00,0.00e+00,
6,0.00e+00,4.00e-02,
7,1.60e-03,0.00e+00,
8,1.60e-03,4.00e-02,
9,-4.00e-04,2.00e-02,
10,4.00e-04,4.00e-02,
11,1.20e-03,2.00e-02,
12,0.00e+00,4.00e-02,
13,1.60e-03,0.00e+00,
14,0.00e+00,4.00e-02,
15,1.20e-03,0.00e+00,
16,4.00e-04,0.00e+00,
17,2.40e-03,4.00e-02,
18,1.20e-03,4.00e-02,
19,-4.00e-04,0.00e+00,
20,7.60e-03,2.00e-02,
21,-3.20e-02,1.80e+00,
22,2.20e-02,1.00e-01,
23,-1.72e-02,6.00e-02,
24,-2.80e-03,1.00e-01,
25,5.20e-03,6.00e-02,
26,4.00e-03,6.00e-02,
27,-2.40e-03,8.00e-02,
28,2.80e-03,6.00e-02,
29,-1.20e-03,8.00e-02,
30,2.40e-03,8.00e-02,
31,-1.20e-03,2.00e-02,
32,-8.00e-04,8.00e-02,
33,2.40e-03,4.00e-02,
34,-8.00e-04,2.00e-02,
35,8.80e-03,2.10e+00,
36,8.40e-03,1.60e-01,
37,-7.60e-03,8.00e-02,
38,4.40e-03,1.00e-01,
39,-1.60e-03,6.00e-02,
40,-4.00e-04,6.00e-02,
41,2.40e-03,8.00e-02,
42,2.40e-03,6.00e-02,
43,-1.20e-03,8.00e-02,
44,2.80e-03,6.00e-02,
45,-1.60e-03,8.00e-02,
46,-5.20e-03,8.00e-02,
47,8.80e-03,4.00e-02,
48,-2.24e-02,8.00e-02,
49,2.88e-02,2.00e-02,
50,-3.16e-02,8.00e-02,
51,3.40e-02,2.00e-02,
52,1.84e-02,8.00e-02,
53,-1.28e-02,2.00e-02,
54,4.00e-03,2.00e-02,
55,-1.60e-03,8.00e-02,
56,2.40e-03,4.00e-02,
57,-1.20e-03,2.00e-02,
58,-1.20e-03,4.00e-02,
59,2.40e-03,2.00e-02,
60,0.00e+00,4.00e-02,
61,2.40e-03,2.00e-02,
62,-4.00e-04,4.00e-02,
63,2.00e-03,2.00e-02,
64,0.00e+00,2.00e-02,
65,8.00e-03,2.14e+00,
66,7.60e-03,1.60e-01,
67,0.00e+00,8.00e-02,
68,2.40e-03,1.00e-01,
69,0.00e+00,6.00e-02,
70,2.40e-03,6.00e-02,
71,-8.00e-04,8.00e-02,
72,2.40e-03,8.00e-02,
73,-8.00e-04,6.00e-02,
74,-8.00e-04,6.00e-02,
75,2.40e-03,8.00e-02,
76,-4.40e-03,8.00e-02,
77,7.20e-03,2.00e-02,
78,-1.80e-02,8.00e-02,
79,1.88e-02,4.00e-02,
80,2.44e-02,8.00e-02,
81,-2.32e-02,2.00e-02,
82,1.16e-02,8.00e-02,
83,-8.00e-03,2.00e-02,
84,2.80e-03,2.00e-02,
85,-1.20e-03,8.00e-02,
86,3.20e-03,2.00e-02,
87,-8.00e-04,8.00e-02,
88,2.00e-03,2.00e-02,
89,-8.00e-04,8.00e-02,
90,-1.20e-03,4.00e-02,
91,2.40e-03,2.00e-02,
92,2.80e-03,4.00e-02,
93,-2.40e-03,2.00e-02,
94,-4.00e-03,2.00e-02,
95,8.40e-03,2.12e+00,
96,8.00e-03,1.60e-01,
97,-8.00e-04,8.00e-02,
98,2.40e-03,1.00e-01,
99,0.00e+00,6.00e-02,
100,2.00e-03,8.00e-02,
101,-4.00e-04,6.00e-02,
102,2.00e-03,6.00e-02,
103,-4.00e-04,8.00e-02,
104,-8.00e-04,6.00e-02,
105,2.40e-03,8.00e-02,
106,-4.40e-03,8.00e-02,
107,6.00e-03,4.00e-02,
108,1.56e-02,8.00e-02,
109,-1.96e-02,2.00e-02,
110,-2.40e-02,2.00e-02,
111,2.60e-02,8.00e-02,
112,1.12e-02,2.00e-02,
113,-8.40e-03,8.00e-02,
114,4.00e-03,2.00e-02,
115,-1.20e-03,6.00e-02,
116,2.40e-03,4.00e-02,
117,-8.00e-04,2.00e-02,
118,2.00e-03,4.00e-02,
119,-4.00e-04,2.00e-02,
120,2.40e-03,2.00e-02,
121,-8.00e-04,4.00e-02,
122,-1.20e-03,4.00e-02,
123,3.60e-03,2.00e-02,
124,-3.20e-03,2.00e-02,
125,9.20e-03,2.12e+00,
126,8.00e-03,1.60e-01,
127,-2.40e-03,8.00e-02,
128,3.60e-03,1.00e-01,
129,-4.00e-04,6.00e-02,
130,2.00e-03,6.00e-02,
131,0.00e+00,8.00e-02,
132,2.40e-03,6.00e-02,
133,-4.00e-04,8.00e-02,
134,-1.20e-03,8.00e-02,
135,3.20e-03,4.00e-02,
136,-3.20e-03,8.00e-02,
137,6.40e-03,4.00e-02,
138,-1.44e-02,8.00e-02,
139,1.76e-02,2.00e-02,
140,2.36e-02,8.00e-02,
141,-2.16e-02,2.00e-02,
142,1.16e-02,8.00e-02,
143,-8.80e-03,2.00e-02,
144,3.60e-03,8.00e-02,
145,-1.60e-03,2.00e-02,
146,-4.00e-04,8.00e-02,
147,2.40e-03,2.00e-02,
148,0.00e+00,2.00e-02,
149,2.00e-03,8.00e-02,
150,0.00e+00,2.00e-02,
151,1.60e-03,4.00e-02,
152,-4.00e-04,4.00e-02,
153,2.00e-03,2.00e-02,
154,-1.20e-03,2.00e-02,
155,9.20e-03,2.04e+00,
156,8.40e-03,1.60e-01,
157,0.00e+00,8.00e-02,
158,2.00e-03,1.00e-01,
159,-4.00e-04,6.00e-02,
160,2.00e-03,6.00e-02,
161,-4.00e-04,8.00e-02,
162,0.00e+00,6.00e-02,
163,2.00e-03,8.00e-02,
164,-8.00e-04,6.00e-02,
165,2.40e-03,8.00e-02,
166,-4.00e-03,8.00e-02,
167,7.60e-03,4.00e-02,
168,-1.56e-02,2.00e-02,
169,1.60e-02,8.00e-02,
170,2.20e-02,8.00e-02,
171,-2.12e-02,2.00e-02,
172,8.80e-03,2.00e-02,
173,-6.80e-03,8.00e-02,
174,2.80e-03,4.00e-02,
175,-1.60e-03,2.00e-02,
176,2.40e-03,4.00e-02,
177,-1.20e-03,2.00e-02,
178,-8.00e-04,4.00e-02,
179,2.00e-03,2.00e-02,
180,0.00e+00,4.00e-02,
181,2.40e-03,2.00e-02,
182,-1.60e-03,4.00e-02,
183,2.40e-03,2.00e-02,
184,-2.40e-03,2.00e-02,
185,8.40e-03,2.14e+00,
186,8.00e-03,1.60e-01,
187,0.00e+00,8.00e-02,
188,2.00e-03,1.00e-01,
189,0.00e+00,6.00e-02,
190,1.60e-03,6.00e-02,
191,0.00e+00,8.00e-02,
192,0.00e+00,6.00e-02,
193,2.00e-03,8.00e-02,
194,2.40e-03,8.00e-02,
195,-8.00e-04,4.00e-02,
196,-3.20e-03,8.00e-02,
197,6.00e-03,2.00e-02,
198,-1.72e-02,8.00e-02,
199,1.52e-02,2.00e-02,
200,-2.12e-02,8.00e-02,
201,2.20e-02,2.00e-02,
202,1.16e-02,2.00e-02,
203,-8.40e-03,8.00e-02,
204,3.60e-03,2.00e-02,
205,-1.20e-03,8.00e-02,
206,-8.00e-04,2.00e-02,
207,2.80e-03,4.00e-02,
208,2.40e-03,4.00e-02,
209,-4.00e-04,2.00e-02,
210,0.00e+00,4.00e-02,
211,2.00e-03,2.00e-02,
212,-1.60e-03,4.00e-02,
213,2.40e-03,2.00e-02,
214,-3.20e-03,2.00e-02,
215,8.40e-03,1.92e+00,
216,8.00e-03,1.60e-01,
217,-1.60e-03,8.00e-02,
218,2.80e-03,1.00e-01,
219,-4.00e-04,6.00e-02,
220,-1.20e-03,6.00e-02,
221,2.00e-03,8.00e-02,
222,2.00e-03,6.00e-02,
223,-1.20e-03,8.00e-02,
224,-1.20e-03,6.00e-02,
225,2.80e-03,8.00e-02,
226,-3.60e-03,8.00e-02,
227,5.60e-03,6.00e-02,
228,-1.32e-02,8.00e-02,
229,1.72e-02,2.00e-02,
230,-1.92e-02,8.00e-02,
231,2.24e-02,2.00e-02,
232,1.08e-02,2.00e-02,
233,-7.60e-03,8.00e-02,
234,2.80e-03,4.00e-02,
235,-1.20e-03,2.00e-02,
236,2.40e-03,4.00e-02,
237,0.00e+00,2.00e-02,
238,-4.00e-04,4.00e-02,
239,2.00e-03,2.00e-02,
240,0.00e+00,4.00e-02,
241,2.00e-03,2.00e-02,
242,2.00e-03,4.00e-02,
243,-1.20e-03,2.00e-02,
244,-2.40e-03,2.00e-02,
245,9.60e-03,2.10e+00,
246,8.40e-03,1.60e-01,
247,-8.00e-04,8.00e-02,
248,2.00e-03,1.00e-01,
249,-8.00e-04,6.00e-02,
250,1.60e-03,8.00e-02,
251,-8.00e-04,6.00e-02,
252,2.40e-03,6.00e-02,
253,-8.00e-04,8.00e-02,
254,-4.00e-04,8.00e-02,
255,2.40e-03,6.00e-02,
256,-3.60e-03,8.00e-02,
257,6.40e-03,2.00e-02,
258,-1.56e-02,2.00e-02,
259,1.76e-02,8.00e-02,
260,-2.04e-02,8.00e-02,
261,2.12e-02,2.00e-02,
262,9.60e-03,2.00e-02,
263,-6.00e-03,8.00e-02,
264,2.80e-03,2.00e-02,
265,-1.20e-03,8.00e-02,
266,2.40e-03,4.00e-02,
267,-1.20e-03,2.00e-02,
268,-4.00e-04,4.00e-02,
269,2.00e-03,2.00e-02,
270,0.00e+00,4.00e-02,
271,1.60e-03,2.00e-02,
272,2.80e-03,4.00e-02,
273,-1.20e-03,2.00e-02,
274,-2.80e-03,2.00e-02,
275,9.20e-03,2.06e+00,
276,8.40e-03,1.60e-01,
277,0.00e+00,8.00e-02,
278,2.00e-03,1.00e-01,
279,0.00e+00,6.00e-02,
280,1.60e-03,8.00e-02,
281,4.00e-04,6.00e-02,
282,2.00e-03,6.00e-02,
283,4.00e-04,8.00e-02,
284,0.00e+00,6.00e-02,
285,2.00e-03,8.00e-02,
286,-2.40e-03,8.00e-02,
287,5.60e-03,4.00e-02,
288,-1.44e-02,8.00e-02,
289,1.56e-02,2.00e-02,
290,-2.00e-02,8.00e-02,
291,2.12e-02,2.00e-02,
292,9.60e-03,8.00e-02,
293,-7.20e-03,2.00e-02,
294,4.00e-03,2.00e-02,
295,-1.60e-03,6.00e-02,
296,2.40e-03,4.00e-02,
297,-8.00e-04,2.00e-02,
298,-4.00e-04,2.00e-02,
299,2.40e-03,8.00e-02,
300,-4.00e-04,4.00e-02,
301,2.00e-03,2.00e-02,
302,2.80e-03,4.00e-02,
303,-1.20e-03,2.00e-02,
304,-2.80e-03,2.00e-02,
305,8.40e-03,2.14e+00,
306,8.00e-03,1.60e-01,
307,-4.00e-04,8.00e-02,
308,2.40e-03,1.00e-01,
309,0.00e+00,6.00e-02,
310,0.00e+00,6.00e-02,
311,1.60e-03,8.00e-02,
312,-8.00e-04,6.00e-02,
313,2.40e-03,8.00e-02,
314,-1.20e-03,6.00e-02,
315,2.80e-03,8.00e-02,
316,-4.00e-03,8.00e-02,
317,6.00e-03,2.00e-02,
318,-1.40e-02,8.00e-02,
319,1.72e-02,2.00e-02,
320,-2.04e-02,8.00e-02,
321,2.12e-02,2.00e-02,
322,1.00e-02,2.00e-02,
323,-6.80e-03,6.00e-02,
324,2.80e-03,2.00e-02,
325,-1.20e-03,6.00e-02,
326,2.00e-03,4.00e-02,
327,0.00e+00,2.00e-02,
328,1.60e-03,4.00e-02,
329,0.00e+00,2.00e-02,
330,0.00e+00,4.00e-02,
331,2.00e-03,2.00e-02,
332,2.40e-03,4.00e-02,
333,-8.00e-04,2.00e-02,
334,-3.20e-03,2.00e-02,
335,8.80e-03,2.08e+00,
336,8.00e-03,1.60e-01,
337,-1.20e-03,8.00e-02,
338,2.40e-03,1.00e-01,
339,0.00e+00,6.00e-02,
340,2.00e-03,6.00e-02,
341,-8.00e-04,8.00e-02,
342,2.00e-03,6.00e-02,
343,-8.00e-04,8.00e-02,
344,-4.00e-04,8.00e-02,
345,2.40e-03,6.00e-02,
346,-3.60e-03,8.00e-02,
347,7.20e-03,2.00e-02,
348,-1.52e-02,8.00e-02,
349,1.80e-02,2.00e-02,
350,-1.92e-02,8.00e-02,
351,2.08e-02,2.00e-02,
352,8.80e-03,8.00e-02,
353,-6.00e-03,2.00e-02,
354,2.80e-03,2.00e-02,
355,-1.20e-03,6.00e-02,
356,2.40e-03,2.00e-02,
357,-8.00e-04,4.00e-02,
358,0.00e+00,2.00e-02,
359,1.60e-03,4.00e-02,
360,0.00e+00,4.00e-02,
361,2.00e-03,2.00e-02,
362,2.40e-03,2.00e-02,
363,-1.60e-03,6.00e-02,
364,-2.40e-03,2.00e-02,
365,9.20e-03,1.92e+00,
366,8.40e-03,1.40e-01,
367,-8.00e-04,8.00e-02,
368,2.00e-03,1.00e-01,
369,0.00e+00,6.00e-02,
370,0.00e+00,6.00e-02,
371,1.20e-03,1.00e-01,
372,1.60e-03,6.00e-02,
373,-4.00e-04,8.00e-02,
374,0.00e+00,6.00e-02,
375,2.40e-03,8.00e-02,
376,-2.40e-03,6.00e-02,
377,4.80e-03,8.00e-02,
378,-1.44e-02,8.00e-02,
379,1.76e-02,2.00e-02,
380,-1.88e-02,8.00e-02,
381,2.04e-02,2.00e-02,
382,9.60e-03,2.00e-02,
383,-6.40e-03,8.00e-02,
384,3.60e-03,2.00e-02,
385,-1.60e-03,8.00e-02,
386,2.00e-03,4.00e-02,
387,-8.00e-04,2.00e-02,
388,2.40e-03,2.00e-02,
389,-8.00e-04,4.00e-02,
390,0.00e+00,4.00e-02,
391,2.00e-03,2.00e-02,
392,-8.00e-04,4.00e-02,
393,2.80e-03,2.00e-02,
394,-2.40e-03,2.00e-02,
395,8.40e-03,2.12e+00,
396,8.00e-03,1.60e-01,
397,-8.00e-04,8.00e-02,
398,2.40e-03,1.00e-01,
399,0.00e+00,6.00e-02,
400,0.00e+00,6.00e-02,
401,2.00e-03,8.00e-02,
402,2.40e-03,8.00e-02,
403,-4.00e-04,6.00e-02,
404,-8.00e-04,6.00e-02,
405,2.40e-03,8.00e-02,
406,-3.20e-03,8.00e-02,
407,5.60e-03,4.00e-02,
408,-1.36e-02,8.00e-02,
409,1.72e-02,2.00e-02,
410,-1.88e-02,2.00e-02,
411,2.00e-02,8.00e-02,
412,9.60e-03,8.00e-02,
413,-6.00e-03,2.00e-02,
414,3.20e-03,2.00e-02,
415,-1.20e-03,8.00e-02,
416,-4.00e-04,2.00e-02,
417,2.40e-03,4.00e-02,
418,0.00e+00,4.00e-02,
419,2.00e-03,2.00e-02,
420,0.00e+00,2.00e-02,
421,1.60e-03,4.00e-02,
422,2.40e-03,4.00e-02,
423,-1.20e-03,2.00e-02,
424,-2.80e-03,2.00e-02,
425,8.40e-03,2.14e+00,
426,8.00e-03,1.60e-01,
427,-8.00e-04,8.00e-02,
428,4.00e-04,1.00e-01,
429,1.60e-03,6.00e-02,
430,2.40e-03,6.00e-02,
431,0.00e+00,8.00e-02,
432,-8.00e-04,6.00e-02,
433,2.00e-03,8.00e-02,
434,-4.00e-04,6.00e-02,
435,2.80e-03,8.00e-02,
436,-4.00e-03,8.00e-02,
437,6.40e-03,2.00e-02,
438,-1.44e-02,8.00e-02,
439,1.84e-02,2.00e-02,
440,-2.00e-02,8.00e-02,
441,2.00e-02,2.00e-02,
442,9.20e-03,8.00e-02,
443,-5.60e-03,2.00e-02,
444,2.40e-03,2.00e-02,
445,-8.00e-04,6.00e-02,
446,-4.00e-04,4.00e-02,
447,2.40e-03,2.00e-02,
448,-8.00e-04,2.00e-02,
449,2.00e-03,4.00e-02,
450,4.00e-04,2.00e-02,
451,2.00e-03,4.00e-02,
452,-1.20e-03,4.00e-02,
453,2.40e-03,2.00e-02,
454,-2.80e-03,2.14e+00,
455,9.60e-03,0.00e+00,
456,8.40e-03,1.60e-01,
457,-8.00e-04,8.00e-02,
458,0.00e+00,1.00e-01,
459,1.60e-03,6.00e-02,
460,2.00e-03,6.00e-02,
461,0.00e+00,1.00e-01,
462,2.00e-03,6.00e-02,
463,0.00e+00,8.00e-02,
464,2.40e-03,6.00e-02,
465,-8.00e-04,8.00e-02,
466,-1.60e-03,8.00e-02,
467,5.60e-03,2.00e-02,
468,-1.24e-02,8.00e-02,
469,1.72e-02,2.00e-02,
470,-1.84e-02,8.00e-02,
471,1.96e-02,2.00e-02,
472,1.00e-02,2.00e-02,
473,-6.80e-03,8.00e-02,
474,3.60e-03,2.00e-02,
475,-1.20e-03,8.00e-02,
476,2.00e-03,2.00e-02,
477,-8.00e-04,6.00e-02,
478,2.00e-03,4.00e-02,
479,0.00e+00,2.00e-02,
480,1.60e-03,4.00e-02,
481,0.00e+00,2.00e-02,
482,2.40e-03,2.00e-02,
483,-1.20e-03,4.00e-02,
484,-2.00e-03,2.00e-02,
485,8.40e-03,2.08e+00,
486,8.00e-03,1.60e-01,
487,-4.00e-04,8.00e-02,
488,2.00e-03,1.00e-01,
489,0.00e+00,6.00e-02,
490,2.00e-03,6.00e-02,
491,0.00e+00,8.00e-02,
492,2.00e-03,6.00e-02,
493,0.00e+00,8.00e-02,
494,2.40e-03,6.00e-02,
495,-8.00e-04,8.00e-02,
496,-3.20e-03,8.00e-02,
497,5.60e-03,2.00e-02,
498,-1.20e-02,8.00e-02,
499,1.76e-02,2.00e-02,
500,1.88e-02,8.00e-02,
501,-1.88e-02,2.00e-02,
502,9.20e-03,2.00e-02,
503,-6.00e-03,8.00e-02,
504,2.80e-03,2.00e-02,
505,-1.20e-03,8.00e-02,
506,-8.00e-04,2.00e-02,
507,2.00e-03,8.00e-02,
508,2.00e-03,2.00e-02,
509,0.00e+00,8.00e-02,
510,1.60e-03,4.00e-02,
511,0.00e+00,2.00e-02,
512,2.00e-03,4.00e-02,
513,-1.60e-03,2.00e-02,
514,-2.40e-03,2.00e-02,
515,8.40e-03,2.10e+00,
516,8.00e-03,1.60e-01,
517,-8.00e-04,8.00e-02,
518,2.00e-03,1.00e-01,
519,-4.00e-04,6.00e-02,
520,0.00e+00,6.00e-02,
521,2.00e-03,1.00e-01,
522,2.00e-03,6.00e-02,
523,-8.00e-04,8.00e-02,
524,-8.00e-04,6.00e-02,
525,2.40e-03,8.00e-02,
526,-3.20e-03,8.00e-02,
527,5.60e-03,2.00e-02,
528,-1.32e-02,2.00e-02,
529,1.60e-02,8.00e-02,
530,-1.68e-02,2.00e-02,
531,1.84e-02,8.00e-02,
532,8.40e-03,8.00e-02,
533,-5.60e-03,2.00e-02,
534,2.40e-03,2.00e-02,
535,-1.20e-03,6.00e-02,
536,0.00e+00,4.00e-02,
537,2.40e-03,2.00e-02,
538,2.00e-03,4.00e-02,
539,0.00e+00,2.00e-02,
540,0.00e+00,2.00e-02,
541,1.60e-03,4.00e-02,
542,1.60e-03,4.00e-02,
543,-8.00e-04,2.00e-02,
544,-2.40e-03,2.00e-02,
545,8.80e-03,2.08e+00,
546,8.40e-03,1.60e-01,
547,-4.00e-04,8.00e-02,
548,1.20e-03,1.00e-01,
549,0.00e+00,6.00e-02,
550,0.00e+00,6.00e-02,
551,1.20e-03,8.00e-02,
552,0.00e+00,6.00e-02,
553,1.60e-03,8.00e-02,
554,-8.00e-04,6.00e-02,
555,2.40e-03,8.00e-02,
556,-2.40e-03,6.00e-02,
557,5.20e-03,8.00e-02,
558,-1.28e-02,8.00e-02,
559,1.72e-02,4.00e-02,
560,-1.72e-02,8.00e-02,
561,1.80e-02,4.00e-02,
562,9.20e-03,8.00e-02,
563,-6.40e-03,2.00e-02,
564,2.80e-03,8.00e-02,
565,-1.20e-03,2.00e-02,
566,-8.00e-04,2.00e-02,
567,2.00e-03,8.00e-02,
568,0.00e+00,2.00e-02,
569,2.00e-03,8.00e-02,
570,-8.00e-04,4.00e-02,
571,1.60e-03,2.00e-02,
572,2.80e-03,2.00e-02,
573,-1.20e-03,6.00e-02,
574,-2.00e-03,2.00e-02,
575,9.60e-03,2.08e+00,
576,8.40e-03,1.60e-01,
577,0.00e+00,8.00e-02,
578,2.00e-03,1.00e-01,
579,4.00e-04,6.00e-02,
580,1.60e-03,6.00e-02,
581,0.00e+00,8.00e-02,
582,1.60e-03,8.00e-02,
583,-8.00e-04,6.00e-02,
584,2.00e-03,6.00e-02,
585,-8.00e-04,8.00e-02,
586,-2.40e-03,8.00e-02,
587,5.20e-03,2.00e-02,
588,-1.28e-02,8.00e-02,
589,1.68e-02,2.00e-02,
590,-1.68e-02,8.00e-02,
591,1.84e-02,2.00e-02,
592,8.80e-03,8.00e-02,
593,-6.00e-03,2.00e-02,
594,3.20e-03,2.00e-02,
595,-1.20e-03,8.00e-02,
596,2.40e-03,6.00e-02,
597,0.00e+00,2.00e-02,
598,2.00e-03,4.00e-02,
599,-4.00e-04,2.00e-02,
600,1.60e-03,2.00e-02,
601,0.00e+00,4.00e-02,
602,2.40e-03,4.00e-02,
603,-8.00e-04,2.00e-02,
604,-1.60e-03,2.00e-02,
605,8.40e-03,2.06e+00,
606,8.00e-03,1.60e-01,
607,-8.00e-04,8.00e-02,
608,2.00e-03,1.00e-01,
609,0.00e+00,6.00e-02,
610,2.00e-03,6.00e-02,
611,0.00e+00,8.00e-02,
612,2.00e-03,8.00e-02,
613,-4.00e-04,6.00e-02,
614,-4.00e-04,6.00e-02,
615,2.80e-03,8.00e-02,
616,-2.80e-03,6.00e-02,
617,5.60e-03,8.00e-02,
618,-1.20e-02,8.00e-02,
619,1.60e-02,2.00e-02,
620,-1.72e-02,8.00e-02,
621,1.76e-02,2.00e-02,
622,8.40e-03,8.00e-02,
623,-5.60e-03,2.00e-02,
624,2.80e-03,2.00e-02,
625,-8.00e-04,8.00e-02,
626,0.00e+00,2.00e-02,
627,2.40e-03,8.00e-02,
628,0.00e+00,4.00e-02,
629,1.60e-03,2.00e-02,
630,0.00e+00,4.00e-02,
631,1.60e-03,2.00e-02,
632,-1.20e-03,4.00e-02,
633,2.40e-03,2.00e-02,
634,-2.80e-03,2.00e-02,
635,8.80e-03,2.08e+00,
636,8.00e-03,1.60e-01,
637,-8.00e-04,8.00e-02,
638,1.20e-03,1.00e-01,
639,0.00e+00,6.00e-02,
640,2.00e-03,6.00e-02,
641,0.00e+00,8.00e-02,
642,0.00e+00,6.00e-02,
643,2.00e-03,8.00e-02,
644,-4.00e-04,6.00e-02,
645,2.40e-03,8.00e-02,
646,-2.80e-03,8.00e-02,
647,4.80e-03,2.00e-02,
648,-1.16e-02,8.00e-02,
649,1.60e-02,2.00e-02,
650,-1.60e-02,8.00e-02,
651,1.76e-02,2.00e-02,
652,8.40e-03,8.00e-02,
653,-5.60e-03,2.00e-02,
654,2.80e-03,2.00e-02,
655,-8.00e-04,8.00e-02,
656,1.20e-03,2.00e-02,
657,-8.00e-04,6.00e-02,
658,0.00e+00,2.00e-02,
659,1.60e-03,6.00e-02,
660,1.20e-03,4.00e-02,
661,0.00e+00,2.00e-02,
662,2.00e-03,4.00e-02,
663,-8.00e-04,2.00e-02,
664,-2.40e-03,2.00e-02,
665,8.80e-03,2.06e+00,
666,8.40e-03,1.60e-01,
667,0.00e+00,8.00e-02,
668,4.00e-04,1.00e-01,
669,1.60e-03,6.00e-02,
670,1.20e-03,6.00e-02,
671,0.00e+00,8.00e-02,
672,0.00e+00,6.00e-02,
673,2.40e-03,8.00e-02,
674,2.40e-03,8.00e-02,
675,0.00e+00,6.00e-02,
676,-2.80e-03,8.00e-02,
677,5.20e-03,2.00e-02,
678,-1.08e-02,8.00e-02,
679,1.60e-02,2.00e-02,
680,-1.64e-02,8.00e-02,
681,1.72e-02,2.00e-02,
682,8.00e-03,8.00e-02,
683,-5.60e-03,2.00e-02,
684,2.40e-03,8.00e-02,
685,-1.20e-03,2.00e-02,
686,2.40e-03,4.00e-02,
687,0.00e+00,2.00e-02,
688,0.00e+00,2.00e-02,
689,2.00e-03,4.00e-02,
690,0.00e+00,4.00e-02,
691,2.00e-03,2.00e-02,
692,2.40e-03,4.00e-02,
693,-1.20e-03,2.00e-02,
694,-2.40e-03,2.00e-02,
695,9.20e-03,2.06e+00,
696,8.40e-03,1.60e-01,
697,0.00e+00,8.00e-02,
698,2.00e-03,1.00e-01,
699,0.00e+00,6.00e-02,
700,1.60e-03,6.00e-02,
701,0.00e+00,8.00e-02,
702,2.00e-03,6.00e-02,
703,0.00e+00,8.00e-02,
704,-4.00e-04,6.00e-02,
705,2.40e-03,8.00e-02,
706,-2.80e-03,8.00e-02,
707,5.20e-03,6.00e-02,
708,-1.16e-02,8.00e-02,
709,1.60e-02,4.00e-02,
710,-1.60e-02,8.00e-02,
711,1.72e-02,2.00e-02,
712,8.40e-03,2.00e-02,
713,-5.20e-03,8.00e-02,
714,2.80e-03,4.00e-02,
715,-8.00e-04,2.00e-02,
716,-8.00e-04,2.00e-02,
717,2.00e-03,6.00e-02,
718,1.20e-03,4.00e-02,
719,0.00e+00,2.00e-02,
720,1.20e-03,4.00e-02,
721,0.00e+00,2.00e-02,
722,2.40e-03,4.00e-02,
723,-1.20e-03,2.00e-02,
724,-3.20e-03,2.00e-02,
725,8.00e-03,1.94e+00,
726,8.00e-03,1.60e-01,
727,0.00e+00,8.00e-02,
728,2.00e-03,1.00e-01,
729,0.00e+00,6.00e-02,
730,0.00e+00,8.00e-02,
731,2.00e-03,6.00e-02,
732,0.00e+00,6.00e-02,
733,2.00e-03,8.00e-02,
734,-8.00e-04,8.00e-02,
735,2.00e-03,6.00e-02,
736,-2.40e-03,8.00e-02,
737,4.80e-03,6.00e-02,
738,-1.16e-02,8.00e-02,
739,1.56e-02,2.00e-02,
740,-1.52e-02,8.00e-02,
741,1.60e-02,2.00e-02,
742,8.00e-03,2.00e-02,
743,-6.00e-03,8.00e-02,
744,3.60e-03,2.00e-02,
745,-8.00e-04,6.00e-02,
746,2.00e-03,4.00e-02,
747,-8.00e-04,2.00e-02,
748,1.20e-03,2.00e-02,
749,-8.00e-04,4.00e-02,
750,2.00e-03,4.00e-02,
751,-4.00e-04,2.00e-02,
752,-8.00e-04,2.00e-02,
753,2.00e-03,4.00e-02,
754,-1.60e-03,2.00e-02,
755,9.20e-03,2.02e+00,
756,8.40e-03,1.60e-01,
757,-8.00e-04,8.00e-02,
758,0.00e+00,1.00e-01,
759,2.00e-03,6.00e-02,
760,1.20e-03,6.00e-02,
761,0.00e+00,8.00e-02,
762,-8.00e-04,8.00e-02,
763,1.60e-03,6.00e-02,
764,-8.00e-04,6.00e-02,
765,2.40e-03,8.00e-02,
766,-2.40e-03,8.00e-02,
767,5.20e-03,2.00e-02,
768,-1.12e-02,8.00e-02,
769,1.60e-02,2.00e-02,
770,-1.48e-02,8.00e-02,
771,1.68e-02,2.00e-02,
772,7.20e-03,2.00e-02,
773,-5.60e-03,8.00e-02,
774,2.80e-03,2.00e-02,
775,-8.00e-04,6.00e-02,
776,2.00e-03,4.00e-02,
777,-8.00e-04,2.00e-02,
778,0.00e+00,4.00e-02,
779,2.00e-03,2.00e-02,
780,1.20e-03,2.00e-02,
781,0.00e+00,4.00e-02,
782,2.00e-03,4.00e-02,
783,-8.00e-04,2.00e-02,
784,-1.60e-03,2.00e-02,
785,9.20e-03,2.04e+00,
786,9.20e-03,1.60e-01,
787,-4.00e-04,8.00e-02,
788,1.20e-03,1.00e-01,
789,0.00e+00,6.00e-02,
790,1.60e-03,6.00e-02,
791,4.00e-04,8.00e-02,
792,2.00e-03,6.00e-02,
793,0.00e+00,8.00e-02,
794,2.00e-03,6.00e-02,
795,-1.20e-03,8.00e-02,
796,-2.80e-03,8.00e-02,
797,5.20e-03,4.00e-02,
798,-1.00e-02,8.00e-02,
799,1.44e-02,2.00e-02,
800,-1.52e-02,8.00e-02,
801,1.72e-02,2.00e-02,
802,8.40e-03,8.00e-02,
803,-5.20e-03,2.00e-02,
804,2.40e-03,2.00e-02,
805,-8.00e-04,6.00e-02,
806,0.00e+00,2.00e-02,
807,1.60e-03,6.00e-02,
808,1.20e-03,4.00e-02,
809,0.00e+00,2.00e-02,
810,2.00e-03,4.00e-02,
811,0.00e+00,2.00e-02,
812,-1.20e-03,4.00e-02,
813,2.00e-03,2.00e-02,
814,-2.40e-03,2.00e-02,
815,8.40e-03,1.86e+00,
816,8.00e-03,1.60e-01,
817,-1.20e-03,8.00e-02,
818,0.00e+00,1.00e-01,
819,2.40e-03,6.00e-02,
820,4.00e-04,6.00e-02,
821,2.00e-03,8.00e-02,
822,2.00e-03,6.00e-02,
823,-4.00e-04,8.00e-02,
824,-4.00e-04,8.00e-02,
825,2.00e-03,6.00e-02,
826,-2.40e-03,6.00e-02,
827,4.40e-03,8.00e-02,
828,-9.20e-03,8.00e-02,
829,1.56e-02,2.00e-02,
830,-1.56e-02,8.00e-02,
831,1.52e-02,2.00e-02,
832,7.20e-03,8.00e-02,
833,-5.20e-03,2.00e-02,
834,2.40e-03,8.00e-02,
835,-4.00e-04,2.00e-02,
836,-8.00e-04,4.00e-02,
837,2.00e-03,2.00e-02,
838,0.00e+00,4.00e-02,
839,2.00e-03,2.00e-02,
840,0.00e+00,4.00e-02,
841,1.60e-03,2.00e-02,
842,1.20e-03,4.00e-02,
843,-4.00e-04,2.00e-02,
844,-2.80e-03,-2.00e-01,
845,8.80e-03,2.08e+00,
846,8.00e-03,1.60e-01,
847,0.00e+00,8.00e-02,
848,4.00e-04,1.00e-01,
849,2.00e-03,6.00e-02,
850,1.60e-03,6.00e-02,
851,0.00e+00,8.00e-02,
852,0.00e+00,6.00e-02,
853,2.00e-03,8.00e-02,
854,0.00e+00,8.00e-02,
855,2.80e-03,4.00e-02,
856,-2.80e-03,8.00e-02,
