CarrPurc_P1-19_P2-38_tauVary/Gly60/NewFile1.csv

X,CH1,CH2,Start,Increment,
Sequence,Volt,Volt,-3.600000e-03,2.000000e-04
0,0.00e+00,4.00e-02,
1,1.60e-03,0.00e+00,
2,1.20e-03,4.00e-02,
3,0.00e+00,2.00e-02,
4,0.00e+00,4.00e-02,
5,2.00e-03,0.00e+00,
6,0.00e+00,4.00e-02,
7,2.00e-03,0.00e+00,
8,0.00e+00,4.00e-02,
9,2.00e-03,0.00e+00,
10,0.00e+00,4.00e-02,
11,1.20e-03,0.00e+00,
12,0.00e+00,4.00e-02,
13,1.20e-03,0.00e+00,
14,1.20e-03,4.00e-02,
15,0.00e+00,0.00e+00,
16,1.20e-03,4.00e-02,
17,0.00e+00,0.00e+00,
18,0.00e+00,4.00e-02,
19,1.60e-03,0.00e+00,
20,8.00e-03,2.00e-02,
21,-3.36e-02,2.02e+00,
22,2.20e-02,1.00e-01,
23,-1.84e-02,6.00e-02,
24,5.60e-03,1.00e-01,
25,-3.20e-03,6.00e-02,
26,4.00e-03,6.00e-02,
27,-2.40e-03,8.00e-02,
28,2.40e-03,6.00e-02,
29,-8.00e-04,8.00e-02,
30,2.40e-03,8.00e-02,
31,-1.20e-03,2.00e-02,
32,2.40e-03,8.00e-02,
33,-8.00e-04,2.00e-02,
34,-4.00e-04,2.00e-02,
35,8.40e-03,2.10e+00,
36,8.00e-03,1.60e-01,
37,-7.60e-03,8.00e-02,
38,5.60e-03,1.00e-01,
39,-2.40e-03,6.00e-02,
40,-4.00e-04,6.00e-02,
41,2.80e-03,8.00e-02,
42,-1.20e-03,6.00e-02,
43,2.80e-03,8.00e-02,
44,-1.20e-03,6.00e-02,
45,3.20e-03,8.00e-02,
46,-4.40e-03,8.00e-02,
47,8.80e-03,2.00e-02,
48,-2.32e-02,8.00e-02,
49,3.00e-02,2.00e-02,
50,-3.16e-02,8.00e-02,
51,3.48e-02,2.00e-02,
52,1.84e-02,2.00e-02,
53,-1.32e-02,8.00e-02,
54,4.80e-03,2.00e-02,
55,-2.00e-03,8.00e-02,
56,-1.60e-03,2.00e-02,
57,2.80e-03,6.00e-02,
58,-1.20e-03,4.00e-02,
59,2.40e-03,2.00e-02,
60,2.00e-03,4.00e-02,
61,-8.00e-04,2.00e-02,
62,1.60e-03,4.00e-02,
63,-8.00e-04,2.00e-02,
64,-8.00e-04,0.00e+00,
65,8.40e-03,2.10e+00,
66,8.40e-03,1.60e-01,
67,0.00e+00,8.00e-02,
68,0.00e+00,1.00e-01,
69,2.40e-03,6.00e-02,
70,2.40e-03,6.00e-02,
71,-1.20e-03,1.00e-01,
72,-8.00e-04,8.00e-02,
73,2.40e-03,6.00e-02,
74,-8.00e-04,8.00e-02,
75,2.40e-03,4.00e-02,
76,-4.80e-03,8.00e-02,
77,7.20e-03,2.00e-02,
78,-2.04e-02,4.00e-02,
79,1.92e-02,8.00e-02,
80,-2.52e-02,2.00e-02,
81,2.60e-02,8.00e-02,
82,1.24e-02,2.00e-02,
83,-8.80e-03,8.00e-02,
84,3.60e-03,4.00e-02,
85,-1.20e-03,2.00e-02,
86,2.80e-03,2.00e-02,
87,-1.20e-03,4.00e-02,
88,2.00e-03,4.00e-02,
89,-8.00e-04,2.00e-02,
90,-8.00e-04,4.00e-02,
91,2.00e-03,2.00e-02,
92,3.20e-03,4.00e-02,
93,-2.00e-03,2.00e-02,
94,-3.20e-03,2.00e-02,
95,9.20e-03,2.02e+00,
96,8.00e-03,1.60e-01,
97,-4.00e-04,8.00e-02,
98,2.40e-03,1.00e-01,
99,-8.00e-04,6.00e-02,
100,2.40e-03,8.00e-02,
101,0.00e+00,6.00e-02,
102,2.00e-03,6.00e-02,
103,-8.00e-04,8.00e-02,
104,-1.60e-03,6.00e-02,
105,2.40e-03,8.00e-02,
106,-4.40e-03,8.00e-02,
107,7.20e-03,4.00e-02,
108,1.72e-02,8.00e-02,
109,-1.96e-02,2.00e-02,
110,-2.80e-02,8.00e-02,
111,2.80e-02,2.00e-02,
112,1.24e-02,8.00e-02,
113,-1.00e-02,2.00e-02,
114,4.80e-03,2.00e-02,
115,-1.60e-03,6.00e-02,
116,2.80e-03,4.00e-02,
117,-4.00e-04,2.00e-02,
118,-8.00e-04,4.00e-02,
119,2.40e-03,2.00e-02,
120,2.40e-03,2.00e-02,
121,-8.00e-04,4.00e-02,
122,2.80e-03,4.00e-02,
123,-1.60e-03,2.00e-02,
124,-3.20e-03,2.00e-02,
125,8.40e-03,2.00e+00,
126,8.00e-03,1.60e-01,
127,-2.40e-03,8.00e-02,
128,3.60e-03,1.00e-01,
129,-1.20e-03,6.00e-02,
130,2.40e-03,6.00e-02,
131,0.00e+00,8.00e-02,
132,-8.00e-04,6.00e-02,
133,2.40e-03,8.00e-02,
134,-1.20e-03,6.00e-02,
135,2.80e-03,8.00e-02,
136,-3.20e-03,8.00e-02,
137,6.80e-03,4.00e-02,
138,-1.52e-02,8.00e-02,
139,2.04e-02,2.00e-02,
140,-2.36e-02,8.00e-02,
141,2.64e-02,2.00e-02,
142,1.36e-02,8.00e-02,
143,-8.40e-03,2.00e-02,
144,3.60e-03,8.00e-02,
145,-1.60e-03,2.00e-02,
146,-4.00e-04,2.00e-02,
147,2.40e-03,6.00e-02,
148,2.00e-03,4.00e-02,
149,0.00e+00,2.00e-02,
150,2.00e-03,2.00e-02,
151,0.00e+00,4.00e-02,
152,-8.00e-04,4.00e-02,
153,2.80e-03,2.00e-02,
154,-1.60e-03,2.00e-02,
155,9.20e-03,2.14e+00,
156,8.40e-03,1.60e-01,
157,-8.00e-04,8.00e-02,
158,2.00e-03,1.00e-01,
159,0.00e+00,6.00e-02,
160,-8.00e-04,6.00e-02,
161,1.60e-03,8.00e-02,
162,2.00e-03,6.00e-02,
163,0.00e+00,8.00e-02,
164,2.00e-03,6.00e-02,
165,-1.20e-03,8.00e-02,
166,-4.80e-03,8.00e-02,
167,7.20e-03,4.00e-02,
168,-1.80e-02,8.00e-02,
169,1.88e-02,4.00e-02,
170,-2.48e-02,8.00e-02,
171,2.60e-02,2.00e-02,
172,1.12e-02,2.00e-02,
173,-8.40e-03,8.00e-02,
174,3.60e-03,2.00e-02,
175,-1.20e-03,8.00e-02,
176,2.80e-03,4.00e-02,
177,-1.20e-03,2.00e-02,
178,2.40e-03,4.00e-02,
179,-8.00e-04,2.00e-02,
180,2.00e-03,4.00e-02,
181,-8.00e-04,2.00e-02,
182,3.60e-03,4.00e-02,
183,-1.60e-03,2.00e-02,
184,-2.00e-03,2.00e-02,
185,9.60e-03,2.08e+00,
186,8.40e-03,1.60e-01,
187,-4.00e-04,8.00e-02,
188,2.00e-03,1.00e-01,
189,4.00e-04,6.00e-02,
190,1.20e-03,6.00e-02,
191,0.00e+00,8.00e-02,
192,-4.00e-04,6.00e-02,
193,2.00e-03,8.00e-02,
194,2.40e-03,6.00e-02,
195,-1.20e-03,8.00e-02,
196,-4.00e-03,6.00e-02,
197,6.80e-03,8.00e-02,
198,-1.88e-02,8.00e-02,
199,1.88e-02,2.00e-02,
200,-2.40e-02,2.00e-02,
201,2.48e-02,8.00e-02,
202,1.28e-02,2.00e-02,
203,-8.80e-03,8.00e-02,
204,4.00e-03,2.00e-02,
205,-1.60e-03,6.00e-02,
206,-1.20e-03,2.00e-02,
207,2.40e-03,4.00e-02,
208,-4.00e-04,4.00e-02,
209,2.00e-03,2.00e-02,
210,2.00e-03,4.00e-02,
211,-4.00e-04,2.00e-02,
212,3.60e-03,4.00e-02,
213,-1.60e-03,2.00e-02,
214,-3.20e-03,2.00e-02,
215,8.40e-03,1.98e+00,
216,8.00e-03,1.60e-01,
217,-1.60e-03,8.00e-02,
218,2.40e-03,1.00e-01,
219,-1.20e-03,6.00e-02,
220,0.00e+00,6.00e-02,
221,1.60e-03,8.00e-02,
222,-8.00e-04,6.00e-02,
223,2.40e-03,8.00e-02,
224,2.80e-03,6.00e-02,
225,-1.60e-03,8.00e-02,
226,-4.00e-03,8.00e-02,
227,6.80e-03,2.00e-02,
228,-1.60e-02,8.00e-02,
229,1.84e-02,2.00e-02,
230,-2.48e-02,8.00e-02,
231,2.44e-02,2.00e-02,
232,1.24e-02,2.00e-02,
233,-8.80e-03,8.00e-02,
234,3.20e-03,8.00e-02,
235,-4.00e-04,2.00e-02,
236,-8.00e-04,4.00e-02,
237,2.40e-03,2.00e-02,
238,2.40e-03,4.00e-02,
239,0.00e+00,2.00e-02,
240,1.60e-03,4.00e-02,
241,0.00e+00,2.00e-02,
242,-8.00e-04,4.00e-02,
243,2.40e-03,2.00e-02,
244,-2.40e-03,2.00e-02,
245,9.20e-03,2.10e+00,
246,8.00e-03,1.60e-01,
247,-1.20e-03,8.00e-02,
248,2.00e-03,1.00e-01,
249,0.00e+00,6.00e-02,
250,0.00e+00,8.00e-02,
251,1.60e-03,6.00e-02,
252,-8.00e-04,6.00e-02,
253,2.80e-03,8.00e-02,
254,-4.00e-04,8.00e-02,
255,2.40e-03,6.00e-02,
256,-4.00e-03,8.00e-02,
257,7.20e-03,2.00e-02,
258,-1.64e-02,2.00e-02,
259,2.04e-02,8.00e-02,
260,-2.20e-02,8.00e-02,
261,2.44e-02,2.00e-02,
262,1.04e-02,2.00e-02,
263,-6.80e-03,8.00e-02,
264,4.00e-03,2.00e-02,
265,-8.00e-04,4.00e-02,
266,2.40e-03,4.00e-02,
267,-1.20e-03,2.00e-02,
268,2.40e-03,4.00e-02,
269,-8.00e-04,2.00e-02,
270,-8.00e-04,4.00e-02,
271,2.40e-03,2.00e-02,
272,-8.00e-04,4.00e-02,
273,2.80e-03,2.00e-02,
274,-2.00e-03,2.00e-02,
275,9.60e-03,2.12e+00,
276,8.40e-03,1.60e-01,
277,-8.00e-04,8.00e-02,
278,2.00e-03,1.00e-01,
279,0.00e+00,6.00e-02,
280,2.00e-03,8.00e-02,
281,-8.00e-04,6.00e-02,
282,1.20e-03,6.00e-02,
283,0.00e+00,8.00e-02,
284,-8.00e-04,6.00e-02,
285,2.40e-03,8.00e-02,
286,-4.00e-03,8.00e-02,
287,6.80e-03,2.00e-02,
288,-1.64e-02,8.00e-02,
289,1.84e-02,2.00e-02,
290,-2.32e-02,8.00e-02,
291,2.44e-02,2.00e-02,
292,1.16e-02,8.00e-02,
293,-8.40e-03,2.00e-02,
294,4.00e-03,4.00e-02,
295,-8.00e-04,2.00e-02,
296,2.40e-03,4.00e-02,
297,-1.20e-03,2.00e-02,
298,2.00e-03,4.00e-02,
299,0.00e+00,2.00e-02,
300,1.60e-03,4.00e-02,
301,0.00e+00,2.00e-02,
302,3.20e-03,4.00e-02,
303,-1.60e-03,2.00e-02,
304,-2.00e-03,2.00e-02,
305,9.20e-03,1.90e+00,
306,8.40e-03,1.60e-01,
307,-4.00e-04,8.00e-02,
308,2.40e-03,1.00e-01,
309,-8.00e-04,6.00e-02,
310,0.00e+00,6.00e-02,
311,1.60e-03,8.00e-02,
312,2.40e-03,6.00e-02,
313,-8.00e-04,8.00e-02,
314,-1.20e-03,6.00e-02,
315,2.80e-03,8.00e-02,
316,-3.20e-03,8.00e-02,
317,6.80e-03,4.00e-02,
318,-1.64e-02,8.00e-02,
319,2.00e-02,2.00e-02,
320,-2.28e-02,8.00e-02,
321,2.32e-02,2.00e-02,
322,1.20e-02,2.00e-02,
323,-8.00e-03,8.00e-02,
324,3.20e-03,8.00e-02,
325,-1.20e-03,2.00e-02,
326,2.00e-03,4.00e-02,
327,-8.00e-04,2.00e-02,
328,2.00e-03,8.00e-02,
329,-8.00e-04,2.00e-02,
330,2.00e-03,4.00e-02,
331,-4.00e-04,2.00e-02,
332,2.00e-03,4.00e-02,
333,-1.20e-03,2.00e-02,
334,-2.80e-03,2.00e-02,
335,8.40e-03,2.06e+00,
336,8.00e-03,1.60e-01,
337,0.00e+00,8.00e-02,
338,2.40e-03,1.00e-01,
339,-4.00e-04,6.00e-02,
340,2.00e-03,6.00e-02,
341,-4.00e-04,8.00e-02,
342,-4.00e-04,6.00e-02,
343,2.40e-03,8.00e-02,
344,-8.00e-04,8.00e-02,
345,2.40e-03,6.00e-02,
346,-4.00e-03,8.00e-02,
347,7.20e-03,2.00e-02,
348,-1.68e-02,8.00e-02,
349,2.00e-02,2.00e-02,
350,-2.16e-02,8.00e-02,
351,2.32e-02,2.00e-02,
352,1.08e-02,8.00e-02,
353,-6.40e-03,2.00e-02,
354,4.00e-03,4.00e-02,
355,-1.20e-03,2.00e-02,
356,2.40e-03,2.00e-02,
357,-8.00e-04,4.00e-02,
358,2.40e-03,2.00e-02,
359,0.00e+00,4.00e-02,
360,0.00e+00,4.00e-02,
361,2.00e-03,2.00e-02,
362,-8.00e-04,4.00e-02,
363,2.40e-03,2.00e-02,
364,-2.40e-03,-8.00e-02,
365,9.20e-03,2.10e+00,
366,8.40e-03,1.40e-01,
367,-8.00e-04,8.00e-02,
368,2.80e-03,1.00e-01,
369,0.00e+00,6.00e-02,
370,0.00e+00,6.00e-02,
371,1.60e-03,8.00e-02,
372,2.00e-03,6.00e-02,
373,-4.00e-04,8.00e-02,
374,-8.00e-04,8.00e-02,
375,2.40e-03,4.00e-02,
376,-3.60e-03,6.00e-02,
377,5.60e-03,8.00e-02,
378,-1.56e-02,8.00e-02,
379,1.92e-02,2.00e-02,
380,-2.08e-02,8.00e-02,
381,2.24e-02,2.00e-02,
382,1.12e-02,2.00e-02,
383,-8.40e-03,8.00e-02,
384,2.80e-03,4.00e-02,
385,-1.60e-03,2.00e-02,
386,2.80e-03,4.00e-02,
387,-8.00e-04,2.00e-02,
388,-8.00e-04,2.00e-02,
389,2.40e-03,4.00e-02,
390,2.00e-03,4.00e-02,
391,0.00e+00,2.00e-02,
392,2.80e-03,4.00e-02,
393,-1.60e-03,2.00e-02,
394,-2.80e-03,2.00e-02,
395,9.60e-03,2.12e+00,
396,8.40e-03,1.60e-01,
397,0.00e+00,8.00e-02,
398,2.00e-03,1.00e-01,
399,0.00e+00,6.00e-02,
400,2.00e-03,6.00e-02,
401,-4.00e-04,8.00e-02,
402,2.00e-03,8.00e-02,
403,-4.00e-04,6.00e-02,
404,-8.00e-04,6.00e-02,
405,2.40e-03,8.00e-02,
406,-4.00e-03,8.00e-02,
407,6.80e-03,4.00e-02,
408,-1.56e-02,8.00e-02,
409,1.84e-02,2.00e-02,
410,-2.04e-02,2.00e-02,
411,2.32e-02,8.00e-02,
412,1.04e-02,2.00e-02,
413,-8.00e-03,8.00e-02,
414,3.20e-03,2.00e-02,
415,-1.20e-03,8.00e-02,
416,2.00e-03,2.00e-02,
417,-8.00e-04,6.00e-02,
418,-8.00e-04,4.00e-02,
419,2.00e-03,2.00e-02,
420,1.60e-03,2.00e-02,
421,0.00e+00,4.00e-02,
422,-8.00e-04,4.00e-02,
423,2.40e-03,2.00e-02,
424,-2.40e-03,2.00e-02,
425,8.40e-03,2.06e+00,
426,8.00e-03,1.60e-01,
427,-1.20e-03,8.00e-02,
428,2.40e-03,1.00e-01,
429,0.00e+00,6.00e-02,
430,0.00e+00,6.00e-02,
431,2.00e-03,8.00e-02,
432,2.00e-03,6.00e-02,
433,0.00e+00,8.00e-02,
434,-8.00e-04,8.00e-02,
435,2.40e-03,4.00e-02,
436,-4.40e-03,8.00e-02,
437,6.80e-03,2.00e-02,
438,-1.56e-02,8.00e-02,
439,2.00e-02,2.00e-02,
440,-2.04e-02,2.00e-02,
441,2.28e-02,8.00e-02,
442,1.00e-02,4.00e-02,
443,-7.20e-03,2.00e-02,
444,2.40e-03,4.00e-02,
445,-1.20e-03,2.00e-02,
446,2.40e-03,4.00e-02,
447,-8.00e-04,2.00e-02,
448,2.00e-03,2.00e-02,
449,0.00e+00,4.00e-02,
450,0.00e+00,2.00e-02,
451,2.00e-03,4.00e-02,
452,2.40e-03,4.00e-02,
453,-1.20e-03,2.00e-02,
454,-1.60e-03,2.00e-02,
455,8.40e-03,1.86e+00,
456,8.00e-03,1.60e-01,
457,-4.00e-04,8.00e-02,
458,2.00e-03,1.00e-01,
459,0.00e+00,6.00e-02,
460,0.00e+00,6.00e-02,
461,1.60e-03,8.00e-02,
462,0.00e+00,6.00e-02,
463,2.00e-03,8.00e-02,
464,-4.00e-04,6.00e-02,
465,2.40e-03,8.00e-02,
466,-3.20e-03,8.00e-02,
467,5.60e-03,4.00e-02,
468,-1.40e-02,8.00e-02,
469,1.88e-02,2.00e-02,
470,-2.04e-02,8.00e-02,
471,2.16e-02,2.00e-02,
472,1.12e-02,2.00e-02,
473,-8.00e-03,8.00e-02,
474,3.60e-03,2.00e-02,
475,-1.20e-03,8.00e-02,
476,2.40e-03,6.00e-02,
477,-4.00e-04,2.00e-02,
478,-4.00e-04,4.00e-02,
479,2.40e-03,2.00e-02,
480,1.60e-03,4.00e-02,
481,-8.00e-04,2.00e-02,
482,2.80e-03,2.00e-02,
483,-1.20e-03,4.00e-02,
484,-2.40e-03,2.00e-02,
485,8.80e-03,2.10e+00,
486,8.40e-03,1.60e-01,
487,-4.00e-04,8.00e-02,
488,2.40e-03,1.00e-01,
489,0.00e+00,6.00e-02,
490,0.00e+00,6.00e-02,
491,1.60e-03,8.00e-02,
492,2.00e-03,6.00e-02,
493,-8.00e-04,8.00e-02,
494,2.40e-03,6.00e-02,
495,-8.00e-04,8.00e-02,
496,-3.20e-03,6.00e-02,
497,6.40e-03,8.00e-02,
498,-1.44e-02,2.00e-02,
499,1.88e-02,8.00e-02,
500,-1.96e-02,8.00e-02,
501,2.08e-02,2.00e-02,
502,1.08e-02,2.00e-02,
503,-7.20e-03,8.00e-02,
504,-1.20e-03,2.00e-02,
505,2.80e-03,6.00e-02,
506,2.40e-03,2.00e-02,
507,-8.00e-04,4.00e-02,
508,2.00e-03,4.00e-02,
509,-8.00e-04,2.00e-02,
510,2.00e-03,4.00e-02,
511,0.00e+00,2.00e-02,
512,2.80e-03,4.00e-02,
513,-1.20e-03,2.00e-02,
514,-2.00e-03,2.00e-02,
515,9.60e-03,2.04e+00,
516,8.40e-03,1.60e-01,
517,-1.20e-03,8.00e-02,
518,2.00e-03,1.00e-01,
519,0.00e+00,6.00e-02,
520,2.40e-03,6.00e-02,
521,0.00e+00,8.00e-02,
522,-8.00e-04,6.00e-02,
523,2.00e-03,8.00e-02,
524,2.40e-03,8.00e-02,
525,-8.00e-04,2.00e-02,
526,-3.20e-03,8.00e-02,
527,6.40e-03,2.00e-02,
528,-1.40e-02,2.00e-02,
529,1.76e-02,8.00e-02,
530,-1.96e-02,2.00e-02,
531,2.12e-02,8.00e-02,
532,1.08e-02,6.00e-02,
533,-7.20e-03,2.00e-02,
534,2.40e-03,4.00e-02,
535,-8.00e-04,2.00e-02,
536,1.60e-03,4.00e-02,
537,-8.00e-04,2.00e-02,
538,-8.00e-04,4.00e-02,
539,2.00e-03,2.00e-02,
540,0.00e+00,2.00e-02,
541,2.00e-03,4.00e-02,
542,1.20e-03,4.00e-02,
543,-8.00e-04,2.00e-02,
544,-2.80e-03,2.00e-02,
545,8.40e-03,2.06e+00,
546,8.00e-03,1.60e-01,
547,0.00e+00,8.00e-02,
548,0.00e+00,1.00e-01,
549,2.00e-03,6.00e-02,
550,2.00e-03,6.00e-02,
551,4.00e-04,8.00e-02,
552,-8.00e-04,6.00e-02,
553,2.00e-03,8.00e-02,
554,0.00e+00,8.00e-02,
555,2.40e-03,4.00e-02,
556,-2.80e-03,8.00e-02,
557,5.60e-03,2.00e-02,
558,-1.44e-02,8.00e-02,
559,1.88e-02,2.00e-02,
560,-1.92e-02,8.00e-02,
561,2.04e-02,2.00e-02,
562,1.00e-02,2.00e-02,
563,-7.60e-03,8.00e-02,
564,2.80e-03,4.00e-02,
565,-8.00e-04,2.00e-02,
566,-8.00e-04,4.00e-02,
567,2.00e-03,2.00e-02,
568,0.00e+00,4.00e-02,
569,2.00e-03,2.00e-02,
570,1.60e-03,4.00e-02,
571,0.00e+00,2.00e-02,
572,2.40e-03,4.00e-02,
573,-1.20e-03,2.00e-02,
574,-1.60e-03,2.00e-02,
575,8.80e-03,1.98e+00,
576,8.00e-03,1.60e-01,
577,-4.00e-04,8.00e-02,
578,2.00e-03,1.00e-01,
579,0.00e+00,6.00e-02,
580,0.00e+00,6.00e-02,
581,1.60e-03,8.00e-02,
582,1.60e-03,8.00e-02,
583,-4.00e-04,6.00e-02,
584,2.80e-03,8.00e-02,
585,-8.00e-04,2.00e-02,
586,-3.20e-03,8.00e-02,
587,5.60e-03,2.00e-02,
588,-1.40e-02,8.00e-02,
589,1.88e-02,2.00e-02,
590,-1.96e-02,8.00e-02,
591,1.96e-02,2.00e-02,
592,9.60e-03,8.00e-02,
593,-7.20e-03,2.00e-02,
594,3.20e-03,4.00e-02,
595,-4.00e-04,2.00e-02,
596,2.40e-03,4.00e-02,
597,-1.20e-03,2.00e-02,
598,0.00e+00,4.00e-02,
599,2.00e-03,2.00e-02,
600,2.00e-03,2.00e-02,
601,0.00e+00,4.00e-02,
602,2.00e-03,4.00e-02,
603,-1.20e-03,2.00e-02,
604,-2.40e-03,2.00e-02,
605,9.20e-03,2.14e+00,
606,8.40e-03,1.60e-01,
607,0.00e+00,8.00e-02,
608,2.40e-03,1.00e-01,
609,4.00e-04,6.00e-02,
610,0.00e+00,6.00e-02,
611,1.60e-03,8.00e-02,
612,0.00e+00,8.00e-02,
613,2.40e-03,6.00e-02,
614,-8.00e-04,8.00e-02,
615,2.80e-03,4.00e-02,
616,-3.20e-03,8.00e-02,
617,6.40e-03,2.00e-02,
618,-1.32e-02,8.00e-02,
619,1.84e-02,2.00e-02,
620,-1.84e-02,8.00e-02,
621,2.08e-02,2.00e-02,
622,9.60e-03,4.00e-02,
623,-6.40e-03,2.00e-02,
624,2.80e-03,2.00e-02,
625,-8.00e-04,4.00e-02,
626,-8.00e-04,4.00e-02,
627,2.00e-03,2.00e-02,
628,-8.00e-04,4.00e-02,
629,2.00e-03,2.00e-02,
630,0.00e+00,4.00e-02,
631,2.00e-03,2.00e-02,
632,2.40e-03,4.00e-02,
633,-1.20e-03,2.00e-02,
634,-2.40e-03,2.00e-02,
635,8.80e-03,2.12e+00,
636,8.00e-03,1.60e-01,
637,-8.00e-04,8.00e-02,
638,1.60e-03,1.00e-01,
639,0.00e+00,6.00e-02,
640,0.00e+00,6.00e-02,
641,2.00e-03,8.00e-02,
642,2.00e-03,6.00e-02,
643,-8.00e-04,8.00e-02,
644,-8.00e-04,8.00e-02,
645,2.40e-03,2.00e-02,
646,-3.20e-03,8.00e-02,
647,6.40e-03,2.00e-02,
648,-1.32e-02,8.00e-02,
649,1.80e-02,2.00e-02,
650,-1.88e-02,8.00e-02,
651,1.96e-02,2.00e-02,
652,9.20e-03,8.00e-02,
653,-6.80e-03,2.00e-02,
654,2.80e-03,2.00e-02,
655,-8.00e-04,4.00e-02,
656,-4.00e-04,4.00e-02,
657,2.40e-03,2.00e-02,
658,0.00e+00,4.00e-02,
659,1.60e-03,2.00e-02,
660,2.00e-03,4.00e-02,
661,0.00e+00,2.00e-02,
662,2.00e-03,4.00e-02,
663,-1.20e-03,2.00e-02,
664,-2.40e-03,2.00e-02,
665,8.40e-03,2.04e+00,
666,8.00e-03,1.60e-01,
667,4.00e-04,8.00e-02,
668,2.00e-03,1.00e-01,
669,0.00e+00,6.00e-02,
670,0.00e+00,6.00e-02,
671,1.60e-03,8.00e-02,
672,2.00e-03,6.00e-02,
673,-8.00e-04,8.00e-02,
674,0.00e+00,8.00e-02,
675,2.40e-03,6.00e-02,
676,-2.40e-03,8.00e-02,
677,5.60e-03,2.00e-02,
678,-1.28e-02,8.00e-02,
679,1.76e-02,2.00e-02,
680,-1.76e-02,8.00e-02,
681,1.96e-02,2.00e-02,
682,9.60e-03,2.00e-02,
683,-6.40e-03,8.00e-02,
684,3.60e-03,2.00e-02,
685,-8.00e-04,6.00e-02,
686,2.00e-03,4.00e-02,
687,-8.00e-04,2.00e-02,
688,0.00e+00,2.00e-02,
689,2.40e-03,4.00e-02,
690,0.00e+00,4.00e-02,
691,1.60e-03,2.00e-02,
692,2.80e-03,4.00e-02,
693,-8.00e-04,2.00e-02,
694,-2.80e-03,2.00e-02,
695,8.80e-03,2.02e+00,
696,8.40e-03,1.60e-01,
697,0.00e+00,8.00e-02,
698,2.40e-03,1.00e-01,
699,0.00e+00,6.00e-02,
700,1.20e-03,6.00e-02,
701,0.00e+00,8.00e-02,
702,2.00e-03,6.00e-02,
703,-4.00e-04,8.00e-02,
704,2.40e-03,6.00e-02,
705,-4.00e-04,8.00e-02,
706,-4.00e-03,8.00e-02,
707,5.60e-03,4.00e-02,
708,-1.32e-02,2.00e-02,
709,1.76e-02,8.00e-02,
710,-1.84e-02,2.00e-02,
711,1.88e-02,8.00e-02,
712,8.80e-03,8.00e-02,
713,-6.40e-03,2.00e-02,
714,2.80e-03,4.00e-02,
715,-1.20e-03,2.00e-02,
716,0.00e+00,4.00e-02,
717,2.00e-03,2.00e-02,
718,2.00e-03,4.00e-02,
719,-8.00e-04,2.00e-02,
720,0.00e+00,4.00e-02,
721,2.00e-03,2.00e-02,
722,2.00e-03,4.00e-02,
723,-1.60e-03,2.00e-02,
724,-2.80e-03,2.00e-02,
725,9.20e-03,2.06e+00,
726,9.20e-03,1.60e-01,
727,-4.00e-04,8.00e-02,
728,1.60e-03,1.00e-01,
729,0.00e+00,6.00e-02,
730,2.00e-03,8.00e-02,
731,0.00e+00,6.00e-02,
732,1.60e-03,6.00e-02,
733,-8.00e-04,8.00e-02,
734,-8.00e-04,8.00e-02,
735,2.40e-03,6.00e-02,
736,-2.40e-03,8.00e-02,
737,5.60e-03,2.00e-02,
738,-1.32e-02,8.00e-02,
739,1.80e-02,2.00e-02,
740,-1.76e-02,8.00e-02,
741,1.88e-02,2.00e-02,
742,9.60e-03,2.00e-02,
743,-6.80e-03,6.00e-02,
744,2.40e-03,2.00e-02,
745,-1.20e-03,6.00e-02,
746,2.00e-03,4.00e-02,
747,-8.00e-04,2.00e-02,
748,1.60e-03,2.00e-02,
749,0.00e+00,4.00e-02,
750,2.00e-03,4.00e-02,
751,0.00e+00,2.00e-02,
752,-8.00e-04,2.00e-02,
753,2.40e-03,4.00e-02,
754,-2.40e-03,2.00e-02,
755,8.40e-03,1.88e+00,
756,8.00e-03,1.60e-01,
757,-4.00e-04,8.00e-02,
758,0.00e+00,1.00e-01,
759,2.00e-03,6.00e-02,
760,2.00e-03,6.00e-02,
761,-8.00e-04,8.00e-02,
762,0.00e+00,8.00e-02,
763,2.40e-03,6.00e-02,
764,2.00e-03,6.00e-02,
765,-8.00e-04,8.00e-02,
766,-2.80e-03,8.00e-02,
767,5.20e-03,2.00e-02,
768,-1.20e-02,8.00e-02,
769,1.72e-02,2.00e-02,
770,-1.64e-02,8.00e-02,
771,1.84e-02,2.00e-02,
772,8.40e-03,8.00e-02,
773,-6.80e-03,2.00e-02,
774,2.40e-03,2.00e-02,
775,-8.00e-04,6.00e-02,
776,1.60e-03,4.00e-02,
777,-8.00e-04,2.00e-02,
778,2.00e-03,4.00e-02,
779,-4.00e-04,2.00e-02,
780,0.00e+00,2.00e-02,
781,2.00e-03,4.00e-02,
782,2.00e-03,4.00e-02,
783,-1.20e-03,2.00e-02,
784,-2.80e-03,2.00e-02,
785,8.80e-03,2.10e+00,
786,8.40e-03,1.60e-01,
787,0.00e+00,8.00e-02,
788,-4.00e-04,1.00e-01,
789,2.00e-03,6.00e-02,
790,2.00e-03,6.00e-02,
791,0.00e+00,8.00e-02,
792,0.00e+00,6.00e-02,
793,2.00e-03,8.00e-02,
794,-8.00e-04,6.00e-02,
795,2.40e-03,8.00e-02,
796,-2.80e-03,8.00e-02,
797,5.20e-03,2.00e-02,
798,-1.20e-02,8.00e-02,
799,1.68e-02,2.00e-02,
800,-1.72e-02,8.00e-02,
801,1.76e-02,2.00e-02,
802,7.60e-03,2.00e-02,
803,-6.00e-03,8.00e-02,
804,2.80e-03,2.00e-02,
805,-4.00e-04,4.00e-02,
806,0.00e+00,4.00e-02,
807,2.40e-03,2.00e-02,
808,1.60e-03,4.00e-02,
809,0.00e+00,2.00e-02,
810,2.00e-03,4.00e-02,
811,0.00e+00,2.00e-02,
812,2.80e-03,4.00e-02,
813,-8.00e-04,2.00e-02,
814,-2.80e-03,2.00e-02,
815,9.20e-03,1.88e+00,
816,8.40e-03,1.60e-01,
817,-8.00e-04,8.00e-02,
818,0.00e+00,1.00e-01,
819,1.60e-03,6.00e-02,
820,2.00e-03,6.00e-02,
821,-4.00e-04,8.00e-02,
822,0.00e+00,6.00e-02,
823,2.00e-03,8.00e-02,
824,2.00e-03,8.00e-02,
825,-8.00e-04,6.00e-02,
826,-2.40e-03,8.00e-02,
827,5.20e-03,2.00e-02,
828,-1.28e-02,8.00e-02,
829,1.68e-02,2.00e-02,
830,-1.60e-02,8.00e-02,
831,1.76e-02,2.00e-02,
832,8.00e-03,8.00e-02,
833,-5.20e-03,2.00e-02,
834,2.80e-03,2.00e-02,
835,-1.20e-03,8.00e-02,
836,1.20e-03,2.00e-02,
837,-8.00e-04,6.00e-02,
838,2.00e-03,4.00e-02,
839,-8.00e-04,2.00e-02,
840,0.00e+00,4.00e-02,
841,2.00e-03,2.00e-02,
842,2.40e-03,4.00e-02,
843,-8.00e-04,2.00e-02,
844,-2.00e-03,2.00e-02,
845,8.80e-03,1.96e+00,
846,8.40e-03,1.60e-01,
847,0.00e+00,8.00e-02,
848,1.20e-03,1.00e-01,
849,0.00e+00,6.00e-02,
850,0.00e+00,6.00e-02,
851,2.00e-03,8.00e-02,
852,-8.00e-04,6.00e-02,
853,2.40e-03,8.00e-02,
854,2.00e-03,8.00e-02,
855,-8.00e-04,6.00e-02,
