CarrPurc_P1-19_P2-38_tauVary/Gly60/NewFile4.csv

X,CH1,CH2,Start,Increment,
Sequence,Volt,Volt,-3.600000e-03,2.000000e-04
0,0.00e+00,4.00e-02,
1,1.20e-03,2.00e-02,
2,0.00e+00,4.00e-02,
3,2.00e-03,2.00e-02,
4,0.00e+00,4.00e-02,
5,2.00e-03,2.00e-02,
6,1.20e-03,2.00e-02,
7,0.00e+00,4.00e-02,
8,1.20e-03,4.00e-02,
9,0.00e+00,2.00e-02,
10,2.00e-03,4.00e-02,
11,0.00e+00,2.00e-02,
12,1.20e-03,4.00e-02,
13,0.00e+00,2.00e-02,
14,0.00e+00,4.00e-02,
15,1.20e-03,2.00e-02,
16,0.00e+00,4.00e-02,
17,1.20e-03,2.00e-02,
18,2.00e-03,4.00e-02,
19,0.00e+00,0.00e+00,
20,8.00e-03,2.00e-02,
21,-3.20e-02,2.00e+00,
22,2.20e-02,1.20e-01,
23,-1.72e-02,6.00e-02,
24,-2.80e-03,1.00e-01,
25,5.60e-03,6.00e-02,
26,4.40e-03,6.00e-02,
27,-2.40e-03,8.00e-02,
28,2.40e-03,6.00e-02,
29,-1.20e-03,8.00e-02,
30,2.80e-03,6.00e-02,
31,-8.00e-04,8.00e-02,
32,2.40e-03,8.00e-02,
33,-8.00e-04,4.00e-02,
34,0.00e+00,4.00e-02,
35,8.00e-03,2.02e+00,
36,8.00e-03,1.60e-01,
37,-8.40e-03,8.00e-02,
38,4.40e-03,1.00e-01,
39,-1.60e-03,6.00e-02,
40,2.00e-03,1.00e-01,
41,-8.00e-04,6.00e-02,
42,-8.00e-04,6.00e-02,
43,2.40e-03,8.00e-02,
44,2.80e-03,6.00e-02,
45,-1.60e-03,8.00e-02,
46,-5.20e-03,6.00e-02,
47,8.40e-03,8.00e-02,
48,-2.20e-02,8.00e-02,
49,2.88e-02,4.00e-02,
50,-3.16e-02,8.00e-02,
51,3.44e-02,2.00e-02,
52,1.72e-02,8.00e-02,
53,-1.32e-02,2.00e-02,
54,4.80e-03,8.00e-02,
55,-1.60e-03,2.00e-02,
56,-1.20e-03,2.00e-02,
57,2.80e-03,8.00e-02,
58,-4.00e-04,2.00e-02,
59,2.40e-03,8.00e-02,
60,-8.00e-04,2.00e-02,
61,2.40e-03,8.00e-02,
62,-4.00e-04,6.00e-02,
63,2.00e-03,2.00e-02,
64,-8.00e-04,2.00e-02,
65,8.40e-03,2.12e+00,
66,8.00e-03,1.60e-01,
67,-8.00e-04,8.00e-02,
68,2.00e-03,1.00e-01,
69,-8.00e-04,6.00e-02,
70,-4.00e-04,1.00e-01,
71,2.80e-03,6.00e-02,
72,2.80e-03,8.00e-02,
73,-8.00e-04,6.00e-02,
74,-8.00e-04,6.00e-02,
75,2.40e-03,8.00e-02,
76,-4.80e-03,6.00e-02,
77,8.00e-03,8.00e-02,
78,-1.92e-02,8.00e-02,
79,2.08e-02,4.00e-02,
80,-2.64e-02,8.00e-02,
81,2.76e-02,4.00e-02,
82,1.24e-02,8.00e-02,
83,-8.80e-03,2.00e-02,
84,4.00e-03,8.00e-02,
85,-1.60e-03,2.00e-02,
86,-1.60e-03,2.00e-02,
87,2.80e-03,8.00e-02,
88,-8.00e-04,2.00e-02,
89,2.40e-03,8.00e-02,
90,0.00e+00,2.00e-02,
91,2.40e-03,8.00e-02,
92,3.60e-03,2.00e-02,
93,-2.00e-03,6.00e-02,
94,-3.20e-03,2.00e-02,
95,9.60e-03,2.02e+00,
96,8.40e-03,1.60e-01,
97,-8.00e-04,8.00e-02,
98,2.80e-03,1.00e-01,
99,-4.00e-04,6.00e-02,
100,2.00e-03,1.00e-01,
101,-8.00e-04,6.00e-02,
102,2.40e-03,6.00e-02,
103,-4.00e-04,8.00e-02,
104,2.40e-03,6.00e-02,
105,-1.20e-03,8.00e-02,
106,-4.80e-03,6.00e-02,
107,7.20e-03,8.00e-02,
108,1.72e-02,8.00e-02,
109,-2.04e-02,4.00e-02,
110,-2.72e-02,8.00e-02,
111,2.64e-02,4.00e-02,
112,1.28e-02,2.00e-02,
113,-9.60e-03,8.00e-02,
114,4.00e-03,2.00e-02,
115,-1.60e-03,8.00e-02,
116,2.40e-03,2.00e-02,
117,-1.60e-03,8.00e-02,
118,-8.00e-04,4.00e-02,
119,2.80e-03,2.00e-02,
120,-8.00e-04,2.00e-02,
121,2.40e-03,8.00e-02,
122,3.20e-03,2.00e-02,
123,-1.60e-03,6.00e-02,
124,-3.20e-03,2.00e-02,
125,8.40e-03,2.06e+00,
126,8.00e-03,1.60e-01,
127,-2.40e-03,8.00e-02,
128,3.20e-03,1.00e-01,
129,-1.20e-03,6.00e-02,
130,-8.00e-04,6.00e-02,
131,2.00e-03,1.00e-01,
132,-8.00e-04,6.00e-02,
133,2.80e-03,8.00e-02,
134,-8.00e-04,6.00e-02,
135,3.60e-03,8.00e-02,
136,-4.00e-03,6.00e-02,
137,6.40e-03,8.00e-02,
138,-1.64e-02,8.00e-02,
139,2.04e-02,4.00e-02,
140,2.60e-02,8.00e-02,
141,-2.40e-02,2.00e-02,
142,1.28e-02,8.00e-02,
143,-9.60e-03,2.00e-02,
144,4.00e-03,8.00e-02,
145,-1.60e-03,2.00e-02,
146,-8.00e-04,2.00e-02,
147,2.00e-03,8.00e-02,
148,2.00e-03,2.00e-02,
149,-8.00e-04,8.00e-02,
150,0.00e+00,2.00e-02,
151,2.00e-03,4.00e-02,
152,2.00e-03,4.00e-02,
153,-8.00e-04,2.00e-02,
154,-2.40e-03,2.00e-02,
155,8.40e-03,2.06e+00,
156,8.00e-03,1.60e-01,
157,-8.00e-04,8.00e-02,
158,2.40e-03,1.00e-01,
159,0.00e+00,6.00e-02,
160,2.00e-03,1.00e-01,
161,0.00e+00,6.00e-02,
162,1.20e-03,6.00e-02,
163,-4.00e-04,8.00e-02,
164,-8.00e-04,6.00e-02,
165,2.40e-03,8.00e-02,
166,-5.20e-03,6.00e-02,
167,7.60e-03,8.00e-02,
168,-1.76e-02,8.00e-02,
169,1.88e-02,4.00e-02,
170,-2.40e-02,8.00e-02,
171,2.56e-02,2.00e-02,
172,1.12e-02,2.00e-02,
173,-7.60e-03,8.00e-02,
174,3.60e-03,8.00e-02,
175,-1.60e-03,2.00e-02,
176,2.40e-03,8.00e-02,
177,-1.20e-03,2.00e-02,
178,2.00e-03,8.00e-02,
179,-8.00e-04,2.00e-02,
180,-8.00e-04,8.00e-02,
181,2.00e-03,2.00e-02,
182,2.40e-03,8.00e-02,
183,-2.40e-03,2.00e-02,
184,-2.00e-03,2.00e-02,
185,9.20e-03,2.10e+00,
186,8.40e-03,1.60e-01,
187,0.00e+00,8.00e-02,
188,2.40e-03,1.00e-01,
189,0.00e+00,6.00e-02,
190,2.00e-03,1.00e-01,
191,0.00e+00,6.00e-02,
192,1.20e-03,6.00e-02,
193,-8.00e-04,8.00e-02,
194,-8.00e-04,6.00e-02,
195,2.00e-03,8.00e-02,
196,-4.00e-03,6.00e-02,
197,6.80e-03,8.00e-02,
198,-1.84e-02,8.00e-02,
199,2.00e-02,2.00e-02,
200,2.60e-02,8.00e-02,
201,-2.52e-02,2.00e-02,
202,1.32e-02,8.00e-02,
203,-9.20e-03,2.00e-02,
204,3.20e-03,2.00e-02,
205,-1.20e-03,8.00e-02,
206,2.40e-03,2.00e-02,
207,-8.00e-04,8.00e-02,
208,2.40e-03,8.00e-02,
209,-4.00e-04,2.00e-02,
210,2.00e-03,2.00e-02,
211,-8.00e-04,8.00e-02,
212,2.80e-03,2.00e-02,
213,-2.40e-03,8.00e-02,
214,-3.20e-03,2.00e-02,
215,8.40e-03,1.88e+00,
216,8.00e-03,1.60e-01,
217,-1.60e-03,8.00e-02,
218,3.60e-03,1.00e-01,
219,-4.00e-04,6.00e-02,
220,0.00e+00,6.00e-02,
221,2.00e-03,1.00e-01,
222,2.40e-03,6.00e-02,
223,-8.00e-04,8.00e-02,
224,2.80e-03,6.00e-02,
225,-1.20e-03,8.00e-02,
226,-3.60e-03,8.00e-02,
227,6.80e-03,6.00e-02,
228,-1.64e-02,6.00e-02,
229,1.84e-02,8.00e-02,
230,-2.28e-02,8.00e-02,
231,2.56e-02,4.00e-02,
232,1.24e-02,8.00e-02,
233,-8.80e-03,2.00e-02,
234,4.00e-03,8.00e-02,
235,-1.20e-03,2.00e-02,
236,2.00e-03,8.00e-02,
237,-8.00e-04,2.00e-02,
238,1.20e-03,2.00e-02,
239,-8.00e-04,8.00e-02,
240,-8.00e-04,2.00e-02,
241,1.60e-03,6.00e-02,
242,2.40e-03,6.00e-02,
243,-1.20e-03,2.00e-02,
244,-2.40e-03,2.00e-02,
245,8.40e-03,2.00e+00,
246,8.00e-03,1.60e-01,
247,-8.00e-04,8.00e-02,
248,2.40e-03,1.00e-01,
249,-8.00e-04,6.00e-02,
250,2.00e-03,1.00e-01,
251,-4.00e-04,6.00e-02,
252,-8.00e-04,6.00e-02,
253,2.40e-03,8.00e-02,
254,-8.00e-04,8.00e-02,
255,2.40e-03,6.00e-02,
256,-4.40e-03,8.00e-02,
257,6.80e-03,6.00e-02,
258,-1.72e-02,6.00e-02,
259,2.12e-02,8.00e-02,
260,-2.28e-02,8.00e-02,
261,2.44e-02,2.00e-02,
262,1.04e-02,8.00e-02,
263,-8.00e-03,2.00e-02,
264,4.00e-03,2.00e-02,
265,-1.20e-03,8.00e-02,
266,2.40e-03,8.00e-02,
267,-8.00e-04,2.00e-02,
268,0.00e+00,2.00e-02,
269,1.60e-03,8.00e-02,
270,0.00e+00,2.00e-02,
271,2.00e-03,8.00e-02,
272,2.00e-03,8.00e-02,
273,-1.60e-03,2.00e-02,
274,-1.60e-03,2.00e-02,
275,9.20e-03,2.04e+00,
276,8.00e-03,1.60e-01,
277,-8.00e-04,8.00e-02,
278,2.00e-03,1.00e-01,
279,0.00e+00,6.00e-02,
280,0.00e+00,6.00e-02,
281,2.00e-03,1.00e-01,
282,2.40e-03,6.00e-02,
283,-8.00e-04,8.00e-02,
284,2.00e-03,6.00e-02,
285,-8.00e-04,8.00e-02,
286,-3.20e-03,6.00e-02,
287,5.60e-03,8.00e-02,
288,-1.72e-02,8.00e-02,
289,1.72e-02,4.00e-02,
290,-2.28e-02,8.00e-02,
291,2.44e-02,4.00e-02,
292,1.16e-02,8.00e-02,
293,-8.40e-03,2.00e-02,
294,4.00e-03,2.00e-02,
295,-1.20e-03,8.00e-02,
296,2.80e-03,8.00e-02,
297,-1.20e-03,2.00e-02,
298,2.40e-03,8.00e-02,
299,-4.00e-04,2.00e-02,
300,2.00e-03,8.00e-02,
301,-8.00e-04,2.00e-02,
302,2.40e-03,2.00e-02,
303,-1.60e-03,8.00e-02,
304,-2.40e-03,2.00e-02,
305,9.20e-03,2.08e+00,
306,8.40e-03,1.60e-01,
307,-1.20e-03,8.00e-02,
308,2.00e-03,1.00e-01,
309,-8.00e-04,6.00e-02,
310,0.00e+00,6.00e-02,
311,2.00e-03,1.00e-01,
312,-8.00e-04,6.00e-02,
313,2.40e-03,8.00e-02,
314,2.40e-03,6.00e-02,
315,-1.60e-03,8.00e-02,
316,-4.00e-03,6.00e-02,
317,6.00e-03,8.00e-02,
318,-1.64e-02,6.00e-02,
319,1.76e-02,8.00e-02,
320,-2.20e-02,8.00e-02,
321,2.32e-02,2.00e-02,
322,1.20e-02,2.00e-02,
323,-8.40e-03,8.00e-02,
324,2.80e-03,2.00e-02,
325,-1.60e-03,8.00e-02,
326,-8.00e-04,8.00e-02,
327,2.40e-03,2.00e-02,
328,0.00e+00,8.00e-02,
329,2.00e-03,2.00e-02,
330,2.00e-03,2.00e-02,
331,-4.00e-04,8.00e-02,
332,2.40e-03,4.00e-02,
333,-1.20e-03,2.00e-02,
334,-2.40e-03,2.00e-02,
335,8.40e-03,2.06e+00,
336,8.00e-03,1.60e-01,
337,-8.00e-04,8.00e-02,
338,2.00e-03,1.00e-01,
339,-8.00e-04,6.00e-02,
340,1.60e-03,1.00e-01,
341,0.00e+00,6.00e-02,
342,-8.00e-04,6.00e-02,
343,2.00e-03,8.00e-02,
344,-4.00e-04,8.00e-02,
345,2.40e-03,6.00e-02,
346,-4.40e-03,6.00e-02,
347,7.60e-03,8.00e-02,
348,-1.60e-02,8.00e-02,
349,1.88e-02,6.00e-02,
350,-2.16e-02,8.00e-02,
351,2.40e-02,2.00e-02,
352,1.04e-02,8.00e-02,
353,-7.20e-03,2.00e-02,
354,2.80e-03,8.00e-02,
355,-1.20e-03,2.00e-02,
356,2.40e-03,2.00e-02,
357,-8.00e-04,8.00e-02,
358,2.00e-03,2.00e-02,
359,-8.00e-04,8.00e-02,
360,2.00e-03,8.00e-02,
361,4.00e-04,2.00e-02,
362,2.40e-03,8.00e-02,
363,-1.20e-03,2.00e-02,
364,-2.40e-03,2.00e-02,
365,8.80e-03,2.06e+00,
366,8.00e-03,1.40e-01,
367,-8.00e-04,8.00e-02,
368,2.00e-03,1.00e-01,
369,-8.00e-04,6.00e-02,
370,0.00e+00,6.00e-02,
371,1.60e-03,1.00e-01,
372,0.00e+00,6.00e-02,
373,2.00e-03,8.00e-02,
374,-8.00e-04,6.00e-02,
375,2.40e-03,8.00e-02,
376,-3.60e-03,6.00e-02,
377,6.40e-03,8.00e-02,
378,-1.60e-02,8.00e-02,
379,2.00e-02,6.00e-02,
380,-2.20e-02,8.00e-02,
381,2.24e-02,2.00e-02,
382,1.04e-02,8.00e-02,
383,-8.80e-03,2.00e-02,
384,2.80e-03,8.00e-02,
385,-1.60e-03,2.00e-02,
386,2.40e-03,2.00e-02,
387,-1.20e-03,6.00e-02,
388,2.00e-03,2.00e-02,
389,-8.00e-04,6.00e-02,
390,2.40e-03,2.00e-02,
391,-4.00e-04,6.00e-02,
392,2.40e-03,4.00e-02,
393,-1.20e-03,2.00e-02,
394,-1.60e-03,2.00e-02,
395,9.20e-03,1.94e+00,
396,8.40e-03,1.60e-01,
397,-8.00e-04,8.00e-02,
398,0.00e+00,1.00e-01,
399,2.00e-03,6.00e-02,
400,2.00e-03,6.00e-02,
401,0.00e+00,1.00e-01,
402,-8.00e-04,8.00e-02,
403,2.40e-03,6.00e-02,
404,2.40e-03,6.00e-02,
405,-8.00e-04,8.00e-02,
406,-4.00e-03,6.00e-02,
407,5.60e-03,8.00e-02,
408,-1.56e-02,8.00e-02,
409,1.80e-02,2.00e-02,
410,-2.04e-02,8.00e-02,
411,2.28e-02,2.00e-02,
412,1.20e-02,8.00e-02,
413,-7.20e-03,2.00e-02,
414,3.20e-03,8.00e-02,
415,-1.20e-03,2.00e-02,
416,2.40e-03,2.00e-02,
417,-1.20e-03,8.00e-02,
418,-8.00e-04,2.00e-02,
419,2.40e-03,8.00e-02,
420,-8.00e-04,2.00e-02,
421,1.60e-03,8.00e-02,
422,2.40e-03,4.00e-02,
423,-1.20e-03,2.00e-02,
424,-2.40e-03,2.00e-02,
425,9.20e-03,1.98e+00,
426,8.40e-03,1.60e-01,
427,-8.00e-04,8.00e-02,
428,2.40e-03,1.00e-01,
429,-8.00e-04,6.00e-02,
430,0.00e+00,6.00e-02,
431,2.40e-03,1.00e-01,
432,2.00e-03,6.00e-02,
433,-8.00e-04,8.00e-02,
434,-8.00e-04,6.00e-02,
435,2.40e-03,8.00e-02,
436,-4.00e-03,8.00e-02,
437,6.80e-03,6.00e-02,
438,-1.56e-02,8.00e-02,
439,2.08e-02,2.00e-02,
440,-2.08e-02,8.00e-02,
441,2.24e-02,2.00e-02,
442,9.60e-03,8.00e-02,
443,-7.20e-03,2.00e-02,
444,2.80e-03,8.00e-02,
445,-1.20e-03,2.00e-02,
446,-8.00e-04,2.00e-02,
447,2.40e-03,8.00e-02,
448,0.00e+00,8.00e-02,
449,2.40e-03,2.00e-02,
450,2.00e-03,2.00e-02,
451,-8.00e-04,8.00e-02,
452,1.60e-03,8.00e-02,
453,-1.20e-03,2.00e-02,
454,-2.00e-03,2.00e-02,
455,8.40e-03,2.12e+00,
456,8.00e-03,1.60e-01,
457,-1.20e-03,8.00e-02,
458,2.40e-03,1.00e-01,
459,0.00e+00,6.00e-02,
460,1.20e-03,1.00e-01,
461,-4.00e-04,6.00e-02,
462,0.00e+00,6.00e-02,
463,2.00e-03,8.00e-02,
464,-8.00e-04,6.00e-02,
465,2.40e-03,8.00e-02,
466,-2.80e-03,6.00e-02,
467,6.00e-03,8.00e-02,
468,-1.48e-02,8.00e-02,
469,1.96e-02,4.00e-02,
470,-2.04e-02,8.00e-02,
471,2.28e-02,4.00e-02,
472,1.12e-02,2.00e-02,
473,-8.00e-03,8.00e-02,
474,2.80e-03,8.00e-02,
475,-1.20e-03,2.00e-02,
476,-4.00e-04,8.00e-02,
477,2.80e-03,2.00e-02,
478,-8.00e-04,8.00e-02,
479,2.00e-03,2.00e-02,
480,1.60e-03,8.00e-02,
481,0.00e+00,2.00e-02,
482,-8.00e-04,2.00e-02,
483,2.40e-03,4.00e-02,
484,-2.40e-03,2.00e-02,
485,8.40e-03,2.14e+00,
486,8.00e-03,1.60e-01,
487,0.00e+00,8.00e-02,
488,0.00e+00,1.00e-01,
489,2.00e-03,6.00e-02,
490,2.00e-03,1.00e-01,
491,-4.00e-04,6.00e-02,
492,2.00e-03,6.00e-02,
493,-8.00e-04,8.00e-02,
494,-8.00e-04,6.00e-02,
495,2.00e-03,8.00e-02,
496,-3.20e-03,6.00e-02,
497,6.40e-03,8.00e-02,
498,-1.56e-02,8.00e-02,
499,1.88e-02,4.00e-02,
500,-1.96e-02,8.00e-02,
501,2.20e-02,2.00e-02,
502,1.00e-02,8.00e-02,
503,-7.60e-03,2.00e-02,
504,2.80e-03,2.00e-02,
505,-1.20e-03,8.00e-02,
506,2.40e-03,2.00e-02,
507,-4.00e-04,8.00e-02,
508,2.00e-03,2.00e-02,
509,-8.00e-04,8.00e-02,
510,-4.00e-04,8.00e-02,
511,1.60e-03,2.00e-02,
512,2.40e-03,4.00e-02,
513,-1.60e-03,2.00e-02,
514,-2.80e-03,2.00e-02,
515,9.20e-03,2.04e+00,
516,8.40e-03,1.60e-01,
517,-1.20e-03,8.00e-02,
518,0.00e+00,1.00e-01,
519,2.40e-03,6.00e-02,
520,2.00e-03,1.00e-01,
521,-8.00e-04,6.00e-02,
522,2.00e-03,6.00e-02,
523,-4.00e-04,8.00e-02,
524,2.40e-03,6.00e-02,
525,-1.20e-03,8.00e-02,
526,-2.80e-03,6.00e-02,
527,6.80e-03,8.00e-02,
528,-1.48e-02,6.00e-02,
529,1.88e-02,8.00e-02,
530,-1.96e-02,4.00e-02,
531,2.24e-02,8.00e-02,
532,1.08e-02,8.00e-02,
533,-6.00e-03,2.00e-02,
534,2.40e-03,8.00e-02,
535,-1.20e-03,2.00e-02,
536,2.00e-03,8.00e-02,
537,-8.00e-04,2.00e-02,
538,0.00e+00,8.00e-02,
539,2.00e-03,2.00e-02,
540,0.00e+00,2.00e-02,
541,1.60e-03,8.00e-02,
542,-8.00e-04,4.00e-02,
543,2.00e-03,2.00e-02,
544,-2.00e-03,2.00e-02,
545,8.40e-03,2.06e+00,
546,8.00e-03,1.60e-01,
547,-4.00e-04,8.00e-02,
548,2.40e-03,1.00e-01,
549,4.00e-04,6.00e-02,
550,2.00e-03,1.00e-01,
551,0.00e+00,6.00e-02,
552,-4.00e-04,6.00e-02,
553,2.00e-03,8.00e-02,
554,2.40e-03,6.00e-02,
555,-8.00e-04,8.00e-02,
556,-3.60e-03,6.00e-02,
557,5.60e-03,8.00e-02,
558,-1.44e-02,8.00e-02,
559,1.80e-02,6.00e-02,
560,-1.92e-02,8.00e-02,
561,2.00e-02,2.00e-02,
562,1.00e-02,8.00e-02,
563,-7.60e-03,2.00e-02,
564,2.80e-03,8.00e-02,
565,-1.20e-03,2.00e-02,
566,2.40e-03,2.00e-02,
567,-8.00e-04,8.00e-02,
568,2.00e-03,8.00e-02,
569,0.00e+00,2.00e-02,
570,1.20e-03,2.00e-02,
571,0.00e+00,6.00e-02,
572,2.40e-03,4.00e-02,
573,-1.20e-03,2.00e-02,
574,-2.00e-03,2.00e-02,
575,8.40e-03,2.12e+00,
576,8.00e-03,1.60e-01,
577,-8.00e-04,8.00e-02,
578,2.00e-03,1.00e-01,
579,0.00e+00,6.00e-02,
580,0.00e+00,1.00e-01,
581,2.40e-03,6.00e-02,
582,2.40e-03,8.00e-02,
583,0.00e+00,6.00e-02,
584,2.40e-03,6.00e-02,
585,-8.00e-04,8.00e-02,
586,-2.80e-03,8.00e-02,
587,5.20e-03,6.00e-02,
588,-1.36e-02,8.00e-02,
589,1.84e-02,6.00e-02,
590,-1.92e-02,8.00e-02,
591,2.04e-02,2.00e-02,
592,1.00e-02,8.00e-02,
593,-7.20e-03,2.00e-02,
594,2.80e-03,8.00e-02,
595,-8.00e-04,4.00e-02,
596,-4.00e-04,8.00e-02,
597,2.40e-03,2.00e-02,
598,2.00e-03,2.00e-02,
599,-4.00e-04,8.00e-02,
600,1.20e-03,2.00e-02,
601,0.00e+00,8.00e-02,
602,2.40e-03,4.00e-02,
603,-1.20e-03,2.00e-02,
604,-2.40e-03,2.00e-02,
605,8.80e-03,2.00e+00,
606,8.40e-03,1.60e-01,
607,0.00e+00,8.00e-02,
608,1.60e-03,1.00e-01,
609,0.00e+00,6.00e-02,
610,-4.00e-04,6.00e-02,
611,2.00e-03,1.00e-01,
612,-8.00e-04,8.00e-02,
613,2.40e-03,6.00e-02,
614,0.00e+00,6.00e-02,
615,2.40e-03,8.00e-02,
616,-2.80e-03,6.00e-02,
617,6.80e-03,8.00e-02,
618,-1.40e-02,8.00e-02,
619,1.96e-02,4.00e-02,
620,-1.92e-02,8.00e-02,
621,1.92e-02,2.00e-02,
622,9.60e-03,8.00e-02,
623,-6.40e-03,2.00e-02,
624,2.40e-03,2.00e-02,
625,-8.00e-04,8.00e-02,
626,-8.00e-04,2.00e-02,
627,2.80e-03,8.00e-02,
628,2.00e-03,2.00e-02,
629,-4.00e-04,8.00e-02,
630,1.20e-03,6.00e-02,
631,-4.00e-04,2.00e-02,
632,2.00e-03,4.00e-02,
633,-1.20e-03,2.00e-02,
634,-2.40e-03,2.00e-02,
635,8.80e-03,1.98e+00,
636,8.40e-03,1.60e-01,
637,-4.00e-04,8.00e-02,
638,0.00e+00,1.00e-01,
639,2.00e-03,6.00e-02,
640,0.00e+00,6.00e-02,
641,2.00e-03,1.00e-01,
642,-4.00e-04,6.00e-02,
643,2.00e-03,8.00e-02,
644,2.40e-03,6.00e-02,
645,-8.00e-04,8.00e-02,
646,-2.80e-03,6.00e-02,
647,5.60e-03,8.00e-02,
648,-1.40e-02,6.00e-02,
649,1.72e-02,8.00e-02,
650,-1.92e-02,8.00e-02,
651,1.96e-02,4.00e-02,
652,1.00e-02,8.00e-02,
653,-6.80e-03,2.00e-02,
654,2.80e-03,8.00e-02,
655,-8.00e-04,2.00e-02,
656,-8.00e-04,2.00e-02,
657,1.60e-03,8.00e-02,
658,-4.00e-04,2.00e-02,
659,1.60e-03,8.00e-02,
660,2.00e-03,4.00e-02,
661,-4.00e-04,2.00e-02,
662,2.00e-03,4.00e-02,
663,-1.20e-03,2.00e-02,
664,-2.40e-03,2.00e-02,
665,8.40e-03,2.12e+00,
666,8.00e-03,1.60e-01,
667,0.00e+00,8.00e-02,
668,2.00e-03,1.00e-01,
669,0.00e+00,6.00e-02,
670,0.00e+00,6.00e-02,
671,2.00e-03,8.00e-02,
672,0.00e+00,6.00e-02,
673,2.40e-03,8.00e-02,
674,2.40e-03,8.00e-02,
675,-4.00e-04,6.00e-02,
676,-2.80e-03,8.00e-02,
677,5.60e-03,4.00e-02,
678,-1.28e-02,8.00e-02,
679,1.76e-02,4.00e-02,
680,-1.84e-02,8.00e-02,
681,2.00e-02,2.00e-02,
682,9.20e-03,8.00e-02,
683,-6.40e-03,2.00e-02,
684,3.20e-03,8.00e-02,
685,-1.20e-03,2.00e-02,
686,2.40e-03,4.00e-02,
687,-1.20e-03,2.00e-02,
688,1.20e-03,2.00e-02,
689,-8.00e-04,4.00e-02,
690,2.00e-03,4.00e-02,
691,0.00e+00,2.00e-02,
692,2.00e-03,4.00e-02,
693,-8.00e-04,2.00e-02,
694,-2.80e-03,2.00e-02,
695,8.80e-03,2.12e+00,
696,8.40e-03,1.60e-01,
697,0.00e+00,8.00e-02,
698,2.00e-03,1.00e-01,
699,0.00e+00,6.00e-02,
700,0.00e+00,6.00e-02,
701,2.00e-03,1.00e-01,
702,2.00e-03,6.00e-02,
703,-8.00e-04,8.00e-02,
704,-4.00e-04,6.00e-02,
705,2.40e-03,8.00e-02,
706,-3.20e-03,8.00e-02,
707,6.00e-03,6.00e-02,
708,-1.24e-02,8.00e-02,
709,1.84e-02,4.00e-02,
710,-1.88e-02,8.00e-02,
711,1.88e-02,2.00e-02,
712,9.20e-03,8.00e-02,
713,-6.40e-03,2.00e-02,
714,2.40e-03,8.00e-02,
715,-8.00e-04,2.00e-02,
716,-8.00e-04,2.00e-02,
717,2.40e-03,8.00e-02,
718,0.00e+00,2.00e-02,
719,2.40e-03,8.00e-02,
720,0.00e+00,2.00e-02,
721,1.60e-03,6.00e-02,
722,2.00e-03,4.00e-02,
723,-1.20e-03,2.00e-02,
724,-2.80e-03,2.00e-02,
725,9.20e-03,2.00e+00,
726,8.40e-03,1.60e-01,
727,0.00e+00,8.00e-02,
728,0.00e+00,1.00e-01,
729,1.60e-03,6.00e-02,
730,2.00e-03,8.00e-02,
731,0.00e+00,6.00e-02,
732,0.00e+00,6.00e-02,
733,2.00e-03,8.00e-02,
734,-4.00e-04,8.00e-02,
735,2.40e-03,6.00e-02,
736,-2.40e-03,8.00e-02,
737,5.60e-03,6.00e-02,
738,-1.32e-02,8.00e-02,
739,1.72e-02,2.00e-02,
740,-1.76e-02,8.00e-02,
741,1.88e-02,2.00e-02,
742,8.40e-03,8.00e-02,
743,-6.80e-03,2.00e-02,
744,3.20e-03,4.00e-02,
745,-8.00e-04,8.00e-02,
746,2.40e-03,2.00e-02,
747,-8.00e-04,8.00e-02,
748,0.00e+00,2.00e-02,
749,2.00e-03,8.00e-02,
750,4.00e-04,4.00e-02,
751,2.00e-03,2.00e-02,
752,2.40e-03,2.00e-02,
753,-4.00e-04,4.00e-02,
754,-2.40e-03,2.00e-02,
755,9.20e-03,2.14e+00,
756,8.00e-03,1.60e-01,
757,0.00e+00,8.00e-02,
758,0.00e+00,1.00e-01,
759,2.00e-03,6.00e-02,
760,0.00e+00,1.00e-01,
761,1.60e-03,6.00e-02,
762,-8.00e-04,8.00e-02,
763,2.40e-03,6.00e-02,
764,-8.00e-04,6.00e-02,
765,2.80e-03,8.00e-02,
766,-2.80e-03,6.00e-02,
767,5.20e-03,8.00e-02,
768,-1.28e-02,8.00e-02,
769,1.60e-02,4.00e-02,
770,-1.72e-02,8.00e-02,
771,1.84e-02,4.00e-02,
772,8.80e-03,8.00e-02,
773,-6.40e-03,2.00e-02,
774,2.80e-03,8.00e-02,
775,-1.20e-03,2.00e-02,
776,2.00e-03,8.00e-02,
777,-8.00e-04,2.00e-02,
778,1.20e-03,2.00e-02,
779,-8.00e-04,8.00e-02,
780,1.20e-03,2.00e-02,
781,0.00e+00,8.00e-02,
782,2.40e-03,2.00e-02,
783,-1.20e-03,6.00e-02,
784,-2.40e-03,2.00e-02,
785,8.40e-03,2.08e+00,
786,8.00e-03,1.60e-01,
787,-4.00e-04,8.00e-02,
788,1.60e-03,1.00e-01,
789,0.00e+00,6.00e-02,
790,0.00e+00,6.00e-02,
791,2.00e-03,8.00e-02,
792,0.00e+00,6.00e-02,
793,1.60e-03,8.00e-02,
794,0.00e+00,6.00e-02,
795,2.00e-03,8.00e-02,
796,-2.80e-03,6.00e-02,
797,5.60e-03,8.00e-02,
798,-1.20e-02,8.00e-02,
799,1.64e-02,2.00e-02,
800,-1.68e-02,8.00e-02,
801,1.76e-02,2.00e-02,
802,8.80e-03,8.00e-02,
803,-6.00e-03,2.00e-02,
804,2.40e-03,2.00e-02,
805,-8.00e-04,8.00e-02,
806,1.20e-03,8.00e-02,
807,-8.00e-04,2.00e-02,
808,1.20e-03,8.00e-02,
809,-4.00e-04,2.00e-02,
810,1.60e-03,2.00e-02,
811,-8.00e-04,8.00e-02,
812,2.00e-03,2.00e-02,
813,-1.20e-03,6.00e-02,
814,-2.40e-03,2.00e-02,
815,8.80e-03,2.12e+00,
816,8.40e-03,1.60e-01,
817,0.00e+00,8.00e-02,
818,0.00e+00,1.00e-01,
819,2.40e-03,6.00e-02,
820,0.00e+00,1.00e-01,
821,1.60e-03,6.00e-02,
822,0.00e+00,6.00e-02,
823,2.00e-03,8.00e-02,
824,0.00e+00,8.00e-02,
825,2.40e-03,6.00e-02,
826,-2.40e-03,6.00e-02,
827,4.40e-03,8.00e-02,
828,-1.28e-02,8.00e-02,
829,1.60e-02,2.00e-02,
830,-1.68e-02,8.00e-02,
831,1.76e-02,2.00e-02,
832,9.20e-03,8.00e-02,
833,-5.20e-03,2.00e-02,
834,2.40e-03,8.00e-02,
835,-8.00e-04,2.00e-02,
836,-8.00e-04,2.00e-02,
837,2.00e-03,8.00e-02,
838,0.00e+00,2.00e-02,
839,2.00e-03,8.00e-02,
840,0.00e+00,2.00e-02,
841,1.60e-03,8.00e-02,
842,1.60e-03,6.00e-02,
843,-1.20e-03,2.00e-02,
844,-2.80e-03,2.00e-02,
845,9.60e-03,2.02e+00,
846,8.40e-03,1.60e-01,
847,-8.00e-04,8.00e-02,
848,4.00e-04,1.00e-01,
849,2.00e-03,6.00e-02,
850,0.00e+00,6.00e-02,
851,1.60e-03,8.00e-02,
852,0.00e+00,6.00e-02,
853,2.40e-03,8.00e-02,
854,2.00e-03,8.00e-02,
855,-8.00e-04,6.00e-02,
