CarrPurc_P1-19_P2-38_tauVary/Gly60/NewFile9.csv

X,CH1,CH2,Start,Increment,
Sequence,Volt,Volt,-3.600000e-03,2.000000e-04
0,1.20e-03,4.00e-02,
1,4.00e-04,2.00e-02,
2,4.00e-04,4.00e-02,
3,2.00e-03,2.00e-02,
4,4.00e-04,4.00e-02,
5,1.60e-03,0.00e+00,
6,2.00e-03,4.00e-02,
7,0.00e+00,0.00e+00,
8,2.00e-03,4.00e-02,
9,0.00e+00,0.00e+00,
10,4.00e-04,4.00e-02,
11,2.40e-03,0.00e+00,
12,1.60e-03,4.00e-02,
13,0.00e+00,0.00e+00,
14,4.00e-04,4.00e-02,
15,2.00e-03,2.00e-02,
16,4.00e-04,4.00e-02,
17,1.60e-03,0.00e+00,
18,4.00e-04,4.00e-02,
19,2.00e-03,0.00e+00,
20,7.60e-03,2.00e-02,
21,-3.08e-02,2.06e+00,
22,2.08e-02,1.20e-01,
23,-1.72e-02,8.00e-02,
24,-2.40e-03,1.00e-01,
25,5.60e-03,6.00e-02,
26,4.40e-03,6.00e-02,
27,-2.40e-03,8.00e-02,
28,-8.00e-04,6.00e-02,
29,3.20e-03,8.00e-02,
30,-4.00e-04,6.00e-02,
31,2.80e-03,8.00e-02,
32,2.00e-03,8.00e-02,
33,-8.00e-04,4.00e-02,
34,4.00e-04,4.00e-02,
35,8.00e-03,2.02e+00,
36,8.00e-03,1.60e-01,
37,-7.20e-03,8.00e-02,
38,5.60e-03,1.00e-01,
39,-1.60e-03,6.00e-02,
40,2.40e-03,6.00e-02,
41,-4.00e-04,1.00e-01,
42,2.40e-03,6.00e-02,
43,-8.00e-04,8.00e-02,
44,2.80e-03,6.00e-02,
45,-1.20e-03,8.00e-02,
46,-5.20e-03,8.00e-02,
47,7.60e-03,2.00e-02,
48,-2.16e-02,8.00e-02,
49,2.68e-02,4.00e-02,
50,-3.08e-02,8.00e-02,
51,3.32e-02,2.00e-02,
52,1.72e-02,8.00e-02,
53,-1.28e-02,2.00e-02,
54,4.80e-03,8.00e-02,
55,-1.60e-03,2.00e-02,
56,2.80e-03,4.00e-02,
57,-1.20e-03,2.00e-02,
58,-8.00e-04,2.00e-02,
59,2.80e-03,8.00e-02,
60,0.00e+00,4.00e-02,
61,2.40e-03,2.00e-02,
62,0.00e+00,4.00e-02,
63,2.00e-03,2.00e-02,
64,0.00e+00,2.00e-02,
65,8.00e-03,2.04e+00,
66,8.00e-03,1.60e-01,
67,0.00e+00,8.00e-02,
68,2.40e-03,1.00e-01,
69,0.00e+00,6.00e-02,
70,2.40e-03,6.00e-02,
71,-8.00e-04,8.00e-02,
72,2.40e-03,8.00e-02,
73,-4.00e-04,6.00e-02,
74,2.40e-03,6.00e-02,
75,-8.00e-04,8.00e-02,
76,-4.00e-03,8.00e-02,
77,8.00e-03,4.00e-02,
78,-1.96e-02,8.00e-02,
79,2.08e-02,2.00e-02,
80,-2.48e-02,8.00e-02,
81,2.68e-02,2.00e-02,
82,1.16e-02,8.00e-02,
83,-8.80e-03,2.00e-02,
84,3.60e-03,8.00e-02,
85,-1.20e-03,2.00e-02,
86,-1.20e-03,2.00e-02,
87,2.80e-03,6.00e-02,
88,2.40e-03,4.00e-02,
89,-4.00e-04,2.00e-02,
90,-8.00e-04,4.00e-02,
91,2.80e-03,2.00e-02,
92,2.80e-03,4.00e-02,
93,-2.00e-03,2.00e-02,
94,-3.20e-03,2.00e-02,
95,8.40e-03,2.02e+00,
96,8.00e-03,1.60e-01,
97,-1.20e-03,8.00e-02,
98,2.40e-03,1.00e-01,
99,0.00e+00,6.00e-02,
100,0.00e+00,8.00e-02,
101,2.00e-03,6.00e-02,
102,2.40e-03,6.00e-02,
103,-4.00e-04,8.00e-02,
104,2.40e-03,6.00e-02,
105,-8.00e-04,8.00e-02,
106,-4.80e-03,8.00e-02,
107,7.60e-03,2.00e-02,
108,1.68e-02,8.00e-02,
109,-1.92e-02,2.00e-02,
110,2.48e-02,2.00e-02,
111,-2.64e-02,8.00e-02,
112,1.32e-02,2.00e-02,
113,-9.20e-03,8.00e-02,
114,3.60e-03,2.00e-02,
115,-8.00e-04,8.00e-02,
116,2.80e-03,2.00e-02,
117,-8.00e-04,8.00e-02,
118,2.00e-03,2.00e-02,
119,-8.00e-04,6.00e-02,
120,-8.00e-04,2.00e-02,
121,2.40e-03,4.00e-02,
122,2.80e-03,4.00e-02,
123,-1.20e-03,2.00e-02,
124,-2.00e-03,2.00e-02,
125,8.40e-03,1.92e+00,
126,8.00e-03,1.60e-01,
127,-2.40e-03,8.00e-02,
128,2.80e-03,1.00e-01,
129,-1.20e-03,6.00e-02,
130,0.00e+00,6.00e-02,
131,2.40e-03,8.00e-02,
132,-4.00e-04,6.00e-02,
133,2.40e-03,8.00e-02,
134,-8.00e-04,6.00e-02,
135,3.20e-03,8.00e-02,
136,-3.20e-03,6.00e-02,
137,6.80e-03,8.00e-02,
138,-1.48e-02,8.00e-02,
139,1.84e-02,4.00e-02,
140,-2.24e-02,8.00e-02,
141,2.48e-02,2.00e-02,
142,1.28e-02,8.00e-02,
143,-8.80e-03,2.00e-02,
144,4.00e-03,8.00e-02,
145,-1.20e-03,2.00e-02,
146,2.00e-03,8.00e-02,
147,-4.00e-04,2.00e-02,
148,0.00e+00,4.00e-02,
149,2.40e-03,2.00e-02,
150,2.00e-03,2.00e-02,
151,0.00e+00,4.00e-02,
152,1.20e-03,4.00e-02,
153,-4.00e-04,2.00e-02,
154,-1.20e-03,2.00e-02,
155,8.00e-03,2.02e+00,
156,7.60e-03,1.60e-01,
157,0.00e+00,8.00e-02,
158,2.40e-03,1.00e-01,
159,0.00e+00,6.00e-02,
160,2.00e-03,6.00e-02,
161,0.00e+00,8.00e-02,
162,2.00e-03,6.00e-02,
163,0.00e+00,8.00e-02,
164,2.40e-03,6.00e-02,
165,-8.00e-04,8.00e-02,
166,-4.40e-03,8.00e-02,
167,6.80e-03,4.00e-02,
168,-1.80e-02,2.00e-02,
169,1.88e-02,8.00e-02,
170,-2.28e-02,8.00e-02,
171,2.48e-02,2.00e-02,
172,1.12e-02,2.00e-02,
173,-7.60e-03,8.00e-02,
174,3.60e-03,2.00e-02,
175,-1.20e-03,6.00e-02,
176,2.40e-03,4.00e-02,
177,-1.20e-03,2.00e-02,
178,2.40e-03,4.00e-02,
179,-8.00e-04,2.00e-02,
180,2.40e-03,4.00e-02,
181,0.00e+00,2.00e-02,
182,3.60e-03,4.00e-02,
183,-1.60e-03,2.00e-02,
184,-2.80e-03,2.00e-02,
185,8.40e-03,2.08e+00,
186,8.00e-03,1.60e-01,
187,-4.00e-04,8.00e-02,
188,2.00e-03,1.00e-01,
189,0.00e+00,6.00e-02,
190,2.40e-03,6.00e-02,
191,4.00e-04,1.00e-01,
192,0.00e+00,6.00e-02,
193,2.00e-03,8.00e-02,
194,2.40e-03,6.00e-02,
195,-8.00e-04,8.00e-02,
196,-4.40e-03,8.00e-02,
197,6.00e-03,4.00e-02,
198,-1.84e-02,8.00e-02,
199,1.72e-02,4.00e-02,
200,-2.24e-02,8.00e-02,
201,2.52e-02,2.00e-02,
202,1.16e-02,2.00e-02,
203,-8.80e-03,8.00e-02,
204,3.20e-03,2.00e-02,
205,-1.20e-03,8.00e-02,
206,3.20e-03,2.00e-02,
207,-1.20e-03,6.00e-02,
208,2.40e-03,4.00e-02,
209,-8.00e-04,2.00e-02,
210,2.40e-03,4.00e-02,
211,-4.00e-04,2.00e-02,
212,4.00e-03,4.00e-02,
213,-1.60e-03,2.00e-02,
214,-2.80e-03,2.00e-02,
215,8.80e-03,1.94e+00,
216,8.00e-03,1.60e-01,
217,-1.20e-03,8.00e-02,
218,2.80e-03,1.00e-01,
219,0.00e+00,6.00e-02,
220,2.00e-03,6.00e-02,
221,-8.00e-04,8.00e-02,
222,2.40e-03,6.00e-02,
223,-8.00e-04,8.00e-02,
224,-1.20e-03,6.00e-02,
225,2.80e-03,8.00e-02,
226,-3.60e-03,8.00e-02,
227,6.80e-03,2.00e-02,
228,-1.56e-02,8.00e-02,
229,1.88e-02,2.00e-02,
230,-2.16e-02,8.00e-02,
231,2.40e-02,2.00e-02,
232,1.16e-02,2.00e-02,
233,-8.40e-03,8.00e-02,
234,3.20e-03,4.00e-02,
235,-8.00e-04,2.00e-02,
236,2.00e-03,4.00e-02,
237,-4.00e-04,2.00e-02,
238,0.00e+00,4.00e-02,
239,2.00e-03,2.00e-02,
240,0.00e+00,4.00e-02,
241,2.40e-03,2.00e-02,
242,2.00e-03,4.00e-02,
243,-8.00e-04,2.00e-02,
244,-1.60e-03,2.00e-02,
245,8.40e-03,2.08e+00,
246,8.00e-03,1.60e-01,
247,-4.00e-04,8.00e-02,
248,2.40e-03,1.00e-01,
249,0.00e+00,6.00e-02,
250,0.00e+00,8.00e-02,
251,1.60e-03,6.00e-02,
252,2.40e-03,6.00e-02,
253,-4.00e-04,8.00e-02,
254,2.40e-03,8.00e-02,
255,-8.00e-04,4.00e-02,
256,-4.40e-03,8.00e-02,
257,7.20e-03,4.00e-02,
258,-1.72e-02,2.00e-02,
259,1.92e-02,8.00e-02,
260,-2.36e-02,8.00e-02,
261,2.44e-02,2.00e-02,
262,1.04e-02,8.00e-02,
263,-8.00e-03,2.00e-02,
264,3.60e-03,2.00e-02,
265,-8.00e-04,8.00e-02,
266,2.40e-03,2.00e-02,
267,-8.00e-04,6.00e-02,
268,2.40e-03,2.00e-02,
269,0.00e+00,6.00e-02,
270,0.00e+00,4.00e-02,
271,2.00e-03,2.00e-02,
272,2.40e-03,4.00e-02,
273,-1.20e-03,2.00e-02,
274,-1.60e-03,2.00e-02,
275,8.40e-03,2.00e+00,
276,8.00e-03,1.60e-01,
277,0.00e+00,8.00e-02,
278,2.40e-03,1.00e-01,
279,0.00e+00,6.00e-02,
280,0.00e+00,8.00e-02,
281,1.60e-03,6.00e-02,
282,2.00e-03,6.00e-02,
283,0.00e+00,8.00e-02,
284,-8.00e-04,6.00e-02,
285,2.40e-03,8.00e-02,
286,-2.80e-03,8.00e-02,
287,6.00e-03,2.00e-02,
288,-1.64e-02,8.00e-02,
289,1.60e-02,2.00e-02,
290,-2.16e-02,8.00e-02,
291,2.28e-02,2.00e-02,
292,1.12e-02,8.00e-02,
293,-8.40e-03,2.00e-02,
294,3.60e-03,2.00e-02,
295,-8.00e-04,6.00e-02,
296,-8.00e-04,6.00e-02,
297,2.80e-03,2.00e-02,
298,2.00e-03,4.00e-02,
299,-8.00e-04,2.00e-02,
300,1.60e-03,4.00e-02,
301,-8.00e-04,2.00e-02,
302,-1.20e-03,4.00e-02,
303,3.20e-03,2.00e-02,
304,-1.60e-03,2.00e-02,
305,8.40e-03,2.06e+00,
306,8.00e-03,1.60e-01,
307,-4.00e-04,8.00e-02,
308,2.40e-03,1.00e-01,
309,0.00e+00,6.00e-02,
310,0.00e+00,6.00e-02,
311,2.00e-03,8.00e-02,
312,-8.00e-04,6.00e-02,
313,2.80e-03,8.00e-02,
314,2.80e-03,6.00e-02,
315,-1.20e-03,8.00e-02,
316,-4.40e-03,8.00e-02,
317,6.00e-03,2.00e-02,
318,-1.56e-02,8.00e-02,
319,1.84e-02,2.00e-02,
320,-2.04e-02,8.00e-02,
321,2.16e-02,2.00e-02,
322,1.20e-02,2.00e-02,
323,-8.80e-03,8.00e-02,
324,3.60e-03,8.00e-02,
325,-8.00e-04,2.00e-02,
326,2.00e-03,2.00e-02,
327,-4.00e-04,6.00e-02,
328,0.00e+00,4.00e-02,
329,2.00e-03,2.00e-02,
330,0.00e+00,4.00e-02,
331,2.00e-03,2.00e-02,
332,-1.20e-03,4.00e-02,
333,2.40e-03,2.00e-02,
334,-2.00e-03,2.00e-02,
335,8.80e-03,1.88e+00,
336,8.40e-03,1.60e-01,
337,-8.00e-04,8.00e-02,
338,2.40e-03,1.00e-01,
339,-8.00e-04,6.00e-02,
340,0.00e+00,6.00e-02,
341,2.40e-03,8.00e-02,
342,2.40e-03,6.00e-02,
343,-4.00e-04,8.00e-02,
344,-4.00e-04,8.00e-02,
345,2.80e-03,6.00e-02,
346,-4.00e-03,8.00e-02,
347,8.40e-03,2.00e-02,
348,-1.48e-02,2.00e-02,
349,2.04e-02,8.00e-02,
350,-2.04e-02,8.00e-02,
351,2.20e-02,2.00e-02,
352,1.08e-02,2.00e-02,
353,-6.40e-03,8.00e-02,
354,3.60e-03,2.00e-02,
355,-4.00e-04,6.00e-02,
356,2.40e-03,2.00e-02,
357,-4.00e-04,4.00e-02,
358,0.00e+00,2.00e-02,
359,2.40e-03,4.00e-02,
360,4.00e-04,4.00e-02,
361,2.00e-03,2.00e-02,
362,-8.00e-04,4.00e-02,
363,2.40e-03,2.00e-02,
364,-1.60e-03,2.00e-02,
365,8.40e-03,2.00e+00,
366,8.00e-03,1.40e-01,
367,4.00e-04,8.00e-02,
368,2.40e-03,1.00e-01,
369,-8.00e-04,6.00e-02,
370,4.00e-04,6.00e-02,
371,1.60e-03,8.00e-02,
372,2.40e-03,6.00e-02,
373,0.00e+00,8.00e-02,
374,2.40e-03,8.00e-02,
375,0.00e+00,4.00e-02,
376,-2.80e-03,8.00e-02,
377,6.00e-03,2.00e-02,
378,-1.60e-02,8.00e-02,
379,1.88e-02,2.00e-02,
380,-2.04e-02,8.00e-02,
381,2.16e-02,2.00e-02,
382,1.12e-02,2.00e-02,
383,-7.20e-03,8.00e-02,
384,3.20e-03,4.00e-02,
385,-1.20e-03,2.00e-02,
386,2.40e-03,4.00e-02,
387,-1.20e-03,2.00e-02,
388,2.40e-03,2.00e-02,
389,-4.00e-04,8.00e-02,
390,2.00e-03,4.00e-02,
391,0.00e+00,2.00e-02,
392,2.40e-03,4.00e-02,
393,-1.20e-03,2.00e-02,
394,-1.60e-03,2.00e-02,
395,8.40e-03,1.92e+00,
396,8.00e-03,1.60e-01,
397,-8.00e-04,8.00e-02,
398,0.00e+00,1.00e-01,
399,2.40e-03,6.00e-02,
400,-4.00e-04,6.00e-02,
401,2.00e-03,8.00e-02,
402,-4.00e-04,8.00e-02,
403,2.40e-03,6.00e-02,
404,2.80e-03,6.00e-02,
405,-8.00e-04,8.00e-02,
406,-2.80e-03,8.00e-02,
407,5.60e-03,4.00e-02,
408,-1.44e-02,8.00e-02,
409,1.68e-02,2.00e-02,
410,-1.92e-02,2.00e-02,
411,2.16e-02,8.00e-02,
412,1.04e-02,8.00e-02,
413,-8.00e-03,2.00e-02,
414,2.80e-03,2.00e-02,
415,-8.00e-04,6.00e-02,
416,-4.00e-04,2.00e-02,
417,2.00e-03,6.00e-02,
418,0.00e+00,4.00e-02,
419,2.00e-03,2.00e-02,
420,0.00e+00,2.00e-02,
421,2.40e-03,4.00e-02,
422,2.40e-03,4.00e-02,
423,-1.20e-03,2.00e-02,
424,-2.00e-03,2.00e-02,
425,9.20e-03,1.98e+00,
426,8.40e-03,1.60e-01,
427,-8.00e-04,8.00e-02,
428,2.40e-03,1.00e-01,
429,0.00e+00,6.00e-02,
430,0.00e+00,6.00e-02,
431,2.00e-03,8.00e-02,
432,-8.00e-04,6.00e-02,
433,2.40e-03,8.00e-02,
434,2.80e-03,6.00e-02,
435,-8.00e-04,8.00e-02,
436,-4.40e-03,8.00e-02,
437,6.00e-03,2.00e-02,
438,-1.44e-02,8.00e-02,
439,1.96e-02,2.00e-02,
440,-1.88e-02,8.00e-02,
441,2.16e-02,2.00e-02,
442,9.60e-03,8.00e-02,
443,-6.00e-03,2.00e-02,
444,2.40e-03,2.00e-02,
445,-8.00e-04,8.00e-02,
446,-8.00e-04,2.00e-02,
447,2.40e-03,6.00e-02,
448,2.00e-03,2.00e-02,
449,0.00e+00,4.00e-02,
450,4.00e-04,2.00e-02,
451,2.00e-03,6.00e-02,
452,2.40e-03,4.00e-02,
453,-4.00e-04,2.00e-02,
454,-2.00e-03,2.00e-02,
455,8.40e-03,1.88e+00,
456,8.00e-03,1.60e-01,
457,-4.00e-04,8.00e-02,
458,1.60e-03,1.00e-01,
459,0.00e+00,6.00e-02,
460,2.00e-03,6.00e-02,
461,0.00e+00,1.00e-01,
462,2.00e-03,6.00e-02,
463,-4.00e-04,8.00e-02,
464,0.00e+00,6.00e-02,
465,2.40e-03,8.00e-02,
466,-3.20e-03,6.00e-02,
467,5.60e-03,8.00e-02,
468,-1.40e-02,6.00e-02,
469,1.80e-02,8.00e-02,
470,-1.88e-02,8.00e-02,
471,2.16e-02,2.00e-02,
472,1.04e-02,2.00e-02,
473,-6.80e-03,8.00e-02,
474,2.80e-03,8.00e-02,
475,-1.20e-03,2.00e-02,
476,2.40e-03,6.00e-02,
477,-1.20e-03,2.00e-02,
478,2.40e-03,2.00e-02,
479,4.00e-04,8.00e-02,
480,2.40e-03,4.00e-02,
481,0.00e+00,2.00e-02,
482,2.80e-03,2.00e-02,
483,-8.00e-04,4.00e-02,
484,-2.40e-03,2.00e-02,
485,8.40e-03,2.06e+00,
486,8.00e-03,1.60e-01,
487,4.00e-04,8.00e-02,
488,0.00e+00,1.00e-01,
489,2.00e-03,6.00e-02,
490,4.00e-04,6.00e-02,
491,2.00e-03,8.00e-02,
492,-8.00e-04,6.00e-02,
493,2.40e-03,8.00e-02,
494,-8.00e-04,6.00e-02,
495,2.40e-03,8.00e-02,
496,-2.40e-03,8.00e-02,
497,5.60e-03,4.00e-02,
498,-1.32e-02,8.00e-02,
499,1.84e-02,2.00e-02,
500,-1.92e-02,2.00e-02,
501,2.04e-02,8.00e-02,
502,1.04e-02,8.00e-02,
503,-7.60e-03,2.00e-02,
504,4.00e-03,2.00e-02,
505,-8.00e-04,6.00e-02,
506,0.00e+00,2.00e-02,
507,2.40e-03,6.00e-02,
508,2.00e-03,4.00e-02,
509,-8.00e-04,2.00e-02,
510,0.00e+00,4.00e-02,
511,1.60e-03,2.00e-02,
512,-4.00e-04,4.00e-02,
513,2.00e-03,2.00e-02,
514,-2.40e-03,0.00e+00,
515,8.40e-03,1.98e+00,
516,8.00e-03,1.60e-01,
517,0.00e+00,8.00e-02,
518,2.40e-03,1.00e-01,
519,0.00e+00,6.00e-02,
520,4.00e-04,6.00e-02,
521,2.40e-03,8.00e-02,
522,0.00e+00,6.00e-02,
523,2.40e-03,8.00e-02,
524,2.40e-03,8.00e-02,
525,-8.00e-04,2.00e-02,
526,-3.20e-03,8.00e-02,
527,6.40e-03,2.00e-02,
528,-1.36e-02,2.00e-02,
529,1.84e-02,8.00e-02,
530,-1.80e-02,8.00e-02,
531,2.12e-02,2.00e-02,
532,9.60e-03,8.00e-02,
533,-5.60e-03,2.00e-02,
534,2.40e-03,8.00e-02,
535,-8.00e-04,2.00e-02,
536,2.40e-03,2.00e-02,
537,0.00e+00,6.00e-02,
538,-8.00e-04,4.00e-02,
539,2.00e-03,2.00e-02,
540,2.00e-03,2.00e-02,
541,0.00e+00,4.00e-02,
542,2.00e-03,4.00e-02,
543,-4.00e-04,2.00e-02,
544,-1.60e-03,2.00e-02,
545,8.80e-03,2.08e+00,
546,8.40e-03,1.60e-01,
547,0.00e+00,8.00e-02,
548,2.00e-03,1.00e-01,
549,0.00e+00,6.00e-02,
550,4.00e-04,6.00e-02,
551,2.00e-03,8.00e-02,
552,0.00e+00,6.00e-02,
553,2.00e-03,8.00e-02,
554,2.40e-03,6.00e-02,
555,0.00e+00,8.00e-02,
556,-2.40e-03,8.00e-02,
557,5.60e-03,2.00e-02,
558,-1.44e-02,8.00e-02,
559,1.72e-02,4.00e-02,
560,-1.84e-02,8.00e-02,
561,1.92e-02,4.00e-02,
562,8.80e-03,8.00e-02,
563,-6.40e-03,2.00e-02,
564,2.80e-03,2.00e-02,
565,-1.20e-03,8.00e-02,
566,2.40e-03,4.00e-02,
567,-1.20e-03,2.00e-02,
568,0.00e+00,4.00e-02,
569,2.00e-03,2.00e-02,
570,-8.00e-04,4.00e-02,
571,2.00e-03,2.00e-02,
572,-8.00e-04,4.00e-02,
573,2.40e-03,2.00e-02,
574,-1.60e-03,2.00e-02,
575,8.40e-03,1.90e+00,
576,8.00e-03,1.60e-01,
577,4.00e-04,8.00e-02,
578,2.00e-03,1.00e-01,
579,0.00e+00,6.00e-02,
580,0.00e+00,6.00e-02,
581,2.00e-03,8.00e-02,
582,0.00e+00,8.00e-02,
583,2.40e-03,6.00e-02,
584,2.40e-03,6.00e-02,
585,-8.00e-04,8.00e-02,
586,-2.80e-03,8.00e-02,
587,5.60e-03,4.00e-02,
588,-1.24e-02,8.00e-02,
589,1.72e-02,2.00e-02,
590,-1.84e-02,8.00e-02,
591,1.92e-02,2.00e-02,
592,1.00e-02,2.00e-02,
593,-6.00e-03,8.00e-02,
594,2.80e-03,2.00e-02,
595,-1.20e-03,8.00e-02,
596,-4.00e-04,2.00e-02,
597,2.40e-03,8.00e-02,
598,2.40e-03,4.00e-02,
599,0.00e+00,2.00e-02,
600,1.20e-03,2.00e-02,
601,0.00e+00,4.00e-02,
602,2.40e-03,4.00e-02,
603,-8.00e-04,2.00e-02,
604,-1.20e-03,2.00e-02,
605,8.40e-03,2.12e+00,
606,8.00e-03,1.60e-01,
607,0.00e+00,8.00e-02,
608,2.40e-03,1.00e-01,
609,4.00e-04,6.00e-02,
610,0.00e+00,6.00e-02,
611,2.00e-03,8.00e-02,
612,0.00e+00,8.00e-02,
613,2.00e-03,6.00e-02,
614,-4.00e-04,6.00e-02,
615,2.40e-03,8.00e-02,
616,-3.20e-03,6.00e-02,
617,5.60e-03,8.00e-02,
618,-1.32e-02,8.00e-02,
619,1.76e-02,4.00e-02,
620,-1.68e-02,8.00e-02,
621,1.92e-02,4.00e-02,
622,8.40e-03,8.00e-02,
623,-5.60e-03,2.00e-02,
624,2.40e-03,2.00e-02,
625,0.00e+00,8.00e-02,
626,1.60e-03,6.00e-02,
627,0.00e+00,2.00e-02,
628,1.60e-03,4.00e-02,
629,-8.00e-04,2.00e-02,
630,0.00e+00,4.00e-02,
631,2.00e-03,2.00e-02,
632,-8.00e-04,4.00e-02,
633,2.40e-03,2.00e-02,
634,-2.00e-03,2.00e-02,
635,8.40e-03,1.92e+00,
636,8.00e-03,1.60e-01,
637,0.00e+00,8.00e-02,
638,1.60e-03,1.00e-01,
639,4.00e-04,6.00e-02,
640,2.00e-03,6.00e-02,
641,0.00e+00,8.00e-02,
642,0.00e+00,6.00e-02,
643,2.40e-03,8.00e-02,
644,0.00e+00,6.00e-02,
645,2.40e-03,8.00e-02,
646,-2.80e-03,8.00e-02,
647,4.40e-03,2.00e-02,
648,-1.28e-02,8.00e-02,
649,1.68e-02,2.00e-02,
650,-1.64e-02,8.00e-02,
651,1.88e-02,2.00e-02,
652,9.20e-03,6.00e-02,
653,-6.00e-03,2.00e-02,
654,2.80e-03,2.00e-02,
655,-4.00e-04,6.00e-02,
656,2.00e-03,4.00e-02,
657,0.00e+00,2.00e-02,
658,2.00e-03,4.00e-02,
659,-8.00e-04,2.00e-02,
660,2.00e-03,4.00e-02,
661,0.00e+00,2.00e-02,
662,2.40e-03,4.00e-02,
663,-8.00e-04,2.00e-02,
664,-1.60e-03,2.00e-02,
665,8.40e-03,1.90e+00,
666,8.00e-03,1.60e-01,
667,0.00e+00,8.00e-02,
668,1.60e-03,1.00e-01,
669,4.00e-04,6.00e-02,
670,0.00e+00,6.00e-02,
671,1.60e-03,8.00e-02,
672,2.00e-03,6.00e-02,
673,0.00e+00,8.00e-02,
674,2.00e-03,8.00e-02,
675,-8.00e-04,6.00e-02,
676,-2.80e-03,8.00e-02,
677,4.40e-03,2.00e-02,
678,-1.12e-02,2.00e-02,
679,1.64e-02,8.00e-02,
680,-1.60e-02,8.00e-02,
681,1.88e-02,2.00e-02,
682,9.20e-03,2.00e-02,
683,-6.00e-03,8.00e-02,
684,2.40e-03,8.00e-02,
685,-8.00e-04,2.00e-02,
686,0.00e+00,4.00e-02,
687,2.40e-03,2.00e-02,
688,1.60e-03,2.00e-02,
689,0.00e+00,6.00e-02,
690,-4.00e-04,4.00e-02,
691,2.00e-03,2.00e-02,
692,-8.00e-04,4.00e-02,
693,2.40e-03,2.00e-02,
694,-1.60e-03,2.00e-02,
695,8.40e-03,2.00e+00,
696,8.00e-03,1.60e-01,
697,-4.00e-04,8.00e-02,
698,0.00e+00,1.00e-01,
699,2.40e-03,6.00e-02,
700,2.40e-03,6.00e-02,
701,0.00e+00,8.00e-02,
702,0.00e+00,6.00e-02,
703,2.00e-03,8.00e-02,
704,0.00e+00,6.00e-02,
705,2.40e-03,8.00e-02,
706,-2.80e-03,8.00e-02,
707,6.40e-03,4.00e-02,
708,-1.20e-02,8.00e-02,
709,1.68e-02,2.00e-02,
710,-1.60e-02,8.00e-02,
711,1.84e-02,2.00e-02,
712,8.40e-03,8.00e-02,
713,-4.40e-03,2.00e-02,
714,2.40e-03,2.00e-02,
715,-8.00e-04,8.00e-02,
716,-4.00e-04,4.00e-02,
717,2.00e-03,2.00e-02,
718,2.40e-03,4.00e-02,
719,0.00e+00,2.00e-02,
720,0.00e+00,4.00e-02,
721,2.00e-03,2.00e-02,
722,2.40e-03,2.00e-02,
723,-8.00e-04,6.00e-02,
724,-2.40e-03,2.00e-02,
725,8.40e-03,1.94e+00,
726,8.00e-03,1.60e-01,
727,4.00e-04,8.00e-02,
728,2.00e-03,1.00e-01,
729,0.00e+00,6.00e-02,
730,2.00e-03,8.00e-02,
731,0.00e+00,6.00e-02,
732,4.00e-04,6.00e-02,
733,2.40e-03,8.00e-02,
734,2.40e-03,8.00e-02,
735,0.00e+00,6.00e-02,
736,-1.60e-03,8.00e-02,
737,5.20e-03,6.00e-02,
738,-1.12e-02,8.00e-02,
739,1.68e-02,2.00e-02,
740,-1.64e-02,8.00e-02,
741,1.80e-02,2.00e-02,
742,9.20e-03,2.00e-02,
743,-5.60e-03,8.00e-02,
744,3.20e-03,2.00e-02,
745,-8.00e-04,8.00e-02,
746,-4.00e-04,2.00e-02,
747,2.40e-03,8.00e-02,
748,-8.00e-04,2.00e-02,
749,1.60e-03,6.00e-02,
750,0.00e+00,4.00e-02,
751,2.40e-03,2.00e-02,
752,0.00e+00,2.00e-02,
753,2.00e-03,4.00e-02,
754,-1.60e-03,2.02e+00,
755,9.20e-03,0.00e+00,
756,8.40e-03,1.60e-01,
757,-8.00e-04,8.00e-02,
758,2.00e-03,1.00e-01,
759,0.00e+00,6.00e-02,
760,4.00e-04,6.00e-02,
761,2.00e-03,8.00e-02,
762,0.00e+00,8.00e-02,
763,2.00e-03,6.00e-02,
764,2.00e-03,6.00e-02,
765,-8.00e-04,8.00e-02,
766,-2.40e-03,8.00e-02,
767,4.40e-03,4.00e-02,
768,-1.12e-02,8.00e-02,
769,1.60e-02,2.00e-02,
770,-1.60e-02,8.00e-02,
771,1.88e-02,2.00e-02,
772,8.80e-03,8.00e-02,
773,-5.60e-03,2.00e-02,
774,2.80e-03,2.00e-02,
775,-4.00e-04,6.00e-02,
776,2.00e-03,8.00e-02,
777,0.00e+00,2.00e-02,
778,0.00e+00,2.00e-02,
779,2.00e-03,6.00e-02,
780,2.00e-03,2.00e-02,
781,0.00e+00,4.00e-02,
782,-4.00e-04,4.00e-02,
783,2.40e-03,2.00e-02,
784,-1.60e-03,2.00e-02,
785,8.00e-03,2.02e+00,
786,8.00e-03,1.60e-01,
787,0.00e+00,8.00e-02,
788,4.00e-04,1.00e-01,
789,2.40e-03,6.00e-02,
790,4.00e-04,6.00e-02,
791,2.00e-03,1.00e-01,
792,0.00e+00,6.00e-02,
793,2.00e-03,8.00e-02,
794,0.00e+00,6.00e-02,
795,2.00e-03,8.00e-02,
796,-3.20e-03,6.00e-02,
797,5.20e-03,8.00e-02,
798,-1.20e-02,8.00e-02,
799,1.68e-02,2.00e-02,
800,-1.52e-02,8.00e-02,
801,1.72e-02,2.00e-02,
802,7.60e-03,2.00e-02,
803,-5.60e-03,8.00e-02,
804,2.40e-03,2.00e-02,
805,-8.00e-04,8.00e-02,
806,0.00e+00,8.00e-02,
807,2.00e-03,2.00e-02,
808,1.60e-03,4.00e-02,
809,0.00e+00,2.00e-02,
810,1.60e-03,4.00e-02,
811,0.00e+00,2.00e-02,
812,2.00e-03,4.00e-02,
813,-4.00e-04,2.00e-02,
814,-2.40e-03,2.00e-02,
815,8.00e-03,2.08e+00,
816,8.00e-03,1.60e-01,
817,4.00e-04,8.00e-02,
818,0.00e+00,1.00e-01,
819,2.00e-03,6.00e-02,
820,0.00e+00,6.00e-02,
821,2.00e-03,8.00e-02,
822,2.00e-03,6.00e-02,
823,0.00e+00,8.00e-02,
824,1.60e-03,8.00e-02,
825,-8.00e-04,6.00e-02,
826,-1.60e-03,6.00e-02,
827,5.20e-03,8.00e-02,
828,-1.04e-02,8.00e-02,
829,1.44e-02,4.00e-02,
830,-1.56e-02,8.00e-02,
831,1.68e-02,2.00e-02,
832,8.40e-03,8.00e-02,
833,-5.20e-03,2.00e-02,
834,2.40e-03,2.00e-02,
835,-8.00e-04,8.00e-02,
836,0.00e+00,4.00e-02,
837,2.40e-03,2.00e-02,
838,0.00e+00,4.00e-02,
839,2.00e-03,2.00e-02,
840,1.60e-03,4.00e-02,
841,0.00e+00,2.00e-02,
842,-4.00e-04,4.00e-02,
843,2.40e-03,2.00e-02,
844,-2.40e-03,2.00e-02,
845,8.80e-03,1.96e+00,
846,8.00e-03,1.60e-01,
847,-8.00e-04,8.00e-02,
848,2.00e-03,1.00e-01,
849,0.00e+00,6.00e-02,
850,0.00e+00,6.00e-02,
851,1.20e-03,8.00e-02,
852,2.00e-03,6.00e-02,
853,0.00e+00,8.00e-02,
854,2.40e-03,8.00e-02,
855,-4.00e-04,4.00e-02,
856,-1.60e-03,8.00e-02,
857,5.20e-03,2.00e-02,
