CarrPurc_P1-19_P2-38_tauVary/Gly60/NewFile7.csv

X,CH1,CH2,Start,Increment,
Sequence,Volt,Volt,-3.600000e-03,2.000000e-04
0,1.20e-03,4.00e-02,
1,0.00e+00,2.00e-02,
2,0.00e+00,4.00e-02,
3,1.20e-03,2.00e-02,
4,1.20e-03,4.00e-02,
5,0.00e+00,2.00e-02,
6,0.00e+00,2.00e-02,
7,2.00e-03,4.00e-02,
8,0.00e+00,4.00e-02,
9,8.00e-04,0.00e+00,
10,0.00e+00,4.00e-02,
11,1.20e-03,2.00e-02,
12,1.60e-03,4.00e-02,
13,0.00e+00,2.00e-02,
14,1.20e-03,4.00e-02,
15,0.00e+00,2.00e-02,
16,1.20e-03,4.00e-02,
17,0.00e+00,2.00e-02,
18,1.20e-03,4.00e-02,
19,0.00e+00,2.00e-02,
20,7.60e-03,2.00e-02,
21,-3.08e-02,1.82e+00,
22,2.16e-02,1.20e-01,
23,-1.76e-02,8.00e-02,
24,-2.80e-03,1.00e-01,
25,4.40e-03,6.00e-02,
26,4.00e-03,6.00e-02,
27,-2.40e-03,8.00e-02,
28,-8.00e-04,6.00e-02,
29,2.80e-03,8.00e-02,
30,-8.00e-04,6.00e-02,
31,2.40e-03,8.00e-02,
32,2.40e-03,8.00e-02,
33,-4.00e-04,6.00e-02,
34,0.00e+00,6.00e-02,
35,8.00e-03,2.10e+00,
36,8.00e-03,1.60e-01,
37,-6.80e-03,8.00e-02,
38,4.80e-03,1.00e-01,
39,-1.60e-03,8.00e-02,
40,2.40e-03,1.00e-01,
41,-8.00e-04,6.00e-02,
42,2.40e-03,6.00e-02,
43,-8.00e-04,8.00e-02,
44,-1.20e-03,6.00e-02,
45,2.80e-03,8.00e-02,
46,-4.40e-03,6.00e-02,
47,8.80e-03,8.00e-02,
48,-2.00e-02,8.00e-02,
49,2.68e-02,6.00e-02,
50,-2.88e-02,6.00e-02,
51,3.28e-02,8.00e-02,
52,1.68e-02,8.00e-02,
53,-1.40e-02,2.00e-02,
54,3.60e-03,8.00e-02,
55,-1.60e-03,2.00e-02,
56,-1.60e-03,8.00e-02,
57,2.40e-03,2.00e-02,
58,2.00e-03,6.00e-02,
59,-8.00e-04,2.00e-02,
60,1.60e-03,2.00e-02,
61,-8.00e-04,6.00e-02,
62,2.40e-03,4.00e-02,
63,-8.00e-04,2.00e-02,
64,0.00e+00,2.00e-02,
65,8.40e-03,2.10e+00,
66,8.00e-03,1.60e-01,
67,0.00e+00,8.00e-02,
68,2.00e-03,1.00e-01,
69,0.00e+00,6.00e-02,
70,2.40e-03,6.00e-02,
71,-4.00e-04,1.00e-01,
72,2.40e-03,8.00e-02,
73,0.00e+00,6.00e-02,
74,-1.20e-03,6.00e-02,
75,2.80e-03,8.00e-02,
76,-4.00e-03,6.00e-02,
77,8.00e-03,8.00e-02,
78,-1.80e-02,6.00e-02,
79,1.76e-02,8.00e-02,
80,2.40e-02,8.00e-02,
81,-2.32e-02,4.00e-02,
82,1.12e-02,8.00e-02,
83,-7.60e-03,2.00e-02,
84,3.60e-03,8.00e-02,
85,-1.60e-03,2.00e-02,
86,2.40e-03,2.00e-02,
87,-1.60e-03,8.00e-02,
88,2.00e-03,8.00e-02,
89,-4.00e-04,2.00e-02,
90,-1.20e-03,8.00e-02,
91,2.40e-03,2.00e-02,
92,4.00e-03,4.00e-02,
93,-2.00e-03,2.00e-02,
94,-3.20e-03,2.00e-02,
95,8.00e-03,1.72e+00,
96,7.60e-03,1.60e-01,
97,-8.00e-04,8.00e-02,
98,2.40e-03,1.00e-01,
99,-4.00e-04,6.00e-02,
100,2.00e-03,1.00e-01,
101,0.00e+00,6.00e-02,
102,2.40e-03,6.00e-02,
103,0.00e+00,8.00e-02,
104,2.40e-03,6.00e-02,
105,-8.00e-04,8.00e-02,
106,-4.00e-03,6.00e-02,
107,6.40e-03,8.00e-02,
108,1.56e-02,6.00e-02,
109,-1.92e-02,8.00e-02,
110,-2.48e-02,8.00e-02,
111,2.56e-02,4.00e-02,
112,1.20e-02,8.00e-02,
113,-8.80e-03,4.00e-02,
114,4.00e-03,2.00e-02,
115,-1.20e-03,8.00e-02,
116,2.80e-03,8.00e-02,
117,-1.20e-03,2.00e-02,
118,2.40e-03,8.00e-02,
119,-4.00e-04,2.00e-02,
120,1.60e-03,2.00e-02,
121,-1.20e-03,8.00e-02,
122,2.00e-03,2.00e-02,
123,-2.40e-03,8.00e-02,
124,-2.80e-03,2.00e-02,
125,8.40e-03,2.14e+00,
126,8.00e-03,1.60e-01,
127,-1.60e-03,8.00e-02,
128,2.80e-03,1.00e-01,
129,-1.20e-03,6.00e-02,
130,2.00e-03,6.00e-02,
131,0.00e+00,1.00e-01,
132,-8.00e-04,6.00e-02,
133,3.20e-03,8.00e-02,
134,2.40e-03,6.00e-02,
135,-1.20e-03,8.00e-02,
136,-3.20e-03,6.00e-02,
137,6.40e-03,8.00e-02,
138,-1.36e-02,8.00e-02,
139,1.76e-02,6.00e-02,
140,-2.00e-02,8.00e-02,
141,2.36e-02,2.00e-02,
142,1.24e-02,8.00e-02,
143,-8.40e-03,2.00e-02,
144,3.60e-03,8.00e-02,
145,-1.60e-03,2.00e-02,
146,2.00e-03,8.00e-02,
147,-4.00e-04,2.00e-02,
148,2.00e-03,2.00e-02,
149,-8.00e-04,8.00e-02,
150,1.20e-03,2.00e-02,
151,0.00e+00,8.00e-02,
152,2.00e-03,2.00e-02,
153,-4.00e-04,8.00e-02,
154,-1.60e-03,2.00e-02,
155,9.20e-03,1.88e+00,
156,8.40e-03,1.60e-01,
157,-4.00e-04,8.00e-02,
158,2.00e-03,1.00e-01,
159,0.00e+00,6.00e-02,
160,0.00e+00,1.00e-01,
161,2.40e-03,6.00e-02,
162,0.00e+00,6.00e-02,
163,2.40e-03,8.00e-02,
164,-8.00e-04,6.00e-02,
165,2.00e-03,8.00e-02,
166,-4.40e-03,6.00e-02,
167,7.20e-03,8.00e-02,
168,-1.56e-02,6.00e-02,
169,1.68e-02,8.00e-02,
170,-2.12e-02,8.00e-02,
171,2.24e-02,4.00e-02,
172,9.60e-03,2.00e-02,
173,-7.20e-03,8.00e-02,
174,2.80e-03,2.00e-02,
175,-1.20e-03,8.00e-02,
176,2.40e-03,8.00e-02,
177,-1.60e-03,2.00e-02,
178,-4.00e-04,8.00e-02,
179,2.00e-03,2.00e-02,
180,0.00e+00,2.00e-02,
181,2.40e-03,8.00e-02,
182,2.80e-03,4.00e-02,
183,-1.20e-03,2.00e-02,
184,-2.80e-03,2.00e-02,
185,8.40e-03,2.08e+00,
186,8.00e-03,1.60e-01,
187,0.00e+00,8.00e-02,
188,2.00e-03,1.00e-01,
189,0.00e+00,6.00e-02,
190,0.00e+00,1.00e-01,
191,1.60e-03,6.00e-02,
192,2.00e-03,6.00e-02,
193,-4.00e-04,8.00e-02,
194,-8.00e-04,6.00e-02,
195,2.00e-03,8.00e-02,
196,-3.20e-03,8.00e-02,
197,6.00e-03,4.00e-02,
198,-1.72e-02,8.00e-02,
199,1.60e-02,4.00e-02,
200,2.20e-02,8.00e-02,
201,-2.24e-02,2.00e-02,
202,1.12e-02,8.00e-02,
203,-8.40e-03,2.00e-02,
204,4.00e-03,8.00e-02,
205,-1.60e-03,2.00e-02,
206,2.40e-03,2.00e-02,
207,-8.00e-04,8.00e-02,
208,2.00e-03,8.00e-02,
209,-1.20e-03,2.00e-02,
210,2.40e-03,6.00e-02,
211,-8.00e-04,2.00e-02,
212,-1.20e-03,2.00e-02,
213,2.80e-03,6.00e-02,
214,-2.80e-03,2.00e-02,
215,8.00e-03,2.00e+00,
216,7.60e-03,1.60e-01,
217,-1.20e-03,8.00e-02,
218,2.80e-03,1.00e-01,
219,-8.00e-04,6.00e-02,
220,2.00e-03,6.00e-02,
221,-8.00e-04,1.00e-01,
222,2.40e-03,6.00e-02,
223,-8.00e-04,8.00e-02,
224,-8.00e-04,6.00e-02,
225,2.80e-03,8.00e-02,
226,-3.20e-03,8.00e-02,
227,5.60e-03,6.00e-02,
228,-1.48e-02,6.00e-02,
229,1.80e-02,8.00e-02,
230,-2.16e-02,8.00e-02,
231,2.52e-02,4.00e-02,
232,1.12e-02,8.00e-02,
233,-7.60e-03,2.00e-02,
234,3.20e-03,8.00e-02,
235,-1.20e-03,2.00e-02,
236,-8.00e-04,2.00e-02,
237,2.00e-03,8.00e-02,
238,0.00e+00,2.00e-02,
239,2.00e-03,8.00e-02,
240,1.20e-03,8.00e-02,
241,0.00e+00,2.00e-02,
242,2.00e-03,2.00e-02,
243,-8.00e-04,8.00e-02,
244,-2.40e-03,2.00e-02,
245,9.20e-03,1.98e+00,
246,8.00e-03,1.60e-01,
247,-4.00e-04,8.00e-02,
248,2.40e-03,1.00e-01,
249,0.00e+00,6.00e-02,
250,2.00e-03,1.00e-01,
251,-8.00e-04,6.00e-02,
252,-8.00e-04,6.00e-02,
253,2.40e-03,8.00e-02,
254,2.40e-03,8.00e-02,
255,-8.00e-04,6.00e-02,
256,-4.40e-03,8.00e-02,
257,6.80e-03,6.00e-02,
258,-1.48e-02,8.00e-02,
259,1.76e-02,2.00e-02,
260,-2.16e-02,4.00e-02,
261,2.32e-02,8.00e-02,
262,1.04e-02,8.00e-02,
263,-7.20e-03,2.00e-02,
264,3.60e-03,2.00e-02,
265,-8.00e-04,8.00e-02,
266,3.20e-03,2.00e-02,
267,-8.00e-04,8.00e-02,
268,-4.00e-04,2.00e-02,
269,1.60e-03,6.00e-02,
270,1.20e-03,2.00e-02,
271,0.00e+00,6.00e-02,
272,2.00e-03,4.00e-02,
273,-8.00e-04,2.00e-02,
274,-1.60e-03,2.00e-02,
275,9.20e-03,2.02e+00,
276,8.40e-03,1.60e-01,
277,-8.00e-04,8.00e-02,
278,-4.00e-04,1.00e-01,
279,1.60e-03,6.00e-02,
280,4.00e-04,8.00e-02,
281,2.00e-03,6.00e-02,
282,-8.00e-04,6.00e-02,
283,1.60e-03,8.00e-02,
284,-8.00e-04,6.00e-02,
285,2.00e-03,8.00e-02,
286,-2.80e-03,6.00e-02,
287,5.60e-03,8.00e-02,
288,-1.60e-02,6.00e-02,
289,1.56e-02,8.00e-02,
290,-2.00e-02,8.00e-02,
291,2.28e-02,4.00e-02,
292,1.00e-02,8.00e-02,
293,-7.60e-03,2.00e-02,
294,3.60e-03,8.00e-02,
295,-1.60e-03,2.00e-02,
296,2.40e-03,8.00e-02,
297,-1.20e-03,2.00e-02,
298,2.40e-03,2.00e-02,
299,-8.00e-04,8.00e-02,
300,-4.00e-04,2.00e-02,
301,1.60e-03,8.00e-02,
302,-1.20e-03,2.00e-02,
303,2.80e-03,8.00e-02,
304,-2.40e-03,2.00e-02,
305,8.40e-03,2.10e+00,
306,8.00e-03,1.60e-01,
307,-4.00e-04,8.00e-02,
308,2.00e-03,1.00e-01,
309,0.00e+00,6.00e-02,
310,0.00e+00,6.00e-02,
311,2.00e-03,1.00e-01,
312,2.40e-03,6.00e-02,
313,-8.00e-04,8.00e-02,
314,2.40e-03,6.00e-02,
315,-1.20e-03,8.00e-02,
316,-4.00e-03,6.00e-02,
317,5.60e-03,8.00e-02,
318,-1.56e-02,8.00e-02,
319,1.60e-02,2.00e-02,
320,-2.08e-02,8.00e-02,
321,2.16e-02,2.00e-02,
322,1.12e-02,2.00e-02,
323,-8.00e-03,8.00e-02,
324,2.80e-03,8.00e-02,
325,-1.20e-03,2.00e-02,
326,2.40e-03,2.00e-02,
327,0.00e+00,6.00e-02,
328,0.00e+00,2.00e-02,
329,2.00e-03,8.00e-02,
330,2.00e-03,2.00e-02,
331,0.00e+00,6.00e-02,
332,2.40e-03,2.00e-02,
333,-8.00e-04,8.00e-02,
334,-2.40e-03,2.00e-02,
335,8.00e-03,2.10e+00,
336,8.00e-03,1.60e-01,
337,-4.00e-04,8.00e-02,
338,2.40e-03,1.00e-01,
339,0.00e+00,6.00e-02,
340,-4.00e-04,1.00e-01,
341,2.00e-03,6.00e-02,
342,2.00e-03,6.00e-02,
343,-8.00e-04,8.00e-02,
344,-8.00e-04,8.00e-02,
345,2.40e-03,6.00e-02,
346,-3.60e-03,8.00e-02,
347,6.80e-03,4.00e-02,
348,-1.52e-02,8.00e-02,
349,1.96e-02,6.00e-02,
350,-2.00e-02,8.00e-02,
351,2.12e-02,2.00e-02,
352,9.60e-03,8.00e-02,
353,-6.00e-03,2.00e-02,
354,2.80e-03,8.00e-02,
355,-8.00e-04,2.00e-02,
356,2.40e-03,2.00e-02,
357,-8.00e-04,8.00e-02,
358,0.00e+00,2.00e-02,
359,2.00e-03,8.00e-02,
360,0.00e+00,6.00e-02,
361,1.60e-03,2.00e-02,
362,-4.00e-04,4.00e-02,
363,2.00e-03,2.00e-02,
364,-3.20e-03,2.00e-02,
365,8.80e-03,1.92e+00,
366,8.00e-03,1.60e-01,
367,0.00e+00,8.00e-02,
368,0.00e+00,1.00e-01,
369,2.40e-03,6.00e-02,
370,2.00e-03,6.00e-02,
371,0.00e+00,1.00e-01,
372,-8.00e-04,6.00e-02,
373,2.00e-03,8.00e-02,
374,2.00e-03,6.00e-02,
375,-1.20e-03,8.00e-02,
376,-2.80e-03,6.00e-02,
377,5.60e-03,8.00e-02,
378,-1.56e-02,8.00e-02,
379,1.84e-02,6.00e-02,
380,-2.00e-02,8.00e-02,
381,2.16e-02,2.00e-02,
382,1.04e-02,8.00e-02,
383,-7.60e-03,2.00e-02,
384,3.20e-03,8.00e-02,
385,-1.20e-03,2.00e-02,
386,2.40e-03,8.00e-02,
387,-1.20e-03,2.00e-02,
388,2.40e-03,2.00e-02,
389,-8.00e-04,8.00e-02,
390,0.00e+00,2.00e-02,
391,2.00e-03,8.00e-02,
392,2.40e-03,2.00e-02,
393,-1.20e-03,6.00e-02,
394,-1.60e-03,2.00e-02,
395,8.80e-03,2.12e+00,
396,8.40e-03,1.60e-01,
397,4.00e-04,8.00e-02,
398,2.80e-03,1.00e-01,
399,0.00e+00,6.00e-02,
400,0.00e+00,1.00e-01,
401,1.60e-03,6.00e-02,
402,2.00e-03,8.00e-02,
403,0.00e+00,6.00e-02,
404,2.40e-03,6.00e-02,
405,-4.00e-04,8.00e-02,
406,-2.40e-03,6.00e-02,
407,6.00e-03,8.00e-02,
408,-1.32e-02,6.00e-02,
409,1.44e-02,8.00e-02,
410,-1.88e-02,8.00e-02,
411,1.96e-02,2.00e-02,
412,8.80e-03,8.00e-02,
413,-6.80e-03,2.00e-02,
414,3.20e-03,8.00e-02,
415,-1.20e-03,2.00e-02,
416,0.00e+00,2.00e-02,
417,2.40e-03,8.00e-02,
418,2.00e-03,2.00e-02,
419,0.00e+00,8.00e-02,
420,1.20e-03,2.00e-02,
421,0.00e+00,8.00e-02,
422,2.40e-03,2.00e-02,
423,-1.20e-03,8.00e-02,
424,-2.00e-03,2.00e-02,
425,8.40e-03,2.12e+00,
426,8.00e-03,1.60e-01,
427,-4.00e-04,8.00e-02,
428,2.00e-03,1.00e-01,
429,0.00e+00,6.00e-02,
430,2.40e-03,1.00e-01,
431,-4.00e-04,6.00e-02,
432,0.00e+00,6.00e-02,
433,2.40e-03,8.00e-02,
434,-8.00e-04,6.00e-02,
435,2.80e-03,8.00e-02,
436,-4.00e-03,8.00e-02,
437,6.40e-03,6.00e-02,
438,-1.44e-02,6.00e-02,
439,1.72e-02,8.00e-02,
440,-1.92e-02,8.00e-02,
441,2.08e-02,2.00e-02,
442,9.20e-03,8.00e-02,
443,-6.00e-03,2.00e-02,
444,2.40e-03,8.00e-02,
445,-1.20e-03,2.00e-02,
446,2.00e-03,2.00e-02,
447,0.00e+00,8.00e-02,
448,0.00e+00,2.00e-02,
449,1.60e-03,8.00e-02,
450,2.40e-03,2.00e-02,
451,4.00e-04,6.00e-02,
452,-1.20e-03,4.00e-02,
453,2.40e-03,2.00e-02,
454,-2.00e-03,2.06e+00,
455,8.40e-03,0.00e+00,
456,8.00e-03,1.60e-01,
457,0.00e+00,8.00e-02,
458,2.00e-03,1.00e-01,
459,0.00e+00,6.00e-02,
460,0.00e+00,6.00e-02,
461,2.00e-03,1.00e-01,
462,0.00e+00,6.00e-02,
463,2.00e-03,8.00e-02,
464,0.00e+00,6.00e-02,
465,2.40e-03,8.00e-02,
466,-2.80e-03,6.00e-02,
467,5.60e-03,8.00e-02,
468,-1.32e-02,6.00e-02,
469,1.80e-02,8.00e-02,
470,-1.88e-02,8.00e-02,
471,2.08e-02,2.00e-02,
472,9.20e-03,8.00e-02,
473,-6.80e-03,2.00e-02,
474,2.40e-03,8.00e-02,
475,-1.20e-03,2.00e-02,
476,2.40e-03,8.00e-02,
477,-8.00e-04,2.00e-02,
478,2.40e-03,8.00e-02,
479,-4.00e-04,2.00e-02,
480,-8.00e-04,2.00e-02,
481,2.00e-03,8.00e-02,
482,2.40e-03,2.00e-02,
483,-1.20e-03,8.00e-02,
484,-1.60e-03,2.00e-02,
485,8.80e-03,2.00e+00,
486,8.40e-03,1.60e-01,
487,4.00e-04,8.00e-02,
488,4.00e-04,1.00e-01,
489,2.00e-03,6.00e-02,
490,2.00e-03,6.00e-02,
491,0.00e+00,1.00e-01,
492,-4.00e-04,6.00e-02,
493,2.00e-03,8.00e-02,
494,-4.00e-04,6.00e-02,
495,2.40e-03,8.00e-02,
496,-3.20e-03,8.00e-02,
497,6.00e-03,4.00e-02,
498,-1.24e-02,8.00e-02,
499,1.72e-02,4.00e-02,
500,-1.80e-02,6.00e-02,
501,1.96e-02,8.00e-02,
502,1.00e-02,8.00e-02,
503,-7.20e-03,4.00e-02,
504,3.60e-03,2.00e-02,
505,-1.20e-03,8.00e-02,
506,2.40e-03,8.00e-02,
507,-8.00e-04,2.00e-02,
508,0.00e+00,2.00e-02,
509,2.00e-03,8.00e-02,
510,0.00e+00,8.00e-02,
511,1.60e-03,2.00e-02,
512,2.40e-03,8.00e-02,
513,-1.20e-03,2.00e-02,
514,-1.60e-03,2.00e-02,
515,8.40e-03,2.08e+00,
516,8.00e-03,1.60e-01,
517,0.00e+00,8.00e-02,
518,2.00e-03,1.00e-01,
519,0.00e+00,6.00e-02,
520,1.20e-03,1.00e-01,
521,0.00e+00,6.00e-02,
522,-4.00e-04,6.00e-02,
523,2.00e-03,8.00e-02,
524,-8.00e-04,6.00e-02,
525,2.40e-03,8.00e-02,
526,-4.00e-03,6.00e-02,
527,5.20e-03,8.00e-02,
528,-1.20e-02,6.00e-02,
529,1.68e-02,8.00e-02,
530,-1.64e-02,8.00e-02,
531,2.04e-02,2.00e-02,
532,8.80e-03,8.00e-02,
533,-6.00e-03,4.00e-02,
534,2.40e-03,8.00e-02,
535,-8.00e-04,2.00e-02,
536,-8.00e-04,8.00e-02,
537,2.00e-03,2.00e-02,
538,2.00e-03,8.00e-02,
539,-4.00e-04,2.00e-02,
540,0.00e+00,2.00e-02,
541,1.20e-03,8.00e-02,
542,2.00e-03,2.00e-02,
543,-4.00e-04,6.00e-02,
544,-1.60e-03,2.00e-02,
545,8.40e-03,2.08e+00,
546,8.00e-03,1.60e-01,
547,0.00e+00,8.00e-02,
548,2.00e-03,1.00e-01,
549,0.00e+00,8.00e-02,
550,0.00e+00,1.00e-01,
551,2.00e-03,6.00e-02,
552,2.00e-03,6.00e-02,
553,-4.00e-04,8.00e-02,
554,-8.00e-04,6.00e-02,
555,2.40e-03,8.00e-02,
556,-3.60e-03,6.00e-02,
557,5.20e-03,8.00e-02,
558,-1.32e-02,8.00e-02,
559,1.80e-02,6.00e-02,
560,-1.72e-02,6.00e-02,
561,1.88e-02,8.00e-02,
562,9.60e-03,8.00e-02,
563,-6.40e-03,4.00e-02,
564,3.60e-03,8.00e-02,
565,-1.20e-03,2.00e-02,
566,-1.20e-03,8.00e-02,
567,2.40e-03,2.00e-02,
568,2.40e-03,8.00e-02,
569,0.00e+00,2.00e-02,
570,0.00e+00,8.00e-02,
571,1.60e-03,2.00e-02,
572,2.00e-03,2.00e-02,
573,-1.20e-03,6.00e-02,
574,-2.00e-03,2.00e-02,
575,8.80e-03,1.84e+00,
576,8.00e-03,1.60e-01,
577,0.00e+00,8.00e-02,
578,0.00e+00,1.00e-01,
579,2.40e-03,6.00e-02,
580,2.40e-03,1.00e-01,
581,0.00e+00,6.00e-02,
582,2.00e-03,8.00e-02,
583,0.00e+00,6.00e-02,
584,0.00e+00,6.00e-02,
585,2.40e-03,8.00e-02,
586,-2.40e-03,8.00e-02,
587,5.60e-03,6.00e-02,
588,-1.28e-02,8.00e-02,
589,1.88e-02,6.00e-02,
590,1.88e-02,8.00e-02,
591,-1.72e-02,2.00e-02,
592,8.40e-03,8.00e-02,
593,-6.00e-03,2.00e-02,
594,2.80e-03,8.00e-02,
595,-1.20e-03,2.00e-02,
596,-8.00e-04,2.00e-02,
597,2.00e-03,8.00e-02,
598,2.00e-03,2.00e-02,
599,-4.00e-04,8.00e-02,
600,0.00e+00,2.00e-02,
601,2.00e-03,8.00e-02,
602,2.00e-03,8.00e-02,
603,-1.60e-03,2.00e-02,
604,-2.40e-03,2.00e-02,
605,8.80e-03,2.06e+00,
606,8.40e-03,1.60e-01,
607,-8.00e-04,8.00e-02,
608,2.00e-03,1.00e-01,
609,0.00e+00,6.00e-02,
610,0.00e+00,1.00e-01,
611,2.00e-03,6.00e-02,
612,2.00e-03,8.00e-02,
613,-8.00e-04,6.00e-02,
614,-8.00e-04,6.00e-02,
615,2.80e-03,8.00e-02,
616,-2.80e-03,6.00e-02,
617,5.60e-03,8.00e-02,
618,-1.16e-02,8.00e-02,
619,1.68e-02,4.00e-02,
620,-1.72e-02,8.00e-02,
621,1.88e-02,4.00e-02,
622,8.80e-03,8.00e-02,
623,-6.00e-03,2.00e-02,
624,2.80e-03,8.00e-02,
625,-8.00e-04,2.00e-02,
626,2.40e-03,2.00e-02,
627,-4.00e-04,8.00e-02,
628,1.60e-03,8.00e-02,
629,-4.00e-04,2.00e-02,
630,0.00e+00,8.00e-02,
631,2.40e-03,2.00e-02,
632,2.00e-03,8.00e-02,
633,-1.20e-03,2.00e-02,
634,-2.40e-03,2.00e-02,
635,8.00e-03,2.12e+00,
636,8.00e-03,1.60e-01,
637,-8.00e-04,8.00e-02,
638,2.00e-03,1.00e-01,
639,0.00e+00,6.00e-02,
640,1.60e-03,6.00e-02,
641,0.00e+00,1.00e-01,
642,-8.00e-04,6.00e-02,
643,2.00e-03,8.00e-02,
644,2.00e-03,6.00e-02,
645,-4.00e-04,8.00e-02,
646,-1.60e-03,6.00e-02,
647,5.60e-03,8.00e-02,
648,-1.28e-02,8.00e-02,
649,1.60e-02,4.00e-02,
650,-1.60e-02,8.00e-02,
651,1.96e-02,4.00e-02,
652,9.20e-03,8.00e-02,
653,-7.20e-03,2.00e-02,
654,2.80e-03,8.00e-02,
655,-8.00e-04,2.00e-02,
656,2.00e-03,8.00e-02,
657,-8.00e-04,2.00e-02,
658,0.00e+00,8.00e-02,
659,2.40e-03,2.00e-02,
660,2.00e-03,8.00e-02,
661,0.00e+00,2.00e-02,
662,2.00e-03,2.00e-02,
663,-1.20e-03,8.00e-02,
664,-2.00e-03,2.00e-02,
665,8.40e-03,2.08e+00,
666,8.00e-03,1.60e-01,
667,0.00e+00,8.00e-02,
668,0.00e+00,1.00e-01,
669,1.60e-03,6.00e-02,
670,4.00e-04,6.00e-02,
671,1.60e-03,1.00e-01,
672,2.00e-03,6.00e-02,
673,-4.00e-04,8.00e-02,
674,2.00e-03,8.00e-02,
675,-8.00e-04,6.00e-02,
676,-2.40e-03,6.00e-02,
677,5.60e-03,8.00e-02,
678,-1.20e-02,8.00e-02,
679,1.60e-02,4.00e-02,
680,-1.60e-02,8.00e-02,
681,1.72e-02,4.00e-02,
682,9.20e-03,8.00e-02,
683,-6.00e-03,4.00e-02,
684,2.40e-03,8.00e-02,
685,-8.00e-04,2.00e-02,
686,-4.00e-04,8.00e-02,
687,2.80e-03,2.00e-02,
688,2.40e-03,2.00e-02,
689,0.00e+00,8.00e-02,
690,2.00e-03,8.00e-02,
691,0.00e+00,2.00e-02,
692,-8.00e-04,2.00e-02,
693,2.40e-03,6.00e-02,
694,-2.40e-03,2.00e-02,
695,8.80e-03,2.10e+00,
696,8.40e-03,1.60e-01,
697,0.00e+00,8.00e-02,
698,1.60e-03,1.00e-01,
699,0.00e+00,6.00e-02,
700,0.00e+00,1.00e-01,
701,2.00e-03,6.00e-02,
702,2.00e-03,6.00e-02,
703,-8.00e-04,8.00e-02,
704,-8.00e-04,6.00e-02,
705,2.40e-03,8.00e-02,
706,-3.60e-03,8.00e-02,
707,5.20e-03,6.00e-02,
708,-1.16e-02,4.00e-02,
709,1.60e-02,8.00e-02,
710,-1.60e-02,8.00e-02,
711,1.80e-02,2.00e-02,
712,8.00e-03,8.00e-02,
713,-6.00e-03,2.00e-02,
714,2.80e-03,8.00e-02,
715,-4.00e-04,2.00e-02,
716,1.60e-03,2.00e-02,
717,-4.00e-04,8.00e-02,
718,2.00e-03,2.00e-02,
719,0.00e+00,8.00e-02,
720,2.00e-03,2.00e-02,
721,-4.00e-04,6.00e-02,
722,2.40e-03,2.00e-02,
723,-8.00e-04,6.00e-02,
724,-2.40e-03,2.00e-02,
725,8.80e-03,2.10e+00,
726,8.00e-03,1.60e-01,
727,-4.00e-04,8.00e-02,
728,0.00e+00,1.00e-01,
729,1.60e-03,6.00e-02,
730,2.00e-03,1.00e-01,
731,-4.00e-04,6.00e-02,
732,2.00e-03,6.00e-02,
733,-8.00e-04,8.00e-02,
734,-8.00e-04,8.00e-02,
735,2.40e-03,6.00e-02,
736,-2.80e-03,8.00e-02,
737,5.20e-03,6.00e-02,
738,-1.16e-02,6.00e-02,
739,1.56e-02,8.00e-02,
740,-1.60e-02,8.00e-02,
741,1.80e-02,4.00e-02,
742,8.40e-03,8.00e-02,
743,-5.20e-03,2.00e-02,
744,2.80e-03,4.00e-02,
745,-1.20e-03,8.00e-02,
746,0.00e+00,8.00e-02,
747,2.00e-03,2.00e-02,
748,1.20e-03,2.00e-02,
749,-4.00e-04,8.00e-02,
750,1.20e-03,8.00e-02,
751,0.00e+00,2.00e-02,
752,1.60e-03,2.00e-02,
753,-4.00e-04,8.00e-02,
754,-2.80e-03,2.00e-02,
755,8.40e-03,2.12e+00,
756,8.00e-03,1.60e-01,
757,0.00e+00,8.00e-02,
758,1.60e-03,1.00e-01,
759,4.00e-04,6.00e-02,
760,0.00e+00,1.00e-01,
761,1.20e-03,6.00e-02,
762,2.00e-03,8.00e-02,
763,0.00e+00,6.00e-02,
764,0.00e+00,6.00e-02,
765,2.40e-03,8.00e-02,
766,-2.40e-03,6.00e-02,
767,5.20e-03,8.00e-02,
768,-1.24e-02,8.00e-02,
769,1.60e-02,4.00e-02,
770,-1.56e-02,8.00e-02,
771,1.60e-02,2.00e-02,
772,7.60e-03,8.00e-02,
773,-5.60e-03,2.00e-02,
774,2.40e-03,8.00e-02,
775,-8.00e-04,2.00e-02,
776,2.00e-03,8.00e-02,
777,-4.00e-04,2.00e-02,
778,1.20e-03,2.00e-02,
779,0.00e+00,8.00e-02,
780,4.00e-04,2.00e-02,
781,2.00e-03,8.00e-02,
782,2.40e-03,2.00e-02,
783,-1.20e-03,8.00e-02,
784,-2.80e-03,2.00e-02,
785,8.80e-03,2.02e+00,
786,8.00e-03,1.60e-01,
787,-8.00e-04,8.00e-02,
788,1.20e-03,1.00e-01,
789,0.00e+00,6.00e-02,
790,0.00e+00,6.00e-02,
791,2.00e-03,1.00e-01,
792,1.60e-03,6.00e-02,
793,0.00e+00,8.00e-02,
794,2.00e-03,6.00e-02,
795,-8.00e-04,8.00e-02,
796,-2.40e-03,6.00e-02,
797,5.20e-03,8.00e-02,
798,-1.16e-02,8.00e-02,
799,1.52e-02,6.00e-02,
800,-1.60e-02,8.00e-02,
801,1.64e-02,2.00e-02,
802,7.60e-03,8.00e-02,
803,-5.20e-03,4.00e-02,
804,2.40e-03,2.00e-02,
805,-8.00e-04,8.00e-02,
806,-8.00e-04,8.00e-02,
807,2.00e-03,2.00e-02,
808,2.40e-03,8.00e-02,
809,0.00e+00,2.00e-02,
810,1.60e-03,8.00e-02,
811,0.00e+00,2.00e-02,
812,2.40e-03,2.00e-02,
813,-1.20e-03,6.00e-02,
814,-2.40e-03,2.00e-02,
815,8.80e-03,1.88e+00,
816,8.40e-03,1.60e-01,
817,4.00e-04,8.00e-02,
818,2.00e-03,1.00e-01,
819,0.00e+00,6.00e-02,
820,0.00e+00,6.00e-02,
821,1.60e-03,1.00e-01,
822,-8.00e-04,6.00e-02,
823,2.00e-03,8.00e-02,
824,1.60e-03,8.00e-02,
825,-4.00e-04,6.00e-02,
826,-2.00e-03,6.00e-02,
827,5.20e-03,8.00e-02,
828,-1.16e-02,8.00e-02,
829,1.56e-02,4.00e-02,
830,-1.56e-02,6.00e-02,
831,1.52e-02,8.00e-02,
832,7.20e-03,8.00e-02,
833,-4.80e-03,2.00e-02,
834,2.40e-03,8.00e-02,
835,-4.00e-04,2.00e-02,
836,1.20e-03,2.00e-02,
837,-8.00e-04,8.00e-02,
838,-4.00e-04,8.00e-02,
839,1.60e-03,2.00e-02,
840,1.60e-03,2.00e-02,
841,0.00e+00,8.00e-02,
842,2.00e-03,2.00e-02,
843,-4.00e-04,8.00e-02,
844,-2.80e-03,-1.20e-01,
845,8.40e-03,2.04e+00,
846,8.00e-03,1.60e-01,
847,0.00e+00,8.00e-02,
848,0.00e+00,1.00e-01,
849,2.00e-03,6.00e-02,
850,1.20e-03,1.00e-01,
851,4.00e-04,6.00e-02,
852,2.40e-03,6.00e-02,
853,-4.00e-04,8.00e-02,
854,2.00e-03,8.00e-02,
855,-8.00e-04,6.00e-02,
856,-2.40e-03,8.00e-02,
