CarrPurc_P1-19_P2-38_tauVary/Gly60/NewFile8.csv

X,CH1,CH2,Start,Increment,
Sequence,Volt,Volt,-3.600000e-03,2.000000e-04
0,-8.00e-04,4.00e-02,
1,1.20e-03,2.00e-02,
2,0.00e+00,4.00e-02,
3,1.20e-03,2.00e-02,
4,1.20e-03,4.00e-02,
5,0.00e+00,2.00e-02,
6,0.00e+00,2.00e-02,
7,1.60e-03,4.00e-02,
8,1.20e-03,4.00e-02,
9,4.00e-04,2.00e-02,
10,0.00e+00,4.00e-02,
11,1.20e-03,2.00e-02,
12,1.20e-03,4.00e-02,
13,0.00e+00,2.00e-02,
14,1.20e-03,4.00e-02,
15,0.00e+00,2.00e-02,
16,1.60e-03,4.00e-02,
17,0.00e+00,2.00e-02,
18,1.20e-03,4.00e-02,
19,0.00e+00,2.00e-02,
20,7.60e-03,2.00e-02,
21,-3.20e-02,1.74e+00,
22,2.20e-02,1.20e-01,
23,-1.84e-02,6.00e-02,
24,5.60e-03,1.00e-01,
25,-2.80e-03,6.00e-02,
26,4.40e-03,6.00e-02,
27,-2.40e-03,8.00e-02,
28,2.80e-03,6.00e-02,
29,-1.20e-03,8.00e-02,
30,-8.00e-04,6.00e-02,
31,2.40e-03,8.00e-02,
32,-8.00e-04,8.00e-02,
33,2.40e-03,2.00e-02,
34,4.00e-04,2.00e-02,
35,8.40e-03,1.92e+00,
36,8.00e-03,1.60e-01,
37,-7.20e-03,8.00e-02,
38,4.40e-03,1.00e-01,
39,-2.40e-03,6.00e-02,
40,-8.00e-04,1.00e-01,
41,2.40e-03,6.00e-02,
42,2.40e-03,6.00e-02,
43,-8.00e-04,8.00e-02,
44,2.80e-03,6.00e-02,
45,-1.60e-03,8.00e-02,
46,-5.20e-03,6.00e-02,
47,8.80e-03,8.00e-02,
48,-2.24e-02,8.00e-02,
49,2.76e-02,4.00e-02,
50,-3.04e-02,8.00e-02,
51,3.28e-02,2.00e-02,
52,1.68e-02,8.00e-02,
53,-1.32e-02,2.00e-02,
54,5.20e-03,8.00e-02,
55,-1.60e-03,2.00e-02,
56,-1.60e-03,2.00e-02,
57,2.80e-03,8.00e-02,
58,-8.00e-04,2.00e-02,
59,2.40e-03,8.00e-02,
60,-4.00e-04,6.00e-02,
61,2.40e-03,2.00e-02,
62,2.00e-03,2.00e-02,
63,-8.00e-04,6.00e-02,
64,0.00e+00,2.00e-02,
65,8.40e-03,2.08e+00,
66,8.00e-03,1.60e-01,
67,0.00e+00,8.00e-02,
68,2.40e-03,1.00e-01,
69,-4.00e-04,6.00e-02,
70,2.40e-03,1.00e-01,
71,-8.00e-04,6.00e-02,
72,2.40e-03,8.00e-02,
73,-4.00e-04,6.00e-02,
74,-8.00e-04,6.00e-02,
75,2.80e-03,8.00e-02,
76,-4.40e-03,6.00e-02,
77,7.20e-03,8.00e-02,
78,-1.80e-02,2.00e-02,
79,1.88e-02,8.00e-02,
80,-2.40e-02,8.00e-02,
81,2.48e-02,4.00e-02,
82,1.12e-02,8.00e-02,
83,-8.40e-03,4.00e-02,
84,-8.00e-04,8.00e-02,
85,3.20e-03,2.00e-02,
86,2.80e-03,2.00e-02,
87,-1.20e-03,6.00e-02,
88,0.00e+00,2.00e-02,
89,2.40e-03,6.00e-02,
90,-1.20e-03,2.00e-02,
91,2.40e-03,6.00e-02,
92,2.80e-03,2.00e-02,
93,-2.00e-03,8.00e-02,
94,-3.20e-03,2.00e-02,
95,8.00e-03,2.06e+00,
96,7.60e-03,1.60e-01,
97,-4.00e-04,8.00e-02,
98,2.40e-03,1.00e-01,
99,-4.00e-04,6.00e-02,
100,2.00e-03,1.00e-01,
101,-8.00e-04,6.00e-02,
102,2.00e-03,6.00e-02,
103,-8.00e-04,8.00e-02,
104,2.40e-03,6.00e-02,
105,-1.20e-03,8.00e-02,
106,-4.40e-03,6.00e-02,
107,6.40e-03,8.00e-02,
108,1.68e-02,6.00e-02,
109,-1.96e-02,8.00e-02,
110,2.52e-02,8.00e-02,
111,-2.48e-02,4.00e-02,
112,1.32e-02,8.00e-02,
113,-8.80e-03,2.00e-02,
114,4.00e-03,8.00e-02,
115,-1.20e-03,2.00e-02,
116,2.40e-03,8.00e-02,
117,-1.60e-03,2.00e-02,
118,2.40e-03,6.00e-02,
119,-8.00e-04,2.00e-02,
120,-4.00e-04,2.00e-02,
121,2.40e-03,8.00e-02,
122,-1.20e-03,4.00e-02,
123,2.80e-03,2.00e-02,
124,-2.80e-03,2.00e-02,
125,8.40e-03,2.14e+00,
126,8.00e-03,1.60e-01,
127,-1.60e-03,8.00e-02,
128,3.60e-03,1.00e-01,
129,-1.60e-03,6.00e-02,
130,2.00e-03,1.00e-01,
131,-4.00e-04,6.00e-02,
132,-4.00e-04,6.00e-02,
133,2.80e-03,8.00e-02,
134,2.40e-03,6.00e-02,
135,-1.20e-03,8.00e-02,
136,-3.20e-03,6.00e-02,
137,6.00e-03,8.00e-02,
138,-1.32e-02,8.00e-02,
139,1.72e-02,2.00e-02,
140,2.32e-02,2.00e-02,
141,-2.04e-02,8.00e-02,
142,1.16e-02,8.00e-02,
143,-8.00e-03,2.00e-02,
144,3.60e-03,8.00e-02,
145,-1.20e-03,2.00e-02,
146,-1.20e-03,2.00e-02,
147,2.00e-03,8.00e-02,
148,0.00e+00,2.00e-02,
149,2.40e-03,6.00e-02,
150,1.60e-03,2.00e-02,
151,0.00e+00,6.00e-02,
152,2.00e-03,4.00e-02,
153,-8.00e-04,2.00e-02,
154,-1.60e-03,2.00e-02,
155,9.20e-03,1.96e+00,
156,8.40e-03,1.60e-01,
157,-4.00e-04,8.00e-02,
158,0.00e+00,1.00e-01,
159,2.40e-03,6.00e-02,
160,2.40e-03,6.00e-02,
161,-4.00e-04,1.00e-01,
162,2.00e-03,6.00e-02,
163,-8.00e-04,8.00e-02,
164,2.40e-03,6.00e-02,
165,-8.00e-04,8.00e-02,
166,-4.00e-03,6.00e-02,
167,6.80e-03,8.00e-02,
168,-1.56e-02,6.00e-02,
169,1.72e-02,8.00e-02,
170,-2.04e-02,8.00e-02,
171,2.16e-02,2.00e-02,
172,9.20e-03,2.00e-02,
173,-6.00e-03,8.00e-02,
174,2.80e-03,2.00e-02,
175,-1.20e-03,8.00e-02,
176,2.40e-03,8.00e-02,
177,-8.00e-04,2.00e-02,
178,2.00e-03,8.00e-02,
179,-8.00e-04,2.00e-02,
180,0.00e+00,2.00e-02,
181,2.00e-03,6.00e-02,
182,-1.20e-03,8.00e-02,
183,3.20e-03,2.00e-02,
184,-2.80e-03,2.00e-02,
185,8.40e-03,2.04e+00,
186,8.00e-03,1.60e-01,
187,4.00e-04,8.00e-02,
188,1.60e-03,1.00e-01,
189,0.00e+00,6.00e-02,
190,2.40e-03,1.00e-01,
191,0.00e+00,6.00e-02,
192,-4.00e-04,6.00e-02,
193,2.00e-03,8.00e-02,
194,2.40e-03,6.00e-02,
195,-8.00e-04,8.00e-02,
196,-4.40e-03,6.00e-02,
197,5.20e-03,8.00e-02,
198,-1.60e-02,8.00e-02,
199,1.56e-02,4.00e-02,
200,2.32e-02,8.00e-02,
201,-2.12e-02,4.00e-02,
202,1.12e-02,8.00e-02,
203,-8.80e-03,2.00e-02,
204,4.00e-03,8.00e-02,
205,-1.20e-03,2.00e-02,
206,2.40e-03,2.00e-02,
207,-1.20e-03,8.00e-02,
208,2.80e-03,8.00e-02,
209,-4.00e-04,2.00e-02,
210,2.40e-03,2.00e-02,
211,-8.00e-04,8.00e-02,
212,-1.60e-03,2.00e-02,
213,2.80e-03,8.00e-02,
214,-2.40e-03,2.00e-02,
215,7.60e-03,1.92e+00,
216,7.60e-03,1.60e-01,
217,-1.20e-03,8.00e-02,
218,2.40e-03,1.00e-01,
219,-4.00e-04,6.00e-02,
220,2.00e-03,1.00e-01,
221,-8.00e-04,6.00e-02,
222,2.40e-03,6.00e-02,
223,-8.00e-04,8.00e-02,
224,2.40e-03,6.00e-02,
225,-1.60e-03,8.00e-02,
226,-2.80e-03,8.00e-02,
227,6.40e-03,2.00e-02,
228,-1.28e-02,8.00e-02,
229,1.60e-02,4.00e-02,
230,-1.92e-02,8.00e-02,
231,2.16e-02,2.00e-02,
232,1.04e-02,8.00e-02,
233,-6.80e-03,2.00e-02,
234,3.20e-03,8.00e-02,
235,-4.00e-04,2.00e-02,
236,0.00e+00,2.00e-02,
237,2.40e-03,8.00e-02,
238,0.00e+00,2.00e-02,
239,2.00e-03,6.00e-02,
240,0.00e+00,2.00e-02,
241,2.40e-03,6.00e-02,
242,1.60e-03,2.00e-02,
243,-1.20e-03,8.00e-02,
244,-2.40e-03,2.00e-02,
245,8.40e-03,2.04e+00,
246,8.00e-03,1.60e-01,
247,0.00e+00,8.00e-02,
248,2.80e-03,1.00e-01,
249,0.00e+00,6.00e-02,
250,1.20e-03,6.00e-02,
251,-8.00e-04,1.00e-01,
252,0.00e+00,6.00e-02,
253,2.40e-03,8.00e-02,
254,2.00e-03,8.00e-02,
255,0.00e+00,6.00e-02,
256,-4.00e-03,8.00e-02,
257,6.80e-03,6.00e-02,
258,-1.32e-02,2.00e-02,
259,1.76e-02,8.00e-02,
260,-1.88e-02,8.00e-02,
261,2.00e-02,2.00e-02,
262,8.80e-03,8.00e-02,
263,-5.20e-03,2.00e-02,
264,2.80e-03,2.00e-02,
265,-8.00e-04,8.00e-02,
266,2.40e-03,8.00e-02,
267,-4.00e-04,2.00e-02,
268,2.00e-03,2.00e-02,
269,-4.00e-04,8.00e-02,
270,0.00e+00,2.00e-02,
271,2.00e-03,6.00e-02,
272,-4.00e-04,4.00e-02,
273,2.40e-03,2.00e-02,
274,-2.40e-03,2.00e-02,
275,9.20e-03,2.04e+00,
276,8.00e-03,1.60e-01,
277,0.00e+00,8.00e-02,
278,2.00e-03,1.00e-01,
279,0.00e+00,6.00e-02,
280,1.60e-03,8.00e-02,
281,0.00e+00,6.00e-02,
282,0.00e+00,6.00e-02,
283,2.40e-03,8.00e-02,
284,-8.00e-04,6.00e-02,
285,2.40e-03,8.00e-02,
286,-2.80e-03,6.00e-02,
287,4.80e-03,8.00e-02,
288,1.24e-02,8.00e-02,
289,-1.44e-02,2.00e-02,
290,-1.88e-02,8.00e-02,
291,1.92e-02,2.00e-02,
292,1.04e-02,8.00e-02,
293,-7.20e-03,2.00e-02,
294,3.60e-03,2.00e-02,
295,-1.20e-03,8.00e-02,
296,-1.20e-03,8.00e-02,
297,2.80e-03,2.00e-02,
298,2.40e-03,2.00e-02,
299,-8.00e-04,6.00e-02,
300,0.00e+00,2.00e-02,
301,2.40e-03,8.00e-02,
302,3.60e-03,4.00e-02,
303,-1.60e-03,2.00e-02,
304,-2.80e-03,2.00e-02,
305,8.00e-03,2.06e+00,
306,8.00e-03,1.60e-01,
307,-4.00e-04,8.00e-02,
308,2.00e-03,1.00e-01,
309,0.00e+00,6.00e-02,
310,2.00e-03,1.00e-01,
311,0.00e+00,6.00e-02,
312,-8.00e-04,6.00e-02,
313,2.80e-03,8.00e-02,
314,-8.00e-04,6.00e-02,
315,2.80e-03,8.00e-02,
316,-2.80e-03,6.00e-02,
317,5.20e-03,8.00e-02,
318,-1.16e-02,8.00e-02,
319,1.60e-02,4.00e-02,
320,-1.80e-02,8.00e-02,
321,1.88e-02,2.00e-02,
322,9.60e-03,2.00e-02,
323,-6.00e-03,8.00e-02,
324,2.80e-03,8.00e-02,
325,-4.00e-04,2.00e-02,
326,0.00e+00,8.00e-02,
327,2.40e-03,2.00e-02,
328,0.00e+00,8.00e-02,
329,2.00e-03,2.00e-02,
330,0.00e+00,2.00e-02,
331,2.00e-03,6.00e-02,
332,2.00e-03,4.00e-02,
333,-1.60e-03,2.00e-02,
334,-2.40e-03,2.00e-02,
335,8.00e-03,2.10e+00,
336,8.00e-03,1.60e-01,
337,-8.00e-04,8.00e-02,
338,2.40e-03,1.00e-01,
339,-8.00e-04,6.00e-02,
340,0.00e+00,1.00e-01,
341,2.40e-03,6.00e-02,
342,2.40e-03,6.00e-02,
343,-4.00e-04,8.00e-02,
344,2.00e-03,8.00e-02,
345,-8.00e-04,6.00e-02,
346,-2.80e-03,6.00e-02,
347,6.40e-03,8.00e-02,
348,-1.28e-02,8.00e-02,
349,1.60e-02,6.00e-02,
350,-1.68e-02,6.00e-02,
351,1.88e-02,8.00e-02,
352,7.20e-03,8.00e-02,
353,-4.80e-03,2.00e-02,
354,2.40e-03,8.00e-02,
355,-8.00e-04,2.00e-02,
356,2.00e-03,2.00e-02,
357,-4.00e-04,8.00e-02,
358,1.20e-03,2.00e-02,
359,-4.00e-04,8.00e-02,
360,-8.00e-04,8.00e-02,
361,2.00e-03,2.00e-02,
362,2.80e-03,2.00e-02,
363,-4.00e-04,8.00e-02,
364,-2.80e-03,2.00e-02,
365,8.40e-03,2.08e+00,
366,8.00e-03,1.40e-01,
367,4.00e-04,8.00e-02,
368,2.00e-03,1.00e-01,
369,0.00e+00,6.00e-02,
370,0.00e+00,6.00e-02,
371,2.40e-03,8.00e-02,
372,0.00e+00,6.00e-02,
373,2.00e-03,8.00e-02,
374,2.40e-03,6.00e-02,
375,0.00e+00,8.00e-02,
376,-1.60e-03,6.00e-02,
377,5.20e-03,8.00e-02,
378,-1.32e-02,8.00e-02,
379,1.44e-02,2.00e-02,
380,-1.72e-02,8.00e-02,
381,1.88e-02,2.00e-02,
382,8.80e-03,8.00e-02,
383,-6.80e-03,2.00e-02,
384,4.00e-03,2.00e-02,
385,-1.20e-03,8.00e-02,
386,2.00e-03,2.00e-02,
387,-8.00e-04,6.00e-02,
388,2.40e-03,2.00e-02,
389,-4.00e-04,4.00e-02,
390,2.40e-03,4.00e-02,
391,-4.00e-04,2.00e-02,
392,2.40e-03,4.00e-02,
393,-1.60e-03,2.00e-02,
394,-1.60e-03,2.00e-02,
395,8.80e-03,2.06e+00,
396,8.40e-03,1.60e-01,
397,-8.00e-04,8.00e-02,
398,2.40e-03,1.00e-01,
399,-8.00e-04,6.00e-02,
400,-8.00e-04,1.00e-01,
401,1.60e-03,6.00e-02,
402,-4.00e-04,8.00e-02,
403,2.40e-03,6.00e-02,
404,-8.00e-04,6.00e-02,
405,2.40e-03,8.00e-02,
406,-2.00e-03,6.00e-02,
407,5.20e-03,8.00e-02,
408,-1.16e-02,8.00e-02,
409,1.44e-02,2.00e-02,
410,-1.68e-02,8.00e-02,
411,1.72e-02,2.00e-02,
412,8.80e-03,8.00e-02,
413,-5.60e-03,2.00e-02,
414,2.80e-03,2.00e-02,
415,-8.00e-04,8.00e-02,
416,0.00e+00,2.00e-02,
417,2.00e-03,6.00e-02,
418,1.20e-03,4.00e-02,
419,0.00e+00,2.00e-02,
420,0.00e+00,2.00e-02,
421,2.00e-03,4.00e-02,
422,-1.20e-03,4.00e-02,
423,1.60e-03,2.00e-02,
424,-2.80e-03,2.00e-02,
425,8.00e-03,1.98e+00,
426,7.60e-03,1.60e-01,
427,-8.00e-04,8.00e-02,
428,2.00e-03,1.00e-01,
429,0.00e+00,6.00e-02,
430,0.00e+00,1.00e-01,
431,2.00e-03,6.00e-02,
432,0.00e+00,6.00e-02,
433,2.40e-03,8.00e-02,
434,-8.00e-04,6.00e-02,
435,2.40e-03,8.00e-02,
436,-3.20e-03,8.00e-02,
437,6.80e-03,4.00e-02,
438,-1.28e-02,8.00e-02,
439,1.64e-02,2.00e-02,
440,-1.72e-02,2.00e-02,
441,1.80e-02,8.00e-02,
442,8.00e-03,8.00e-02,
443,-4.40e-03,2.00e-02,
444,2.00e-03,8.00e-02,
445,-4.00e-04,2.00e-02,
446,2.40e-03,2.00e-02,
447,-4.00e-04,8.00e-02,
448,1.20e-03,2.00e-02,
449,0.00e+00,8.00e-02,
450,1.60e-03,2.00e-02,
451,0.00e+00,8.00e-02,
452,2.00e-03,4.00e-02,
453,-1.20e-03,2.00e-02,
454,-1.60e-03,2.00e-02,
455,8.40e-03,2.04e+00,
456,8.00e-03,1.60e-01,
457,-4.00e-04,8.00e-02,
458,2.00e-03,1.00e-01,
459,-8.00e-04,6.00e-02,
460,1.20e-03,1.00e-01,
461,0.00e+00,6.00e-02,
462,1.60e-03,6.00e-02,
463,0.00e+00,8.00e-02,
464,-8.00e-04,6.00e-02,
465,2.40e-03,8.00e-02,
466,-2.40e-03,6.00e-02,
467,4.80e-03,8.00e-02,
468,-1.12e-02,8.00e-02,
469,1.52e-02,4.00e-02,
470,-1.68e-02,8.00e-02,
471,1.68e-02,2.00e-02,
472,8.40e-03,2.00e-02,
473,-6.00e-03,8.00e-02,
474,3.20e-03,2.00e-02,
475,-8.00e-04,8.00e-02,
476,-4.00e-04,8.00e-02,
477,2.40e-03,2.00e-02,
478,1.20e-03,6.00e-02,
479,-1.20e-03,2.00e-02,
480,1.60e-03,4.00e-02,
481,0.00e+00,2.00e-02,
482,-8.00e-04,2.00e-02,
483,2.80e-03,4.00e-02,
484,-2.80e-03,2.00e-02,
485,8.80e-03,2.06e+00,
486,8.40e-03,1.60e-01,
487,-4.00e-04,8.00e-02,
488,2.00e-03,1.00e-01,
489,0.00e+00,6.00e-02,
490,0.00e+00,6.00e-02,
491,2.00e-03,1.00e-01,
492,2.00e-03,6.00e-02,
493,-4.00e-04,8.00e-02,
494,-1.20e-03,6.00e-02,
495,2.00e-03,8.00e-02,
496,-2.00e-03,6.00e-02,
497,5.20e-03,8.00e-02,
498,-1.16e-02,8.00e-02,
499,1.48e-02,2.00e-02,
500,-1.56e-02,8.00e-02,
501,1.72e-02,2.00e-02,
502,8.00e-03,2.00e-02,
503,-6.00e-03,8.00e-02,
504,3.60e-03,2.00e-02,
505,-8.00e-04,8.00e-02,
506,2.00e-03,2.00e-02,
507,-4.00e-04,8.00e-02,
508,0.00e+00,2.00e-02,
509,2.00e-03,8.00e-02,
510,0.00e+00,2.00e-02,
511,2.00e-03,8.00e-02,
512,2.40e-03,4.00e-02,
513,-8.00e-04,2.00e-02,
514,-2.40e-03,2.00e-02,
515,8.40e-03,2.12e+00,
516,7.60e-03,1.60e-01,
517,-8.00e-04,8.00e-02,
518,2.00e-03,1.00e-01,
519,-4.00e-04,6.00e-02,
520,1.60e-03,6.00e-02,
521,-4.00e-04,8.00e-02,
522,0.00e+00,6.00e-02,
523,2.40e-03,8.00e-02,
524,-4.00e-04,6.00e-02,
525,3.20e-03,8.00e-02,
526,-2.80e-03,6.00e-02,
527,5.20e-03,8.00e-02,
528,-1.20e-02,8.00e-02,
529,1.44e-02,2.00e-02,
530,-1.56e-02,8.00e-02,
531,1.72e-02,2.00e-02,
532,6.80e-03,8.00e-02,
533,-4.00e-03,2.00e-02,
534,2.00e-03,8.00e-02,
535,-4.00e-04,2.00e-02,
536,1.60e-03,2.00e-02,
537,0.00e+00,8.00e-02,
538,1.60e-03,2.00e-02,
539,0.00e+00,6.00e-02,
540,0.00e+00,2.00e-02,
541,2.00e-03,6.00e-02,
542,2.00e-03,6.00e-02,
543,-8.00e-04,2.00e-02,
544,-2.00e-03,2.00e-02,
545,8.40e-03,2.00e+00,
546,8.00e-03,1.60e-01,
547,-8.00e-04,8.00e-02,
548,2.00e-03,1.00e-01,
549,-8.00e-04,6.00e-02,
550,1.20e-03,1.00e-01,
551,0.00e+00,6.00e-02,
552,0.00e+00,6.00e-02,
553,1.60e-03,8.00e-02,
554,0.00e+00,6.00e-02,
555,2.40e-03,8.00e-02,
556,-2.40e-03,6.00e-02,
557,4.00e-03,8.00e-02,
558,-1.16e-02,8.00e-02,
559,1.36e-02,6.00e-02,
560,-1.60e-02,8.00e-02,
561,1.68e-02,2.00e-02,
562,8.00e-03,8.00e-02,
563,-5.60e-03,2.00e-02,
564,3.60e-03,8.00e-02,
565,-8.00e-04,2.00e-02,
566,-8.00e-04,2.00e-02,
567,2.00e-03,8.00e-02,
568,2.00e-03,2.00e-02,
569,-4.00e-04,8.00e-02,
570,2.40e-03,2.00e-02,
571,4.00e-04,8.00e-02,
572,2.00e-03,4.00e-02,
573,-1.60e-03,2.00e-02,
574,-2.00e-03,2.00e-02,
575,8.80e-03,2.02e+00,
576,8.00e-03,1.60e-01,
577,-8.00e-04,8.00e-02,
578,-4.00e-04,1.00e-01,
579,2.00e-03,6.00e-02,
580,0.00e+00,6.00e-02,
581,1.60e-03,1.00e-01,
582,2.00e-03,8.00e-02,
583,0.00e+00,6.00e-02,
584,2.40e-03,6.00e-02,
585,-4.00e-04,8.00e-02,
586,-2.40e-03,8.00e-02,
587,4.00e-03,6.00e-02,
588,-1.04e-02,8.00e-02,
589,1.44e-02,4.00e-02,
590,-1.48e-02,8.00e-02,
591,1.56e-02,2.00e-02,
592,7.60e-03,8.00e-02,
593,-5.60e-03,2.00e-02,
594,2.80e-03,8.00e-02,
595,-1.20e-03,2.00e-02,
596,1.20e-03,2.00e-02,
597,-4.00e-04,8.00e-02,
598,0.00e+00,2.00e-02,
599,2.00e-03,8.00e-02,
600,2.00e-03,2.00e-02,
601,0.00e+00,8.00e-02,
602,2.40e-03,4.00e-02,
603,-8.00e-04,2.00e-02,
604,-2.80e-03,2.00e-02,
605,8.80e-03,1.88e+00,
606,8.40e-03,1.60e-01,
607,0.00e+00,8.00e-02,
608,4.00e-04,1.00e-01,
609,2.00e-03,6.00e-02,
610,2.00e-03,6.00e-02,
611,-4.00e-04,1.00e-01,
612,-8.00e-04,8.00e-02,
613,2.40e-03,6.00e-02,
614,2.40e-03,6.00e-02,
615,-8.00e-04,8.00e-02,
616,-2.80e-03,8.00e-02,
617,5.20e-03,2.00e-02,
618,-1.16e-02,8.00e-02,
619,1.56e-02,2.00e-02,
620,-1.56e-02,8.00e-02,
621,1.64e-02,2.00e-02,
622,6.80e-03,8.00e-02,
623,-4.00e-03,2.00e-02,
624,2.40e-03,2.00e-02,
625,-8.00e-04,8.00e-02,
626,-4.00e-04,2.00e-02,
627,2.40e-03,8.00e-02,
628,1.60e-03,4.00e-02,
629,-4.00e-04,2.00e-02,
630,0.00e+00,4.00e-02,
631,2.00e-03,2.00e-02,
632,2.40e-03,4.00e-02,
633,-8.00e-04,2.00e-02,
634,-2.80e-03,2.00e-02,
635,8.00e-03,2.06e+00,
636,8.00e-03,1.60e-01,
637,-8.00e-04,8.00e-02,
638,2.00e-03,1.00e-01,
639,0.00e+00,6.00e-02,
640,0.00e+00,6.00e-02,
641,1.60e-03,1.00e-01,
642,0.00e+00,6.00e-02,
643,2.00e-03,8.00e-02,
644,2.00e-03,6.00e-02,
645,-4.00e-04,8.00e-02,
646,-1.60e-03,6.00e-02,
647,4.00e-03,8.00e-02,
648,-1.00e-02,8.00e-02,
649,1.40e-02,2.00e-02,
650,-1.48e-02,8.00e-02,
651,1.60e-02,2.00e-02,
652,7.20e-03,8.00e-02,
653,-4.80e-03,2.00e-02,
654,2.80e-03,2.00e-02,
655,-4.00e-04,8.00e-02,
656,2.40e-03,2.00e-02,
657,0.00e+00,8.00e-02,
658,2.00e-03,8.00e-02,
659,-4.00e-04,2.00e-02,
660,0.00e+00,8.00e-02,
661,2.00e-03,2.00e-02,
662,-4.00e-04,4.00e-02,
663,2.00e-03,2.00e-02,
664,-2.80e-03,2.00e-02,
665,8.40e-03,2.04e+00,
666,8.00e-03,1.60e-01,
667,0.00e+00,8.00e-02,
668,4.00e-04,1.00e-01,
669,2.40e-03,6.00e-02,
670,4.00e-04,6.00e-02,
671,1.60e-03,1.00e-01,
672,2.00e-03,6.00e-02,
673,0.00e+00,8.00e-02,
674,1.60e-03,8.00e-02,
675,-8.00e-04,6.00e-02,
676,-2.40e-03,6.00e-02,
677,4.40e-03,8.00e-02,
678,-1.04e-02,6.00e-02,
679,1.48e-02,8.00e-02,
680,-1.56e-02,8.00e-02,
681,1.60e-02,4.00e-02,
682,7.20e-03,8.00e-02,
683,-4.40e-03,2.00e-02,
684,2.80e-03,8.00e-02,
685,-8.00e-04,2.00e-02,
686,2.00e-03,2.00e-02,
687,0.00e+00,8.00e-02,
688,1.60e-03,2.00e-02,
689,0.00e+00,8.00e-02,
690,1.60e-03,2.00e-02,
691,-8.00e-04,8.00e-02,
692,2.80e-03,2.00e-02,
693,-8.00e-04,8.00e-02,
694,-2.80e-03,2.00e-02,
695,8.80e-03,2.00e+00,
696,8.40e-03,1.60e-01,
697,0.00e+00,8.00e-02,
698,2.00e-03,1.00e-01,
699,0.00e+00,6.00e-02,
700,0.00e+00,6.00e-02,
701,1.60e-03,1.00e-01,
702,2.00e-03,6.00e-02,
703,-8.00e-04,8.00e-02,
704,0.00e+00,6.00e-02,
705,2.00e-03,8.00e-02,
706,-2.40e-03,8.00e-02,
707,5.20e-03,6.00e-02,
708,-1.12e-02,6.00e-02,
709,1.40e-02,8.00e-02,
710,-1.36e-02,8.00e-02,
711,1.56e-02,2.00e-02,
712,6.80e-03,8.00e-02,
713,-4.40e-03,2.00e-02,
714,2.40e-03,8.00e-02,
715,-8.00e-04,2.00e-02,
716,0.00e+00,2.00e-02,
717,1.60e-03,8.00e-02,
718,2.00e-03,4.00e-02,
719,0.00e+00,2.00e-02,
720,2.00e-03,2.00e-02,
721,4.00e-04,6.00e-02,
722,2.40e-03,4.00e-02,
723,-1.20e-03,2.00e-02,
724,-2.80e-03,2.00e-02,
725,8.00e-03,2.10e+00,
726,8.00e-03,1.60e-01,
727,-8.00e-04,8.00e-02,
728,0.00e+00,1.00e-01,
729,2.00e-03,6.00e-02,
730,-8.00e-04,6.00e-02,
731,2.00e-03,1.00e-01,
732,-4.00e-04,6.00e-02,
733,1.60e-03,8.00e-02,
734,0.00e+00,8.00e-02,
735,2.80e-03,6.00e-02,
736,-1.60e-03,8.00e-02,
737,4.00e-03,6.00e-02,
738,-1.00e-02,8.00e-02,
739,1.44e-02,2.00e-02,
740,-1.40e-02,8.00e-02,
741,1.52e-02,2.00e-02,
742,7.60e-03,2.00e-02,
743,-5.20e-03,8.00e-02,
744,2.40e-03,2.00e-02,
745,-8.00e-04,8.00e-02,
746,0.00e+00,8.00e-02,
747,2.00e-03,2.00e-02,
748,1.20e-03,2.00e-02,
749,-4.00e-04,8.00e-02,
750,2.00e-03,2.00e-02,
751,0.00e+00,6.00e-02,
752,-8.00e-04,2.00e-02,
753,2.00e-03,6.00e-02,
754,-1.60e-03,2.00e-02,
755,8.40e-03,2.08e+00,
756,7.60e-03,1.60e-01,
757,0.00e+00,8.00e-02,
758,1.20e-03,1.00e-01,
759,0.00e+00,6.00e-02,
760,4.00e-04,6.00e-02,
761,1.60e-03,1.00e-01,
762,1.60e-03,8.00e-02,
763,-4.00e-04,6.00e-02,
764,0.00e+00,6.00e-02,
765,2.40e-03,8.00e-02,
766,-2.40e-03,6.00e-02,
767,4.00e-03,8.00e-02,
768,-1.08e-02,8.00e-02,
769,1.32e-02,4.00e-02,
770,-1.40e-02,8.00e-02,
771,1.56e-02,2.00e-02,
772,6.00e-03,8.00e-02,
773,-4.40e-03,2.00e-02,
774,2.40e-03,8.00e-02,
775,-8.00e-04,2.00e-02,
776,1.60e-03,8.00e-02,
777,0.00e+00,2.00e-02,
778,1.60e-03,2.00e-02,
779,0.00e+00,6.00e-02,
780,-4.00e-04,2.00e-02,
781,2.00e-03,8.00e-02,
782,2.80e-03,2.00e-02,
783,-4.00e-04,6.00e-02,
784,-2.40e-03,2.00e-02,
785,8.80e-03,2.00e+00,
786,8.40e-03,1.60e-01,
787,-8.00e-04,8.00e-02,
788,4.00e-04,1.00e-01,
789,2.00e-03,6.00e-02,
790,-8.00e-04,6.00e-02,
791,2.00e-03,1.00e-01,
792,1.20e-03,6.00e-02,
793,-8.00e-04,8.00e-02,
794,2.00e-03,6.00e-02,
795,-4.00e-04,8.00e-02,
796,-2.80e-03,8.00e-02,
797,5.20e-03,4.00e-02,
798,-9.60e-03,8.00e-02,
799,1.36e-02,2.00e-02,
800,-1.36e-02,8.00e-02,
801,1.48e-02,2.00e-02,
802,6.80e-03,2.00e-02,
803,-5.20e-03,8.00e-02,
804,-1.20e-03,2.00e-02,
805,2.00e-03,8.00e-02,
806,0.00e+00,6.00e-02,
807,1.60e-03,2.00e-02,
808,0.00e+00,4.00e-02,
809,1.60e-03,2.00e-02,
810,-4.00e-04,4.00e-02,
811,1.20e-03,2.00e-02,
812,2.40e-03,4.00e-02,
813,-4.00e-04,2.00e-02,
814,-2.40e-03,2.00e-02,
815,8.80e-03,1.86e+00,
816,8.40e-03,1.60e-01,
817,-8.00e-04,8.00e-02,
818,0.00e+00,1.00e-01,
819,2.00e-03,6.00e-02,
820,0.00e+00,6.00e-02,
821,2.00e-03,8.00e-02,
822,0.00e+00,6.00e-02,
823,2.40e-03,8.00e-02,
824,-4.00e-04,8.00e-02,
825,2.40e-03,6.00e-02,
826,-1.20e-03,6.00e-02,
827,4.00e-03,8.00e-02,
828,-8.80e-03,6.00e-02,
829,1.36e-02,8.00e-02,
830,-1.40e-02,6.00e-02,
831,1.44e-02,8.00e-02,
832,6.80e-03,8.00e-02,
833,-4.80e-03,4.00e-02,
834,2.40e-03,8.00e-02,
835,-1.20e-03,2.00e-02,
836,-8.00e-04,2.00e-02,
837,2.00e-03,8.00e-02,
838,0.00e+00,8.00e-02,
839,2.40e-03,2.00e-02,
840,1.60e-03,2.00e-02,
841,0.00e+00,8.00e-02,
842,-8.00e-04,2.00e-02,
843,2.40e-03,8.00e-02,
844,-2.80e-03,2.00e-02,
845,8.40e-03,2.10e+00,
846,8.00e-03,1.60e-01,
847,0.00e+00,8.00e-02,
848,0.00e+00,1.00e-01,
849,2.00e-03,6.00e-02,
850,-4.00e-04,1.00e-01,
851,1.60e-03,6.00e-02,
852,0.00e+00,6.00e-02,
853,2.00e-03,8.00e-02,
854,0.00e+00,8.00e-02,
855,2.00e-03,6.00e-02,
856,-1.60e-03,8.00e-02,
