CarrPurc_P1-19_P2-38_tauVary/Gly97/NewFile9.csv

X,CH1,CH2,Start,Increment,
Sequence,Volt,Volt,-6.000000e-04,1.000000e-04
0,4.00e-04,0.00e+00,
1,1.20e-03,4.00e-02,
2,0.00e+00,4.00e-02,
3,1.20e-03,0.00e+00,
4,1.20e-03,4.00e-02,
5,0.00e+00,0.00e+00,
6,8.00e-04,4.00e-02,
7,0.00e+00,0.00e+00,
8,1.20e-03,4.00e-02,
9,0.00e+00,0.00e+00,
10,4.00e-04,2.00e-02,
11,5.20e-03,1.60e+00,
12,5.20e-03,1.60e-01,
13,-2.48e-02,8.00e-02,
14,1.48e-02,1.20e-01,
15,-1.40e-02,8.00e-02,
16,6.40e-03,1.00e-01,
17,-7.20e-03,6.00e-02,
18,-1.60e-03,1.00e-01,
19,4.00e-03,6.00e-02,
20,-1.60e-03,6.00e-02,
21,3.20e-03,1.00e-01,
22,2.80e-03,6.00e-02,
23,-1.20e-03,8.00e-02,
24,-1.20e-03,8.00e-02,
25,2.40e-03,6.00e-02,
26,2.40e-03,6.00e-02,
27,0.00e+00,8.00e-02,
28,-8.00e-04,6.00e-02,
29,1.20e-03,8.00e-02,
30,8.00e-04,6.00e-02,
31,7.60e-03,1.94e+00,
32,6.40e-03,1.60e-01,
33,-6.00e-03,1.20e-01,
34,-6.00e-03,1.20e-01,
35,5.60e-03,8.00e-02,
36,4.00e-03,1.00e-01,
37,-8.00e-04,8.00e-02,
38,0.00e+00,1.00e-01,
39,2.40e-03,6.00e-02,
40,0.00e+00,6.00e-02,
41,2.40e-03,1.00e-01,
42,1.60e-03,6.00e-02,
43,-4.00e-04,8.00e-02,
44,-2.00e-03,6.00e-02,
45,5.20e-03,8.00e-02,
46,8.40e-03,6.00e-02,
47,-8.40e-03,8.00e-02,
48,-1.32e-02,8.00e-02,
49,1.60e-02,6.00e-02,
50,-1.76e-02,6.00e-02,
51,1.96e-02,8.00e-02,
52,-1.60e-02,6.00e-02,
53,1.64e-02,8.00e-02,
54,1.08e-02,8.00e-02,
55,-7.60e-03,4.00e-02,
56,-4.40e-03,8.00e-02,
57,4.80e-03,4.00e-02,
58,2.80e-03,8.00e-02,
59,-8.00e-04,4.00e-02,
60,-4.00e-04,2.00e-02,
61,2.00e-03,8.00e-02,
62,0.00e+00,8.00e-02,
63,2.40e-03,2.00e-02,
64,2.40e-03,8.00e-02,
65,-8.00e-04,2.00e-02,
66,1.20e-03,2.00e-02,
67,-8.00e-04,8.00e-02,
68,1.20e-03,8.00e-02,
69,0.00e+00,2.00e-02,
70,4.00e-04,2.00e-02,
71,6.80e-03,1.88e+00,
72,6.40e-03,1.60e-01,
73,1.20e-03,8.00e-02,
74,3.60e-03,8.00e-02,
75,0.00e+00,1.40e-01,
76,2.00e-03,1.00e-01,
77,-8.00e-04,6.00e-02,
78,2.40e-03,1.00e-01,
79,0.00e+00,6.00e-02,
80,-8.00e-04,1.00e-01,
81,2.00e-03,6.00e-02,
82,2.40e-03,8.00e-02,
83,-1.20e-03,6.00e-02,
84,-2.40e-03,8.00e-02,
85,4.00e-03,6.00e-02,
86,-4.00e-03,6.00e-02,
87,6.80e-03,8.00e-02,
88,9.60e-03,8.00e-02,
89,-1.04e-02,6.00e-02,
90,-1.32e-02,6.00e-02,
91,1.40e-02,8.00e-02,
92,-1.12e-02,6.00e-02,
93,1.00e-02,8.00e-02,
94,6.80e-03,6.00e-02,
95,-5.20e-03,8.00e-02,
96,-2.80e-03,8.00e-02,
97,2.80e-03,2.00e-02,
98,2.40e-03,8.00e-02,
99,-1.20e-03,2.00e-02,
100,-8.00e-04,8.00e-02,
101,2.00e-03,2.00e-02,
102,2.00e-03,8.00e-02,
103,-8.00e-04,2.00e-02,
104,-4.00e-04,2.00e-02,
105,1.60e-03,8.00e-02,
106,-1.20e-03,2.00e-02,
107,2.80e-03,8.00e-02,
108,-2.40e-03,2.00e-02,
109,4.00e-03,8.00e-02,
110,2.80e-03,2.00e-02,
111,7.20e-03,1.98e+00,
112,6.40e-03,1.60e-01,
113,1.20e-03,1.00e-01,
114,3.60e-03,8.00e-02,
115,0.00e+00,1.40e-01,
116,1.20e-03,1.00e-01,
117,-8.00e-04,8.00e-02,
118,2.00e-03,1.00e-01,
119,-8.00e-04,6.00e-02,
120,-4.00e-04,6.00e-02,
121,2.00e-03,8.00e-02,
122,0.00e+00,6.00e-02,
123,2.40e-03,8.00e-02,
124,2.80e-03,6.00e-02,
125,-2.40e-03,8.00e-02,
126,-4.00e-03,8.00e-02,
127,5.60e-03,6.00e-02,
128,8.80e-03,6.00e-02,
129,-8.80e-03,8.00e-02,
130,-1.08e-02,6.00e-02,
131,1.28e-02,8.00e-02,
132,-9.60e-03,6.00e-02,
133,8.40e-03,8.00e-02,
134,6.40e-03,8.00e-02,
135,-4.00e-03,4.00e-02,
136,-2.40e-03,2.00e-02,
137,2.80e-03,8.00e-02,
138,2.00e-03,8.00e-02,
139,-8.00e-04,2.00e-02,
140,2.00e-03,2.00e-02,
141,-1.20e-03,8.00e-02,
142,1.20e-03,8.00e-02,
143,-8.00e-04,2.00e-02,
144,0.00e+00,8.00e-02,
145,2.00e-03,2.00e-02,
146,2.00e-03,8.00e-02,
147,-4.00e-04,2.00e-02,
148,-1.60e-03,8.00e-02,
149,4.00e-03,2.00e-02,
150,3.20e-03,2.00e-02,
151,7.20e-03,1.94e+00,
152,6.40e-03,1.60e-01,
153,0.00e+00,1.00e-01,
154,4.00e-03,1.20e-01,
155,0.00e+00,8.00e-02,
156,0.00e+00,1.00e-01,
157,2.40e-03,6.00e-02,
158,2.40e-03,1.00e-01,
159,-8.00e-04,6.00e-02,
160,-8.00e-04,1.00e-01,
161,2.00e-03,6.00e-02,
162,2.40e-03,6.00e-02,
163,-8.00e-04,8.00e-02,
164,2.80e-03,6.00e-02,
165,-1.20e-03,8.00e-02,
166,-2.40e-03,6.00e-02,
167,4.00e-03,8.00e-02,
168,5.60e-03,6.00e-02,
169,-5.60e-03,8.00e-02,
170,-8.40e-03,8.00e-02,
171,1.04e-02,6.00e-02,
172,-7.20e-03,8.00e-02,
173,8.00e-03,2.00e-02,
174,5.20e-03,4.00e-02,
175,-2.80e-03,8.00e-02,
176,-1.60e-03,8.00e-02,
177,2.40e-03,2.00e-02,
178,2.00e-03,8.00e-02,
179,0.00e+00,2.00e-02,
180,4.00e-04,8.00e-02,
181,1.60e-03,2.00e-02,
182,1.20e-03,8.00e-02,
183,0.00e+00,2.00e-02,
184,0.00e+00,8.00e-02,
185,1.20e-03,2.00e-02,
186,1.20e-03,2.00e-02,
187,-8.00e-04,8.00e-02,
188,-1.20e-03,2.00e-02,
189,3.20e-03,8.00e-02,
190,3.20e-03,2.00e-02,
191,8.00e-03,1.86e+00,
192,6.80e-03,1.60e-01,
193,8.00e-04,8.00e-02,
194,3.60e-03,8.00e-02,
195,0.00e+00,1.40e-01,
196,1.60e-03,1.00e-01,
197,0.00e+00,8.00e-02,
198,2.00e-03,1.00e-01,
199,-4.00e-04,6.00e-02,
200,0.00e+00,6.00e-02,
201,1.60e-03,8.00e-02,
202,2.00e-03,6.00e-02,
203,-4.00e-04,8.00e-02,
204,-1.60e-03,6.00e-02,
205,2.80e-03,8.00e-02,
206,-2.80e-03,6.00e-02,
207,4.40e-03,8.00e-02,
208,5.60e-03,8.00e-02,
209,-5.60e-03,6.00e-02,
210,-7.20e-03,6.00e-02,
211,8.80e-03,8.00e-02,
212,-6.00e-03,6.00e-02,
213,6.00e-03,8.00e-02,
214,3.60e-03,8.00e-02,
215,-2.40e-03,2.00e-02,
216,-8.00e-04,8.00e-02,
217,2.40e-03,2.00e-02,
218,0.00e+00,8.00e-02,
219,2.00e-03,2.00e-02,
220,0.00e+00,8.00e-02,
221,2.00e-03,2.00e-02,
222,2.00e-03,2.00e-02,
223,-4.00e-04,8.00e-02,
224,0.00e+00,8.00e-02,
225,1.20e-03,2.00e-02,
226,-8.00e-04,8.00e-02,
227,1.60e-03,2.00e-02,
228,-2.00e-03,2.00e-02,
229,3.20e-03,8.00e-02,
230,2.80e-03,-6.00e-02,
231,7.20e-03,1.80e+00,
232,6.40e-03,1.60e-01,
233,8.00e-04,1.20e-01,
234,4.00e-03,1.40e-01,
235,4.00e-04,8.00e-02,
236,0.00e+00,1.00e-01,
237,2.40e-03,8.00e-02,
238,2.40e-03,1.00e-01,
239,-8.00e-04,6.00e-02,
240,2.40e-03,1.00e-01,
241,0.00e+00,6.00e-02,
242,0.00e+00,6.00e-02,
243,2.00e-03,8.00e-02,
244,-1.20e-03,6.00e-02,
245,2.40e-03,8.00e-02,
246,-1.60e-03,6.00e-02,
247,4.00e-03,8.00e-02,
248,5.20e-03,8.00e-02,
249,-5.20e-03,6.00e-02,
250,7.60e-03,8.00e-02,
251,-6.00e-03,6.00e-02,
252,-4.80e-03,8.00e-02,
253,5.60e-03,4.00e-02,
254,4.00e-03,8.00e-02,
255,-1.60e-03,4.00e-02,
256,-1.60e-03,8.00e-02,
257,2.00e-03,2.00e-02,
258,2.00e-03,2.00e-02,
259,0.00e+00,8.00e-02,
260,2.00e-03,8.00e-02,
261,-8.00e-04,2.00e-02,
262,2.00e-03,2.00e-02,
263,-8.00e-04,8.00e-02,
264,-8.00e-04,2.00e-02,
265,1.20e-03,8.00e-02,
266,-8.00e-04,2.00e-02,
267,2.00e-03,8.00e-02,
268,-1.60e-03,6.00e-02,
269,3.60e-03,2.00e-02,
270,3.20e-03,2.00e-02,
271,7.60e-03,2.00e+00,
272,6.40e-03,1.60e-01,
273,1.20e-03,8.00e-02,
274,4.00e-03,1.20e-01,
275,0.00e+00,8.00e-02,
276,2.00e-03,1.00e-01,
277,-8.00e-04,6.00e-02,
278,0.00e+00,6.00e-02,
279,2.80e-03,1.00e-01,
280,-8.00e-04,8.00e-02,
281,2.00e-03,6.00e-02,
282,0.00e+00,6.00e-02,
283,2.00e-03,8.00e-02,
284,2.40e-03,6.00e-02,
285,-8.00e-04,8.00e-02,
286,-1.20e-03,6.00e-02,
287,3.60e-03,8.00e-02,
288,4.00e-03,8.00e-02,
289,-4.00e-03,4.00e-02,
290,-6.00e-03,6.00e-02,
291,7.20e-03,8.00e-02,
292,-4.00e-03,8.00e-02,
293,4.80e-03,2.00e-02,
294,3.60e-03,2.00e-02,
295,-1.60e-03,8.00e-02,
296,-1.20e-03,8.00e-02,
297,2.00e-03,2.00e-02,
298,1.20e-03,8.00e-02,
299,0.00e+00,2.00e-02,
300,1.20e-03,8.00e-02,
301,0.00e+00,2.00e-02,
302,1.20e-03,2.00e-02,
303,0.00e+00,8.00e-02,
304,0.00e+00,2.00e-02,
305,1.60e-03,8.00e-02,
306,2.00e-03,2.00e-02,
307,-8.00e-04,8.00e-02,
308,-1.60e-03,2.00e-02,
309,2.80e-03,8.00e-02,
310,3.20e-03,2.00e-02,
311,7.20e-03,2.00e+00,
312,6.40e-03,1.60e-01,
313,8.00e-04,1.20e-01,
314,4.00e-03,8.00e-02,
315,-8.00e-04,1.20e-01,
316,2.40e-03,1.00e-01,
317,-8.00e-04,8.00e-02,
318,2.40e-03,1.00e-01,
319,-8.00e-04,6.00e-02,
320,-4.00e-04,6.00e-02,
321,2.00e-03,1.00e-01,
322,1.60e-03,6.00e-02,
323,0.00e+00,8.00e-02,
324,-8.00e-04,8.00e-02,
325,2.00e-03,6.00e-02,
326,-1.20e-03,6.00e-02,
327,2.80e-03,8.00e-02,
328,4.80e-03,6.00e-02,
329,-3.60e-03,8.00e-02,
330,-4.40e-03,6.00e-02,
331,6.80e-03,8.00e-02,
332,-3.20e-03,8.00e-02,
333,4.40e-03,6.00e-02,
334,2.80e-03,8.00e-02,
335,-8.00e-04,2.00e-02,
336,-8.00e-04,8.00e-02,
337,2.40e-03,4.00e-02,
338,1.60e-03,8.00e-02,
339,0.00e+00,4.00e-02,
340,0.00e+00,8.00e-02,
341,1.20e-03,2.00e-02,
342,-4.00e-04,8.00e-02,
343,1.60e-03,2.00e-02,
344,2.00e-03,8.00e-02,
345,-8.00e-04,2.00e-02,
346,2.00e-03,8.00e-02,
347,-1.20e-03,2.00e-02,
348,-2.40e-03,2.00e-02,
349,3.60e-03,8.00e-02,
350,3.20e-03,2.00e-02,
351,7.60e-03,1.74e+00,
352,6.80e-03,1.60e-01,
353,4.00e-04,1.20e-01,
354,4.80e-03,1.40e-01,
355,-8.00e-04,8.00e-02,
356,-8.00e-04,1.00e-01,
357,2.00e-03,6.00e-02,
358,2.40e-03,1.00e-01,
359,0.00e+00,6.00e-02,
360,0.00e+00,1.00e-01,
361,2.00e-03,6.00e-02,
362,-8.00e-04,6.00e-02,
363,1.60e-03,8.00e-02,
364,0.00e+00,8.00e-02,
365,2.40e-03,6.00e-02,
366,3.20e-03,6.00e-02,
367,-1.20e-03,8.00e-02,
368,2.80e-03,8.00e-02,
369,-2.80e-03,2.00e-02,
370,5.20e-03,8.00e-02,
371,-4.00e-03,2.00e-02,
372,-3.20e-03,8.00e-02,
373,3.60e-03,4.00e-02,
374,2.80e-03,8.00e-02,
375,-1.20e-03,2.00e-02,
376,-8.00e-04,8.00e-02,
377,2.00e-03,2.00e-02,
378,2.00e-03,8.00e-02,
379,-4.00e-04,2.00e-02,
380,-4.00e-04,8.00e-02,
381,1.60e-03,2.00e-02,
382,2.00e-03,2.00e-02,
383,-8.00e-04,8.00e-02,
384,-8.00e-04,8.00e-02,
385,1.60e-03,2.00e-02,
386,2.40e-03,8.00e-02,
387,-1.20e-03,2.00e-02,
388,2.80e-03,2.00e-02,
389,-2.40e-03,8.00e-02,
390,3.20e-03,2.00e-02,
391,7.20e-03,1.90e+00,
392,6.40e-03,1.60e-01,
393,8.00e-04,1.00e-01,
394,4.40e-03,1.20e-01,
395,-1.20e-03,8.00e-02,
396,-1.20e-03,1.00e-01,
397,2.00e-03,6.00e-02,
398,2.00e-03,1.00e-01,
399,-1.20e-03,6.00e-02,
400,-8.00e-04,6.00e-02,
401,2.00e-03,8.00e-02,
402,1.20e-03,8.00e-02,
403,0.00e+00,6.00e-02,
404,1.20e-03,6.00e-02,
405,-4.00e-04,8.00e-02,
406,-4.00e-04,6.00e-02,
407,2.40e-03,8.00e-02,
408,2.80e-03,6.00e-02,
409,-2.40e-03,8.00e-02,
410,4.80e-03,6.00e-02,
411,-2.80e-03,8.00e-02,
412,-3.60e-03,8.00e-02,
413,4.00e-03,4.00e-02,
414,2.80e-03,8.00e-02,
415,-8.00e-04,2.00e-02,
416,-8.00e-04,2.00e-02,
417,2.00e-03,8.00e-02,
418,2.00e-03,8.00e-02,
419,4.00e-04,2.00e-02,
420,0.00e+00,2.00e-02,
421,1.20e-03,8.00e-02,
422,0.00e+00,2.00e-02,
423,2.40e-03,8.00e-02,
424,-8.00e-04,8.00e-02,
425,2.00e-03,2.00e-02,
426,2.80e-03,8.00e-02,
427,-8.00e-04,2.00e-02,
428,3.60e-03,8.00e-02,
429,-2.80e-03,2.00e-02,
430,2.80e-03,2.00e-02,
431,8.00e-03,1.88e+00,
432,6.80e-03,1.60e-01,
433,8.00e-04,1.20e-01,
434,5.20e-03,1.20e-01,
435,-8.00e-04,8.00e-02,
436,2.40e-03,1.00e-01,
437,-1.20e-03,8.00e-02,
438,2.00e-03,1.00e-01,
439,-8.00e-04,6.00e-02,
440,0.00e+00,6.00e-02,
441,2.00e-03,1.00e-01,
442,2.00e-03,6.00e-02,
443,-4.00e-04,8.00e-02,
444,-8.00e-04,8.00e-02,
445,1.60e-03,6.00e-02,
446,-1.20e-03,6.00e-02,
447,2.40e-03,8.00e-02,
448,3.60e-03,6.00e-02,
449,-1.60e-03,8.00e-02,
450,4.00e-03,6.00e-02,
451,-2.80e-03,8.00e-02,
452,-2.40e-03,8.00e-02,
453,2.80e-03,4.00e-02,
454,2.40e-03,6.00e-02,
455,-8.00e-04,8.00e-02,
456,0.00e+00,8.00e-02,
457,2.00e-03,2.00e-02,
458,0.00e+00,8.00e-02,
459,1.20e-03,2.00e-02,
460,0.00e+00,8.00e-02,
461,2.00e-03,2.00e-02,
462,1.20e-03,2.00e-02,
463,-4.00e-04,8.00e-02,
464,0.00e+00,2.00e-02,
465,2.40e-03,8.00e-02,
466,-8.00e-04,2.00e-02,
467,2.40e-03,8.00e-02,
468,3.60e-03,8.00e-02,
469,-2.80e-03,2.00e-02,
470,2.80e-03,2.00e-02,
471,7.20e-03,1.92e+00,
472,6.40e-03,1.60e-01,
473,4.00e-04,1.20e-01,
474,5.20e-03,1.20e-01,
475,-8.00e-04,8.00e-02,
476,-8.00e-04,1.00e-01,
477,2.40e-03,8.00e-02,
478,2.40e-03,1.00e-01,
479,-8.00e-04,6.00e-02,
480,-8.00e-04,6.00e-02,
481,2.00e-03,1.00e-01,
482,1.20e-03,6.00e-02,
483,-4.00e-04,8.00e-02,
484,0.00e+00,8.00e-02,
485,1.20e-03,6.00e-02,
486,-8.00e-04,6.00e-02,
487,2.40e-03,8.00e-02,
488,2.40e-03,8.00e-02,
489,-1.60e-03,6.00e-02,
490,3.60e-03,6.00e-02,
491,-2.40e-03,8.00e-02,
492,-1.60e-03,8.00e-02,
493,2.80e-03,4.00e-02,
494,2.00e-03,4.00e-02,
495,-8.00e-04,8.00e-02,
496,-8.00e-04,8.00e-02,
497,1.60e-03,2.00e-02,
498,4.00e-04,8.00e-02,
499,2.00e-03,2.00e-02,
500,0.00e+00,8.00e-02,
501,1.20e-03,2.00e-02,
502,0.00e+00,8.00e-02,
503,2.40e-03,2.00e-02,
504,0.00e+00,2.00e-02,
505,2.40e-03,8.00e-02,
506,2.40e-03,8.00e-02,
507,-1.20e-03,2.00e-02,
508,3.20e-03,2.00e-02,
509,-2.80e-03,8.00e-02,
510,2.80e-03,2.00e+00,
511,7.20e-03,0.00e+00,
512,6.80e-03,1.60e-01,
513,1.20e-03,1.20e-01,
514,5.60e-03,8.00e-02,
515,-8.00e-04,1.40e-01,
516,-8.00e-04,1.00e-01,
517,2.40e-03,8.00e-02,
518,2.40e-03,1.00e-01,
519,-1.20e-03,6.00e-02,
520,-4.00e-04,6.00e-02,
521,2.00e-03,1.00e-01,
522,1.20e-03,6.00e-02,
523,0.00e+00,8.00e-02,
524,1.20e-03,6.00e-02,
525,-8.00e-04,8.00e-02,
526,-8.00e-04,6.00e-02,
527,2.00e-03,8.00e-02,
528,2.40e-03,6.00e-02,
529,-1.20e-03,8.00e-02,
530,-2.40e-03,6.00e-02,
531,3.60e-03,8.00e-02,
532,-1.20e-03,8.00e-02,
533,2.80e-03,6.00e-02,
534,2.40e-03,8.00e-02,
535,-8.00e-04,6.00e-02,
536,-8.00e-04,8.00e-02,
537,1.20e-03,4.00e-02,
538,1.20e-03,8.00e-02,
539,0.00e+00,2.00e-02,
540,8.00e-04,8.00e-02,
541,-4.00e-04,2.00e-02,
542,2.00e-03,8.00e-02,
543,-4.00e-04,2.00e-02,
544,-1.20e-03,8.00e-02,
545,1.20e-03,2.00e-02,
546,2.40e-03,8.00e-02,
547,-1.60e-03,2.00e-02,
548,3.60e-03,8.00e-02,
549,-3.20e-03,2.00e-02,
550,3.20e-03,2.00e+00,
551,7.60e-03,-2.00e-02,
552,6.40e-03,1.60e-01,
553,1.20e-03,1.00e-01,
554,5.20e-03,8.00e-02,
555,-1.60e-03,1.40e-01,
556,-8.00e-04,8.00e-02,
557,2.40e-03,1.00e-01,
558,2.40e-03,1.00e-01,
559,-8.00e-04,6.00e-02,
560,0.00e+00,6.00e-02,
561,2.00e-03,1.00e-01,
562,1.60e-03,6.00e-02,
563,0.00e+00,8.00e-02,
564,0.00e+00,6.00e-02,
565,2.00e-03,8.00e-02,
566,2.00e-03,6.00e-02,
567,-8.00e-04,8.00e-02,
568,-8.00e-04,6.00e-02,
569,2.40e-03,8.00e-02,
570,3.20e-03,8.00e-02,
571,-1.60e-03,6.00e-02,
572,-1.60e-03,6.00e-02,
573,2.40e-03,8.00e-02,
574,2.40e-03,8.00e-02,
575,0.00e+00,4.00e-02,
576,1.20e-03,8.00e-02,
577,-8.00e-04,2.00e-02,
578,0.00e+00,8.00e-02,
579,1.60e-03,2.00e-02,
580,0.00e+00,8.00e-02,
581,1.20e-03,2.00e-02,
582,2.00e-03,8.00e-02,
583,0.00e+00,2.00e-02,
584,2.00e-03,8.00e-02,
585,-1.20e-03,2.00e-02,
586,-1.60e-03,8.00e-02,
587,2.40e-03,2.00e-02,
588,3.60e-03,8.00e-02,
589,-2.80e-03,2.00e-02,
590,2.40e-03,2.00e-02,
591,7.20e-03,1.88e+00,
592,6.40e-03,1.60e-01,
593,4.00e-04,1.20e-01,
594,5.20e-03,1.40e-01,
595,-1.20e-03,8.00e-02,
596,-1.20e-03,1.00e-01,
597,2.40e-03,6.00e-02,
598,2.40e-03,1.00e-01,
599,-8.00e-04,6.00e-02,
600,0.00e+00,6.00e-02,
601,2.00e-03,1.00e-01,
602,1.20e-03,8.00e-02,
603,0.00e+00,6.00e-02,
604,1.20e-03,6.00e-02,
605,-4.00e-04,8.00e-02,
606,1.20e-03,6.00e-02,
607,0.00e+00,8.00e-02,
608,2.00e-03,6.00e-02,
609,-1.60e-03,8.00e-02,
610,2.80e-03,6.00e-02,
611,-1.60e-03,8.00e-02,
612,-8.00e-04,8.00e-02,
613,2.40e-03,4.00e-02,
614,2.40e-03,8.00e-02,
615,4.00e-04,2.00e-02,
616,0.00e+00,8.00e-02,
617,1.60e-03,2.00e-02,
618,1.20e-03,8.00e-02,
619,0.00e+00,2.00e-02,
620,1.20e-03,8.00e-02,
621,-4.00e-04,2.00e-02,
622,0.00e+00,8.00e-02,
623,2.00e-03,2.00e-02,
624,2.00e-03,8.00e-02,
625,-1.20e-03,2.00e-02,
626,2.40e-03,2.00e-02,
627,-1.20e-03,8.00e-02,
628,3.60e-03,2.00e-02,
629,-3.20e-03,8.00e-02,
630,1.60e-03,2.00e-02,
631,7.20e-03,1.92e+00,
632,6.80e-03,1.60e-01,
633,8.00e-04,1.20e-01,
634,5.60e-03,1.20e-01,
635,-1.20e-03,8.00e-02,
636,-1.60e-03,1.00e-01,
637,2.40e-03,6.00e-02,
638,2.40e-03,1.00e-01,
639,-8.00e-04,6.00e-02,
640,-8.00e-04,6.00e-02,
641,1.20e-03,1.00e-01,
642,1.20e-03,6.00e-02,
643,0.00e+00,8.00e-02,
644,0.00e+00,6.00e-02,
645,1.20e-03,8.00e-02,
646,0.00e+00,6.00e-02,
647,1.60e-03,8.00e-02,
648,0.00e+00,6.00e-02,
649,2.00e-03,8.00e-02,
650,-1.20e-03,6.00e-02,
651,3.20e-03,8.00e-02,
652,-8.00e-04,6.00e-02,
653,2.40e-03,8.00e-02,
654,2.00e-03,8.00e-02,
655,0.00e+00,2.00e-02,
656,0.00e+00,8.00e-02,
657,2.00e-03,4.00e-02,
658,1.20e-03,2.00e-02,
659,0.00e+00,8.00e-02,
660,0.00e+00,8.00e-02,
661,1.20e-03,2.00e-02,
662,1.60e-03,8.00e-02,
663,-8.00e-04,2.00e-02,
664,1.60e-03,2.00e-02,
665,-1.20e-03,8.00e-02,
666,2.40e-03,8.00e-02,
667,-1.20e-03,2.00e-02,
668,4.00e-03,8.00e-02,
669,-3.60e-03,2.00e-02,
670,2.00e-03,-8.00e-02,
671,7.20e-03,1.96e+00,
672,6.40e-03,1.60e-01,
673,4.00e-04,1.20e-01,
674,5.60e-03,1.20e-01,
675,-1.60e-03,8.00e-02,
676,3.20e-03,8.00e-02,
677,-1.20e-03,1.00e-01,
678,4.00e-04,1.00e-01,
679,2.40e-03,6.00e-02,
680,1.20e-03,1.00e-01,
681,-8.00e-04,6.00e-02,
682,2.00e-03,8.00e-02,
683,0.00e+00,6.00e-02,
684,0.00e+00,6.00e-02,
685,1.60e-03,8.00e-02,
686,0.00e+00,6.00e-02,
687,2.00e-03,8.00e-02,
688,2.40e-03,6.00e-02,
689,-8.00e-04,8.00e-02,
690,-1.20e-03,6.00e-02,
691,2.80e-03,8.00e-02,
692,-1.20e-03,6.00e-02,
693,2.40e-03,8.00e-02,
694,1.60e-03,8.00e-02,
695,0.00e+00,4.00e-02,
696,0.00e+00,8.00e-02,
697,2.00e-03,4.00e-02,
698,2.00e-03,8.00e-02,
699,4.00e-04,4.00e-02,
700,0.00e+00,8.00e-02,
701,1.20e-03,2.00e-02,
702,-8.00e-04,8.00e-02,
703,2.00e-03,2.00e-02,
704,0.00e+00,8.00e-02,
705,2.00e-03,2.00e-02,
706,-1.60e-03,2.00e-02,
707,3.20e-03,8.00e-02,
708,4.00e-03,2.00e-02,
709,-3.60e-03,8.00e-02,
710,2.00e-03,2.00e-02,
711,7.60e-03,2.00e+00,
712,6.40e-03,1.60e-01,
713,4.00e-04,1.20e-01,
714,5.60e-03,1.20e-01,
715,-1.20e-03,8.00e-02,
716,-1.20e-03,1.00e-01,
717,2.40e-03,8.00e-02,
718,2.40e-03,1.00e-01,
719,-8.00e-04,6.00e-02,
720,0.00e+00,6.00e-02,
721,2.00e-03,1.00e-01,
722,0.00e+00,8.00e-02,
723,2.00e-03,6.00e-02,
724,0.00e+00,6.00e-02,
725,1.20e-03,8.00e-02,
726,1.20e-03,6.00e-02,
727,0.00e+00,8.00e-02,
728,2.00e-03,6.00e-02,
729,-8.00e-04,8.00e-02,
730,-8.00e-04,8.00e-02,
731,2.80e-03,4.00e-02,
732,-8.00e-04,8.00e-02,
733,1.20e-03,2.00e-02,
734,1.20e-03,8.00e-02,
735,0.00e+00,2.00e-02,
736,4.00e-04,8.00e-02,
737,1.60e-03,2.00e-02,
738,2.00e-03,8.00e-02,
739,-4.00e-04,2.00e-02,
740,1.20e-03,8.00e-02,
741,-8.00e-04,2.00e-02,
742,-8.00e-04,2.00e-02,
743,2.00e-03,8.00e-02,
744,1.60e-03,2.00e-02,
745,-1.20e-03,8.00e-02,
746,-1.60e-03,2.00e-02,
747,2.80e-03,8.00e-02,
748,4.00e-03,2.00e-02,
749,-3.60e-03,8.00e-02,
750,1.20e-03,2.00e-02,
751,7.20e-03,1.88e+00,
752,6.40e-03,1.60e-01,
753,0.00e+00,1.00e-01,
754,5.60e-03,1.40e-01,
755,-1.20e-03,8.00e-02,
756,-8.00e-04,1.00e-01,
757,2.80e-03,6.00e-02,
758,2.40e-03,6.00e-02,
759,-8.00e-04,1.00e-01,
760,0.00e+00,6.00e-02,
761,2.00e-03,1.00e-01,
762,4.00e-04,8.00e-02,
763,2.00e-03,6.00e-02,
764,-8.00e-04,6.00e-02,
765,1.20e-03,8.00e-02,
766,1.20e-03,6.00e-02,
767,0.00e+00,8.00e-02,
768,1.20e-03,6.00e-02,
769,-8.00e-04,8.00e-02,
770,2.00e-03,8.00e-02,
771,-8.00e-04,6.00e-02,
772,-8.00e-04,8.00e-02,
773,1.60e-03,2.00e-02,
774,1.20e-03,8.00e-02,
775,0.00e+00,4.00e-02,
776,1.20e-03,8.00e-02,
777,0.00e+00,2.00e-02,
778,4.00e-04,2.00e-02,
779,1.20e-03,8.00e-02,
780,1.20e-03,2.00e-02,
781,0.00e+00,8.00e-02,
782,-4.00e-04,8.00e-02,
783,2.40e-03,2.00e-02,
784,2.40e-03,8.00e-02,
785,-8.00e-04,2.00e-02,
786,-2.40e-03,2.00e-02,
787,2.40e-03,8.00e-02,
788,4.00e-03,2.00e-02,
789,-3.20e-03,8.00e-02,
790,1.60e-03,2.00e-02,
791,8.00e-03,1.92e+00,
792,6.80e-03,1.60e-01,
793,8.00e-04,1.20e-01,
794,4.80e-03,8.00e-02,
795,-8.00e-04,1.40e-01,
796,-1.60e-03,1.00e-01,
797,3.20e-03,6.00e-02,
798,2.40e-03,1.00e-01,
799,-8.00e-04,6.00e-02,
800,2.00e-03,1.00e-01,
801,-8.00e-04,6.00e-02,
802,0.00e+00,6.00e-02,
803,8.00e-04,8.00e-02,
804,-8.00e-04,6.00e-02,
805,1.20e-03,8.00e-02,
806,-8.00e-04,8.00e-02,
807,1.20e-03,6.00e-02,
808,-8.00e-04,8.00e-02,
809,2.00e-03,6.00e-02,
810,2.40e-03,8.00e-02,
811,0.00e+00,4.00e-02,
812,-8.00e-04,6.00e-02,
813,1.20e-03,8.00e-02,
814,0.00e+00,8.00e-02,
815,2.00e-03,4.00e-02,
816,0.00e+00,8.00e-02,
817,1.20e-03,2.00e-02,
818,1.20e-03,8.00e-02,
819,0.00e+00,2.00e-02,
820,1.20e-03,2.00e-02,
821,-4.00e-04,8.00e-02,
822,-8.00e-04,2.00e-02,
823,1.60e-03,8.00e-02,
824,-1.20e-03,2.00e-02,
825,2.40e-03,8.00e-02,
826,-1.60e-03,2.00e-02,
827,3.20e-03,8.00e-02,
828,4.00e-03,2.00e-02,
829,-4.40e-03,8.00e-02,
830,1.20e-03,2.00e-02,
831,7.20e-03,1.94e+00,
832,6.40e-03,1.60e-01,
833,8.00e-04,1.20e-01,
834,6.40e-03,1.40e-01,
835,-1.20e-03,8.00e-02,
836,-1.20e-03,1.00e-01,
837,2.40e-03,6.00e-02,
838,2.40e-03,6.00e-02,
839,-8.00e-04,1.00e-01,
840,0.00e+00,6.00e-02,
841,2.00e-03,1.00e-01,
842,1.20e-03,8.00e-02,
843,0.00e+00,6.00e-02,
844,0.00e+00,6.00e-02,
845,1.20e-03,8.00e-02,
846,0.00e+00,8.00e-02,
847,2.00e-03,6.00e-02,
848,1.20e-03,6.00e-02,
849,-8.00e-04,8.00e-02,
850,-1.20e-03,8.00e-02,
851,2.00e-03,2.00e-02,
852,2.40e-03,4.00e-02,
853,0.00e+00,8.00e-02,
854,1.20e-03,8.00e-02,
855,0.00e+00,2.00e-02,
856,1.20e-03,8.00e-02,
857,0.00e+00,2.00e-02,
858,1.20e-03,8.00e-02,
