CarrPurc_P1-19_P2-38_tauVary/Gly97/NewFile6.csv

X,CH1,CH2,Start,Increment,
Sequence,Volt,Volt,-6.000000e-04,1.000000e-04
0,1.20e-03,4.00e-02,
1,0.00e+00,2.00e-02,
2,1.20e-03,4.00e-02,
3,0.00e+00,2.00e-02,
4,0.00e+00,4.00e-02,
5,1.20e-03,2.00e-02,
6,8.00e-04,2.00e-02,
7,2.00e-03,4.00e-02,
8,1.20e-03,4.00e-02,
9,0.00e+00,2.00e-02,
10,4.00e-04,2.00e-02,
11,5.20e-03,1.92e+00,
12,5.20e-03,1.60e-01,
13,-2.56e-02,1.00e-01,
14,-1.28e-02,1.20e-01,
15,1.40e-02,8.00e-02,
16,-7.20e-03,1.00e-01,
17,6.80e-03,6.00e-02,
18,-1.60e-03,1.00e-01,
19,3.60e-03,6.00e-02,
20,-1.60e-03,6.00e-02,
21,3.20e-03,1.00e-01,
22,2.40e-03,6.00e-02,
23,-1.60e-03,8.00e-02,
24,-1.20e-03,8.00e-02,
25,2.40e-03,6.00e-02,
26,2.00e-03,6.00e-02,
27,-8.00e-04,8.00e-02,
28,-8.00e-04,6.00e-02,
29,2.40e-03,8.00e-02,
30,1.60e-03,1.94e+00,
31,7.60e-03,2.00e-02,
32,6.40e-03,1.60e-01,
33,-6.00e-03,1.20e-01,
34,-6.00e-03,1.20e-01,
35,5.60e-03,8.00e-02,
36,3.60e-03,1.00e-01,
37,-1.20e-03,8.00e-02,
38,0.00e+00,1.00e-01,
39,2.00e-03,6.00e-02,
40,2.00e-03,6.00e-02,
41,-1.20e-03,1.00e-01,
42,2.00e-03,6.00e-02,
43,-1.20e-03,8.00e-02,
44,-2.40e-03,6.00e-02,
45,5.20e-03,8.00e-02,
46,8.40e-03,6.00e-02,
47,-8.00e-03,8.00e-02,
48,-1.32e-02,8.00e-02,
49,1.56e-02,6.00e-02,
50,-1.84e-02,6.00e-02,
51,2.00e-02,8.00e-02,
52,-1.72e-02,6.00e-02,
53,1.56e-02,8.00e-02,
54,1.08e-02,6.00e-02,
55,-7.20e-03,8.00e-02,
56,-4.40e-03,6.00e-02,
57,4.80e-03,8.00e-02,
58,2.40e-03,8.00e-02,
59,-8.00e-04,4.00e-02,
60,0.00e+00,8.00e-02,
61,2.00e-03,4.00e-02,
62,-1.20e-03,8.00e-02,
63,1.60e-03,2.00e-02,
64,0.00e+00,8.00e-02,
65,2.80e-03,2.00e-02,
66,1.20e-03,8.00e-02,
67,-8.00e-04,4.00e-02,
68,0.00e+00,8.00e-02,
69,1.20e-03,2.00e-02,
70,4.00e-04,2.00e-02,
71,6.80e-03,2.00e+00,
72,6.40e-03,1.60e-01,
73,1.20e-03,1.20e-01,
74,2.80e-03,1.40e-01,
75,0.00e+00,8.00e-02,
76,2.00e-03,1.00e-01,
77,-4.00e-04,8.00e-02,
78,-8.00e-04,1.00e-01,
79,2.00e-03,6.00e-02,
80,1.20e-03,6.00e-02,
81,-8.00e-04,1.00e-01,
82,2.00e-03,8.00e-02,
83,-8.00e-04,6.00e-02,
84,-2.80e-03,8.00e-02,
85,4.00e-03,6.00e-02,
86,-4.00e-03,6.00e-02,
87,6.00e-03,8.00e-02,
88,1.00e-02,8.00e-02,
89,-1.08e-02,6.00e-02,
90,1.40e-02,6.00e-02,
91,-1.32e-02,8.00e-02,
92,-1.20e-02,6.00e-02,
93,9.60e-03,8.00e-02,
94,6.80e-03,6.00e-02,
95,-4.40e-03,8.00e-02,
96,-2.40e-03,6.00e-02,
97,2.80e-03,8.00e-02,
98,2.00e-03,8.00e-02,
99,-8.00e-04,4.00e-02,
100,-8.00e-04,8.00e-02,
101,2.00e-03,4.00e-02,
102,2.00e-03,8.00e-02,
103,-4.00e-04,2.00e-02,
104,-1.20e-03,8.00e-02,
105,1.60e-03,2.00e-02,
106,2.40e-03,2.00e-02,
107,-1.60e-03,8.00e-02,
108,-2.40e-03,8.00e-02,
109,4.80e-03,2.00e-02,
110,2.00e-03,2.00e-02,
111,7.20e-03,1.74e+00,
112,6.80e-03,1.60e-01,
113,1.20e-03,1.20e-01,
114,2.40e-03,1.40e-01,
115,0.00e+00,8.00e-02,
116,1.20e-03,1.00e-01,
117,0.00e+00,8.00e-02,
118,0.00e+00,1.00e-01,
119,2.40e-03,6.00e-02,
120,2.00e-03,6.00e-02,
121,0.00e+00,1.00e-01,
122,-4.00e-04,6.00e-02,
123,2.40e-03,8.00e-02,
124,3.20e-03,6.00e-02,
125,-2.40e-03,8.00e-02,
126,-4.00e-03,8.00e-02,
127,5.60e-03,6.00e-02,
128,8.80e-03,6.00e-02,
129,-9.60e-03,8.00e-02,
130,-1.28e-02,6.00e-02,
131,1.24e-02,8.00e-02,
132,-9.60e-03,6.00e-02,
133,8.80e-03,8.00e-02,
134,6.40e-03,8.00e-02,
135,-4.40e-03,4.00e-02,
136,-2.40e-03,8.00e-02,
137,3.60e-03,4.00e-02,
138,2.40e-03,8.00e-02,
139,-4.00e-04,4.00e-02,
140,-4.00e-04,8.00e-02,
141,2.00e-03,2.00e-02,
142,2.00e-03,8.00e-02,
143,-8.00e-04,2.00e-02,
144,-8.00e-04,8.00e-02,
145,2.00e-03,2.00e-02,
146,2.00e-03,8.00e-02,
147,-1.20e-03,2.00e-02,
148,-1.60e-03,8.00e-02,
149,3.60e-03,2.00e-02,
150,2.00e-03,2.00e-02,
151,7.20e-03,1.92e+00,
152,6.40e-03,1.60e-01,
153,0.00e+00,1.20e-01,
154,3.20e-03,8.00e-02,
155,0.00e+00,1.40e-01,
156,1.60e-03,8.00e-02,
157,-4.00e-04,1.00e-01,
158,-8.00e-04,1.00e-01,
159,2.40e-03,6.00e-02,
160,-8.00e-04,1.00e-01,
161,2.80e-03,6.00e-02,
162,2.40e-03,6.00e-02,
163,0.00e+00,8.00e-02,
164,-1.20e-03,6.00e-02,
165,2.80e-03,8.00e-02,
166,-2.80e-03,6.00e-02,
167,4.40e-03,8.00e-02,
168,6.40e-03,6.00e-02,
169,-6.80e-03,8.00e-02,
170,-9.60e-03,8.00e-02,
171,1.04e-02,6.00e-02,
172,-8.40e-03,6.00e-02,
173,8.00e-03,8.00e-02,
174,5.20e-03,6.00e-02,
175,-3.20e-03,8.00e-02,
176,-1.60e-03,8.00e-02,
177,2.80e-03,6.00e-02,
178,2.00e-03,8.00e-02,
179,0.00e+00,4.00e-02,
180,1.20e-03,8.00e-02,
181,0.00e+00,2.00e-02,
182,1.20e-03,8.00e-02,
183,0.00e+00,2.00e-02,
184,0.00e+00,8.00e-02,
185,1.20e-03,4.00e-02,
186,-8.00e-04,8.00e-02,
187,1.60e-03,4.00e-02,
188,-1.60e-03,8.00e-02,
189,2.80e-03,2.00e-02,
190,2.00e-03,4.00e-02,
191,7.20e-03,1.90e+00,
192,6.40e-03,1.60e-01,
193,4.00e-04,1.20e-01,
194,3.60e-03,1.40e-01,
195,0.00e+00,8.00e-02,
196,0.00e+00,1.00e-01,
197,2.00e-03,8.00e-02,
198,2.00e-03,1.00e-01,
199,-8.00e-04,6.00e-02,
200,-8.00e-04,6.00e-02,
201,1.20e-03,1.00e-01,
202,1.20e-03,6.00e-02,
203,-8.00e-04,8.00e-02,
204,-1.60e-03,6.00e-02,
205,2.80e-03,8.00e-02,
206,-2.80e-03,6.00e-02,
207,4.40e-03,8.00e-02,
208,6.40e-03,8.00e-02,
209,-5.60e-03,6.00e-02,
210,-7.60e-03,6.00e-02,
211,9.60e-03,8.00e-02,
212,-6.80e-03,6.00e-02,
213,6.40e-03,8.00e-02,
214,4.00e-03,6.00e-02,
215,-2.80e-03,8.00e-02,
216,-1.20e-03,6.00e-02,
217,2.40e-03,8.00e-02,
218,1.60e-03,8.00e-02,
219,-8.00e-04,6.00e-02,
220,-8.00e-04,6.00e-02,
221,1.20e-03,8.00e-02,
222,1.20e-03,8.00e-02,
223,-8.00e-04,4.00e-02,
224,0.00e+00,6.00e-02,
225,2.00e-03,8.00e-02,
226,1.60e-03,8.00e-02,
227,-8.00e-04,2.00e-02,
228,-1.60e-03,8.00e-02,
229,2.80e-03,4.00e-02,
230,2.80e-03,4.00e-02,
231,7.20e-03,1.82e+00,
232,6.40e-03,1.60e-01,
233,8.00e-04,1.20e-01,
234,3.60e-03,1.40e-01,
235,-4.00e-04,8.00e-02,
236,0.00e+00,1.00e-01,
237,2.00e-03,8.00e-02,
238,2.00e-03,1.00e-01,
239,-4.00e-04,6.00e-02,
240,-8.00e-04,1.00e-01,
241,1.20e-03,6.00e-02,
242,0.00e+00,6.00e-02,
243,2.00e-03,1.00e-01,
244,2.40e-03,6.00e-02,
245,-1.20e-03,8.00e-02,
246,3.60e-03,6.00e-02,
247,-2.40e-03,8.00e-02,
248,5.20e-03,8.00e-02,
249,-6.00e-03,6.00e-02,
250,-7.20e-03,8.00e-02,
251,8.00e-03,6.00e-02,
252,-6.00e-03,6.00e-02,
253,5.20e-03,8.00e-02,
254,4.00e-03,8.00e-02,
255,-3.20e-03,6.00e-02,
256,-1.60e-03,8.00e-02,
257,2.40e-03,6.00e-02,
258,2.00e-03,6.00e-02,
259,0.00e+00,8.00e-02,
260,0.00e+00,8.00e-02,
261,2.00e-03,4.00e-02,
262,1.60e-03,8.00e-02,
263,0.00e+00,6.00e-02,
264,-4.00e-04,8.00e-02,
265,2.00e-03,4.00e-02,
266,2.00e-03,8.00e-02,
267,-8.00e-04,4.00e-02,
268,2.80e-03,8.00e-02,
269,-1.60e-03,2.00e-02,
270,2.80e-03,2.00e-02,
271,7.20e-03,1.96e+00,
272,6.40e-03,1.60e-01,
273,1.60e-03,1.20e-01,
274,4.00e-03,1.40e-01,
275,-8.00e-04,8.00e-02,
276,2.40e-03,8.00e-02,
277,-1.20e-03,1.00e-01,
278,-8.00e-04,1.00e-01,
279,2.40e-03,6.00e-02,
280,-8.00e-04,1.00e-01,
281,1.20e-03,6.00e-02,
282,1.20e-03,6.00e-02,
283,-8.00e-04,8.00e-02,
284,2.00e-03,6.00e-02,
285,-1.20e-03,8.00e-02,
286,2.80e-03,6.00e-02,
287,-1.60e-03,8.00e-02,
288,5.20e-03,6.00e-02,
289,-4.40e-03,8.00e-02,
290,6.80e-03,6.00e-02,
291,-6.00e-03,8.00e-02,
292,-5.20e-03,8.00e-02,
293,5.60e-03,6.00e-02,
294,4.00e-03,6.00e-02,
295,-1.60e-03,8.00e-02,
296,-1.20e-03,8.00e-02,
297,2.00e-03,6.00e-02,
298,2.00e-03,8.00e-02,
299,-4.00e-04,4.00e-02,
300,0.00e+00,8.00e-02,
301,1.60e-03,2.00e-02,
302,2.00e-03,2.00e-02,
303,-8.00e-04,8.00e-02,
304,-8.00e-04,2.00e-02,
305,1.20e-03,8.00e-02,
306,2.00e-03,8.00e-02,
307,-8.00e-04,2.00e-02,
308,-1.60e-03,2.00e-02,
309,2.80e-03,8.00e-02,
310,3.20e-03,1.90e+00,
311,7.60e-03,-2.00e-02,
312,6.40e-03,1.60e-01,
313,4.00e-04,1.00e-01,
314,4.00e-03,1.20e-01,
315,-8.00e-04,8.00e-02,
316,-4.00e-04,1.00e-01,
317,2.40e-03,8.00e-02,
318,0.00e+00,1.00e-01,
319,2.40e-03,6.00e-02,
320,-8.00e-04,6.00e-02,
321,2.00e-03,1.00e-01,
322,2.00e-03,6.00e-02,
323,0.00e+00,8.00e-02,
324,-1.20e-03,8.00e-02,
325,2.40e-03,6.00e-02,
326,-1.60e-03,6.00e-02,
327,3.60e-03,8.00e-02,
328,5.20e-03,6.00e-02,
329,-4.00e-03,8.00e-02,
330,6.80e-03,6.00e-02,
331,-4.40e-03,8.00e-02,
332,-4.40e-03,8.00e-02,
333,4.80e-03,6.00e-02,
334,3.20e-03,6.00e-02,
335,-1.20e-03,8.00e-02,
336,-8.00e-04,6.00e-02,
337,2.40e-03,8.00e-02,
338,1.60e-03,8.00e-02,
339,0.00e+00,6.00e-02,
340,0.00e+00,8.00e-02,
341,1.20e-03,4.00e-02,
342,-4.00e-04,8.00e-02,
343,1.60e-03,2.00e-02,
344,0.00e+00,8.00e-02,
345,2.00e-03,2.00e-02,
346,2.40e-03,8.00e-02,
347,-8.00e-04,2.00e-02,
348,-2.40e-03,8.00e-02,
349,2.80e-03,2.00e-02,
350,2.80e-03,2.00e-02,
351,7.20e-03,1.88e+00,
352,6.40e-03,1.60e-01,
353,8.00e-04,1.20e-01,
354,4.80e-03,1.40e-01,
355,0.00e+00,8.00e-02,
356,-8.00e-04,8.00e-02,
357,2.40e-03,1.00e-01,
358,2.40e-03,1.00e-01,
359,-8.00e-04,6.00e-02,
360,0.00e+00,6.00e-02,
361,2.40e-03,1.00e-01,
362,2.00e-03,6.00e-02,
363,0.00e+00,8.00e-02,
364,1.20e-03,8.00e-02,
365,-8.00e-04,6.00e-02,
366,2.40e-03,6.00e-02,
367,-1.20e-03,8.00e-02,
368,4.00e-03,6.00e-02,
369,-3.20e-03,8.00e-02,
370,5.60e-03,6.00e-02,
371,-5.20e-03,8.00e-02,
372,-4.00e-03,6.00e-02,
373,4.80e-03,8.00e-02,
374,3.60e-03,6.00e-02,
375,-1.60e-03,8.00e-02,
376,-1.20e-03,8.00e-02,
377,2.00e-03,2.00e-02,
378,4.00e-04,8.00e-02,
379,2.00e-03,4.00e-02,
380,2.00e-03,8.00e-02,
381,0.00e+00,2.00e-02,
382,0.00e+00,2.00e-02,
383,2.00e-03,8.00e-02,
384,2.40e-03,8.00e-02,
385,-8.00e-04,2.00e-02,
386,-8.00e-04,8.00e-02,
387,2.40e-03,2.00e-02,
388,3.60e-03,2.00e-02,
389,-2.40e-03,8.00e-02,
390,2.80e-03,2.00e-02,
391,7.20e-03,1.94e+00,
392,6.40e-03,1.60e-01,
393,8.00e-04,1.20e-01,
394,4.80e-03,1.20e-01,
395,-8.00e-04,8.00e-02,
396,-8.00e-04,1.00e-01,
397,2.40e-03,8.00e-02,
398,2.40e-03,1.00e-01,
399,-8.00e-04,6.00e-02,
400,-8.00e-04,6.00e-02,
401,1.20e-03,1.00e-01,
402,1.20e-03,8.00e-02,
403,0.00e+00,6.00e-02,
404,0.00e+00,6.00e-02,
405,2.00e-03,8.00e-02,
406,-1.20e-03,6.00e-02,
407,2.40e-03,8.00e-02,
408,3.60e-03,6.00e-02,
409,-3.20e-03,8.00e-02,
410,4.80e-03,6.00e-02,
411,-4.00e-03,8.00e-02,
412,-3.60e-03,8.00e-02,
413,4.00e-03,6.00e-02,
414,2.80e-03,6.00e-02,
415,-1.60e-03,8.00e-02,
416,-8.00e-04,6.00e-02,
417,2.00e-03,8.00e-02,
418,1.20e-03,8.00e-02,
419,-8.00e-04,2.00e-02,
420,0.00e+00,2.00e-02,
421,1.60e-03,8.00e-02,
422,0.00e+00,2.00e-02,
423,2.00e-03,8.00e-02,
424,2.00e-03,8.00e-02,
425,-4.00e-04,2.00e-02,
426,-4.00e-04,8.00e-02,
427,2.40e-03,2.00e-02,
428,3.60e-03,8.00e-02,
429,-2.40e-03,2.00e-02,
430,2.80e-03,1.98e+00,
431,7.20e-03,-2.00e-02,
432,6.40e-03,1.60e-01,
433,4.00e-04,1.00e-01,
434,4.80e-03,1.20e-01,
435,-1.20e-03,8.00e-02,
436,-8.00e-04,1.00e-01,
437,2.40e-03,8.00e-02,
438,2.40e-03,1.00e-01,
439,-8.00e-04,6.00e-02,
440,1.20e-03,6.00e-02,
441,-4.00e-04,1.00e-01,
442,1.20e-03,6.00e-02,
443,0.00e+00,8.00e-02,
444,-8.00e-04,8.00e-02,
445,1.60e-03,6.00e-02,
446,-8.00e-04,6.00e-02,
447,2.80e-03,8.00e-02,
448,3.60e-03,6.00e-02,
449,-2.40e-03,8.00e-02,
450,-3.60e-03,6.00e-02,
451,4.40e-03,8.00e-02,
452,-2.80e-03,8.00e-02,
453,3.60e-03,6.00e-02,
454,2.80e-03,6.00e-02,
455,-1.20e-03,8.00e-02,
456,-8.00e-04,8.00e-02,
457,1.20e-03,6.00e-02,
458,1.20e-03,6.00e-02,
459,0.00e+00,8.00e-02,
460,1.20e-03,6.00e-02,
461,0.00e+00,8.00e-02,
462,0.00e+00,8.00e-02,
463,2.00e-03,2.00e-02,
464,2.00e-03,8.00e-02,
465,-8.00e-04,4.00e-02,
466,2.40e-03,2.00e-02,
467,-8.00e-04,8.00e-02,
468,3.20e-03,8.00e-02,
469,-2.80e-03,2.00e-02,
470,2.80e-03,2.00e-02,
471,7.60e-03,1.92e+00,
472,6.40e-03,1.60e-01,
473,8.00e-04,1.20e-01,
474,5.20e-03,8.00e-02,
475,-8.00e-04,1.40e-01,
476,-8.00e-04,1.00e-01,
477,2.40e-03,8.00e-02,
478,2.40e-03,1.00e-01,
479,0.00e+00,6.00e-02,
480,-8.00e-04,1.00e-01,
481,1.60e-03,6.00e-02,
482,1.20e-03,6.00e-02,
483,0.00e+00,8.00e-02,
484,0.00e+00,8.00e-02,
485,2.00e-03,6.00e-02,
486,-8.00e-04,6.00e-02,
487,2.40e-03,8.00e-02,
488,2.80e-03,8.00e-02,
489,-2.40e-03,6.00e-02,
490,-2.80e-03,6.00e-02,
491,4.00e-03,8.00e-02,
492,-1.60e-03,6.00e-02,
493,3.60e-03,8.00e-02,
494,2.40e-03,6.00e-02,
495,-8.00e-04,8.00e-02,
496,-4.00e-04,8.00e-02,
497,2.00e-03,4.00e-02,
498,1.20e-03,8.00e-02,
499,-4.00e-04,2.00e-02,
500,0.00e+00,8.00e-02,
501,1.20e-03,2.00e-02,
502,1.20e-03,8.00e-02,
503,-4.00e-04,2.00e-02,
504,-1.20e-03,2.00e-02,
505,1.20e-03,8.00e-02,
506,2.40e-03,8.00e-02,
507,-8.00e-04,2.00e-02,
508,4.00e-03,2.00e-02,
509,-2.40e-03,8.00e-02,
510,2.80e-03,2.00e-02,
511,7.20e-03,1.92e+00,
512,6.40e-03,1.60e-01,
513,1.20e-03,1.20e-01,
514,5.20e-03,8.00e-02,
515,-8.00e-04,1.40e-01,
516,-8.00e-04,1.00e-01,
517,2.80e-03,8.00e-02,
518,2.80e-03,1.00e-01,
519,-8.00e-04,6.00e-02,
520,-4.00e-04,6.00e-02,
521,2.00e-03,1.00e-01,
522,2.00e-03,6.00e-02,
523,0.00e+00,1.00e-01,
524,-8.00e-04,6.00e-02,
525,1.20e-03,8.00e-02,
526,-8.00e-04,6.00e-02,
527,2.40e-03,8.00e-02,
528,-1.20e-03,6.00e-02,
529,2.80e-03,8.00e-02,
530,-2.40e-03,6.00e-02,
531,4.00e-03,8.00e-02,
532,-1.60e-03,8.00e-02,
533,2.80e-03,6.00e-02,
534,2.40e-03,8.00e-02,
535,-8.00e-04,6.00e-02,
536,0.00e+00,6.00e-02,
537,1.60e-03,8.00e-02,
538,1.20e-03,8.00e-02,
539,0.00e+00,6.00e-02,
540,-4.00e-04,8.00e-02,
541,2.00e-03,4.00e-02,
542,-8.00e-04,8.00e-02,
543,2.00e-03,4.00e-02,
544,2.00e-03,8.00e-02,
545,-1.20e-03,2.00e-02,
546,-1.20e-03,8.00e-02,
547,2.80e-03,2.00e-02,
548,3.60e-03,8.00e-02,
549,-2.80e-03,2.00e-02,
550,2.40e-03,1.96e+00,
551,7.60e-03,0.00e+00,
552,6.40e-03,1.60e-01,
553,1.20e-03,1.00e-01,
554,5.20e-03,1.40e-01,
555,-8.00e-04,8.00e-02,
556,2.80e-03,8.00e-02,
557,-8.00e-04,1.00e-01,
558,2.80e-03,1.00e-01,
559,-8.00e-04,6.00e-02,
560,0.00e+00,1.00e-01,
561,1.60e-03,6.00e-02,
562,2.00e-03,6.00e-02,
563,0.00e+00,8.00e-02,
564,2.00e-03,6.00e-02,
565,-4.00e-04,8.00e-02,
566,2.00e-03,6.00e-02,
567,-4.00e-04,8.00e-02,
568,-1.20e-03,6.00e-02,
569,2.40e-03,8.00e-02,
570,-2.00e-03,8.00e-02,
571,3.60e-03,6.00e-02,
572,-1.60e-03,6.00e-02,
573,2.40e-03,8.00e-02,
574,2.00e-03,8.00e-02,
575,-8.00e-04,6.00e-02,
576,0.00e+00,8.00e-02,
577,1.60e-03,4.00e-02,
578,1.20e-03,6.00e-02,
579,0.00e+00,8.00e-02,
580,0.00e+00,2.00e-02,
581,1.20e-03,8.00e-02,
582,-8.00e-04,8.00e-02,
583,1.60e-03,2.00e-02,
584,-8.00e-04,8.00e-02,
585,2.00e-03,2.00e-02,
586,-1.20e-03,8.00e-02,
587,2.40e-03,2.00e-02,
588,4.00e-03,8.00e-02,
589,-2.40e-03,2.00e-02,
590,2.80e-03,2.00e-02,
591,7.20e-03,2.00e+00,
592,6.40e-03,1.60e-01,
593,8.00e-04,1.20e-01,
594,5.60e-03,1.40e-01,
595,-8.00e-04,8.00e-02,
596,-8.00e-04,1.00e-01,
597,2.40e-03,8.00e-02,
598,2.40e-03,6.00e-02,
599,-8.00e-04,1.00e-01,
600,-4.00e-04,6.00e-02,
601,1.20e-03,1.00e-01,
602,1.60e-03,8.00e-02,
603,0.00e+00,6.00e-02,
604,-8.00e-04,6.00e-02,
605,1.20e-03,8.00e-02,
606,0.00e+00,6.00e-02,
607,2.40e-03,8.00e-02,
608,2.40e-03,6.00e-02,
609,-1.20e-03,8.00e-02,
610,-2.40e-03,6.00e-02,
611,2.80e-03,8.00e-02,
612,-1.60e-03,8.00e-02,
613,2.00e-03,6.00e-02,
614,2.00e-03,6.00e-02,
615,-8.00e-04,8.00e-02,
616,1.20e-03,6.00e-02,
617,-4.00e-04,8.00e-02,
618,1.20e-03,8.00e-02,
619,0.00e+00,4.00e-02,
620,1.20e-03,8.00e-02,
621,0.00e+00,2.00e-02,
622,-8.00e-04,8.00e-02,
623,2.00e-03,2.00e-02,
624,-8.00e-04,8.00e-02,
625,2.40e-03,2.00e-02,
626,2.40e-03,2.00e-02,
627,-1.60e-03,8.00e-02,
628,3.60e-03,2.00e-02,
629,-3.20e-03,8.00e-02,
630,2.00e-03,2.00e-02,
631,7.20e-03,1.88e+00,
632,6.40e-03,1.60e-01,
633,4.00e-04,1.20e-01,
634,5.20e-03,1.20e-01,
635,-1.60e-03,8.00e-02,
636,2.40e-03,8.00e-02,
637,-1.20e-03,1.00e-01,
638,2.00e-03,1.00e-01,
639,-8.00e-04,6.00e-02,
640,-8.00e-04,6.00e-02,
641,2.00e-03,8.00e-02,
642,0.00e+00,6.00e-02,
643,1.20e-03,8.00e-02,
644,0.00e+00,6.00e-02,
645,1.20e-03,8.00e-02,
646,1.20e-03,6.00e-02,
647,-8.00e-04,8.00e-02,
648,2.00e-03,6.00e-02,
649,-1.20e-03,8.00e-02,
650,-1.60e-03,6.00e-02,
651,3.20e-03,8.00e-02,
652,-8.00e-04,6.00e-02,
653,2.40e-03,8.00e-02,
654,2.40e-03,6.00e-02,
655,0.00e+00,8.00e-02,
656,-4.00e-04,8.00e-02,
657,1.20e-03,6.00e-02,
658,1.20e-03,6.00e-02,
659,0.00e+00,8.00e-02,
660,0.00e+00,8.00e-02,
661,2.00e-03,4.00e-02,
662,0.00e+00,8.00e-02,
663,2.00e-03,4.00e-02,
664,1.60e-03,8.00e-02,
665,-1.20e-03,2.00e-02,
666,-1.20e-03,8.00e-02,
667,2.80e-03,2.00e-02,
668,3.60e-03,8.00e-02,
669,-3.60e-03,2.00e-02,
670,1.60e-03,-8.00e-02,
671,7.20e-03,1.94e+00,
672,6.40e-03,1.80e-01,
673,4.00e-04,1.20e-01,
674,5.20e-03,1.40e-01,
675,-1.60e-03,8.00e-02,
676,-1.60e-03,8.00e-02,
677,2.40e-03,1.00e-01,
678,2.40e-03,1.00e-01,
679,-8.00e-04,6.00e-02,
680,-8.00e-04,6.00e-02,
681,2.00e-03,1.00e-01,
682,2.40e-03,8.00e-02,
683,4.00e-04,6.00e-02,
684,1.60e-03,6.00e-02,
685,-8.00e-04,8.00e-02,
686,-8.00e-04,6.00e-02,
687,2.00e-03,8.00e-02,
688,-8.00e-04,6.00e-02,
689,1.60e-03,8.00e-02,
690,2.80e-03,6.00e-02,
691,-1.20e-03,8.00e-02,
692,-8.00e-04,6.00e-02,
693,2.00e-03,8.00e-02,
694,-8.00e-04,6.00e-02,
695,2.00e-03,8.00e-02,
696,0.00e+00,6.00e-02,
697,2.00e-03,8.00e-02,
698,1.20e-03,6.00e-02,
699,0.00e+00,8.00e-02,
700,1.20e-03,6.00e-02,
701,-8.00e-04,8.00e-02,
702,-8.00e-04,6.00e-02,
703,1.60e-03,8.00e-02,
704,-8.00e-04,8.00e-02,
705,2.00e-03,4.00e-02,
706,-8.00e-04,8.00e-02,
707,3.20e-03,2.00e-02,
708,3.20e-03,2.00e-02,
709,-3.60e-03,8.00e-02,
710,2.00e-03,2.00e-02,
711,7.20e-03,1.94e+00,
712,6.40e-03,1.60e-01,
713,8.00e-04,1.20e-01,
714,5.60e-03,1.20e-01,
715,-1.20e-03,8.00e-02,
716,-8.00e-04,1.00e-01,
717,2.80e-03,8.00e-02,
718,2.40e-03,1.00e-01,
719,-8.00e-04,6.00e-02,
720,-8.00e-04,1.00e-01,
721,1.20e-03,6.00e-02,
722,1.20e-03,8.00e-02,
723,0.00e+00,6.00e-02,
724,1.20e-03,6.00e-02,
725,0.00e+00,8.00e-02,
726,1.20e-03,6.00e-02,
727,-8.00e-04,8.00e-02,
728,2.00e-03,6.00e-02,
729,-8.00e-04,8.00e-02,
730,2.40e-03,8.00e-02,
731,-8.00e-04,6.00e-02,
732,-8.00e-04,6.00e-02,
733,2.00e-03,8.00e-02,
734,-8.00e-04,8.00e-02,
735,2.00e-03,6.00e-02,
736,1.20e-03,8.00e-02,
737,0.00e+00,4.00e-02,
738,1.20e-03,6.00e-02,
739,0.00e+00,8.00e-02,
740,1.20e-03,4.00e-02,
741,0.00e+00,8.00e-02,
742,0.00e+00,8.00e-02,
743,2.00e-03,2.00e-02,
744,-8.00e-04,8.00e-02,
745,2.40e-03,2.00e-02,
746,-1.20e-03,8.00e-02,
747,3.60e-03,2.00e-02,
748,4.40e-03,2.00e-02,
749,-3.60e-03,8.00e-02,
750,1.60e-03,2.00e-02,
751,7.20e-03,1.72e+00,
752,6.40e-03,1.60e-01,
753,4.00e-04,1.20e-01,
754,5.60e-03,1.40e-01,
755,-1.20e-03,8.00e-02,
756,-1.20e-03,1.00e-01,
757,2.40e-03,8.00e-02,
758,2.40e-03,1.00e-01,
759,-8.00e-04,6.00e-02,
760,-4.00e-04,1.00e-01,
761,1.20e-03,6.00e-02,
762,1.20e-03,8.00e-02,
763,0.00e+00,6.00e-02,
764,0.00e+00,6.00e-02,
765,1.20e-03,8.00e-02,
766,2.00e-03,6.00e-02,
767,4.00e-04,8.00e-02,
768,2.00e-03,6.00e-02,
769,-8.00e-04,8.00e-02,
770,2.40e-03,8.00e-02,
771,-8.00e-04,6.00e-02,
772,-8.00e-04,8.00e-02,
773,1.60e-03,6.00e-02,
774,2.00e-03,6.00e-02,
775,0.00e+00,8.00e-02,
776,1.20e-03,8.00e-02,
777,0.00e+00,4.00e-02,
778,1.20e-03,8.00e-02,
779,0.00e+00,4.00e-02,
780,-8.00e-04,8.00e-02,
781,1.20e-03,4.00e-02,
782,2.00e-03,8.00e-02,
783,0.00e+00,4.00e-02,
784,-8.00e-04,4.00e-02,
785,2.00e-03,8.00e-02,
786,-1.20e-03,8.00e-02,
787,3.60e-03,2.00e-02,
788,4.00e-03,8.00e-02,
789,-3.20e-03,2.00e-02,
790,1.20e-03,2.00e-02,
791,8.00e-03,1.84e+00,
792,6.80e-03,1.80e-01,
793,8.00e-04,1.20e-01,
794,6.80e-03,1.40e-01,
795,-1.20e-03,8.00e-02,
796,-1.60e-03,1.00e-01,
797,2.40e-03,8.00e-02,
798,2.00e-03,1.00e-01,
799,-8.00e-04,6.00e-02,
800,-8.00e-04,6.00e-02,
801,2.00e-03,1.00e-01,
802,4.00e-04,6.00e-02,
803,2.00e-03,8.00e-02,
804,1.20e-03,6.00e-02,
805,0.00e+00,8.00e-02,
806,0.00e+00,8.00e-02,
807,2.00e-03,6.00e-02,
808,0.00e+00,8.00e-02,
809,2.00e-03,6.00e-02,
810,2.00e-03,6.00e-02,
811,-4.00e-04,8.00e-02,
812,-8.00e-04,6.00e-02,
813,1.20e-03,8.00e-02,
814,1.20e-03,6.00e-02,
815,-8.00e-04,8.00e-02,
816,-4.00e-04,8.00e-02,
817,1.20e-03,2.00e-02,
818,4.00e-04,8.00e-02,
819,1.20e-03,6.00e-02,
820,1.20e-03,8.00e-02,
821,0.00e+00,2.00e-02,
822,0.00e+00,8.00e-02,
823,2.40e-03,4.00e-02,
824,2.40e-03,8.00e-02,
825,-8.00e-04,2.00e-02,
826,-1.60e-03,2.00e-02,
827,2.40e-03,8.00e-02,
828,3.60e-03,8.00e-02,
829,-3.60e-03,2.00e-02,
830,1.20e-03,1.88e+00,
831,7.20e-03,-2.00e-02,
832,6.40e-03,1.80e-01,
833,4.00e-04,1.20e-01,
834,5.60e-03,1.40e-01,
835,-1.60e-03,8.00e-02,
836,-1.20e-03,8.00e-02,
837,2.80e-03,1.00e-01,
838,2.40e-03,1.00e-01,
839,-8.00e-04,6.00e-02,
840,-8.00e-04,6.00e-02,
841,2.00e-03,1.00e-01,
842,2.00e-03,8.00e-02,
843,0.00e+00,6.00e-02,
844,1.20e-03,6.00e-02,
845,-8.00e-04,8.00e-02,
846,0.00e+00,8.00e-02,
847,1.20e-03,6.00e-02,
848,1.20e-03,6.00e-02,
849,-8.00e-04,8.00e-02,
850,-8.00e-04,6.00e-02,
851,2.00e-03,8.00e-02,
852,2.00e-03,6.00e-02,
853,-8.00e-04,8.00e-02,
854,1.20e-03,8.00e-02,
855,0.00e+00,6.00e-02,
856,0.00e+00,8.00e-02,
857,1.20e-03,6.00e-02,
