CarrPurc_P1-19_P2-38_tauVary/Gly97/NewFile3.csv

X,CH1,CH2,Start,Increment,
Sequence,Volt,Volt,-6.000000e-04,1.000000e-04
0,8.00e-04,4.00e-02,
1,-4.00e-04,2.00e-02,
2,-8.00e-04,4.00e-02,
3,8.00e-04,2.00e-02,
4,-4.00e-04,4.00e-02,
5,8.00e-04,2.00e-02,
6,0.00e+00,2.00e-02,
7,3.60e-03,4.00e-02,
8,1.20e-03,4.00e-02,
9,4.00e-04,2.00e-02,
10,4.00e-04,2.00e-02,
11,5.20e-03,1.72e+00,
12,5.20e-03,1.60e-01,
13,-2.48e-02,1.20e-01,
14,-1.28e-02,1.20e-01,
15,1.40e-02,8.00e-02,
16,6.80e-03,8.00e-02,
17,-7.60e-03,1.00e-01,
18,-2.00e-03,6.00e-02,
19,3.60e-03,1.00e-01,
20,2.00e-03,6.00e-02,
21,-2.80e-03,1.00e-01,
22,2.80e-03,6.00e-02,
23,-1.60e-03,8.00e-02,
24,-1.20e-03,8.00e-02,
25,2.40e-03,6.00e-02,
26,2.40e-03,6.00e-02,
27,-8.00e-04,8.00e-02,
28,0.00e+00,6.00e-02,
29,2.40e-03,8.00e-02,
30,8.00e-04,6.00e-02,
31,7.60e-03,1.84e+00,
32,6.40e-03,1.60e-01,
33,-6.40e-03,1.20e-01,
34,-6.80e-03,1.20e-01,
35,6.40e-03,8.00e-02,
36,3.20e-03,1.00e-01,
37,-1.60e-03,8.00e-02,
38,0.00e+00,1.00e-01,
39,2.00e-03,6.00e-02,
40,-1.60e-03,6.00e-02,
41,1.20e-03,1.00e-01,
42,8.00e-04,6.00e-02,
43,-1.20e-03,8.00e-02,
44,-2.80e-03,6.00e-02,
45,4.40e-03,8.00e-02,
46,7.20e-03,6.00e-02,
47,-8.80e-03,8.00e-02,
48,-1.32e-02,8.00e-02,
49,1.60e-02,6.00e-02,
50,-1.72e-02,6.00e-02,
51,1.88e-02,8.00e-02,
52,-1.64e-02,6.00e-02,
53,1.56e-02,8.00e-02,
54,9.60e-03,6.00e-02,
55,-8.40e-03,8.00e-02,
56,-4.40e-03,6.00e-02,
57,4.00e-03,8.00e-02,
58,2.40e-03,6.00e-02,
59,-8.00e-04,8.00e-02,
60,2.00e-03,6.00e-02,
61,-8.00e-04,8.00e-02,
62,-8.00e-04,8.00e-02,
63,1.60e-03,4.00e-02,
64,2.00e-03,8.00e-02,
65,-8.00e-04,2.00e-02,
66,1.20e-03,2.00e-02,
67,-8.00e-04,8.00e-02,
68,0.00e+00,8.00e-02,
69,2.00e-03,2.00e-02,
70,8.00e-04,2.00e-02,
71,6.80e-03,1.94e+00,
72,6.40e-03,1.60e-01,
73,1.20e-03,1.20e-01,
74,2.80e-03,1.40e-01,
75,4.00e-04,8.00e-02,
76,0.00e+00,1.00e-01,
77,2.40e-03,8.00e-02,
78,2.40e-03,1.00e-01,
79,0.00e+00,6.00e-02,
80,1.60e-03,1.00e-01,
81,-8.00e-04,6.00e-02,
82,1.60e-03,8.00e-02,
83,-1.60e-03,6.00e-02,
84,-2.40e-03,8.00e-02,
85,4.40e-03,6.00e-02,
86,-4.40e-03,6.00e-02,
87,6.00e-03,8.00e-02,
88,8.80e-03,8.00e-02,
89,-9.60e-03,6.00e-02,
90,-1.24e-02,6.00e-02,
91,1.36e-02,8.00e-02,
92,-1.00e-02,6.00e-02,
93,9.60e-03,8.00e-02,
94,6.40e-03,6.00e-02,
95,-5.20e-03,8.00e-02,
96,-3.20e-03,6.00e-02,
97,2.80e-03,8.00e-02,
98,-8.00e-04,6.00e-02,
99,2.40e-03,8.00e-02,
100,-8.00e-04,8.00e-02,
101,2.00e-03,4.00e-02,
102,1.20e-03,8.00e-02,
103,-4.00e-04,4.00e-02,
104,2.00e-03,8.00e-02,
105,0.00e+00,2.00e-02,
106,-1.60e-03,2.00e-02,
107,2.40e-03,8.00e-02,
108,-2.40e-03,8.00e-02,
109,4.40e-03,2.00e-02,
110,2.80e-03,2.00e-02,
111,7.60e-03,1.74e+00,
112,6.80e-03,1.60e-01,
113,4.00e-04,1.00e-01,
114,4.00e-04,1.40e-01,
115,3.60e-03,8.00e-02,
116,2.40e-03,1.00e-01,
117,0.00e+00,8.00e-02,
118,0.00e+00,1.00e-01,
119,2.40e-03,6.00e-02,
120,-4.00e-04,1.00e-01,
121,2.00e-03,6.00e-02,
122,-8.00e-04,6.00e-02,
123,2.40e-03,8.00e-02,
124,2.80e-03,6.00e-02,
125,-1.60e-03,8.00e-02,
126,-3.60e-03,8.00e-02,
127,6.00e-03,6.00e-02,
128,8.80e-03,6.00e-02,
129,-9.60e-03,8.00e-02,
130,-1.16e-02,6.00e-02,
131,1.24e-02,8.00e-02,
132,-8.80e-03,6.00e-02,
133,8.80e-03,8.00e-02,
134,6.00e-03,6.00e-02,
135,-4.40e-03,8.00e-02,
136,-1.60e-03,8.00e-02,
137,3.60e-03,4.00e-02,
138,2.40e-03,8.00e-02,
139,-4.00e-04,6.00e-02,
140,1.20e-03,8.00e-02,
141,-8.00e-04,2.00e-02,
142,-8.00e-04,8.00e-02,
143,2.40e-03,4.00e-02,
144,0.00e+00,8.00e-02,
145,2.00e-03,4.00e-02,
146,2.00e-03,8.00e-02,
147,-8.00e-04,2.00e-02,
148,-2.40e-03,2.00e-02,
149,3.20e-03,8.00e-02,
150,2.80e-03,2.00e-02,
151,7.20e-03,1.88e+00,
152,6.40e-03,1.60e-01,
153,-8.00e-04,1.20e-01,
154,3.20e-03,1.20e-01,
155,-8.00e-04,8.00e-02,
156,1.20e-03,1.00e-01,
157,-8.00e-04,6.00e-02,
158,-4.00e-04,1.00e-01,
159,2.40e-03,6.00e-02,
160,-8.00e-04,1.00e-01,
161,2.00e-03,6.00e-02,
162,2.40e-03,6.00e-02,
163,0.00e+00,8.00e-02,
164,2.40e-03,6.00e-02,
165,-1.20e-03,8.00e-02,
166,-2.40e-03,6.00e-02,
167,4.40e-03,8.00e-02,
168,5.60e-03,6.00e-02,
169,-5.60e-03,8.00e-02,
170,-8.40e-03,8.00e-02,
171,1.00e-02,6.00e-02,
172,-7.20e-03,6.00e-02,
173,6.80e-03,8.00e-02,
174,5.20e-03,6.00e-02,
175,-2.80e-03,8.00e-02,
176,-1.20e-03,8.00e-02,
177,2.40e-03,6.00e-02,
178,0.00e+00,8.00e-02,
179,2.00e-03,6.00e-02,
180,4.00e-04,8.00e-02,
181,2.00e-03,4.00e-02,
182,1.20e-03,8.00e-02,
183,-8.00e-04,2.00e-02,
184,0.00e+00,8.00e-02,
185,1.20e-03,2.00e-02,
186,2.40e-03,8.00e-02,
187,0.00e+00,2.00e-02,
188,-1.60e-03,8.00e-02,
189,2.80e-03,2.00e-02,
190,2.80e-03,2.00e-02,
191,7.20e-03,1.90e+00,
192,6.40e-03,1.60e-01,
193,4.00e-04,1.20e-01,
194,3.60e-03,1.20e-01,
195,0.00e+00,8.00e-02,
196,0.00e+00,1.00e-01,
197,2.00e-03,8.00e-02,
198,2.40e-03,1.00e-01,
199,-1.20e-03,6.00e-02,
200,-1.20e-03,8.00e-02,
201,1.20e-03,6.00e-02,
202,2.00e-03,6.00e-02,
203,-4.00e-04,8.00e-02,
204,-1.20e-03,6.00e-02,
205,2.80e-03,8.00e-02,
206,-2.40e-03,6.00e-02,
207,5.20e-03,8.00e-02,
208,6.40e-03,8.00e-02,
209,-5.20e-03,6.00e-02,
210,9.20e-03,6.00e-02,
211,-6.80e-03,8.00e-02,
212,-6.00e-03,6.00e-02,
213,6.80e-03,8.00e-02,
214,4.00e-03,6.00e-02,
215,-2.40e-03,8.00e-02,
216,-1.60e-03,6.00e-02,
217,2.00e-03,8.00e-02,
218,2.40e-03,8.00e-02,
219,0.00e+00,2.00e-02,
220,-8.00e-04,6.00e-02,
221,1.60e-03,8.00e-02,
222,2.00e-03,8.00e-02,
223,-4.00e-04,4.00e-02,
224,2.00e-03,8.00e-02,
225,0.00e+00,2.00e-02,
226,2.40e-03,8.00e-02,
227,-8.00e-04,2.00e-02,
228,-1.60e-03,2.00e-02,
229,2.80e-03,8.00e-02,
230,2.80e-03,1.74e+00,
231,7.20e-03,0.00e+00,
232,6.40e-03,1.60e-01,
233,8.00e-04,1.20e-01,
234,3.60e-03,1.40e-01,
235,-4.00e-04,8.00e-02,
236,-8.00e-04,1.00e-01,
237,2.00e-03,8.00e-02,
238,1.60e-03,1.00e-01,
239,-8.00e-04,6.00e-02,
240,0.00e+00,6.00e-02,
241,2.00e-03,8.00e-02,
242,0.00e+00,6.00e-02,
243,2.00e-03,8.00e-02,
244,-8.00e-04,6.00e-02,
245,2.40e-03,8.00e-02,
246,-1.60e-03,6.00e-02,
247,3.60e-03,8.00e-02,
248,5.60e-03,8.00e-02,
249,-4.40e-03,6.00e-02,
250,7.20e-03,8.00e-02,
251,-6.00e-03,6.00e-02,
252,-5.60e-03,6.00e-02,
253,5.20e-03,8.00e-02,
254,3.60e-03,8.00e-02,
255,-2.40e-03,6.00e-02,
256,-1.20e-03,8.00e-02,
257,2.40e-03,6.00e-02,
258,0.00e+00,8.00e-02,
259,2.00e-03,2.00e-02,
260,2.00e-03,8.00e-02,
261,-8.00e-04,2.00e-02,
262,1.20e-03,8.00e-02,
263,-8.00e-04,2.00e-02,
264,-8.00e-04,4.00e-02,
265,2.00e-03,8.00e-02,
266,2.40e-03,8.00e-02,
267,-1.20e-03,2.00e-02,
268,-1.60e-03,2.00e-02,
269,2.80e-03,8.00e-02,
270,2.80e-03,2.00e-02,
271,7.20e-03,1.88e+00,
272,6.40e-03,1.60e-01,
273,1.20e-03,1.20e-01,
274,4.00e-03,1.40e-01,
275,0.00e+00,8.00e-02,
276,-4.00e-04,8.00e-02,
277,2.40e-03,1.00e-01,
278,3.20e-03,1.00e-01,
279,-8.00e-04,6.00e-02,
280,-8.00e-04,1.00e-01,
281,2.40e-03,6.00e-02,
282,2.00e-03,6.00e-02,
283,0.00e+00,8.00e-02,
284,1.20e-03,6.00e-02,
285,-1.20e-03,8.00e-02,
286,-1.20e-03,6.00e-02,
287,2.80e-03,8.00e-02,
288,3.60e-03,6.00e-02,
289,-4.40e-03,8.00e-02,
290,-6.00e-03,6.00e-02,
291,7.20e-03,8.00e-02,
292,-4.40e-03,8.00e-02,
293,4.80e-03,6.00e-02,
294,2.80e-03,6.00e-02,
295,-1.60e-03,8.00e-02,
296,-1.20e-03,8.00e-02,
297,2.00e-03,4.00e-02,
298,1.20e-03,8.00e-02,
299,-8.00e-04,4.00e-02,
300,0.00e+00,8.00e-02,
301,2.00e-03,4.00e-02,
302,1.20e-03,2.00e-02,
303,0.00e+00,8.00e-02,
304,0.00e+00,8.00e-02,
305,1.60e-03,2.00e-02,
306,2.40e-03,2.00e-02,
307,-8.00e-04,8.00e-02,
308,2.80e-03,8.00e-02,
309,-2.40e-03,2.00e-02,
310,3.20e-03,1.92e+00,
311,7.60e-03,0.00e+00,
312,6.40e-03,1.60e-01,
313,4.00e-04,1.20e-01,
314,4.00e-03,1.20e-01,
315,-8.00e-04,8.00e-02,
316,2.00e-03,1.00e-01,
317,-8.00e-04,8.00e-02,
318,2.40e-03,1.00e-01,
319,-4.00e-04,6.00e-02,
320,-8.00e-04,1.00e-01,
321,2.00e-03,6.00e-02,
322,1.60e-03,6.00e-02,
323,-4.00e-04,8.00e-02,
324,2.00e-03,8.00e-02,
325,-8.00e-04,6.00e-02,
326,-1.20e-03,6.00e-02,
327,3.60e-03,8.00e-02,
328,4.00e-03,6.00e-02,
329,-3.60e-03,8.00e-02,
330,5.60e-03,6.00e-02,
331,-4.40e-03,8.00e-02,
332,-3.20e-03,8.00e-02,
333,4.00e-03,6.00e-02,
334,2.40e-03,6.00e-02,
335,-1.20e-03,8.00e-02,
336,-8.00e-04,6.00e-02,
337,1.60e-03,8.00e-02,
338,1.20e-03,8.00e-02,
339,0.00e+00,6.00e-02,
340,1.20e-03,6.00e-02,
341,-8.00e-04,8.00e-02,
342,1.20e-03,8.00e-02,
343,0.00e+00,2.00e-02,
344,-8.00e-04,8.00e-02,
345,1.20e-03,4.00e-02,
346,-1.20e-03,8.00e-02,
347,2.40e-03,2.00e-02,
348,-2.40e-03,8.00e-02,
349,2.80e-03,2.00e-02,
350,3.20e-03,4.00e-02,
351,7.20e-03,1.76e+00,
352,6.40e-03,1.60e-01,
353,1.20e-03,1.20e-01,
354,4.80e-03,1.40e-01,
355,-8.00e-04,8.00e-02,
356,-8.00e-04,8.00e-02,
357,2.00e-03,1.00e-01,
358,2.40e-03,1.00e-01,
359,-8.00e-04,6.00e-02,
360,8.00e-04,1.00e-01,
361,-8.00e-04,6.00e-02,
362,1.20e-03,6.00e-02,
363,0.00e+00,8.00e-02,
364,-1.20e-03,8.00e-02,
365,1.20e-03,6.00e-02,
366,-1.20e-03,6.00e-02,
367,2.80e-03,8.00e-02,
368,3.60e-03,6.00e-02,
369,-3.20e-03,8.00e-02,
370,5.60e-03,6.00e-02,
371,-3.60e-03,8.00e-02,
372,-3.60e-03,6.00e-02,
373,4.00e-03,8.00e-02,
374,2.80e-03,6.00e-02,
375,-1.20e-03,8.00e-02,
376,2.00e-03,6.00e-02,
377,-8.00e-04,8.00e-02,
378,2.00e-03,8.00e-02,
379,4.00e-04,6.00e-02,
380,-8.00e-04,8.00e-02,
381,1.20e-03,4.00e-02,
382,2.40e-03,8.00e-02,
383,-8.00e-04,4.00e-02,
384,-4.00e-04,8.00e-02,
385,2.40e-03,2.00e-02,
386,2.80e-03,8.00e-02,
387,-8.00e-04,2.00e-02,
388,2.80e-03,2.00e-02,
389,-2.80e-03,8.00e-02,
390,3.20e-03,2.00e-02,
391,7.20e-03,1.86e+00,
392,6.40e-03,1.60e-01,
393,4.00e-04,1.20e-01,
394,4.80e-03,1.20e-01,
395,-8.00e-04,8.00e-02,
396,-8.00e-04,1.00e-01,
397,2.40e-03,8.00e-02,
398,2.40e-03,6.00e-02,
399,0.00e+00,1.00e-01,
400,1.60e-03,6.00e-02,
401,-4.00e-04,8.00e-02,
402,0.00e+00,8.00e-02,
403,2.00e-03,6.00e-02,
404,0.00e+00,6.00e-02,
405,2.00e-03,8.00e-02,
406,-4.00e-04,6.00e-02,
407,2.80e-03,8.00e-02,
408,3.60e-03,6.00e-02,
409,-1.60e-03,8.00e-02,
410,-3.60e-03,6.00e-02,
411,5.20e-03,8.00e-02,
412,-2.40e-03,8.00e-02,
413,4.00e-03,6.00e-02,
414,2.40e-03,6.00e-02,
415,-1.20e-03,8.00e-02,
416,-8.00e-04,8.00e-02,
417,2.00e-03,4.00e-02,
418,2.00e-03,8.00e-02,
419,4.00e-04,2.00e-02,
420,0.00e+00,8.00e-02,
421,1.20e-03,2.00e-02,
422,0.00e+00,2.00e-02,
423,1.60e-03,8.00e-02,
424,-8.00e-04,8.00e-02,
425,2.40e-03,2.00e-02,
426,2.40e-03,8.00e-02,
427,-1.20e-03,2.00e-02,
428,2.80e-03,8.00e-02,
429,-2.40e-03,2.00e-02,
430,2.80e-03,2.00e-02,
431,7.20e-03,1.88e+00,
432,6.40e-03,1.60e-01,
433,4.00e-04,1.20e-01,
434,4.80e-03,1.20e-01,
435,-1.20e-03,8.00e-02,
436,-1.20e-03,1.00e-01,
437,2.00e-03,6.00e-02,
438,3.20e-03,1.00e-01,
439,0.00e+00,6.00e-02,
440,0.00e+00,6.00e-02,
441,2.00e-03,8.00e-02,
442,2.00e-03,6.00e-02,
443,0.00e+00,8.00e-02,
444,0.00e+00,8.00e-02,
445,1.60e-03,6.00e-02,
446,-1.20e-03,6.00e-02,
447,2.40e-03,8.00e-02,
448,3.20e-03,6.00e-02,
449,-2.40e-03,8.00e-02,
450,-2.40e-03,6.00e-02,
451,5.20e-03,8.00e-02,
452,-2.40e-03,8.00e-02,
453,2.80e-03,6.00e-02,
454,2.40e-03,6.00e-02,
455,-8.00e-04,8.00e-02,
456,2.00e-03,8.00e-02,
457,-8.00e-04,4.00e-02,
458,1.20e-03,8.00e-02,
459,-4.00e-04,4.00e-02,
460,-8.00e-04,8.00e-02,
461,8.00e-04,4.00e-02,
462,1.20e-03,8.00e-02,
463,0.00e+00,4.00e-02,
464,-8.00e-04,4.00e-02,
465,1.60e-03,8.00e-02,
466,-8.00e-04,2.00e-02,
467,2.40e-03,8.00e-02,
468,2.80e-03,8.00e-02,
469,-2.80e-03,2.00e-02,
470,3.20e-03,2.00e-02,
471,7.60e-03,1.76e+00,
472,6.40e-03,1.60e-01,
473,4.00e-04,1.20e-01,
474,4.80e-03,8.00e-02,
475,-1.20e-03,1.40e-01,
476,3.20e-03,1.00e-01,
477,-4.00e-04,8.00e-02,
478,2.40e-03,1.00e-01,
479,-8.00e-04,6.00e-02,
480,-4.00e-04,1.00e-01,
481,2.00e-03,6.00e-02,
482,4.00e-04,6.00e-02,
483,1.20e-03,8.00e-02,
484,8.00e-04,8.00e-02,
485,0.00e+00,6.00e-02,
486,-8.00e-04,6.00e-02,
487,2.40e-03,8.00e-02,
488,-1.20e-03,8.00e-02,
489,2.40e-03,6.00e-02,
490,4.00e-03,6.00e-02,
491,-2.80e-03,8.00e-02,
492,-1.60e-03,6.00e-02,
493,2.80e-03,8.00e-02,
494,2.40e-03,6.00e-02,
495,0.00e+00,8.00e-02,
496,-8.00e-04,6.00e-02,
497,2.00e-03,8.00e-02,
498,1.20e-03,6.00e-02,
499,0.00e+00,8.00e-02,
500,0.00e+00,6.00e-02,
501,1.60e-03,8.00e-02,
502,1.60e-03,8.00e-02,
503,-4.00e-04,2.00e-02,
504,2.00e-03,8.00e-02,
505,-8.00e-04,2.00e-02,
506,2.40e-03,4.00e-02,
507,-8.00e-04,8.00e-02,
508,2.80e-03,8.00e-02,
509,-3.20e-03,4.00e-02,
510,2.00e-03,4.00e-02,
511,7.20e-03,1.88e+00,
512,6.40e-03,1.60e-01,
513,1.20e-03,1.20e-01,
514,5.20e-03,1.40e-01,
515,-1.60e-03,8.00e-02,
516,2.80e-03,1.00e-01,
517,-1.20e-03,8.00e-02,
518,2.00e-03,1.00e-01,
519,-1.20e-03,6.00e-02,
520,-8.00e-04,1.00e-01,
521,2.40e-03,6.00e-02,
522,0.00e+00,6.00e-02,
523,4.00e-03,8.00e-02,
524,2.80e-03,6.00e-02,
525,4.00e-04,8.00e-02,
526,2.40e-03,6.00e-02,
527,0.00e+00,8.00e-02,
528,2.40e-03,6.00e-02,
529,-1.60e-03,8.00e-02,
530,3.60e-03,6.00e-02,
531,-2.40e-03,8.00e-02,
532,-1.60e-03,8.00e-02,
533,2.40e-03,6.00e-02,
534,2.00e-03,8.00e-02,
535,-8.00e-04,6.00e-02,
536,-8.00e-04,6.00e-02,
537,1.20e-03,8.00e-02,
538,1.20e-03,8.00e-02,
539,-4.00e-04,6.00e-02,
540,-8.00e-04,8.00e-02,
541,2.00e-03,2.00e-02,
542,2.40e-03,8.00e-02,
543,-8.00e-04,2.00e-02,
544,4.80e-03,8.00e-02,
545,-4.00e-04,2.00e-02,
546,-8.00e-04,8.00e-02,
547,2.80e-03,2.00e-02,
548,2.80e-03,8.00e-02,
549,-2.80e-03,2.00e-02,
550,3.20e-03,2.00e-02,
551,7.60e-03,1.88e+00,
552,6.80e-03,1.60e-01,
553,1.20e-03,1.20e-01,
554,5.60e-03,1.40e-01,
555,0.00e+00,8.00e-02,
556,-8.00e-04,8.00e-02,
557,2.80e-03,1.00e-01,
558,-8.00e-04,1.00e-01,
559,2.40e-03,6.00e-02,
560,0.00e+00,6.00e-02,
561,2.00e-03,1.00e-01,
562,0.00e+00,6.00e-02,
563,1.60e-03,8.00e-02,
564,2.00e-03,6.00e-02,
565,-8.00e-04,8.00e-02,
566,2.40e-03,6.00e-02,
567,-8.00e-04,8.00e-02,
568,2.00e-03,6.00e-02,
569,-1.20e-03,8.00e-02,
570,2.80e-03,8.00e-02,
571,-2.40e-03,6.00e-02,
572,-1.20e-03,6.00e-02,
573,2.40e-03,8.00e-02,
574,2.00e-03,8.00e-02,
575,-4.00e-04,6.00e-02,
576,0.00e+00,8.00e-02,
577,1.20e-03,6.00e-02,
578,1.20e-03,2.00e-02,
579,-4.00e-04,8.00e-02,
580,1.20e-03,8.00e-02,
581,-4.00e-04,2.00e-02,
582,2.00e-03,8.00e-02,
583,-8.00e-04,2.00e-02,
584,-8.00e-04,8.00e-02,
585,2.40e-03,2.00e-02,
586,-1.60e-03,8.00e-02,
587,2.40e-03,2.00e-02,
588,3.60e-03,8.00e-02,
589,-3.20e-03,2.00e-02,
590,2.40e-03,2.00e-02,
591,7.20e-03,1.78e+00,
592,6.40e-03,1.60e-01,
593,4.00e-04,1.20e-01,
594,5.20e-03,1.40e-01,
595,-8.00e-04,8.00e-02,
596,-1.60e-03,1.00e-01,
597,2.40e-03,8.00e-02,
598,2.40e-03,1.00e-01,
599,-8.00e-04,6.00e-02,
600,-8.00e-04,6.00e-02,
601,1.60e-03,1.00e-01,
602,4.00e-04,8.00e-02,
603,1.60e-03,6.00e-02,
604,-8.00e-04,6.00e-02,
605,1.20e-03,8.00e-02,
606,-1.20e-03,6.00e-02,
607,1.60e-03,8.00e-02,
608,2.40e-03,6.00e-02,
609,-1.20e-03,8.00e-02,
610,2.80e-03,6.00e-02,
611,-1.60e-03,8.00e-02,
612,-1.60e-03,8.00e-02,
613,2.40e-03,6.00e-02,
614,0.00e+00,6.00e-02,
615,2.40e-03,8.00e-02,
616,2.40e-03,6.00e-02,
617,0.00e+00,8.00e-02,
618,0.00e+00,8.00e-02,
619,2.00e-03,2.00e-02,
620,2.00e-03,8.00e-02,
621,0.00e+00,2.00e-02,
622,2.00e-03,8.00e-02,
623,0.00e+00,2.00e-02,
624,1.60e-03,8.00e-02,
625,-1.20e-03,2.00e-02,
626,-1.20e-03,2.00e-02,
627,3.60e-03,8.00e-02,
628,3.60e-03,2.00e-02,
629,-2.80e-03,8.00e-02,
630,1.60e-03,2.00e-02,
631,8.00e-03,1.86e+00,
632,6.80e-03,1.60e-01,
633,8.00e-04,1.20e-01,
634,5.60e-03,1.40e-01,
635,-8.00e-04,8.00e-02,
636,2.80e-03,8.00e-02,
637,-4.00e-04,1.00e-01,
638,2.40e-03,1.00e-01,
639,-8.00e-04,6.00e-02,
640,-8.00e-04,6.00e-02,
641,1.20e-03,1.00e-01,
642,4.00e-04,6.00e-02,
643,2.40e-03,8.00e-02,
644,4.00e-04,6.00e-02,
645,2.40e-03,8.00e-02,
646,0.00e+00,6.00e-02,
647,2.40e-03,8.00e-02,
648,1.20e-03,6.00e-02,
649,-1.20e-03,8.00e-02,
650,-1.60e-03,6.00e-02,
651,2.40e-03,8.00e-02,
652,-1.20e-03,6.00e-02,
653,2.00e-03,8.00e-02,
654,0.00e+00,6.00e-02,
655,2.40e-03,8.00e-02,
656,1.20e-03,8.00e-02,
657,0.00e+00,6.00e-02,
658,8.00e-04,6.00e-02,
659,0.00e+00,8.00e-02,
660,0.00e+00,6.00e-02,
661,2.00e-03,8.00e-02,
662,-4.00e-04,8.00e-02,
663,2.00e-03,2.00e-02,
664,-8.00e-04,8.00e-02,
665,1.60e-03,2.00e-02,
666,2.40e-03,8.00e-02,
667,-1.20e-03,2.00e-02,
668,3.60e-03,8.00e-02,
669,-3.60e-03,2.00e-02,
670,1.60e-03,2.00e-02,
671,6.80e-03,1.88e+00,
672,6.40e-03,1.60e-01,
673,4.00e-04,1.20e-01,
674,7.20e-03,1.40e-01,
675,-8.00e-04,8.00e-02,
676,-8.00e-04,8.00e-02,
677,2.40e-03,1.00e-01,
678,2.40e-03,1.00e-01,
679,-1.20e-03,6.00e-02,
680,1.20e-03,6.00e-02,
681,-8.00e-04,1.00e-01,
682,2.40e-03,8.00e-02,
683,0.00e+00,6.00e-02,
684,0.00e+00,6.00e-02,
685,2.00e-03,8.00e-02,
686,-8.00e-04,6.00e-02,
687,2.00e-03,8.00e-02,
688,-8.00e-04,6.00e-02,
689,2.40e-03,8.00e-02,
690,2.40e-03,6.00e-02,
691,-1.20e-03,8.00e-02,
692,-8.00e-04,6.00e-02,
693,2.40e-03,8.00e-02,
694,2.00e-03,6.00e-02,
695,-8.00e-04,8.00e-02,
696,-8.00e-04,6.00e-02,
697,8.00e-04,8.00e-02,
698,1.20e-03,6.00e-02,
699,-4.00e-04,8.00e-02,
700,1.20e-03,8.00e-02,
701,-8.00e-04,4.00e-02,
702,-8.00e-04,6.00e-02,
703,2.40e-03,8.00e-02,
704,2.00e-03,8.00e-02,
705,-4.00e-04,2.00e-02,
706,-1.20e-03,8.00e-02,
707,3.20e-03,2.00e-02,
708,3.20e-03,2.00e-02,
709,-3.20e-03,8.00e-02,
710,2.40e-03,4.00e-02,
711,8.00e-03,1.78e+00,
712,6.40e-03,1.80e-01,
713,8.00e-04,1.20e-01,
714,5.60e-03,1.20e-01,
715,-1.60e-03,8.00e-02,
716,2.40e-03,1.00e-01,
717,-1.20e-03,8.00e-02,
718,2.40e-03,1.00e-01,
719,-8.00e-04,6.00e-02,
720,2.00e-03,1.00e-01,
721,-4.00e-04,6.00e-02,
722,0.00e+00,8.00e-02,
723,1.60e-03,6.00e-02,
724,4.00e-04,6.00e-02,
725,2.00e-03,8.00e-02,
726,2.00e-03,6.00e-02,
727,0.00e+00,8.00e-02,
728,2.00e-03,6.00e-02,
729,-8.00e-04,8.00e-02,
730,2.40e-03,8.00e-02,
731,-8.00e-04,6.00e-02,
732,-8.00e-04,6.00e-02,
733,2.00e-03,8.00e-02,
734,1.60e-03,8.00e-02,
735,0.00e+00,6.00e-02,
736,-8.00e-04,8.00e-02,
737,1.20e-03,6.00e-02,
738,0.00e+00,6.00e-02,
739,1.20e-03,8.00e-02,
740,0.00e+00,8.00e-02,
741,1.20e-03,2.00e-02,
742,1.60e-03,2.00e-02,
743,0.00e+00,8.00e-02,
744,-8.00e-04,8.00e-02,
745,1.60e-03,4.00e-02,
746,-1.20e-03,8.00e-02,
747,2.80e-03,2.00e-02,
748,4.00e-03,8.00e-02,
749,-3.20e-03,2.00e-02,
750,2.40e-03,2.00e-02,
751,7.20e-03,1.88e+00,
752,6.40e-03,1.60e-01,
753,4.00e-04,1.20e-01,
754,5.60e-03,1.40e-01,
755,-8.00e-04,8.00e-02,
756,-8.00e-04,1.00e-01,
757,2.80e-03,8.00e-02,
758,2.40e-03,1.00e-01,
759,-8.00e-04,6.00e-02,
760,-4.00e-04,1.00e-01,
761,2.00e-03,6.00e-02,
762,2.00e-03,6.00e-02,
763,0.00e+00,1.00e-01,
764,8.00e-04,6.00e-02,
765,-8.00e-04,8.00e-02,
766,0.00e+00,6.00e-02,
767,2.00e-03,8.00e-02,
768,1.20e-03,6.00e-02,
769,-8.00e-04,8.00e-02,
770,-8.00e-04,8.00e-02,
771,2.40e-03,6.00e-02,
772,-8.00e-04,8.00e-02,
773,1.60e-03,6.00e-02,
774,2.00e-03,6.00e-02,
775,0.00e+00,8.00e-02,
776,1.20e-03,6.00e-02,
777,4.00e-04,8.00e-02,
778,2.00e-03,8.00e-02,
779,0.00e+00,4.00e-02,
780,-8.00e-04,8.00e-02,
781,1.20e-03,2.00e-02,
782,0.00e+00,8.00e-02,
783,2.00e-03,2.00e-02,
784,2.40e-03,8.00e-02,
785,-1.20e-03,2.00e-02,
786,2.80e-03,8.00e-02,
787,-1.20e-03,2.00e-02,
788,4.00e-03,8.00e-02,
789,-4.00e-03,2.00e-02,
790,8.00e-04,2.00e-02,
791,7.60e-03,1.92e+00,
792,6.40e-03,1.60e-01,
793,8.00e-04,1.20e-01,
794,5.60e-03,1.40e-01,
795,-1.20e-03,8.00e-02,
796,3.60e-03,1.00e-01,
797,-1.20e-03,8.00e-02,
798,2.40e-03,1.00e-01,
799,-8.00e-04,6.00e-02,
800,1.20e-03,1.00e-01,
801,-8.00e-04,6.00e-02,
802,1.20e-03,6.00e-02,
803,0.00e+00,8.00e-02,
804,0.00e+00,6.00e-02,
805,1.60e-03,8.00e-02,
806,1.20e-03,8.00e-02,
807,0.00e+00,6.00e-02,
808,2.00e-03,8.00e-02,
809,-8.00e-04,6.00e-02,
810,-4.00e-04,6.00e-02,
811,2.40e-03,8.00e-02,
812,1.60e-03,6.00e-02,
813,-4.00e-04,8.00e-02,
814,0.00e+00,6.00e-02,
815,1.20e-03,8.00e-02,
816,1.20e-03,6.00e-02,
817,0.00e+00,8.00e-02,
818,1.20e-03,8.00e-02,
819,0.00e+00,6.00e-02,
820,-8.00e-04,8.00e-02,
821,8.00e-04,4.00e-02,
822,-8.00e-04,2.00e-02,
823,2.00e-03,8.00e-02,
824,1.20e-03,8.00e-02,
825,-1.20e-03,2.00e-02,
826,-1.20e-03,8.00e-02,
827,2.80e-03,2.00e-02,
828,3.60e-03,8.00e-02,
829,-3.60e-03,2.00e-02,
830,1.20e-03,1.76e+00,
831,7.20e-03,0.00e+00,
832,6.40e-03,1.60e-01,
833,4.00e-04,1.20e-01,
834,5.60e-03,1.40e-01,
835,-1.20e-03,8.00e-02,
836,-8.00e-04,8.00e-02,
837,2.80e-03,1.00e-01,
838,2.40e-03,1.00e-01,
839,-8.00e-04,6.00e-02,
840,0.00e+00,1.00e-01,
841,2.00e-03,6.00e-02,
842,1.20e-03,8.00e-02,
843,0.00e+00,6.00e-02,
844,1.20e-03,6.00e-02,
845,0.00e+00,8.00e-02,
846,1.20e-03,8.00e-02,
847,0.00e+00,6.00e-02,
848,0.00e+00,6.00e-02,
849,4.80e-03,8.00e-02,
850,-8.00e-04,6.00e-02,
851,2.00e-03,8.00e-02,
852,0.00e+00,6.00e-02,
853,2.00e-03,8.00e-02,
854,1.20e-03,8.00e-02,
855,0.00e+00,4.00e-02,
856,1.20e-03,8.00e-02,
857,0.00e+00,4.00e-02,
