CarrPurc_P1-19_P2-38_tauVary/Gly97/NewFile7.csv

X,CH1,CH2,Start,Increment,
Sequence,Volt,Volt,-6.000000e-04,1.000000e-04
0,1.20e-03,4.00e-02,
1,4.00e-04,2.00e-02,
2,4.00e-04,4.00e-02,
3,1.20e-03,2.00e-02,
4,1.20e-03,4.00e-02,
5,0.00e+00,2.00e-02,
6,8.00e-04,2.00e-02,
7,0.00e+00,4.00e-02,
8,4.00e-04,4.00e-02,
9,1.20e-03,2.00e-02,
10,4.00e-04,2.00e-02,
11,5.20e-03,1.86e+00,
12,5.20e-03,1.60e-01,
13,-2.48e-02,1.00e-01,
14,-1.28e-02,1.20e-01,
15,1.28e-02,8.00e-02,
16,6.80e-03,8.00e-02,
17,-7.20e-03,1.00e-01,
18,-1.60e-03,6.00e-02,
19,4.00e-03,1.00e-01,
20,2.80e-03,6.00e-02,
21,-1.20e-03,8.00e-02,
22,2.80e-03,6.00e-02,
23,-1.60e-03,8.00e-02,
24,-1.20e-03,8.00e-02,
25,2.40e-03,6.00e-02,
26,2.40e-03,6.00e-02,
27,-4.00e-04,8.00e-02,
28,0.00e+00,6.00e-02,
29,1.60e-03,8.00e-02,
30,8.00e-04,1.90e+00,
31,7.20e-03,4.00e-02,
32,6.40e-03,1.60e-01,
33,-6.40e-03,1.20e-01,
34,-6.00e-03,1.20e-01,
35,5.60e-03,8.00e-02,
36,3.60e-03,1.00e-01,
37,-8.00e-04,6.00e-02,
38,0.00e+00,1.00e-01,
39,2.40e-03,6.00e-02,
40,-8.00e-04,6.00e-02,
41,2.00e-03,1.00e-01,
42,2.00e-03,6.00e-02,
43,-8.00e-04,8.00e-02,
44,-2.40e-03,6.00e-02,
45,5.20e-03,8.00e-02,
46,6.80e-03,6.00e-02,
47,-8.40e-03,8.00e-02,
48,-1.28e-02,8.00e-02,
49,1.56e-02,6.00e-02,
50,-1.72e-02,6.00e-02,
51,1.84e-02,8.00e-02,
52,-1.56e-02,6.00e-02,
53,1.44e-02,8.00e-02,
54,1.00e-02,6.00e-02,
55,-7.20e-03,8.00e-02,
56,-4.40e-03,6.00e-02,
57,4.40e-03,8.00e-02,
58,2.80e-03,8.00e-02,
59,-8.00e-04,2.00e-02,
60,-4.00e-04,8.00e-02,
61,2.00e-03,4.00e-02,
62,-8.00e-04,8.00e-02,
63,2.00e-03,2.00e-02,
64,2.40e-03,8.00e-02,
65,-8.00e-04,2.00e-02,
66,-8.00e-04,8.00e-02,
67,1.20e-03,2.00e-02,
68,2.00e-03,8.00e-02,
69,0.00e+00,2.00e-02,
70,8.00e-04,2.00e-02,
71,6.80e-03,1.92e+00,
72,5.60e-03,1.60e-01,
73,1.20e-03,1.20e-01,
74,2.80e-03,1.40e-01,
75,4.00e-04,8.00e-02,
76,1.20e-03,1.00e-01,
77,-8.00e-04,8.00e-02,
78,2.40e-03,1.00e-01,
79,-1.20e-03,6.00e-02,
80,1.20e-03,1.00e-01,
81,-8.00e-04,6.00e-02,
82,-8.00e-04,8.00e-02,
83,2.00e-03,6.00e-02,
84,-2.80e-03,8.00e-02,
85,4.00e-03,6.00e-02,
86,-4.40e-03,6.00e-02,
87,6.80e-03,8.00e-02,
88,9.20e-03,8.00e-02,
89,-1.04e-02,6.00e-02,
90,1.36e-02,6.00e-02,
91,-1.44e-02,8.00e-02,
92,-1.12e-02,6.00e-02,
93,1.00e-02,8.00e-02,
94,6.80e-03,6.00e-02,
95,-4.00e-03,8.00e-02,
96,-2.80e-03,6.00e-02,
97,2.40e-03,8.00e-02,
98,2.00e-03,6.00e-02,
99,-8.00e-04,8.00e-02,
100,-8.00e-04,8.00e-02,
101,2.00e-03,4.00e-02,
102,2.00e-03,8.00e-02,
103,0.00e+00,4.00e-02,
104,0.00e+00,8.00e-02,
105,2.00e-03,2.00e-02,
106,2.00e-03,2.00e-02,
107,-1.60e-03,8.00e-02,
108,-2.80e-03,8.00e-02,
109,4.80e-03,2.00e-02,
110,2.00e-03,2.00e-02,
111,7.20e-03,1.86e+00,
112,6.40e-03,1.60e-01,
113,1.20e-03,1.20e-01,
114,2.80e-03,1.40e-01,
115,-4.00e-04,8.00e-02,
116,0.00e+00,1.00e-01,
117,2.00e-03,8.00e-02,
118,2.00e-03,1.00e-01,
119,0.00e+00,6.00e-02,
120,-8.00e-04,6.00e-02,
121,1.60e-03,1.00e-01,
122,2.40e-03,6.00e-02,
123,0.00e+00,8.00e-02,
124,3.60e-03,6.00e-02,
125,-2.40e-03,8.00e-02,
126,-4.00e-03,8.00e-02,
127,5.60e-03,6.00e-02,
128,8.80e-03,6.00e-02,
129,-1.00e-02,8.00e-02,
130,1.24e-02,6.00e-02,
131,-1.24e-02,8.00e-02,
132,-8.80e-03,8.00e-02,
133,9.20e-03,2.00e-02,
134,6.00e-03,6.00e-02,
135,-4.00e-03,8.00e-02,
136,-2.40e-03,8.00e-02,
137,2.80e-03,4.00e-02,
138,2.00e-03,8.00e-02,
139,-8.00e-04,2.00e-02,
140,0.00e+00,8.00e-02,
141,2.00e-03,2.00e-02,
142,2.00e-03,8.00e-02,
143,-8.00e-04,2.00e-02,
144,4.00e-04,8.00e-02,
145,2.00e-03,2.00e-02,
146,2.40e-03,8.00e-02,
147,-4.00e-04,2.00e-02,
148,-1.60e-03,2.00e-02,
149,4.00e-03,8.00e-02,
150,2.80e-03,2.00e-02,
151,7.20e-03,2.00e+00,
152,6.40e-03,1.60e-01,
153,4.00e-04,1.20e-01,
154,4.00e-04,8.00e-02,
155,3.60e-03,1.40e-01,
156,0.00e+00,1.00e-01,
157,2.00e-03,6.00e-02,
158,-4.00e-04,1.00e-01,
159,2.40e-03,6.00e-02,
160,-8.00e-04,6.00e-02,
161,2.00e-03,1.00e-01,
162,2.00e-03,6.00e-02,
163,-8.00e-04,8.00e-02,
164,2.40e-03,6.00e-02,
165,-1.20e-03,8.00e-02,
166,-2.40e-03,6.00e-02,
167,5.20e-03,8.00e-02,
168,6.00e-03,6.00e-02,
169,-6.00e-03,8.00e-02,
170,1.00e-02,8.00e-02,
171,-1.00e-02,6.00e-02,
172,-9.60e-03,6.00e-02,
173,7.20e-03,8.00e-02,
174,5.60e-03,6.00e-02,
175,-4.00e-03,8.00e-02,
176,-1.60e-03,8.00e-02,
177,2.40e-03,6.00e-02,
178,1.20e-03,8.00e-02,
179,-8.00e-04,2.00e-02,
180,1.20e-03,8.00e-02,
181,0.00e+00,4.00e-02,
182,1.20e-03,8.00e-02,
183,0.00e+00,2.00e-02,
184,0.00e+00,8.00e-02,
185,1.20e-03,2.00e-02,
186,2.00e-03,4.00e-02,
187,0.00e+00,8.00e-02,
188,-1.20e-03,8.00e-02,
189,3.20e-03,2.00e-02,
190,2.80e-03,2.00e-02,
191,7.20e-03,1.96e+00,
192,6.40e-03,1.60e-01,
193,8.00e-04,1.20e-01,
194,3.60e-03,1.20e-01,
195,0.00e+00,8.00e-02,
196,0.00e+00,1.00e-01,
197,2.00e-03,8.00e-02,
198,2.00e-03,1.00e-01,
199,-8.00e-04,6.00e-02,
200,-8.00e-04,1.00e-01,
201,2.00e-03,6.00e-02,
202,0.00e+00,6.00e-02,
203,2.00e-03,8.00e-02,
204,-1.60e-03,6.00e-02,
205,2.40e-03,8.00e-02,
206,-3.20e-03,6.00e-02,
207,4.40e-03,8.00e-02,
208,6.80e-03,8.00e-02,
209,-5.60e-03,6.00e-02,
210,8.40e-03,6.00e-02,
211,-7.60e-03,8.00e-02,
212,-7.60e-03,6.00e-02,
213,6.40e-03,8.00e-02,
214,4.00e-03,6.00e-02,
215,-2.40e-03,8.00e-02,
216,2.80e-03,6.00e-02,
217,-1.20e-03,8.00e-02,
218,-8.00e-04,8.00e-02,
219,2.00e-03,6.00e-02,
220,0.00e+00,6.00e-02,
221,2.00e-03,8.00e-02,
222,2.00e-03,6.00e-02,
223,-8.00e-04,8.00e-02,
224,0.00e+00,8.00e-02,
225,2.00e-03,2.00e-02,
226,1.60e-03,8.00e-02,
227,-4.00e-04,2.00e-02,
228,-1.60e-03,4.00e-02,
229,3.20e-03,8.00e-02,
230,2.80e-03,-2.00e-02,
231,7.20e-03,1.94e+00,
232,6.00e-03,1.60e-01,
233,8.00e-04,1.20e-01,
234,3.60e-03,1.40e-01,
235,0.00e+00,8.00e-02,
236,0.00e+00,1.00e-01,
237,2.00e-03,8.00e-02,
238,0.00e+00,1.00e-01,
239,2.40e-03,6.00e-02,
240,-8.00e-04,1.00e-01,
241,2.00e-03,6.00e-02,
242,4.00e-04,6.00e-02,
243,2.00e-03,8.00e-02,
244,-8.00e-04,6.00e-02,
245,2.40e-03,8.00e-02,
246,-2.40e-03,6.00e-02,
247,4.00e-03,8.00e-02,
248,5.60e-03,8.00e-02,
249,-5.60e-03,6.00e-02,
250,8.00e-03,8.00e-02,
251,-6.80e-03,6.00e-02,
252,-6.00e-03,6.00e-02,
253,5.60e-03,8.00e-02,
254,4.00e-03,8.00e-02,
255,-2.40e-03,6.00e-02,
256,-1.60e-03,8.00e-02,
257,2.40e-03,2.00e-02,
258,2.40e-03,6.00e-02,
259,0.00e+00,8.00e-02,
260,2.00e-03,6.00e-02,
261,-4.00e-04,8.00e-02,
262,-1.20e-03,8.00e-02,
263,2.00e-03,4.00e-02,
264,0.00e+00,8.00e-02,
265,2.00e-03,2.00e-02,
266,2.00e-03,8.00e-02,
267,-1.20e-03,2.00e-02,
268,-1.60e-03,2.00e-02,
269,3.60e-03,8.00e-02,
270,2.80e-03,2.00e-02,
271,7.20e-03,1.90e+00,
272,6.80e-03,1.60e-01,
273,1.20e-03,1.20e-01,
274,4.80e-03,1.40e-01,
275,-8.00e-04,8.00e-02,
276,-1.20e-03,8.00e-02,
277,2.00e-03,1.00e-01,
278,2.40e-03,1.00e-01,
279,-8.00e-04,6.00e-02,
280,-8.00e-04,1.00e-01,
281,1.60e-03,6.00e-02,
282,1.20e-03,6.00e-02,
283,0.00e+00,8.00e-02,
284,-8.00e-04,6.00e-02,
285,2.00e-03,8.00e-02,
286,-1.20e-03,6.00e-02,
287,3.60e-03,8.00e-02,
288,4.40e-03,6.00e-02,
289,-4.40e-03,8.00e-02,
290,6.80e-03,6.00e-02,
291,-6.00e-03,8.00e-02,
292,-6.00e-03,8.00e-02,
293,5.20e-03,6.00e-02,
294,3.60e-03,6.00e-02,
295,-2.40e-03,8.00e-02,
296,-1.20e-03,8.00e-02,
297,2.00e-03,6.00e-02,
298,1.20e-03,8.00e-02,
299,-8.00e-04,4.00e-02,
300,1.20e-03,8.00e-02,
301,-8.00e-04,2.00e-02,
302,1.20e-03,8.00e-02,
303,0.00e+00,2.00e-02,
304,1.20e-03,8.00e-02,
305,-8.00e-04,2.00e-02,
306,2.00e-03,8.00e-02,
307,-8.00e-04,2.00e-02,
308,-1.60e-03,8.00e-02,
309,2.80e-03,2.00e-02,
310,3.20e-03,1.94e+00,
311,7.20e-03,-2.00e-02,
312,6.40e-03,1.60e-01,
313,1.20e-03,1.20e-01,
314,4.00e-03,1.20e-01,
315,-8.00e-04,8.00e-02,
316,2.00e-03,1.00e-01,
317,-8.00e-04,8.00e-02,
318,2.00e-03,1.00e-01,
319,0.00e+00,6.00e-02,
320,-8.00e-04,1.00e-01,
321,2.00e-03,6.00e-02,
322,2.00e-03,6.00e-02,
323,-8.00e-04,8.00e-02,
324,-8.00e-04,8.00e-02,
325,2.00e-03,6.00e-02,
326,-1.60e-03,6.00e-02,
327,2.80e-03,8.00e-02,
328,4.80e-03,6.00e-02,
329,-3.60e-03,8.00e-02,
330,-6.00e-03,6.00e-02,
331,6.00e-03,8.00e-02,
332,-4.40e-03,8.00e-02,
333,4.80e-03,6.00e-02,
334,3.60e-03,6.00e-02,
335,-1.60e-03,8.00e-02,
336,-1.20e-03,6.00e-02,
337,1.20e-03,8.00e-02,
338,2.00e-03,8.00e-02,
339,-4.00e-04,6.00e-02,
340,1.20e-03,6.00e-02,
341,-8.00e-04,8.00e-02,
342,2.00e-03,6.00e-02,
343,-8.00e-04,8.00e-02,
344,-8.00e-04,8.00e-02,
345,1.20e-03,2.00e-02,
346,2.40e-03,8.00e-02,
347,-8.00e-04,4.00e-02,
348,2.80e-03,8.00e-02,
349,-2.40e-03,2.00e-02,
350,3.20e-03,4.00e-02,
351,8.00e-03,1.70e+00,
352,6.80e-03,1.60e-01,
353,8.00e-04,1.20e-01,
354,4.80e-03,1.40e-01,
355,-8.00e-04,8.00e-02,
356,2.40e-03,8.00e-02,
357,-8.00e-04,1.00e-01,
358,2.00e-03,1.00e-01,
359,-8.00e-04,6.00e-02,
360,-8.00e-04,1.00e-01,
361,1.20e-03,6.00e-02,
362,0.00e+00,6.00e-02,
363,1.60e-03,8.00e-02,
364,1.20e-03,8.00e-02,
365,-8.00e-04,6.00e-02,
366,2.40e-03,6.00e-02,
367,-1.60e-03,8.00e-02,
368,4.80e-03,6.00e-02,
369,-3.20e-03,8.00e-02,
370,5.60e-03,6.00e-02,
371,-4.40e-03,8.00e-02,
372,-4.40e-03,6.00e-02,
373,4.80e-03,8.00e-02,
374,2.80e-03,6.00e-02,
375,-1.60e-03,8.00e-02,
376,-1.20e-03,6.00e-02,
377,1.20e-03,8.00e-02,
378,1.20e-03,8.00e-02,
379,-8.00e-04,4.00e-02,
380,0.00e+00,8.00e-02,
381,1.20e-03,4.00e-02,
382,2.00e-03,8.00e-02,
383,-8.00e-04,2.00e-02,
384,1.20e-03,8.00e-02,
385,-1.20e-03,2.00e-02,
386,-1.20e-03,8.00e-02,
387,1.60e-03,2.00e-02,
388,2.40e-03,2.00e-02,
389,-2.80e-03,8.00e-02,
390,2.00e-03,2.00e-02,
391,7.20e-03,1.78e+00,
392,6.40e-03,1.60e-01,
393,4.00e-04,1.20e-01,
394,4.80e-03,8.00e-02,
395,-8.00e-04,1.40e-01,
396,2.40e-03,1.00e-01,
397,-1.20e-03,8.00e-02,
398,2.00e-03,1.00e-01,
399,-1.20e-03,6.00e-02,
400,-8.00e-04,1.00e-01,
401,2.00e-03,6.00e-02,
402,1.20e-03,8.00e-02,
403,0.00e+00,6.00e-02,
404,-8.00e-04,6.00e-02,
405,2.00e-03,8.00e-02,
406,-8.00e-04,6.00e-02,
407,2.80e-03,8.00e-02,
408,3.60e-03,6.00e-02,
409,-2.40e-03,8.00e-02,
410,-4.00e-03,6.00e-02,
411,5.20e-03,8.00e-02,
412,-3.60e-03,8.00e-02,
413,3.60e-03,6.00e-02,
414,2.80e-03,6.00e-02,
415,-1.20e-03,8.00e-02,
416,-8.00e-04,6.00e-02,
417,2.00e-03,8.00e-02,
418,1.20e-03,8.00e-02,
419,-8.00e-04,6.00e-02,
420,2.00e-03,6.00e-02,
421,0.00e+00,8.00e-02,
422,2.00e-03,8.00e-02,
423,0.00e+00,2.00e-02,
424,0.00e+00,8.00e-02,
425,2.40e-03,4.00e-02,
426,-4.00e-04,8.00e-02,
427,2.40e-03,4.00e-02,
428,2.80e-03,8.00e-02,
429,-2.80e-03,2.00e-02,
430,2.80e-03,1.94e+00,
431,7.60e-03,-2.00e-02,
432,6.80e-03,1.60e-01,
433,4.00e-04,1.20e-01,
434,4.80e-03,1.20e-01,
435,-1.20e-03,8.00e-02,
436,-8.00e-04,1.00e-01,
437,2.40e-03,8.00e-02,
438,2.00e-03,1.00e-01,
439,-8.00e-04,8.00e-02,
440,0.00e+00,1.00e-01,
441,1.20e-03,6.00e-02,
442,1.20e-03,6.00e-02,
443,0.00e+00,8.00e-02,
444,0.00e+00,8.00e-02,
445,2.40e-03,6.00e-02,
446,2.40e-03,6.00e-02,
447,-4.00e-04,8.00e-02,
448,3.20e-03,6.00e-02,
449,-2.80e-03,8.00e-02,
450,4.40e-03,6.00e-02,
451,-3.60e-03,8.00e-02,
452,-2.80e-03,8.00e-02,
453,3.60e-03,6.00e-02,
454,2.40e-03,6.00e-02,
455,-1.20e-03,8.00e-02,
456,-8.00e-04,8.00e-02,
457,2.00e-03,6.00e-02,
458,1.20e-03,6.00e-02,
459,-4.00e-04,8.00e-02,
460,1.20e-03,6.00e-02,
461,-4.00e-04,8.00e-02,
462,1.20e-03,6.00e-02,
463,0.00e+00,8.00e-02,
464,-8.00e-04,8.00e-02,
465,2.00e-03,4.00e-02,
466,-1.20e-03,8.00e-02,
467,2.40e-03,2.00e-02,
468,-2.80e-03,8.00e-02,
469,3.60e-03,2.00e-02,
470,3.20e-03,2.00e-02,
471,7.20e-03,1.76e+00,
472,6.40e-03,1.80e-01,
473,4.00e-04,1.20e-01,
474,4.80e-03,1.40e-01,
475,-1.20e-03,8.00e-02,
476,2.40e-03,1.00e-01,
477,-1.20e-03,8.00e-02,
478,-8.00e-04,1.00e-01,
479,2.00e-03,6.00e-02,
480,-8.00e-04,1.00e-01,
481,2.00e-03,6.00e-02,
482,1.20e-03,6.00e-02,
483,-4.00e-04,8.00e-02,
484,1.20e-03,8.00e-02,
485,-8.00e-04,6.00e-02,
486,2.00e-03,6.00e-02,
487,-1.20e-03,8.00e-02,
488,2.40e-03,8.00e-02,
489,-2.40e-03,6.00e-02,
490,4.00e-03,6.00e-02,
491,-2.80e-03,8.00e-02,
492,-2.80e-03,6.00e-02,
493,2.80e-03,8.00e-02,
494,2.40e-03,6.00e-02,
495,-8.00e-04,8.00e-02,
496,1.20e-03,6.00e-02,
497,-8.00e-04,8.00e-02,
498,1.20e-03,8.00e-02,
499,-8.00e-04,4.00e-02,
500,-8.00e-04,8.00e-02,
501,1.60e-03,2.00e-02,
502,1.20e-03,8.00e-02,
503,-8.00e-04,4.00e-02,
504,-8.00e-04,8.00e-02,
505,2.00e-03,2.00e-02,
506,-8.00e-04,8.00e-02,
507,2.40e-03,2.00e-02,
508,3.60e-03,2.00e-02,
509,-2.80e-03,8.00e-02,
510,2.00e-03,2.00e-02,
511,7.60e-03,1.94e+00,
512,6.80e-03,1.60e-01,
513,4.00e-04,1.20e-01,
514,4.80e-03,1.40e-01,
515,-1.20e-03,8.00e-02,
516,-1.20e-03,1.00e-01,
517,2.80e-03,8.00e-02,
518,2.40e-03,1.00e-01,
519,-8.00e-04,6.00e-02,
520,-8.00e-04,1.00e-01,
521,1.20e-03,6.00e-02,
522,1.20e-03,6.00e-02,
523,0.00e+00,8.00e-02,
524,-8.00e-04,6.00e-02,
525,1.20e-03,8.00e-02,
526,-8.00e-04,6.00e-02,
527,2.00e-03,8.00e-02,
528,2.40e-03,6.00e-02,
529,-1.60e-03,8.00e-02,
530,3.60e-03,6.00e-02,
531,-2.40e-03,8.00e-02,
532,-1.60e-03,8.00e-02,
533,2.40e-03,6.00e-02,
534,-8.00e-04,8.00e-02,
535,2.00e-03,6.00e-02,
536,-8.00e-04,8.00e-02,
537,1.20e-03,4.00e-02,
538,4.00e-04,8.00e-02,
539,1.20e-03,2.00e-02,
540,0.00e+00,8.00e-02,
541,2.00e-03,2.00e-02,
542,2.00e-03,8.00e-02,
543,-8.00e-04,2.00e-02,
544,2.00e-03,8.00e-02,
545,-8.00e-04,2.00e-02,
546,2.40e-03,8.00e-02,
547,-1.20e-03,2.00e-02,
548,2.80e-03,8.00e-02,
549,-3.20e-03,2.00e-02,
550,1.60e-03,1.94e+00,
551,7.60e-03,-2.00e-02,
552,6.40e-03,1.60e-01,
553,1.20e-03,1.20e-01,
554,5.20e-03,8.00e-02,
555,-1.20e-03,1.40e-01,
556,-1.20e-03,8.00e-02,
557,2.40e-03,1.00e-01,
558,2.00e-03,1.00e-01,
559,-1.20e-03,6.00e-02,
560,-8.00e-04,1.00e-01,
561,2.00e-03,6.00e-02,
562,1.20e-03,6.00e-02,
563,-4.00e-04,8.00e-02,
564,-8.00e-04,6.00e-02,
565,1.20e-03,8.00e-02,
566,2.00e-03,6.00e-02,
567,0.00e+00,8.00e-02,
568,2.40e-03,6.00e-02,
569,-1.20e-03,8.00e-02,
570,2.80e-03,8.00e-02,
571,-2.40e-03,6.00e-02,
572,-1.60e-03,6.00e-02,
573,2.40e-03,8.00e-02,
574,2.40e-03,8.00e-02,
575,0.00e+00,6.00e-02,
576,-4.00e-04,8.00e-02,
577,1.20e-03,4.00e-02,
578,1.20e-03,6.00e-02,
579,0.00e+00,8.00e-02,
580,1.20e-03,6.00e-02,
581,-4.00e-04,8.00e-02,
582,2.00e-03,8.00e-02,
583,-8.00e-04,2.00e-02,
584,-1.20e-03,8.00e-02,
585,2.00e-03,2.00e-02,
586,-1.60e-03,8.00e-02,
587,2.80e-03,2.00e-02,
588,3.60e-03,8.00e-02,
589,-3.20e-03,2.00e-02,
590,2.40e-03,2.00e-02,
591,7.20e-03,1.80e+00,
592,6.40e-03,1.60e-01,
593,8.00e-04,1.20e-01,
594,5.20e-03,1.40e-01,
595,-1.20e-03,8.00e-02,
596,-8.00e-04,1.00e-01,
597,2.80e-03,8.00e-02,
598,2.40e-03,1.00e-01,
599,-8.00e-04,6.00e-02,
600,2.00e-03,1.00e-01,
601,-8.00e-04,6.00e-02,
602,8.00e-04,6.00e-02,
603,-8.00e-04,1.00e-01,
604,-8.00e-04,6.00e-02,
605,1.20e-03,8.00e-02,
606,1.60e-03,6.00e-02,
607,-8.00e-04,8.00e-02,
608,2.00e-03,6.00e-02,
609,-1.60e-03,8.00e-02,
610,3.60e-03,6.00e-02,
611,-1.60e-03,8.00e-02,
612,-1.60e-03,8.00e-02,
613,2.00e-03,6.00e-02,
614,2.40e-03,6.00e-02,
615,0.00e+00,8.00e-02,
616,-8.00e-04,6.00e-02,
617,1.60e-03,8.00e-02,
618,1.20e-03,6.00e-02,
619,0.00e+00,8.00e-02,
620,1.20e-03,8.00e-02,
621,-8.00e-04,4.00e-02,
622,2.00e-03,8.00e-02,
623,0.00e+00,2.00e-02,
624,-8.00e-04,8.00e-02,
625,2.40e-03,2.00e-02,
626,2.40e-03,2.00e-02,
627,-1.20e-03,8.00e-02,
628,3.60e-03,8.00e-02,
629,-3.20e-03,2.00e-02,
630,1.60e-03,2.00e-02,
631,7.20e-03,1.82e+00,
632,6.40e-03,1.60e-01,
633,4.00e-04,1.20e-01,
634,5.60e-03,1.40e-01,
635,-1.20e-03,8.00e-02,
636,-1.20e-03,1.00e-01,
637,2.40e-03,6.00e-02,
638,2.40e-03,1.00e-01,
639,-8.00e-04,6.00e-02,
640,-8.00e-04,6.00e-02,
641,1.60e-03,1.00e-01,
642,1.20e-03,6.00e-02,
643,0.00e+00,8.00e-02,
644,2.00e-03,6.00e-02,
645,0.00e+00,8.00e-02,
646,1.20e-03,6.00e-02,
647,-8.00e-04,8.00e-02,
648,2.40e-03,6.00e-02,
649,-1.20e-03,8.00e-02,
650,-1.20e-03,6.00e-02,
651,3.20e-03,8.00e-02,
652,-1.20e-03,6.00e-02,
653,2.40e-03,8.00e-02,
654,2.40e-03,6.00e-02,
655,0.00e+00,8.00e-02,
656,-4.00e-04,8.00e-02,
657,1.20e-03,6.00e-02,
658,1.20e-03,8.00e-02,
659,0.00e+00,4.00e-02,
660,1.20e-03,8.00e-02,
661,-8.00e-04,2.00e-02,
662,1.20e-03,8.00e-02,
663,-8.00e-04,2.00e-02,
664,-8.00e-04,8.00e-02,
665,1.60e-03,2.00e-02,
666,2.40e-03,8.00e-02,
667,-1.60e-03,2.00e-02,
668,4.00e-03,8.00e-02,
669,-3.60e-03,2.00e-02,
670,1.60e-03,-1.00e-01,
671,7.20e-03,2.00e+00,
672,6.80e-03,1.80e-01,
673,4.00e-04,1.20e-01,
674,5.60e-03,1.40e-01,
675,-1.20e-03,8.00e-02,
676,-1.20e-03,8.00e-02,
677,2.40e-03,1.00e-01,
678,-8.00e-04,1.00e-01,
679,2.40e-03,6.00e-02,
680,-8.00e-04,1.00e-01,
681,2.00e-03,6.00e-02,
682,2.00e-03,8.00e-02,
683,0.00e+00,6.00e-02,
684,0.00e+00,6.00e-02,
685,1.20e-03,8.00e-02,
686,2.00e-03,6.00e-02,
687,-8.00e-04,8.00e-02,
688,1.60e-03,6.00e-02,
689,-1.20e-03,8.00e-02,
690,2.40e-03,6.00e-02,
691,-1.20e-03,8.00e-02,
692,-8.00e-04,6.00e-02,
693,2.40e-03,8.00e-02,
694,1.60e-03,6.00e-02,
695,0.00e+00,8.00e-02,
696,-8.00e-04,6.00e-02,
697,1.20e-03,8.00e-02,
698,-8.00e-04,6.00e-02,
699,8.00e-04,8.00e-02,
700,1.20e-03,6.00e-02,
701,-8.00e-04,8.00e-02,
702,-4.00e-04,8.00e-02,
703,2.00e-03,2.00e-02,
704,-8.00e-04,8.00e-02,
705,2.00e-03,2.00e-02,
706,2.40e-03,8.00e-02,
707,-1.60e-03,2.00e-02,
708,4.00e-03,8.00e-02,
709,-3.60e-03,2.00e-02,
710,1.20e-03,2.00e-02,
711,7.20e-03,2.00e+00,
712,6.40e-03,1.60e-01,
713,8.00e-04,1.20e-01,
714,5.60e-03,1.20e-01,
715,-1.20e-03,8.00e-02,
716,-1.20e-03,1.00e-01,
717,2.40e-03,8.00e-02,
718,2.00e-03,1.00e-01,
719,-8.00e-04,6.00e-02,
720,0.00e+00,1.00e-01,
721,1.20e-03,6.00e-02,
722,1.20e-03,8.00e-02,
723,0.00e+00,6.00e-02,
724,1.20e-03,6.00e-02,
725,0.00e+00,8.00e-02,
726,8.00e-04,6.00e-02,
727,-8.00e-04,8.00e-02,
728,-8.00e-04,6.00e-02,
729,2.00e-03,8.00e-02,
730,2.80e-03,8.00e-02,
731,-8.00e-04,6.00e-02,
732,-1.20e-03,6.00e-02,
733,1.20e-03,8.00e-02,
734,1.20e-03,8.00e-02,
735,0.00e+00,6.00e-02,
736,8.00e-04,8.00e-02,
737,-8.00e-04,6.00e-02,
738,1.20e-03,8.00e-02,
739,-4.00e-04,4.00e-02,
740,1.20e-03,8.00e-02,
741,-8.00e-04,2.00e-02,
742,0.00e+00,2.00e-02,
743,2.40e-03,8.00e-02,
744,-8.00e-04,2.00e-02,
745,2.00e-03,8.00e-02,
746,-8.00e-04,8.00e-02,
747,3.60e-03,2.00e-02,
748,4.40e-03,8.00e-02,
749,-4.00e-03,2.00e-02,
750,1.60e-03,2.00e-02,
751,7.20e-03,1.70e+00,
752,6.40e-03,1.60e-01,
753,0.00e+00,1.20e-01,
754,6.40e-03,1.40e-01,
755,-1.60e-03,8.00e-02,
756,-1.20e-03,1.00e-01,
757,2.80e-03,8.00e-02,
758,2.80e-03,1.00e-01,
759,-8.00e-04,6.00e-02,
760,0.00e+00,1.00e-01,
761,1.20e-03,6.00e-02,
762,1.20e-03,8.00e-02,
763,0.00e+00,6.00e-02,
764,1.60e-03,6.00e-02,
765,-8.00e-04,8.00e-02,
766,1.20e-03,6.00e-02,
767,0.00e+00,8.00e-02,
768,2.00e-03,6.00e-02,
769,-8.00e-04,8.00e-02,
770,2.40e-03,8.00e-02,
771,-8.00e-04,6.00e-02,
772,-8.00e-04,8.00e-02,
773,1.60e-03,6.00e-02,
774,1.20e-03,6.00e-02,
775,0.00e+00,8.00e-02,
776,1.20e-03,6.00e-02,
777,0.00e+00,8.00e-02,
778,1.20e-03,8.00e-02,
779,-4.00e-04,4.00e-02,
780,0.00e+00,8.00e-02,
781,1.20e-03,4.00e-02,
782,1.60e-03,8.00e-02,
783,-4.00e-04,4.00e-02,
784,-1.20e-03,8.00e-02,
785,2.00e-03,2.00e-02,
786,-1.60e-03,8.00e-02,
787,2.80e-03,2.00e-02,
788,4.00e-03,8.00e-02,
789,-4.00e-03,2.00e-02,
790,1.20e-03,2.00e-02,
791,7.60e-03,1.82e+00,
792,6.40e-03,1.60e-01,
793,4.00e-04,1.20e-01,
794,5.60e-03,1.40e-01,
795,-1.60e-03,8.00e-02,
796,3.20e-03,1.00e-01,
797,-1.20e-03,8.00e-02,
798,2.40e-03,1.00e-01,
799,-8.00e-04,6.00e-02,
800,-8.00e-04,6.00e-02,
801,2.00e-03,1.00e-01,
802,2.00e-03,6.00e-02,
803,0.00e+00,8.00e-02,
804,0.00e+00,6.00e-02,
805,2.00e-03,8.00e-02,
806,1.20e-03,8.00e-02,
807,-8.00e-04,6.00e-02,
808,-4.00e-04,8.00e-02,
809,2.00e-03,6.00e-02,
810,2.00e-03,6.00e-02,
811,-1.20e-03,8.00e-02,
812,-8.00e-04,6.00e-02,
813,2.40e-03,8.00e-02,
814,4.00e-04,6.00e-02,
815,2.00e-03,8.00e-02,
816,1.20e-03,6.00e-02,
817,0.00e+00,8.00e-02,
818,-8.00e-04,8.00e-02,
819,1.20e-03,6.00e-02,
820,0.00e+00,8.00e-02,
821,1.20e-03,4.00e-02,
822,2.00e-03,8.00e-02,
823,-8.00e-04,4.00e-02,
824,2.00e-03,8.00e-02,
825,-1.20e-03,2.00e-02,
826,2.40e-03,2.00e-02,
827,-1.60e-03,8.00e-02,
828,4.00e-03,8.00e-02,
829,-4.00e-03,2.00e-02,
830,1.20e-03,1.76e+00,
831,7.20e-03,0.00e+00,
832,6.40e-03,1.60e-01,
833,4.00e-04,1.20e-01,
834,6.40e-03,1.40e-01,
835,-1.20e-03,8.00e-02,
836,-1.60e-03,8.00e-02,
837,2.40e-03,1.00e-01,
838,2.40e-03,1.00e-01,
839,-8.00e-04,6.00e-02,
840,1.20e-03,6.00e-02,
841,-8.00e-04,1.00e-01,
842,4.00e-04,8.00e-02,
843,2.00e-03,6.00e-02,
844,0.00e+00,6.00e-02,
845,1.60e-03,8.00e-02,
846,1.20e-03,8.00e-02,
847,4.00e-04,6.00e-02,
848,2.00e-03,6.00e-02,
849,-8.00e-04,8.00e-02,
850,2.40e-03,6.00e-02,
851,-8.00e-04,8.00e-02,
852,2.00e-03,6.00e-02,
853,-8.00e-04,8.00e-02,
854,0.00e+00,8.00e-02,
855,1.20e-03,6.00e-02,
856,0.00e+00,8.00e-02,
