CarrPurc_P1-19_P2-38_tauVary/Gly97/NewFile1.csv

X,CH1,CH2,Start,Increment,
Sequence,Volt,Volt,-6.000000e-04,1.000000e-04
0,1.20e-03,4.00e-02,
1,4.00e-04,0.00e+00,
2,1.20e-03,4.00e-02,
3,0.00e+00,0.00e+00,
4,0.00e+00,4.00e-02,
5,1.20e-03,0.00e+00,
6,1.20e-03,4.00e-02,
7,-8.00e-04,0.00e+00,
8,-4.00e-04,4.00e-02,
9,1.20e-03,0.00e+00,
10,0.00e+00,1.88e+00,
11,5.20e-03,-4.00e-02,
12,5.20e-03,1.60e-01,
13,-2.76e-02,8.00e-02,
14,-1.44e-02,1.20e-01,
15,1.60e-02,8.00e-02,
16,6.80e-03,1.00e-01,
17,-8.40e-03,6.00e-02,
18,4.00e-03,1.00e-01,
19,-2.40e-03,6.00e-02,
20,-1.60e-03,6.00e-02,
21,3.20e-03,1.00e-01,
22,2.80e-03,6.00e-02,
23,-1.60e-03,8.00e-02,
24,-1.60e-03,8.00e-02,
25,2.40e-03,6.00e-02,
26,2.40e-03,6.00e-02,
27,-8.00e-04,8.00e-02,
28,-8.00e-04,6.00e-02,
29,2.00e-03,8.00e-02,
30,8.00e-04,6.00e-02,
31,6.80e-03,1.92e+00,
32,6.40e-03,1.60e-01,
33,-7.20e-03,8.00e-02,
34,-6.80e-03,1.20e-01,
35,6.40e-03,8.00e-02,
36,3.60e-03,1.00e-01,
37,-1.20e-03,8.00e-02,
38,0.00e+00,1.00e-01,
39,2.40e-03,6.00e-02,
40,-1.20e-03,6.00e-02,
41,2.00e-03,1.00e-01,
42,2.00e-03,6.00e-02,
43,-4.00e-04,8.00e-02,
44,-2.40e-03,6.00e-02,
45,5.20e-03,8.00e-02,
46,8.40e-03,6.00e-02,
47,-8.40e-03,8.00e-02,
48,-1.40e-02,8.00e-02,
49,1.72e-02,6.00e-02,
50,-1.88e-02,6.00e-02,
51,2.00e-02,8.00e-02,
52,-1.84e-02,6.00e-02,
53,1.60e-02,8.00e-02,
54,1.08e-02,8.00e-02,
55,-7.20e-03,4.00e-02,
56,-4.40e-03,6.00e-02,
57,5.20e-03,8.00e-02,
58,2.80e-03,8.00e-02,
59,-1.20e-03,4.00e-02,
60,-4.00e-04,4.00e-02,
61,2.40e-03,8.00e-02,
62,-8.00e-04,8.00e-02,
63,1.60e-03,4.00e-02,
64,2.00e-03,8.00e-02,
65,-8.00e-04,2.00e-02,
66,-8.00e-04,2.00e-02,
67,2.00e-03,8.00e-02,
68,1.20e-03,8.00e-02,
69,-8.00e-04,2.00e-02,
70,4.00e-04,2.00e-02,
71,6.80e-03,1.96e+00,
72,6.40e-03,1.60e-01,
73,1.20e-03,1.00e-01,
74,3.60e-03,1.40e-01,
75,0.00e+00,8.00e-02,
76,2.40e-03,1.00e-01,
77,-8.00e-04,8.00e-02,
78,2.40e-03,1.00e-01,
79,-8.00e-04,6.00e-02,
80,-8.00e-04,6.00e-02,
81,2.00e-03,1.00e-01,
82,2.40e-03,8.00e-02,
83,-1.20e-03,6.00e-02,
84,-2.80e-03,8.00e-02,
85,5.20e-03,6.00e-02,
86,-4.40e-03,6.00e-02,
87,7.20e-03,8.00e-02,
88,1.08e-02,8.00e-02,
89,-1.16e-02,6.00e-02,
90,1.52e-02,6.00e-02,
91,-1.44e-02,8.00e-02,
92,-1.16e-02,6.00e-02,
93,1.04e-02,8.00e-02,
94,7.20e-03,6.00e-02,
95,-4.40e-03,8.00e-02,
96,-2.80e-03,8.00e-02,
97,3.20e-03,2.00e-02,
98,2.40e-03,8.00e-02,
99,-8.00e-04,2.00e-02,
100,-8.00e-04,8.00e-02,
101,2.40e-03,2.00e-02,
102,2.40e-03,8.00e-02,
103,-8.00e-04,2.00e-02,
104,-8.00e-04,8.00e-02,
105,2.00e-03,2.00e-02,
106,2.80e-03,2.00e-02,
107,-1.60e-03,8.00e-02,
108,-2.80e-03,2.00e-02,
109,4.80e-03,8.00e-02,
110,2.80e-03,2.00e-02,
111,7.20e-03,1.66e+00,
112,6.40e-03,1.60e-01,
113,1.20e-03,1.00e-01,
114,3.60e-03,8.00e-02,
115,0.00e+00,1.40e-01,
116,0.00e+00,1.00e-01,
117,2.00e-03,6.00e-02,
118,2.40e-03,1.00e-01,
119,-4.00e-04,6.00e-02,
120,-8.00e-04,6.00e-02,
121,1.60e-03,1.00e-01,
122,-8.00e-04,6.00e-02,
123,2.00e-03,8.00e-02,
124,3.60e-03,6.00e-02,
125,-2.80e-03,8.00e-02,
126,-4.40e-03,8.00e-02,
127,6.40e-03,6.00e-02,
128,9.60e-03,6.00e-02,
129,-1.20e-02,8.00e-02,
130,1.48e-02,6.00e-02,
131,-1.44e-02,8.00e-02,
132,-1.04e-02,6.00e-02,
133,9.60e-03,8.00e-02,
134,6.80e-03,8.00e-02,
135,-4.80e-03,4.00e-02,
136,-2.00e-03,8.00e-02,
137,4.00e-03,4.00e-02,
138,2.40e-03,8.00e-02,
139,0.00e+00,2.00e-02,
140,2.40e-03,8.00e-02,
141,-8.00e-04,2.00e-02,
142,2.40e-03,8.00e-02,
143,-8.00e-04,2.00e-02,
144,-8.00e-04,8.00e-02,
145,1.20e-03,2.00e-02,
146,-8.00e-04,2.00e-02,
147,2.40e-03,8.00e-02,
148,-2.40e-03,2.00e-02,
149,4.40e-03,8.00e-02,
150,3.20e-03,2.00e-02,
151,7.20e-03,1.92e+00,
152,6.40e-03,1.60e-01,
153,-8.00e-04,1.20e-01,
154,3.60e-03,1.20e-01,
155,-8.00e-04,8.00e-02,
156,2.00e-03,1.00e-01,
157,-4.00e-04,6.00e-02,
158,2.00e-03,6.00e-02,
159,-1.20e-03,1.00e-01,
160,-8.00e-04,6.00e-02,
161,2.00e-03,1.00e-01,
162,2.80e-03,6.00e-02,
163,-8.00e-04,8.00e-02,
164,2.40e-03,6.00e-02,
165,-1.60e-03,8.00e-02,
166,-2.80e-03,6.00e-02,
167,5.20e-03,8.00e-02,
168,6.40e-03,6.00e-02,
169,-6.40e-03,8.00e-02,
170,-1.00e-02,8.00e-02,
171,1.16e-02,6.00e-02,
172,-8.80e-03,6.00e-02,
173,8.40e-03,8.00e-02,
174,5.60e-03,8.00e-02,
175,-3.20e-03,2.00e-02,
176,-1.60e-03,8.00e-02,
177,2.80e-03,2.00e-02,
178,2.00e-03,8.00e-02,
179,0.00e+00,2.00e-02,
180,0.00e+00,8.00e-02,
181,2.00e-03,2.00e-02,
182,2.40e-03,8.00e-02,
183,0.00e+00,2.00e-02,
184,2.00e-03,8.00e-02,
185,0.00e+00,2.00e-02,
186,2.00e-03,8.00e-02,
187,-1.20e-03,2.00e-02,
188,-2.40e-03,8.00e-02,
189,2.80e-03,2.00e-02,
190,2.80e-03,1.96e+00,
191,7.20e-03,-2.00e-02,
192,6.40e-03,1.60e-01,
193,4.00e-04,1.20e-01,
194,3.60e-03,1.20e-01,
195,0.00e+00,8.00e-02,
196,0.00e+00,1.00e-01,
197,2.00e-03,6.00e-02,
198,0.00e+00,1.00e-01,
199,2.40e-03,6.00e-02,
200,1.20e-03,6.00e-02,
201,-8.00e-04,1.00e-01,
202,-4.00e-04,6.00e-02,
203,2.00e-03,8.00e-02,
204,-1.60e-03,6.00e-02,
205,2.80e-03,8.00e-02,
206,-1.60e-03,6.00e-02,
207,5.20e-03,8.00e-02,
208,6.80e-03,8.00e-02,
209,-5.60e-03,6.00e-02,
210,1.00e-02,6.00e-02,
211,-7.20e-03,8.00e-02,
212,-6.80e-03,6.00e-02,
213,6.80e-03,8.00e-02,
214,4.00e-03,6.00e-02,
215,-2.80e-03,8.00e-02,
216,-1.20e-03,6.00e-02,
217,2.40e-03,8.00e-02,
218,1.60e-03,8.00e-02,
219,-8.00e-04,4.00e-02,
220,-8.00e-04,8.00e-02,
221,1.20e-03,4.00e-02,
222,1.60e-03,2.00e-02,
223,-4.00e-04,8.00e-02,
224,1.20e-03,8.00e-02,
225,-8.00e-04,2.00e-02,
226,1.60e-03,8.00e-02,
227,-1.20e-03,2.00e-02,
228,-1.60e-03,2.00e-02,
229,3.20e-03,8.00e-02,
230,2.80e-03,4.00e-02,
231,7.20e-03,1.84e+00,
232,6.40e-03,1.60e-01,
233,4.00e-04,1.20e-01,
234,4.00e-03,1.40e-01,
235,-8.00e-04,8.00e-02,
236,2.00e-03,1.00e-01,
237,-4.00e-04,8.00e-02,
238,2.00e-03,1.00e-01,
239,-4.00e-04,6.00e-02,
240,0.00e+00,6.00e-02,
241,2.40e-03,1.00e-01,
242,2.00e-03,6.00e-02,
243,0.00e+00,8.00e-02,
244,2.00e-03,6.00e-02,
245,-1.60e-03,8.00e-02,
246,-2.40e-03,6.00e-02,
247,4.80e-03,8.00e-02,
248,6.40e-03,8.00e-02,
249,-6.00e-03,6.00e-02,
250,8.40e-03,8.00e-02,
251,-7.60e-03,6.00e-02,
252,-6.00e-03,6.00e-02,
253,5.60e-03,8.00e-02,
254,4.40e-03,8.00e-02,
255,-3.20e-03,2.00e-02,
256,-1.60e-03,8.00e-02,
257,2.40e-03,2.00e-02,
258,2.00e-03,2.00e-02,
259,-8.00e-04,8.00e-02,
260,1.20e-03,8.00e-02,
261,-8.00e-04,2.00e-02,
262,2.00e-03,8.00e-02,
263,-8.00e-04,2.00e-02,
264,-8.00e-04,2.00e-02,
265,1.60e-03,8.00e-02,
266,2.40e-03,8.00e-02,
267,-1.20e-03,2.00e-02,
268,-2.80e-03,2.00e-02,
269,3.60e-03,8.00e-02,
270,2.80e-03,2.00e-02,
271,7.20e-03,1.80e+00,
272,6.40e-03,1.60e-01,
273,0.00e+00,8.00e-02,
274,4.00e-03,1.40e-01,
275,-8.00e-04,8.00e-02,
276,-1.20e-03,8.00e-02,
277,2.40e-03,1.00e-01,
278,2.40e-03,1.00e-01,
279,-8.00e-04,6.00e-02,
280,-4.00e-04,6.00e-02,
281,2.00e-03,1.00e-01,
282,2.00e-03,6.00e-02,
283,0.00e+00,8.00e-02,
284,2.00e-03,6.00e-02,
285,-1.20e-03,8.00e-02,
286,-1.60e-03,6.00e-02,
287,3.60e-03,8.00e-02,
288,4.80e-03,6.00e-02,
289,-4.40e-03,8.00e-02,
290,6.80e-03,6.00e-02,
291,-6.40e-03,8.00e-02,
292,-6.00e-03,8.00e-02,
293,5.60e-03,6.00e-02,
294,4.00e-03,8.00e-02,
295,-2.40e-03,4.00e-02,
296,-1.20e-03,8.00e-02,
297,2.80e-03,4.00e-02,
298,2.40e-03,8.00e-02,
299,0.00e+00,4.00e-02,
300,0.00e+00,8.00e-02,
301,1.20e-03,2.00e-02,
302,1.20e-03,2.00e-02,
303,-8.00e-04,8.00e-02,
304,-8.00e-04,2.00e-02,
305,1.20e-03,8.00e-02,
306,-8.00e-04,8.00e-02,
307,2.00e-03,2.00e-02,
308,3.20e-03,8.00e-02,
309,-1.60e-03,2.00e-02,
310,2.80e-03,1.92e+00,
311,7.20e-03,-2.00e-02,
312,6.40e-03,1.60e-01,
313,4.00e-04,1.20e-01,
314,4.40e-03,1.20e-01,
315,-8.00e-04,8.00e-02,
316,2.40e-03,1.00e-01,
317,-8.00e-04,6.00e-02,
318,2.40e-03,1.00e-01,
319,0.00e+00,6.00e-02,
320,2.40e-03,6.00e-02,
321,-4.00e-04,1.00e-01,
322,1.60e-03,6.00e-02,
323,-8.00e-04,1.00e-01,
324,2.00e-03,8.00e-02,
325,-1.20e-03,6.00e-02,
326,-1.60e-03,6.00e-02,
327,4.00e-03,8.00e-02,
328,5.20e-03,6.00e-02,
329,-4.00e-03,8.00e-02,
330,-5.20e-03,6.00e-02,
331,7.20e-03,8.00e-02,
332,-4.00e-03,8.00e-02,
333,5.20e-03,2.00e-02,
334,3.60e-03,6.00e-02,
335,-1.60e-03,8.00e-02,
336,-8.00e-04,8.00e-02,
337,2.00e-03,4.00e-02,
338,2.00e-03,8.00e-02,
339,-8.00e-04,2.00e-02,
340,1.20e-03,8.00e-02,
341,-8.00e-04,2.00e-02,
342,0.00e+00,8.00e-02,
343,1.60e-03,4.00e-02,
344,2.00e-03,2.00e-02,
345,-8.00e-04,8.00e-02,
346,2.40e-03,8.00e-02,
347,-1.20e-03,2.00e-02,
348,3.60e-03,8.00e-02,
349,-2.80e-03,2.00e-02,
350,3.20e-03,2.00e-02,
351,8.00e-03,1.70e+00,
352,6.80e-03,1.60e-01,
353,4.00e-04,1.20e-01,
354,4.00e-03,1.40e-01,
355,-1.20e-03,8.00e-02,
356,-8.00e-04,8.00e-02,
357,2.40e-03,1.00e-01,
358,2.00e-03,6.00e-02,
359,-8.00e-04,1.00e-01,
360,-8.00e-04,6.00e-02,
361,1.20e-03,1.00e-01,
362,-4.00e-04,6.00e-02,
363,2.00e-03,8.00e-02,
364,0.00e+00,8.00e-02,
365,2.40e-03,6.00e-02,
366,-1.60e-03,6.00e-02,
367,3.20e-03,8.00e-02,
368,4.00e-03,6.00e-02,
369,-4.00e-03,8.00e-02,
370,-5.20e-03,6.00e-02,
371,5.60e-03,8.00e-02,
372,-4.40e-03,8.00e-02,
373,4.40e-03,2.00e-02,
374,3.60e-03,8.00e-02,
375,-1.20e-03,4.00e-02,
376,-1.20e-03,2.00e-02,
377,2.00e-03,8.00e-02,
378,2.40e-03,2.00e-02,
379,0.00e+00,8.00e-02,
380,-8.00e-04,8.00e-02,
381,1.20e-03,2.00e-02,
382,-8.00e-04,2.00e-02,
383,2.40e-03,8.00e-02,
384,-8.00e-04,2.00e-02,
385,2.00e-03,8.00e-02,
386,-1.20e-03,8.00e-02,
387,2.40e-03,2.00e-02,
388,3.60e-03,2.00e-02,
389,-2.80e-03,8.00e-02,
390,3.60e-03,2.00e-02,
391,7.20e-03,1.88e+00,
392,6.40e-03,1.60e-01,
393,0.00e+00,1.20e-01,
394,4.80e-03,1.20e-01,
395,-1.20e-03,8.00e-02,
396,-8.00e-04,1.00e-01,
397,2.40e-03,8.00e-02,
398,2.40e-03,1.00e-01,
399,-8.00e-04,6.00e-02,
400,2.40e-03,1.00e-01,
401,-8.00e-04,6.00e-02,
402,0.00e+00,8.00e-02,
403,2.00e-03,6.00e-02,
404,2.00e-03,6.00e-02,
405,-8.00e-04,8.00e-02,
406,-1.20e-03,6.00e-02,
407,2.80e-03,8.00e-02,
408,3.60e-03,6.00e-02,
409,-2.80e-03,8.00e-02,
410,-4.00e-03,6.00e-02,
411,5.20e-03,8.00e-02,
412,-3.60e-03,8.00e-02,
413,4.00e-03,6.00e-02,
414,2.80e-03,8.00e-02,
415,-8.00e-04,4.00e-02,
416,-8.00e-04,4.00e-02,
417,2.00e-03,8.00e-02,
418,1.60e-03,8.00e-02,
419,-8.00e-04,4.00e-02,
420,0.00e+00,8.00e-02,
421,1.60e-03,2.00e-02,
422,0.00e+00,8.00e-02,
423,1.60e-03,2.00e-02,
424,-8.00e-04,8.00e-02,
425,2.00e-03,2.00e-02,
426,-1.20e-03,8.00e-02,
427,2.40e-03,2.00e-02,
428,3.20e-03,8.00e-02,
429,-3.20e-03,2.00e-02,
430,3.20e-03,1.94e+00,
431,7.60e-03,-6.00e-02,
432,6.40e-03,1.60e-01,
433,0.00e+00,8.00e-02,
434,4.40e-03,1.20e-01,
435,-1.20e-03,8.00e-02,
436,-1.20e-03,1.00e-01,
437,2.80e-03,8.00e-02,
438,-8.00e-04,1.00e-01,
439,2.40e-03,6.00e-02,
440,-8.00e-04,6.00e-02,
441,2.00e-03,1.00e-01,
442,1.20e-03,6.00e-02,
443,0.00e+00,8.00e-02,
444,-8.00e-04,8.00e-02,
445,2.00e-03,6.00e-02,
446,-1.20e-03,6.00e-02,
447,2.80e-03,8.00e-02,
448,3.60e-03,6.00e-02,
449,-2.80e-03,8.00e-02,
450,4.40e-03,8.00e-02,
451,-3.60e-03,2.00e-02,
452,-2.80e-03,8.00e-02,
453,4.00e-03,2.00e-02,
454,2.40e-03,8.00e-02,
455,-1.20e-03,2.00e-02,
456,-8.00e-04,8.00e-02,
457,1.20e-03,2.00e-02,
458,1.60e-03,8.00e-02,
459,0.00e+00,2.00e-02,
460,1.20e-03,8.00e-02,
461,-8.00e-04,2.00e-02,
462,2.00e-03,2.00e-02,
463,0.00e+00,8.00e-02,
464,-8.00e-04,2.00e-02,
465,2.00e-03,8.00e-02,
466,-1.20e-03,2.00e-02,
467,2.80e-03,8.00e-02,
468,3.60e-03,8.00e-02,
469,-3.20e-03,2.00e-02,
470,2.80e-03,2.00e-02,
471,7.20e-03,1.96e+00,
472,6.00e-03,1.60e-01,
473,0.00e+00,1.20e-01,
474,5.20e-03,1.20e-01,
475,-1.20e-03,8.00e-02,
476,-8.00e-04,1.00e-01,
477,2.40e-03,8.00e-02,
478,-4.00e-04,1.00e-01,
479,2.40e-03,6.00e-02,
480,-8.00e-04,1.00e-01,
481,1.60e-03,6.00e-02,
482,2.00e-03,6.00e-02,
483,-8.00e-04,8.00e-02,
484,0.00e+00,8.00e-02,
485,2.00e-03,6.00e-02,
486,-8.00e-04,6.00e-02,
487,2.40e-03,8.00e-02,
488,2.80e-03,8.00e-02,
489,-2.40e-03,6.00e-02,
490,-2.80e-03,6.00e-02,
491,4.40e-03,8.00e-02,
492,-2.40e-03,4.00e-02,
493,3.20e-03,8.00e-02,
494,2.40e-03,8.00e-02,
495,-8.00e-04,4.00e-02,
496,-8.00e-04,2.00e-02,
497,1.60e-03,8.00e-02,
498,-4.00e-04,8.00e-02,
499,2.00e-03,2.00e-02,
500,0.00e+00,8.00e-02,
501,2.40e-03,2.00e-02,
502,2.00e-03,8.00e-02,
503,-1.20e-03,2.00e-02,
504,-8.00e-04,2.00e-02,
505,2.00e-03,8.00e-02,
506,-1.20e-03,2.00e-02,
507,3.20e-03,8.00e-02,
508,4.00e-03,2.00e-02,
509,-4.00e-03,8.00e-02,
510,3.60e-03,2.00e-02,
511,8.00e-03,1.92e+00,
512,6.80e-03,1.60e-01,
513,1.20e-03,1.00e-01,
514,5.20e-03,1.40e-01,
515,-1.20e-03,8.00e-02,
516,-1.20e-03,1.00e-01,
517,2.80e-03,6.00e-02,
518,2.40e-03,6.00e-02,
519,-1.20e-03,1.00e-01,
520,1.20e-03,6.00e-02,
521,-4.00e-04,1.00e-01,
522,2.00e-03,6.00e-02,
523,0.00e+00,8.00e-02,
524,0.00e+00,6.00e-02,
525,2.00e-03,8.00e-02,
526,2.40e-03,6.00e-02,
527,-8.00e-04,8.00e-02,
528,2.40e-03,6.00e-02,
529,-1.60e-03,8.00e-02,
530,4.00e-03,6.00e-02,
531,-2.80e-03,8.00e-02,
532,-1.60e-03,8.00e-02,
533,2.80e-03,4.00e-02,
534,2.00e-03,8.00e-02,
535,-8.00e-04,2.00e-02,
536,0.00e+00,8.00e-02,
537,1.20e-03,2.00e-02,
538,1.20e-03,8.00e-02,
539,0.00e+00,2.00e-02,
540,0.00e+00,2.00e-02,
541,2.00e-03,8.00e-02,
542,2.00e-03,8.00e-02,
543,-4.00e-04,2.00e-02,
544,-8.00e-04,8.00e-02,
545,1.60e-03,2.00e-02,
546,-1.20e-03,8.00e-02,
547,3.60e-03,2.00e-02,
548,4.00e-03,2.00e-02,
549,-3.20e-03,6.00e-02,
550,2.80e-03,2.00e+00,
551,7.60e-03,-2.00e-02,
552,6.40e-03,1.60e-01,
553,0.00e+00,1.00e-01,
554,4.80e-03,1.20e-01,
555,-1.60e-03,8.00e-02,
556,-1.20e-03,1.00e-01,
557,2.40e-03,6.00e-02,
558,2.40e-03,1.00e-01,
559,-8.00e-04,6.00e-02,
560,-8.00e-04,6.00e-02,
561,2.00e-03,1.00e-01,
562,1.20e-03,6.00e-02,
563,0.00e+00,8.00e-02,
564,0.00e+00,6.00e-02,
565,2.00e-03,8.00e-02,
566,-8.00e-04,6.00e-02,
567,2.40e-03,8.00e-02,
568,2.40e-03,6.00e-02,
569,-1.60e-03,8.00e-02,
570,-1.60e-03,8.00e-02,
571,3.60e-03,6.00e-02,
572,-1.60e-03,8.00e-02,
573,2.40e-03,4.00e-02,
574,-8.00e-04,8.00e-02,
575,2.00e-03,2.00e-02,
576,0.00e+00,8.00e-02,
577,2.40e-03,2.00e-02,
578,2.40e-03,8.00e-02,
579,0.00e+00,2.00e-02,
580,-8.00e-04,2.00e-02,
581,1.60e-03,8.00e-02,
582,2.40e-03,8.00e-02,
583,0.00e+00,2.00e-02,
584,-8.00e-04,8.00e-02,
585,2.40e-03,2.00e-02,
586,2.40e-03,8.00e-02,
587,-1.60e-03,2.00e-02,
588,4.00e-03,2.00e-02,
589,-2.80e-03,8.00e-02,
590,2.00e-03,2.00e-02,
591,7.60e-03,1.84e+00,
592,6.80e-03,1.60e-01,
593,8.00e-04,1.20e-01,
594,5.20e-03,1.40e-01,
595,-1.20e-03,8.00e-02,
596,-1.20e-03,1.00e-01,
597,2.80e-03,8.00e-02,
598,2.80e-03,1.00e-01,
599,-8.00e-04,6.00e-02,
600,0.00e+00,6.00e-02,
601,2.00e-03,8.00e-02,
602,1.60e-03,8.00e-02,
603,4.00e-04,6.00e-02,
604,0.00e+00,6.00e-02,
605,1.20e-03,8.00e-02,
606,2.00e-03,6.00e-02,
607,-4.00e-04,8.00e-02,
608,2.40e-03,6.00e-02,
609,-1.20e-03,8.00e-02,
610,-2.40e-03,6.00e-02,
611,2.80e-03,8.00e-02,
612,-1.20e-03,8.00e-02,
613,2.00e-03,6.00e-02,
614,2.00e-03,8.00e-02,
615,-8.00e-04,2.00e-02,
616,-8.00e-04,8.00e-02,
617,2.00e-03,4.00e-02,
618,1.20e-03,8.00e-02,
619,-8.00e-04,2.00e-02,
620,1.20e-03,8.00e-02,
621,-8.00e-04,2.00e-02,
622,-4.00e-04,8.00e-02,
623,2.00e-03,2.00e-02,
624,-8.00e-04,8.00e-02,
625,2.00e-03,2.00e-02,
626,2.40e-03,2.00e-02,
627,-1.60e-03,8.00e-02,
628,4.00e-03,2.00e-02,
629,-4.00e-03,8.00e-02,
630,1.60e-03,2.00e-02,
631,7.60e-03,1.82e+00,
632,6.40e-03,1.60e-01,
633,4.00e-04,1.00e-01,
634,6.00e-03,1.20e-01,
635,-1.20e-03,8.00e-02,
636,-1.20e-03,1.00e-01,
637,2.80e-03,6.00e-02,
638,2.40e-03,1.00e-01,
639,-8.00e-04,6.00e-02,
640,0.00e+00,6.00e-02,
641,2.40e-03,1.00e-01,
642,2.00e-03,6.00e-02,
643,0.00e+00,8.00e-02,
644,0.00e+00,6.00e-02,
645,1.60e-03,8.00e-02,
646,-4.00e-04,6.00e-02,
647,1.60e-03,8.00e-02,
648,-8.00e-04,6.00e-02,
649,2.40e-03,8.00e-02,
650,2.80e-03,6.00e-02,
651,-1.60e-03,8.00e-02,
652,-1.60e-03,6.00e-02,
653,2.00e-03,8.00e-02,
654,-8.00e-04,8.00e-02,
655,2.00e-03,2.00e-02,
656,-4.00e-04,8.00e-02,
657,1.20e-03,2.00e-02,
658,4.00e-04,8.00e-02,
659,1.60e-03,2.00e-02,
660,-4.00e-04,8.00e-02,
661,1.20e-03,2.00e-02,
662,-4.00e-04,8.00e-02,
663,1.60e-03,2.00e-02,
664,-8.00e-04,2.00e-02,
665,2.00e-03,8.00e-02,
666,-1.20e-03,8.00e-02,
667,3.60e-03,2.00e-02,
668,4.00e-03,8.00e-02,
669,-4.00e-03,2.00e-02,
670,3.20e-03,1.90e+00,
671,8.00e-03,-2.00e-02,
672,6.80e-03,1.60e-01,
673,4.00e-04,8.00e-02,
674,6.40e-03,1.20e-01,
675,-1.60e-03,8.00e-02,
676,-1.20e-03,8.00e-02,
677,2.40e-03,1.00e-01,
678,2.40e-03,1.00e-01,
679,-1.20e-03,6.00e-02,
680,-8.00e-04,6.00e-02,
681,1.60e-03,1.00e-01,
682,2.00e-03,8.00e-02,
683,0.00e+00,6.00e-02,
684,1.20e-03,6.00e-02,
685,-8.00e-04,8.00e-02,
686,-4.00e-04,6.00e-02,
687,2.00e-03,8.00e-02,
688,1.60e-03,6.00e-02,
689,-1.20e-03,8.00e-02,
690,-1.20e-03,6.00e-02,
691,2.80e-03,8.00e-02,
692,-8.00e-04,6.00e-02,
693,2.40e-03,8.00e-02,
694,1.60e-03,8.00e-02,
695,-8.00e-04,4.00e-02,
696,1.20e-03,8.00e-02,
697,0.00e+00,4.00e-02,
698,1.20e-03,8.00e-02,
699,0.00e+00,2.00e-02,
700,-4.00e-04,2.00e-02,
701,2.00e-03,8.00e-02,
702,-4.00e-04,8.00e-02,
703,2.40e-03,2.00e-02,
704,-8.00e-04,8.00e-02,
705,2.00e-03,2.00e-02,
706,-1.60e-03,8.00e-02,
707,3.20e-03,2.00e-02,
708,4.00e-03,2.00e-02,
709,-3.60e-03,8.00e-02,
710,2.40e-03,2.00e-02,
711,7.20e-03,1.72e+00,
712,6.40e-03,1.60e-01,
713,4.00e-04,1.20e-01,
714,5.60e-03,1.20e-01,
715,-1.60e-03,8.00e-02,
716,-1.20e-03,1.00e-01,
717,2.80e-03,6.00e-02,
718,2.40e-03,1.00e-01,
719,-8.00e-04,6.00e-02,
720,-4.00e-04,6.00e-02,
721,2.00e-03,1.00e-01,
722,1.20e-03,8.00e-02,
723,0.00e+00,6.00e-02,
724,-4.00e-04,6.00e-02,
725,1.20e-03,8.00e-02,
726,1.20e-03,6.00e-02,
727,-8.00e-04,8.00e-02,
728,-8.00e-04,6.00e-02,
729,2.00e-03,8.00e-02,
730,-1.20e-03,8.00e-02,
731,2.40e-03,6.00e-02,
732,-1.20e-03,6.00e-02,
733,2.40e-03,8.00e-02,
734,2.00e-03,8.00e-02,
735,0.00e+00,2.00e-02,
736,0.00e+00,8.00e-02,
737,1.60e-03,4.00e-02,
738,1.20e-03,8.00e-02,
739,4.00e-04,4.00e-02,
740,0.00e+00,8.00e-02,
741,1.20e-03,2.00e-02,
742,-8.00e-04,8.00e-02,
743,2.00e-03,2.00e-02,
744,-1.20e-03,2.00e-02,
745,2.00e-03,8.00e-02,
746,-1.20e-03,2.00e-02,
747,3.60e-03,8.00e-02,
748,4.40e-03,8.00e-02,
749,-4.00e-03,2.00e-02,
750,1.60e-03,2.00e-02,
751,8.00e-03,1.88e+00,
752,6.80e-03,1.80e-01,
753,0.00e+00,1.20e-01,
754,5.60e-03,1.40e-01,
755,-1.60e-03,8.00e-02,
756,-1.60e-03,1.00e-01,
757,3.20e-03,8.00e-02,
758,2.80e-03,1.00e-01,
759,-8.00e-04,6.00e-02,
760,-8.00e-04,1.00e-01,
761,2.00e-03,6.00e-02,
762,2.00e-03,8.00e-02,
763,-4.00e-04,6.00e-02,
764,1.20e-03,6.00e-02,
765,0.00e+00,8.00e-02,
766,0.00e+00,6.00e-02,
767,2.00e-03,8.00e-02,
768,2.00e-03,6.00e-02,
769,-8.00e-04,8.00e-02,
770,2.40e-03,8.00e-02,
771,-8.00e-04,6.00e-02,
772,2.40e-03,8.00e-02,
773,-8.00e-04,6.00e-02,
774,2.00e-03,6.00e-02,
775,0.00e+00,8.00e-02,
776,0.00e+00,8.00e-02,
777,1.20e-03,4.00e-02,
778,1.20e-03,8.00e-02,
779,0.00e+00,2.00e-02,
780,1.20e-03,2.00e-02,
781,-8.00e-04,8.00e-02,
782,-8.00e-04,8.00e-02,
783,2.00e-03,2.00e-02,
784,2.40e-03,2.00e-02,
785,-1.20e-03,8.00e-02,
786,-1.60e-03,2.00e-02,
787,3.60e-03,8.00e-02,
788,4.00e-03,8.00e-02,
789,-4.00e-03,2.00e-02,
790,1.20e-03,2.00e-02,
791,7.60e-03,1.94e+00,
792,6.40e-03,1.60e-01,
793,8.00e-04,1.20e-01,
794,6.00e-03,1.40e-01,
795,-1.20e-03,8.00e-02,
796,-1.60e-03,1.00e-01,
797,2.40e-03,6.00e-02,
798,2.40e-03,1.00e-01,
799,-1.60e-03,6.00e-02,
800,2.00e-03,6.00e-02,
801,-8.00e-04,1.00e-01,
802,2.00e-03,6.00e-02,
803,0.00e+00,8.00e-02,
804,0.00e+00,6.00e-02,
805,1.20e-03,8.00e-02,
806,2.00e-03,8.00e-02,
807,0.00e+00,6.00e-02,
808,0.00e+00,8.00e-02,
809,2.40e-03,6.00e-02,
810,2.40e-03,6.00e-02,
811,-4.00e-04,8.00e-02,
812,2.00e-03,8.00e-02,
813,-4.00e-04,4.00e-02,
814,1.60e-03,8.00e-02,
815,-4.00e-04,2.00e-02,
816,1.20e-03,2.00e-02,
817,0.00e+00,8.00e-02,
818,0.00e+00,8.00e-02,
819,1.60e-03,2.00e-02,
820,0.00e+00,2.00e-02,
821,2.40e-03,8.00e-02,
822,-8.00e-04,2.00e-02,
823,2.00e-03,8.00e-02,
824,2.40e-03,2.00e-02,
825,-1.20e-03,8.00e-02,
826,-1.60e-03,2.00e-02,
827,3.20e-03,8.00e-02,
828,4.40e-03,2.00e-02,
829,-4.40e-03,8.00e-02,
830,1.20e-03,2.00e-02,
831,8.00e-03,1.98e+00,
832,6.80e-03,1.60e-01,
833,0.00e+00,8.00e-02,
834,6.40e-03,1.20e-01,
835,-1.60e-03,8.00e-02,
836,-1.60e-03,8.00e-02,
837,2.80e-03,1.00e-01,
838,2.80e-03,1.00e-01,
839,-8.00e-04,6.00e-02,
840,-8.00e-04,6.00e-02,
841,1.60e-03,1.00e-01,
842,1.60e-03,8.00e-02,
843,0.00e+00,6.00e-02,
844,0.00e+00,6.00e-02,
845,1.20e-03,8.00e-02,
846,0.00e+00,8.00e-02,
847,2.00e-03,6.00e-02,
848,0.00e+00,6.00e-02,
849,2.00e-03,8.00e-02,
850,-8.00e-04,6.00e-02,
851,2.00e-03,8.00e-02,
852,-8.00e-04,8.00e-02,
853,2.00e-03,4.00e-02,
854,1.20e-03,8.00e-02,
855,-4.00e-04,4.00e-02,
856,0.00e+00,8.00e-02,
