CarrPurc_P1-19_P2-38_tauVary/Gly92/NewFile9.csv

X,CH1,CH2,Start,Increment,
Sequence,Volt,Volt,-5.000000e-03,1.000000e-04
0,8.00e-04,4.00e-02,
1,-4.00e-04,2.00e-02,
2,0.00e+00,4.00e-02,
3,8.00e-04,0.00e+00,
4,8.00e-04,4.00e-02,
5,-4.00e-04,2.00e-02,
6,0.00e+00,2.00e-02,
7,8.00e-04,4.00e-02,
8,8.00e-04,4.00e-02,
9,-4.00e-04,2.00e-02,
10,8.00e-04,4.00e-02,
11,-4.00e-04,2.00e-02,
12,-8.00e-04,4.00e-02,
13,8.00e-04,2.00e-02,
14,0.00e+00,4.00e-02,
15,1.20e-03,2.00e-02,
16,8.00e-04,4.00e-02,
17,-8.00e-04,2.00e-02,
18,8.00e-04,4.00e-02,
19,-8.00e-04,2.00e-02,
20,0.00e+00,2.00e-02,
21,1.20e-03,4.00e-02,
22,8.00e-04,4.00e-02,
23,0.00e+00,2.00e-02,
24,8.00e-04,4.00e-02,
25,-8.00e-04,2.00e-02,
26,8.00e-04,4.00e-02,
27,0.00e+00,2.00e-02,
28,0.00e+00,4.00e-02,
29,8.00e-04,2.00e-02,
30,0.00e+00,2.00e-02,
31,1.20e-03,4.00e-02,
32,-4.00e-04,4.00e-02,
33,8.00e-04,2.00e-02,
34,0.00e+00,4.00e-02,
35,1.20e-03,2.00e-02,
36,0.00e+00,4.00e-02,
37,8.00e-04,2.00e-02,
38,8.00e-04,4.00e-02,
39,0.00e+00,2.00e-02,
40,8.00e-04,2.00e-02,
41,-4.00e-04,4.00e-02,
42,8.00e-04,4.00e-02,
43,-8.00e-04,2.00e-02,
44,0.00e+00,4.00e-02,
45,8.00e-04,2.00e-02,
46,8.00e-04,4.00e-02,
47,0.00e+00,2.00e-02,
48,8.00e-04,4.00e-02,
49,0.00e+00,2.00e-02,
50,1.20e-03,4.00e-02,
51,0.00e+00,2.00e-02,
52,0.00e+00,2.00e-02,
53,1.20e-03,4.00e-02,
54,0.00e+00,1.82e+00,
55,4.80e-03,-2.00e-02,
56,2.80e-03,1.60e-01,
57,-3.04e-02,1.20e-01,
58,-1.88e-02,8.00e-02,
59,1.56e-02,1.40e-01,
60,8.40e-03,1.00e-01,
61,-8.40e-03,8.00e-02,
62,-3.60e-03,1.00e-01,
63,4.40e-03,6.00e-02,
64,-2.40e-03,6.00e-02,
65,2.40e-03,1.00e-01,
66,3.60e-03,6.00e-02,
67,-1.60e-03,8.00e-02,
68,-1.60e-03,8.00e-02,
69,2.80e-03,6.00e-02,
70,2.00e-03,6.00e-02,
71,-1.20e-03,8.00e-02,
72,-1.20e-03,8.00e-02,
73,1.60e-03,6.00e-02,
74,8.00e-04,6.00e-02,
75,7.60e-03,1.86e+00,
76,4.00e-03,1.60e-01,
77,-8.80e-03,1.20e-01,
78,-9.20e-03,1.20e-01,
79,5.60e-03,8.00e-02,
80,4.00e-03,1.00e-01,
81,-1.60e-03,8.00e-02,
82,-4.00e-04,1.00e-01,
83,2.00e-03,6.00e-02,
84,-1.60e-03,8.00e-02,
85,2.00e-03,6.00e-02,
86,2.00e-03,6.00e-02,
87,-1.20e-03,8.00e-02,
88,-3.20e-03,8.00e-02,
89,5.60e-03,6.00e-02,
90,9.60e-03,6.00e-02,
91,-1.08e-02,8.00e-02,
92,-1.56e-02,6.00e-02,
93,1.96e-02,8.00e-02,
94,-2.16e-02,6.00e-02,
95,2.40e-02,8.00e-02,
96,-2.08e-02,6.00e-02,
97,1.92e-02,8.00e-02,
98,1.24e-02,6.00e-02,
99,-1.00e-02,8.00e-02,
100,-6.00e-03,8.00e-02,
101,5.20e-03,6.00e-02,
102,2.40e-03,6.00e-02,
103,-1.20e-03,8.00e-02,
104,-8.00e-04,8.00e-02,
105,2.00e-03,2.00e-02,
106,1.60e-03,8.00e-02,
107,-1.20e-03,2.00e-02,
108,2.00e-03,8.00e-02,
109,-1.20e-03,2.00e-02,
110,0.00e+00,8.00e-02,
111,1.60e-03,2.00e-02,
112,1.20e-03,2.00e-02,
113,-8.00e-04,8.00e-02,
114,4.00e-04,2.00e-02,
115,7.20e-03,1.94e+00,
116,3.20e-03,1.60e-01,
117,-1.60e-03,1.20e-01,
118,-8.00e-04,1.40e-01,
119,2.00e-03,8.00e-02,
120,1.20e-03,1.00e-01,
121,-1.20e-03,6.00e-02,
122,-1.20e-03,1.00e-01,
123,2.00e-03,6.00e-02,
124,-1.20e-03,6.00e-02,
125,1.20e-03,1.00e-01,
126,2.40e-03,8.00e-02,
127,-1.60e-03,6.00e-02,
128,-4.40e-03,6.00e-02,
129,4.40e-03,8.00e-02,
130,-6.80e-03,6.00e-02,
131,8.80e-03,8.00e-02,
132,1.24e-02,6.00e-02,
133,-1.56e-02,8.00e-02,
134,1.80e-02,6.00e-02,
135,-1.88e-02,8.00e-02,
136,-1.60e-02,6.00e-02,
137,1.24e-02,8.00e-02,
138,8.00e-03,8.00e-02,
139,-6.80e-03,6.00e-02,
140,-4.40e-03,8.00e-02,
141,3.60e-03,2.00e-02,
142,2.40e-03,8.00e-02,
143,-1.60e-03,4.00e-02,
144,2.40e-03,8.00e-02,
145,-1.20e-03,2.00e-02,
146,2.00e-03,8.00e-02,
147,-1.20e-03,2.00e-02,
148,-1.20e-03,8.00e-02,
149,2.00e-03,2.00e-02,
150,2.80e-03,2.00e-02,
151,-2.40e-03,8.00e-02,
152,-4.40e-03,8.00e-02,
153,5.20e-03,2.00e-02,
154,2.80e-03,2.00e-02,
155,7.60e-03,1.74e+00,
156,2.80e-03,1.60e-01,
157,-1.20e-03,1.20e-01,
158,-4.00e-04,1.40e-01,
159,2.40e-03,8.00e-02,
160,1.20e-03,1.00e-01,
161,-1.20e-03,8.00e-02,
162,-8.00e-04,1.00e-01,
163,2.00e-03,6.00e-02,
164,-8.00e-04,1.00e-01,
165,2.40e-03,6.00e-02,
166,-8.00e-04,6.00e-02,
167,2.40e-03,8.00e-02,
168,3.60e-03,6.00e-02,
169,-3.60e-03,8.00e-02,
170,-6.00e-03,8.00e-02,
171,8.00e-03,6.00e-02,
172,1.16e-02,6.00e-02,
173,-1.48e-02,8.00e-02,
174,1.76e-02,6.00e-02,
175,-1.72e-02,8.00e-02,
176,-1.40e-02,8.00e-02,
177,1.28e-02,6.00e-02,
178,8.40e-03,8.00e-02,
179,-6.40e-03,6.00e-02,
180,-4.00e-03,8.00e-02,
181,3.60e-03,4.00e-02,
182,-1.20e-03,8.00e-02,
183,2.00e-03,6.00e-02,
184,-8.00e-04,8.00e-02,
185,2.00e-03,2.00e-02,
186,2.00e-03,8.00e-02,
187,-8.00e-04,2.00e-02,
188,-8.00e-04,8.00e-02,
189,1.20e-03,2.00e-02,
190,2.40e-03,8.00e-02,
191,-1.60e-03,2.00e-02,
192,-3.60e-03,8.00e-02,
193,5.20e-03,2.00e-02,
194,8.00e-03,2.00e-02,
195,2.80e-03,1.94e+00,
196,3.60e-03,1.60e-01,
197,-2.40e-03,1.20e-01,
198,-2.40e-03,1.40e-01,
199,2.40e-03,8.00e-02,
200,1.20e-03,8.00e-02,
201,-4.00e-04,1.00e-01,
202,2.00e-03,1.00e-01,
203,-1.20e-03,6.00e-02,
204,-1.60e-03,1.00e-01,
205,2.40e-03,6.00e-02,
206,-1.20e-03,6.00e-02,
207,2.40e-03,8.00e-02,
208,2.80e-03,8.00e-02,
209,-2.80e-03,6.00e-02,
210,-4.00e-03,6.00e-02,
211,6.40e-03,8.00e-02,
212,9.20e-03,6.00e-02,
213,-1.04e-02,8.00e-02,
214,-1.40e-02,6.00e-02,
215,1.44e-02,8.00e-02,
216,-1.28e-02,6.00e-02,
217,1.12e-02,8.00e-02,
218,6.80e-03,8.00e-02,
219,-5.60e-03,6.00e-02,
220,-3.60e-03,6.00e-02,
221,2.80e-03,8.00e-02,
222,-4.00e-04,6.00e-02,
223,1.60e-03,8.00e-02,
224,1.20e-03,8.00e-02,
225,-8.00e-04,2.00e-02,
226,1.20e-03,8.00e-02,
227,-1.20e-03,2.00e-02,
228,1.20e-03,8.00e-02,
229,-4.00e-04,2.00e-02,
230,-1.20e-03,2.00e-02,
231,1.20e-03,8.00e-02,
232,-2.40e-03,2.00e-02,
233,3.60e-03,8.00e-02,
234,7.20e-03,2.00e-02,
235,2.80e-03,1.80e+00,
236,2.80e-03,1.60e-01,
237,-1.60e-03,1.20e-01,
238,-1.20e-03,1.40e-01,
239,2.40e-03,8.00e-02,
240,2.00e-03,1.00e-01,
241,-8.00e-04,8.00e-02,
242,1.20e-03,1.00e-01,
243,-1.20e-03,6.00e-02,
244,1.20e-03,6.00e-02,
245,-8.00e-04,1.00e-01,
246,2.00e-03,6.00e-02,
247,-1.60e-03,8.00e-02,
248,-2.80e-03,8.00e-02,
249,3.20e-03,6.00e-02,
250,-4.80e-03,8.00e-02,
251,6.80e-03,6.00e-02,
252,9.20e-03,6.00e-02,
253,-1.12e-02,8.00e-02,
254,-1.44e-02,8.00e-02,
255,1.44e-02,6.00e-02,
256,-1.24e-02,8.00e-02,
257,1.04e-02,6.00e-02,
258,6.80e-03,6.00e-02,
259,-4.40e-03,8.00e-02,
260,-2.80e-03,6.00e-02,
261,2.40e-03,8.00e-02,
262,-8.00e-04,8.00e-02,
263,1.60e-03,2.00e-02,
264,-1.20e-03,8.00e-02,
265,2.00e-03,4.00e-02,
266,2.00e-03,8.00e-02,
267,-1.20e-03,2.00e-02,
268,-1.20e-03,2.00e-02,
269,1.20e-03,8.00e-02,
270,-1.20e-03,2.00e-02,
271,1.60e-03,8.00e-02,
272,-1.60e-03,8.00e-02,
273,3.60e-03,2.00e-02,
274,8.00e-03,2.00e-02,
275,2.80e-03,1.92e+00,
276,3.20e-03,1.60e-01,
277,-1.60e-03,1.20e-01,
278,-8.00e-04,1.20e-01,
279,2.40e-03,8.00e-02,
280,1.20e-03,1.00e-01,
281,-8.00e-04,8.00e-02,
282,1.60e-03,1.00e-01,
283,-8.00e-04,6.00e-02,
284,-1.20e-03,1.00e-01,
285,1.20e-03,6.00e-02,
286,2.00e-03,6.00e-02,
287,-8.00e-04,8.00e-02,
288,2.40e-03,6.00e-02,
289,-2.40e-03,8.00e-02,
290,-4.40e-03,6.00e-02,
291,6.00e-03,8.00e-02,
292,9.60e-03,8.00e-02,
293,-1.00e-02,6.00e-02,
294,1.28e-02,6.00e-02,
295,-1.32e-02,8.00e-02,
296,-1.12e-02,8.00e-02,
297,9.60e-03,6.00e-02,
298,6.40e-03,8.00e-02,
299,-4.40e-03,6.00e-02,
300,-2.80e-03,8.00e-02,
301,2.80e-03,4.00e-02,
302,2.00e-03,8.00e-02,
303,-1.20e-03,4.00e-02,
304,-1.20e-03,8.00e-02,
305,1.60e-03,2.00e-02,
306,2.40e-03,8.00e-02,
307,-1.20e-03,2.00e-02,
308,-8.00e-04,8.00e-02,
309,1.20e-03,2.00e-02,
310,-1.20e-03,8.00e-02,
311,2.00e-03,2.00e-02,
312,-1.60e-03,2.00e-02,
313,3.60e-03,8.00e-02,
314,7.20e-03,2.00e-02,
315,2.80e-03,1.90e+00,
316,3.20e-03,1.60e-01,
317,-1.20e-03,1.20e-01,
318,2.40e-03,1.40e-01,
319,-8.00e-04,8.00e-02,
320,2.40e-03,1.00e-01,
321,-8.00e-04,6.00e-02,
322,2.00e-03,1.00e-01,
323,-1.20e-03,6.00e-02,
324,-1.20e-03,8.00e-02,
325,1.20e-03,6.00e-02,
326,1.60e-03,6.00e-02,
327,-8.00e-04,8.00e-02,
328,2.40e-03,6.00e-02,
329,-2.00e-03,8.00e-02,
330,-3.60e-03,6.00e-02,
331,5.20e-03,8.00e-02,
332,7.20e-03,8.00e-02,
333,-8.80e-03,6.00e-02,
334,-1.16e-02,6.00e-02,
335,1.16e-02,8.00e-02,
336,-1.04e-02,6.00e-02,
337,9.20e-03,8.00e-02,
338,6.40e-03,8.00e-02,
339,-4.40e-03,6.00e-02,
340,-2.80e-03,8.00e-02,
341,2.40e-03,4.00e-02,
342,1.20e-03,8.00e-02,
343,-1.20e-03,2.00e-02,
344,-8.00e-04,8.00e-02,
345,2.00e-03,2.00e-02,
346,1.20e-03,8.00e-02,
347,-8.00e-04,2.00e-02,
348,0.00e+00,2.00e-02,
349,2.00e-03,8.00e-02,
350,-8.00e-04,6.00e-02,
351,2.00e-03,2.00e-02,
352,-2.00e-03,2.00e-02,
353,3.60e-03,6.00e-02,
354,8.00e-03,2.00e-02,
355,2.80e-03,1.88e+00,
356,2.80e-03,1.60e-01,
357,-2.00e-03,1.20e-01,
358,-1.20e-03,1.40e-01,
359,2.80e-03,8.00e-02,
360,1.20e-03,1.00e-01,
361,-1.20e-03,6.00e-02,
362,2.00e-03,1.00e-01,
363,-1.20e-03,6.00e-02,
364,1.20e-03,8.00e-02,
365,-1.20e-03,6.00e-02,
366,2.00e-03,6.00e-02,
367,-8.00e-04,8.00e-02,
368,2.80e-03,6.00e-02,
369,-2.40e-03,8.00e-02,
370,-3.60e-03,6.00e-02,
371,5.20e-03,8.00e-02,
372,7.20e-03,6.00e-02,
373,-8.00e-03,8.00e-02,
374,1.04e-02,6.00e-02,
375,-1.08e-02,8.00e-02,
376,-8.80e-03,6.00e-02,
377,6.80e-03,8.00e-02,
378,5.20e-03,8.00e-02,
379,-2.80e-03,4.00e-02,
380,-1.60e-03,6.00e-02,
381,2.40e-03,8.00e-02,
382,1.20e-03,8.00e-02,
383,-8.00e-04,2.00e-02,
384,-8.00e-04,8.00e-02,
385,1.60e-03,2.00e-02,
386,2.00e-03,8.00e-02,
387,-8.00e-04,2.00e-02,
388,-1.20e-03,8.00e-02,
389,2.00e-03,2.00e-02,
390,-1.20e-03,8.00e-02,
391,1.60e-03,2.00e-02,
392,-2.80e-03,8.00e-02,
393,3.60e-03,2.00e-02,
394,7.20e-03,-2.00e-02,
395,2.00e-03,1.92e+00,
396,3.20e-03,1.60e-01,
397,-1.60e-03,1.20e-01,
398,-8.00e-04,8.00e-02,
399,2.40e-03,1.40e-01,
400,2.00e-03,1.00e-01,
401,-1.20e-03,8.00e-02,
402,1.20e-03,1.00e-01,
403,-8.00e-04,6.00e-02,
404,-1.20e-03,1.00e-01,
405,2.00e-03,6.00e-02,
406,-8.00e-04,6.00e-02,
407,2.00e-03,8.00e-02,
408,2.00e-03,6.00e-02,
409,-1.60e-03,8.00e-02,
410,-3.60e-03,6.00e-02,
411,4.80e-03,8.00e-02,
412,6.80e-03,8.00e-02,
413,-7.60e-03,6.00e-02,
414,1.00e-02,6.00e-02,
415,-9.20e-03,8.00e-02,
416,-7.60e-03,6.00e-02,
417,6.80e-03,8.00e-02,
418,5.20e-03,8.00e-02,
419,-3.20e-03,4.00e-02,
420,-1.60e-03,6.00e-02,
421,2.40e-03,8.00e-02,
422,2.00e-03,8.00e-02,
423,-1.20e-03,2.00e-02,
424,-1.20e-03,8.00e-02,
425,1.20e-03,2.00e-02,
426,2.00e-03,8.00e-02,
427,-1.20e-03,2.00e-02,
428,-1.20e-03,8.00e-02,
429,2.00e-03,2.00e-02,
430,2.00e-03,2.00e-02,
431,-8.00e-04,8.00e-02,
432,2.80e-03,2.00e-02,
433,-2.80e-03,8.00e-02,
434,2.00e-03,2.00e-02,
435,7.60e-03,1.88e+00,
436,3.20e-03,1.60e-01,
437,-1.60e-03,1.20e-01,
438,2.80e-03,1.20e-01,
439,-1.20e-03,8.00e-02,
440,-8.00e-04,8.00e-02,
441,2.40e-03,1.00e-01,
442,2.00e-03,1.00e-01,
443,-8.00e-04,6.00e-02,
444,-1.20e-03,1.00e-01,
445,2.00e-03,6.00e-02,
446,-8.00e-04,6.00e-02,
447,2.00e-03,8.00e-02,
448,2.00e-03,6.00e-02,
449,-1.60e-03,8.00e-02,
450,-2.80e-03,6.00e-02,
451,4.00e-03,8.00e-02,
452,6.40e-03,8.00e-02,
453,-6.00e-03,6.00e-02,
454,-8.40e-03,6.00e-02,
455,1.00e-02,8.00e-02,
456,-7.20e-03,8.00e-02,
457,7.20e-03,6.00e-02,
458,5.20e-03,8.00e-02,
459,-3.60e-03,2.00e-02,
460,-2.40e-03,8.00e-02,
461,2.40e-03,4.00e-02,
462,2.00e-03,8.00e-02,
463,-8.00e-04,2.00e-02,
464,-1.20e-03,8.00e-02,
465,1.20e-03,2.00e-02,
466,-8.00e-04,2.00e-02,
467,2.00e-03,8.00e-02,
468,1.20e-03,8.00e-02,
469,-1.60e-03,2.00e-02,
470,-1.20e-03,2.00e-02,
471,2.40e-03,8.00e-02,
472,2.40e-03,2.00e-02,
473,-2.80e-03,8.00e-02,
474,2.80e-03,2.00e-02,
475,7.20e-03,1.92e+00,
476,3.20e-03,1.60e-01,
477,-2.00e-03,1.20e-01,
478,3.60e-03,8.00e-02,
479,-1.20e-03,1.40e-01,
480,-1.20e-03,1.00e-01,
481,1.60e-03,8.00e-02,
482,-1.20e-03,1.00e-01,
483,2.40e-03,6.00e-02,
484,-8.00e-04,8.00e-02,
485,2.00e-03,6.00e-02,
486,1.20e-03,6.00e-02,
487,-1.20e-03,8.00e-02,
488,-1.60e-03,8.00e-02,
489,2.40e-03,6.00e-02,
490,-3.20e-03,6.00e-02,
491,4.00e-03,8.00e-02,
492,5.60e-03,6.00e-02,
493,-6.00e-03,8.00e-02,
494,8.40e-03,6.00e-02,
495,-8.40e-03,8.00e-02,
496,-6.80e-03,8.00e-02,
497,7.20e-03,2.00e-02,
498,4.00e-03,8.00e-02,
499,-3.60e-03,2.00e-02,
500,-1.60e-03,8.00e-02,
501,2.40e-03,2.00e-02,
502,2.00e-03,8.00e-02,
503,-4.00e-04,2.00e-02,
504,1.20e-03,8.00e-02,
505,-1.20e-03,2.00e-02,
506,-8.00e-04,8.00e-02,
507,2.00e-03,2.00e-02,
508,-8.00e-04,2.00e-02,
509,1.60e-03,8.00e-02,
510,-8.00e-04,8.00e-02,
511,2.40e-03,2.00e-02,
512,2.80e-03,2.00e-02,
513,-3.20e-03,6.00e-02,
514,2.80e-03,0.00e+00,
515,7.60e-03,1.90e+00,
516,3.60e-03,1.60e-01,
517,-1.60e-03,1.00e-01,
518,3.60e-03,1.20e-01,
519,-1.60e-03,8.00e-02,
520,-1.20e-03,1.00e-01,
521,2.00e-03,8.00e-02,
522,2.00e-03,1.00e-01,
523,-1.20e-03,6.00e-02,
524,-1.20e-03,6.00e-02,
525,2.40e-03,8.00e-02,
526,-8.00e-04,6.00e-02,
527,2.00e-03,8.00e-02,
528,2.00e-03,6.00e-02,
529,-1.20e-03,8.00e-02,
530,-2.40e-03,6.00e-02,
531,4.00e-03,8.00e-02,
532,5.20e-03,8.00e-02,
533,-6.80e-03,6.00e-02,
534,-7.20e-03,8.00e-02,
535,8.40e-03,6.00e-02,
536,-6.00e-03,6.00e-02,
537,6.00e-03,8.00e-02,
538,4.00e-03,8.00e-02,
539,-2.80e-03,2.00e-02,
540,-2.40e-03,8.00e-02,
541,2.00e-03,4.00e-02,
542,-8.00e-04,8.00e-02,
543,2.00e-03,2.00e-02,
544,-8.00e-04,8.00e-02,
545,1.20e-03,2.00e-02,
546,-1.20e-03,8.00e-02,
547,2.00e-03,2.00e-02,
548,-8.00e-04,8.00e-02,
549,2.00e-03,2.00e-02,
550,-1.20e-03,2.00e-02,
551,2.40e-03,8.00e-02,
552,2.80e-03,8.00e-02,
553,-2.80e-03,2.00e-02,
554,2.80e-03,2.00e-02,
555,7.20e-03,1.90e+00,
556,3.20e-03,1.60e-01,
557,-1.60e-03,1.20e-01,
558,3.60e-03,1.20e-01,
559,-1.60e-03,8.00e-02,
560,-1.20e-03,1.00e-01,
561,2.40e-03,8.00e-02,
562,2.00e-03,1.00e-01,
563,-1.20e-03,6.00e-02,
564,-8.00e-04,6.00e-02,
565,2.00e-03,8.00e-02,
566,0.00e+00,6.00e-02,
567,1.20e-03,8.00e-02,
568,-8.00e-04,6.00e-02,
569,2.00e-03,8.00e-02,
570,-2.40e-03,8.00e-02,
571,3.60e-03,6.00e-02,
572,5.20e-03,6.00e-02,
573,-5.60e-03,8.00e-02,
574,6.80e-03,8.00e-02,
575,-6.80e-03,6.00e-02,
576,-5.60e-03,8.00e-02,
577,5.20e-03,6.00e-02,
578,4.00e-03,6.00e-02,
579,-2.40e-03,8.00e-02,
580,1.20e-03,6.00e-02,
581,-2.40e-03,8.00e-02,
582,-4.00e-04,8.00e-02,
583,2.00e-03,6.00e-02,
584,1.20e-03,8.00e-02,
585,-1.20e-03,2.00e-02,
586,1.20e-03,8.00e-02,
587,-8.00e-04,2.00e-02,
588,-1.20e-03,8.00e-02,
589,2.00e-03,2.00e-02,
590,-1.20e-03,8.00e-02,
591,2.80e-03,2.00e-02,
592,3.60e-03,2.00e-02,
593,-3.20e-03,6.00e-02,
594,2.80e-03,2.00e-02,
595,8.00e-03,1.76e+00,
596,3.60e-03,1.60e-01,
597,-1.60e-03,8.00e-02,
598,3.60e-03,8.00e-02,
599,-1.60e-03,1.40e-01,
600,-1.20e-03,8.00e-02,
601,2.40e-03,1.00e-01,
602,2.40e-03,1.00e-01,
603,-8.00e-04,6.00e-02,
604,1.20e-03,1.00e-01,
605,-1.20e-03,6.00e-02,
606,-8.00e-04,6.00e-02,
607,1.60e-03,8.00e-02,
608,2.00e-03,6.00e-02,
609,-1.20e-03,8.00e-02,
610,-2.40e-03,6.00e-02,
611,3.60e-03,8.00e-02,
612,4.40e-03,8.00e-02,
613,-5.60e-03,6.00e-02,
614,-6.80e-03,6.00e-02,
615,7.20e-03,8.00e-02,
616,-5.60e-03,6.00e-02,
617,4.40e-03,8.00e-02,
618,3.20e-03,6.00e-02,
619,-2.40e-03,8.00e-02,
620,-1.60e-03,8.00e-02,
621,1.60e-03,4.00e-02,
622,-4.00e-04,8.00e-02,
623,1.20e-03,2.00e-02,
624,1.20e-03,2.00e-02,
625,-1.20e-03,8.00e-02,
626,-1.20e-03,2.00e-02,
627,2.00e-03,8.00e-02,
628,2.00e-03,8.00e-02,
629,-1.20e-03,2.00e-02,
630,-1.60e-03,8.00e-02,
631,2.40e-03,2.00e-02,
632,3.20e-03,2.00e-02,
633,-3.60e-03,8.00e-02,
634,2.40e-03,2.00e-02,
635,7.20e-03,1.90e+00,
636,3.20e-03,1.60e-01,
637,-1.60e-03,1.20e-01,
638,3.60e-03,1.20e-01,
639,-2.40e-03,8.00e-02,
640,-1.60e-03,8.00e-02,
641,2.40e-03,1.00e-01,
642,2.40e-03,1.00e-01,
643,-1.20e-03,6.00e-02,
644,-8.00e-04,6.00e-02,
645,1.60e-03,1.00e-01,
646,2.00e-03,6.00e-02,
647,-8.00e-04,8.00e-02,
648,-8.00e-04,6.00e-02,
649,2.40e-03,8.00e-02,
650,2.40e-03,6.00e-02,
651,-2.40e-03,8.00e-02,
652,4.00e-03,6.00e-02,
653,-4.40e-03,8.00e-02,
654,-6.00e-03,6.00e-02,
655,6.40e-03,8.00e-02,
656,-5.20e-03,8.00e-02,
657,4.40e-03,6.00e-02,
658,2.80e-03,6.00e-02,
659,-2.40e-03,8.00e-02,
660,-1.60e-03,8.00e-02,
661,2.00e-03,2.00e-02,
662,1.20e-03,8.00e-02,
663,-8.00e-04,4.00e-02,
664,1.20e-03,8.00e-02,
665,-1.20e-03,2.00e-02,
666,2.00e-03,8.00e-02,
667,-8.00e-04,2.00e-02,
668,2.00e-03,8.00e-02,
669,-1.60e-03,2.00e-02,
670,-1.60e-03,2.00e-02,
671,2.40e-03,8.00e-02,
672,3.60e-03,2.00e-02,
673,-3.60e-03,8.00e-02,
674,2.80e-03,2.00e-02,
675,7.60e-03,1.82e+00,
676,3.60e-03,1.60e-01,
677,-2.00e-03,1.20e-01,
678,4.00e-03,8.00e-02,
679,-2.00e-03,1.40e-01,
680,-1.20e-03,1.00e-01,
681,2.00e-03,8.00e-02,
682,2.40e-03,1.00e-01,
683,-8.00e-04,6.00e-02,
684,-1.20e-03,1.00e-01,
685,2.00e-03,6.00e-02,
686,1.20e-03,6.00e-02,
687,-1.20e-03,8.00e-02,
688,-1.20e-03,6.00e-02,
689,1.60e-03,8.00e-02,
690,-1.60e-03,6.00e-02,
691,3.60e-03,8.00e-02,
692,4.00e-03,6.00e-02,
693,-4.00e-03,8.00e-02,
694,5.60e-03,6.00e-02,
695,-5.60e-03,8.00e-02,
696,-4.00e-03,6.00e-02,
697,4.80e-03,8.00e-02,
698,2.80e-03,6.00e-02,
699,-2.00e-03,8.00e-02,
700,-1.20e-03,6.00e-02,
701,1.60e-03,8.00e-02,
702,1.20e-03,6.00e-02,
703,-4.00e-04,8.00e-02,
704,-4.00e-04,8.00e-02,
705,1.20e-03,4.00e-02,
706,1.20e-03,8.00e-02,
707,-1.20e-03,2.00e-02,
708,-1.20e-03,4.00e-02,
709,1.60e-03,8.00e-02,
710,-1.60e-03,8.00e-02,
711,2.80e-03,2.00e-02,
712,3.60e-03,8.00e-02,
713,-4.00e-03,2.00e-02,
714,2.00e-03,1.88e+00,
715,7.20e-03,0.00e+00,
716,2.80e-03,1.60e-01,
717,-1.60e-03,1.20e-01,
718,4.00e-03,1.40e-01,
719,-1.60e-03,8.00e-02,
720,-1.60e-03,1.00e-01,
721,2.40e-03,6.00e-02,
722,2.40e-03,1.00e-01,
723,-1.20e-03,6.00e-02,
724,-8.00e-04,6.00e-02,
725,1.60e-03,1.00e-01,
726,-8.00e-04,6.00e-02,
727,1.60e-03,8.00e-02,
728,2.00e-03,6.00e-02,
729,-1.60e-03,8.00e-02,
730,-1.60e-03,8.00e-02,
731,2.80e-03,6.00e-02,
732,3.60e-03,6.00e-02,
733,-4.40e-03,8.00e-02,
734,5.60e-03,8.00e-02,
735,-5.20e-03,6.00e-02,
736,-4.40e-03,8.00e-02,
737,4.00e-03,6.00e-02,
738,2.80e-03,6.00e-02,
739,-1.60e-03,8.00e-02,
740,1.20e-03,6.00e-02,
741,-1.60e-03,8.00e-02,
742,1.20e-03,6.00e-02,
743,-8.00e-04,8.00e-02,
744,1.60e-03,8.00e-02,
745,-1.20e-03,4.00e-02,
746,2.00e-03,8.00e-02,
747,-1.20e-03,4.00e-02,
748,-1.60e-03,8.00e-02,
749,1.20e-03,4.00e-02,
750,2.40e-03,8.00e-02,
751,-1.60e-03,2.00e-02,
752,3.60e-03,2.00e-02,
753,-4.00e-03,8.00e-02,
754,8.00e-04,2.00e-02,
755,8.00e-03,1.94e+00,
756,3.60e-03,1.60e-01,
757,-2.00e-03,1.20e-01,
758,3.60e-03,8.00e-02,
759,-2.40e-03,1.40e-01,
760,-1.60e-03,1.00e-01,
761,2.40e-03,8.00e-02,
762,2.00e-03,1.00e-01,
763,-1.60e-03,6.00e-02,
764,1.20e-03,6.00e-02,
765,-1.20e-03,1.00e-01,
766,-8.00e-04,6.00e-02,
767,1.60e-03,8.00e-02,
768,1.20e-03,6.00e-02,
769,-1.60e-03,8.00e-02,
770,-1.60e-03,8.00e-02,
771,2.40e-03,6.00e-02,
772,3.20e-03,8.00e-02,
773,-3.60e-03,6.00e-02,
774,-4.40e-03,6.00e-02,
775,5.20e-03,8.00e-02,
776,-4.40e-03,6.00e-02,
777,3.60e-03,8.00e-02,
778,2.80e-03,6.00e-02,
779,-1.60e-03,8.00e-02,
780,-1.20e-03,6.00e-02,
781,1.60e-03,8.00e-02,
782,1.20e-03,8.00e-02,
783,-8.00e-04,4.00e-02,
784,2.00e-03,4.00e-02,
785,-4.00e-04,8.00e-02,
786,2.00e-03,8.00e-02,
787,-8.00e-04,2.00e-02,
788,-1.20e-03,8.00e-02,
789,2.00e-03,2.00e-02,
790,-1.60e-03,2.00e-02,
791,2.40e-03,8.00e-02,
792,3.20e-03,8.00e-02,
793,-4.40e-03,2.00e-02,
794,4.00e-04,2.00e-02,
795,7.20e-03,1.88e+00,
796,3.20e-03,1.60e-01,
797,-1.60e-03,1.20e-01,
798,4.40e-03,1.40e-01,
799,-1.60e-03,8.00e-02,
800,-1.20e-03,1.00e-01,
801,2.40e-03,8.00e-02,
802,2.40e-03,1.00e-01,
803,-1.20e-03,6.00e-02,
804,-1.20e-03,6.00e-02,
805,2.00e-03,1.00e-01,
806,1.60e-03,8.00e-02,
807,-4.00e-04,6.00e-02,
808,1.20e-03,8.00e-02,
809,-1.60e-03,6.00e-02,
810,-1.20e-03,6.00e-02,
811,2.40e-03,8.00e-02,
812,2.80e-03,6.00e-02,
813,-3.20e-03,8.00e-02,
814,-4.40e-03,6.00e-02,
815,4.80e-03,8.00e-02,
816,-3.60e-03,6.00e-02,
817,3.20e-03,8.00e-02,
818,2.40e-03,8.00e-02,
819,-1.60e-03,6.00e-02,
820,-8.00e-04,6.00e-02,
821,2.00e-03,8.00e-02,
822,1.20e-03,6.00e-02,
823,-8.00e-04,8.00e-02,
824,-8.00e-04,8.00e-02,
825,1.20e-03,2.00e-02,
826,-1.60e-03,8.00e-02,
827,2.00e-03,2.00e-02,
828,-1.20e-03,8.00e-02,
829,2.00e-03,2.00e-02,
830,2.40e-03,8.00e-02,
831,-1.60e-03,2.00e-02,
832,4.00e-03,8.00e-02,
833,-4.40e-03,2.00e-02,
834,2.00e-03,2.00e-02,
835,8.00e-03,1.94e+00,
836,3.60e-03,1.60e-01,
837,-2.40e-03,1.20e-01,
838,4.00e-03,1.40e-01,
839,-1.60e-03,8.00e-02,
840,2.80e-03,8.00e-02,
841,-1.60e-03,1.00e-01,
842,2.40e-03,1.00e-01,
843,-1.20e-03,6.00e-02,
844,-1.20e-03,1.00e-01,
845,2.00e-03,6.00e-02,
846,1.20e-03,8.00e-02,
847,-8.00e-04,6.00e-02,
848,1.20e-03,6.00e-02,
849,-1.20e-03,8.00e-02,
850,-2.00e-03,6.00e-02,
851,2.40e-03,8.00e-02,
852,4.00e-03,6.00e-02,
853,-3.20e-03,8.00e-02,
