CarrPurc_P1-19_P2-38_tauVary/Gly92/NewFile5.csv

X,CH1,CH2,Start,Increment,
Sequence,Volt,Volt,-5.000000e-03,1.000000e-04
0,0.00e+00,4.00e-02,
1,1.20e-03,2.00e-02,
2,8.00e-04,4.00e-02,
3,0.00e+00,2.00e-02,
4,8.00e-04,4.00e-02,
5,0.00e+00,2.00e-02,
6,0.00e+00,2.00e-02,
7,8.00e-04,4.00e-02,
8,8.00e-04,4.00e-02,
9,-4.00e-04,2.00e-02,
10,0.00e+00,4.00e-02,
11,8.00e-04,2.00e-02,
12,4.00e-04,4.00e-02,
13,1.20e-03,2.00e-02,
14,0.00e+00,4.00e-02,
15,1.20e-03,2.00e-02,
16,0.00e+00,4.00e-02,
17,8.00e-04,2.00e-02,
18,8.00e-04,4.00e-02,
19,0.00e+00,2.00e-02,
20,0.00e+00,2.00e-02,
21,8.00e-04,4.00e-02,
22,4.00e-04,4.00e-02,
23,-8.00e-04,2.00e-02,
24,8.00e-04,4.00e-02,
25,-4.00e-04,2.00e-02,
26,8.00e-04,4.00e-02,
27,-8.00e-04,2.00e-02,
28,-8.00e-04,4.00e-02,
29,8.00e-04,2.00e-02,
30,-4.00e-04,2.00e-02,
31,8.00e-04,4.00e-02,
32,8.00e-04,4.00e-02,
33,0.00e+00,2.00e-02,
34,1.20e-03,4.00e-02,
35,0.00e+00,2.00e-02,
36,8.00e-04,4.00e-02,
37,0.00e+00,2.00e-02,
38,8.00e-04,4.00e-02,
39,0.00e+00,2.00e-02,
40,8.00e-04,2.00e-02,
41,0.00e+00,4.00e-02,
42,-8.00e-04,4.00e-02,
43,8.00e-04,2.00e-02,
44,8.00e-04,4.00e-02,
45,0.00e+00,0.00e+00,
46,8.00e-04,4.00e-02,
47,0.00e+00,0.00e+00,
48,8.00e-04,4.00e-02,
49,-8.00e-04,2.00e-02,
50,0.00e+00,4.00e-02,
51,8.00e-04,2.00e-02,
52,0.00e+00,2.00e-02,
53,8.00e-04,4.00e-02,
54,0.00e+00,2.00e-02,
55,4.80e-03,1.62e+00,
56,3.60e-03,1.60e-01,
57,-2.80e-02,8.00e-02,
58,-1.76e-02,8.00e-02,
59,1.36e-02,1.20e-01,
60,8.40e-03,1.00e-01,
61,-8.00e-03,6.00e-02,
62,-2.80e-03,1.00e-01,
63,3.60e-03,6.00e-02,
64,-1.60e-03,6.00e-02,
65,2.80e-03,8.00e-02,
66,2.80e-03,6.00e-02,
67,-1.60e-03,8.00e-02,
68,-1.20e-03,8.00e-02,
69,2.40e-03,6.00e-02,
70,2.00e-03,6.00e-02,
71,-1.20e-03,8.00e-02,
72,1.20e-03,8.00e-02,
73,-1.20e-03,6.00e-02,
74,8.00e-04,6.00e-02,
75,7.60e-03,1.86e+00,
76,4.00e-03,1.60e-01,
77,-6.80e-03,8.00e-02,
78,-7.60e-03,1.20e-01,
79,4.80e-03,8.00e-02,
80,3.60e-03,1.00e-01,
81,-1.20e-03,8.00e-02,
82,-8.00e-04,6.00e-02,
83,1.20e-03,1.00e-01,
84,-8.00e-04,8.00e-02,
85,1.20e-03,6.00e-02,
86,1.20e-03,6.00e-02,
87,-1.20e-03,8.00e-02,
88,-3.20e-03,8.00e-02,
89,5.20e-03,6.00e-02,
90,8.00e-03,6.00e-02,
91,-9.20e-03,8.00e-02,
92,-1.44e-02,6.00e-02,
93,1.64e-02,8.00e-02,
94,-2.00e-02,6.00e-02,
95,1.96e-02,8.00e-02,
96,-1.76e-02,6.00e-02,
97,1.76e-02,8.00e-02,
98,1.08e-02,6.00e-02,
99,-8.40e-03,8.00e-02,
100,-5.60e-03,8.00e-02,
101,4.80e-03,6.00e-02,
102,2.40e-03,6.00e-02,
103,-1.20e-03,8.00e-02,
104,-8.00e-04,8.00e-02,
105,2.00e-03,4.00e-02,
106,2.00e-03,8.00e-02,
107,-1.20e-03,2.00e-02,
108,2.00e-03,8.00e-02,
109,-8.00e-04,2.00e-02,
110,1.20e-03,8.00e-02,
111,-8.00e-04,2.00e-02,
112,1.20e-03,2.00e-02,
113,-8.00e-04,8.00e-02,
114,4.00e-04,4.00e-02,
115,7.20e-03,1.80e+00,
116,3.20e-03,1.60e-01,
117,-1.20e-03,1.20e-01,
118,2.00e-03,1.40e-01,
119,-8.00e-04,8.00e-02,
120,1.20e-03,8.00e-02,
121,-1.20e-03,1.00e-01,
122,1.20e-03,1.00e-01,
123,-1.60e-03,6.00e-02,
124,-8.00e-04,6.00e-02,
125,1.60e-03,1.00e-01,
126,2.40e-03,8.00e-02,
127,-1.60e-03,6.00e-02,
128,-4.00e-03,6.00e-02,
129,4.40e-03,8.00e-02,
130,-5.60e-03,6.00e-02,
131,8.00e-03,8.00e-02,
132,1.16e-02,6.00e-02,
133,-1.44e-02,8.00e-02,
134,-1.68e-02,6.00e-02,
135,1.68e-02,8.00e-02,
136,-1.32e-02,6.00e-02,
137,1.16e-02,8.00e-02,
138,8.00e-03,8.00e-02,
139,-5.20e-03,6.00e-02,
140,-2.80e-03,6.00e-02,
141,3.60e-03,8.00e-02,
142,2.00e-03,8.00e-02,
143,-1.20e-03,2.00e-02,
144,2.00e-03,8.00e-02,
145,-1.20e-03,2.00e-02,
146,1.60e-03,8.00e-02,
147,-1.20e-03,2.00e-02,
148,0.00e+00,2.00e-02,
149,1.20e-03,8.00e-02,
150,2.40e-03,2.00e-02,
151,-2.40e-03,8.00e-02,
152,-4.00e-03,8.00e-02,
153,4.80e-03,2.00e-02,
154,7.20e-03,1.88e+00,
155,2.80e-03,-2.00e-02,
156,3.60e-03,1.60e-01,
157,-8.00e-04,1.20e-01,
158,2.40e-03,1.40e-01,
159,-8.00e-04,8.00e-02,
160,-8.00e-04,1.00e-01,
161,2.00e-03,8.00e-02,
162,-8.00e-04,1.00e-01,
163,2.00e-03,6.00e-02,
164,1.20e-03,1.00e-01,
165,-8.00e-04,6.00e-02,
166,-4.00e-04,6.00e-02,
167,2.40e-03,8.00e-02,
168,2.80e-03,6.00e-02,
169,-3.60e-03,8.00e-02,
170,-5.20e-03,8.00e-02,
171,6.00e-03,6.00e-02,
172,1.12e-02,6.00e-02,
173,-1.28e-02,8.00e-02,
174,-1.72e-02,6.00e-02,
175,1.52e-02,8.00e-02,
176,-1.12e-02,8.00e-02,
177,1.08e-02,6.00e-02,
178,7.60e-03,8.00e-02,
179,-5.20e-03,6.00e-02,
180,-2.80e-03,4.00e-02,
181,3.60e-03,8.00e-02,
182,2.40e-03,8.00e-02,
183,-8.00e-04,4.00e-02,
184,-8.00e-04,8.00e-02,
185,1.20e-03,4.00e-02,
186,2.00e-03,8.00e-02,
187,-4.00e-04,2.00e-02,
188,0.00e+00,8.00e-02,
189,1.20e-03,4.00e-02,
190,2.40e-03,2.00e-02,
191,-1.60e-03,8.00e-02,
192,-3.60e-03,8.00e-02,
193,4.80e-03,2.00e-02,
194,8.00e-03,2.00e-02,
195,2.80e-03,1.90e+00,
196,3.60e-03,1.60e-01,
197,-2.40e-03,1.20e-01,
198,-2.40e-03,1.40e-01,
199,2.40e-03,8.00e-02,
200,1.20e-03,8.00e-02,
201,-1.20e-03,1.00e-01,
202,-1.20e-03,1.00e-01,
203,2.40e-03,6.00e-02,
204,2.00e-03,6.00e-02,
205,-1.20e-03,1.00e-01,
206,-8.00e-04,6.00e-02,
207,2.40e-03,8.00e-02,
208,2.80e-03,8.00e-02,
209,-2.80e-03,6.00e-02,
210,-4.00e-03,6.00e-02,
211,5.60e-03,8.00e-02,
212,7.60e-03,6.00e-02,
213,-9.20e-03,8.00e-02,
214,-1.32e-02,6.00e-02,
215,1.40e-02,8.00e-02,
216,-1.20e-02,6.00e-02,
217,1.00e-02,8.00e-02,
218,6.80e-03,8.00e-02,
219,-4.00e-03,6.00e-02,
220,-2.80e-03,8.00e-02,
221,2.80e-03,4.00e-02,
222,0.00e+00,6.00e-02,
223,2.00e-03,8.00e-02,
224,0.00e+00,6.00e-02,
225,1.20e-03,8.00e-02,
226,1.20e-03,8.00e-02,
227,-8.00e-04,4.00e-02,
228,-8.00e-04,8.00e-02,
229,1.60e-03,4.00e-02,
230,2.00e-03,8.00e-02,
231,-1.20e-03,2.00e-02,
232,-2.40e-03,8.00e-02,
233,4.00e-03,2.00e-02,
234,7.60e-03,1.90e+00,
235,2.80e-03,0.00e+00,
236,3.60e-03,1.60e-01,
237,-2.00e-03,1.20e-01,
238,-2.00e-03,1.40e-01,
239,2.00e-03,8.00e-02,
240,1.20e-03,1.00e-01,
241,-8.00e-04,8.00e-02,
242,-8.00e-04,1.00e-01,
243,2.40e-03,6.00e-02,
244,1.20e-03,1.00e-01,
245,-4.00e-04,6.00e-02,
246,-8.00e-04,6.00e-02,
247,2.00e-03,8.00e-02,
248,-2.40e-03,8.00e-02,
249,4.00e-03,6.00e-02,
250,-4.00e-03,8.00e-02,
251,6.40e-03,6.00e-02,
252,8.40e-03,6.00e-02,
253,-9.20e-03,8.00e-02,
254,-1.20e-02,8.00e-02,
255,1.24e-02,6.00e-02,
256,-1.04e-02,8.00e-02,
257,8.40e-03,6.00e-02,
258,5.20e-03,6.00e-02,
259,-4.00e-03,8.00e-02,
260,-2.80e-03,6.00e-02,
261,2.00e-03,8.00e-02,
262,1.60e-03,8.00e-02,
263,-8.00e-04,4.00e-02,
264,-1.20e-03,2.00e-02,
265,1.20e-03,8.00e-02,
266,-1.20e-03,8.00e-02,
267,1.60e-03,2.00e-02,
268,1.20e-03,2.00e-02,
269,-8.00e-04,8.00e-02,
270,1.20e-03,2.00e-02,
271,-1.20e-03,8.00e-02,
272,-1.60e-03,8.00e-02,
273,4.00e-03,2.00e-02,
274,7.60e-03,2.00e-02,
275,2.80e-03,1.90e+00,
276,3.20e-03,1.60e-01,
277,-1.20e-03,1.00e-01,
278,-1.20e-03,1.20e-01,
279,2.40e-03,8.00e-02,
280,1.20e-03,1.00e-01,
281,-8.00e-04,8.00e-02,
282,-8.00e-04,1.00e-01,
283,2.00e-03,6.00e-02,
284,1.20e-03,6.00e-02,
285,-8.00e-04,1.00e-01,
286,1.20e-03,6.00e-02,
287,-8.00e-04,8.00e-02,
288,2.40e-03,6.00e-02,
289,-1.60e-03,8.00e-02,
290,-3.20e-03,6.00e-02,
291,4.40e-03,8.00e-02,
292,8.00e-03,8.00e-02,
293,-8.80e-03,6.00e-02,
294,-1.12e-02,6.00e-02,
295,1.08e-02,8.00e-02,
296,-8.80e-03,8.00e-02,
297,8.00e-03,6.00e-02,
298,5.20e-03,8.00e-02,
299,-4.00e-03,2.00e-02,
300,-2.80e-03,8.00e-02,
301,2.80e-03,6.00e-02,
302,2.00e-03,4.00e-02,
303,-8.00e-04,8.00e-02,
304,-8.00e-04,8.00e-02,
305,2.00e-03,2.00e-02,
306,1.60e-03,8.00e-02,
307,-8.00e-04,4.00e-02,
308,2.00e-03,8.00e-02,
309,-8.00e-04,2.00e-02,
310,-1.20e-03,2.00e-02,
311,2.00e-03,8.00e-02,
312,-2.40e-03,2.00e-02,
313,3.60e-03,8.00e-02,
314,7.20e-03,2.00e-02,
315,2.80e-03,1.88e+00,
316,3.20e-03,1.60e-01,
317,-1.60e-03,1.00e-01,
318,2.80e-03,1.40e-01,
319,-8.00e-04,8.00e-02,
320,-1.20e-03,1.00e-01,
321,2.40e-03,8.00e-02,
322,2.00e-03,1.00e-01,
323,-1.60e-03,6.00e-02,
324,-1.20e-03,1.00e-01,
325,1.20e-03,6.00e-02,
326,2.00e-03,6.00e-02,
327,-8.00e-04,8.00e-02,
328,2.00e-03,6.00e-02,
329,-2.40e-03,8.00e-02,
330,-3.20e-03,6.00e-02,
331,4.00e-03,8.00e-02,
332,6.40e-03,8.00e-02,
333,-7.20e-03,6.00e-02,
334,1.00e-02,6.00e-02,
335,-8.80e-03,8.00e-02,
336,-8.40e-03,6.00e-02,
337,7.60e-03,8.00e-02,
338,5.20e-03,8.00e-02,
339,-4.00e-03,6.00e-02,
340,-1.60e-03,6.00e-02,
341,2.40e-03,8.00e-02,
342,1.20e-03,6.00e-02,
343,-8.00e-04,8.00e-02,
344,-8.00e-04,8.00e-02,
345,1.20e-03,4.00e-02,
346,-8.00e-04,8.00e-02,
347,1.20e-03,2.00e-02,
348,1.20e-03,8.00e-02,
349,-8.00e-04,2.00e-02,
350,1.20e-03,8.00e-02,
351,-1.60e-03,2.00e-02,
352,-1.60e-03,8.00e-02,
353,3.60e-03,2.00e-02,
354,2.80e-03,2.00e-02,
355,7.20e-03,1.80e+00,
356,2.80e-03,1.60e-01,
357,-1.60e-03,1.20e-01,
358,2.40e-03,1.40e-01,
359,-1.60e-03,8.00e-02,
360,1.20e-03,1.00e-01,
361,-1.20e-03,8.00e-02,
362,-1.20e-03,1.00e-01,
363,2.40e-03,6.00e-02,
364,-1.20e-03,8.00e-02,
365,1.60e-03,6.00e-02,
366,1.20e-03,6.00e-02,
367,-8.00e-04,8.00e-02,
368,2.40e-03,6.00e-02,
369,-1.60e-03,8.00e-02,
370,-3.60e-03,6.00e-02,
371,4.80e-03,8.00e-02,
372,7.20e-03,6.00e-02,
373,-6.80e-03,8.00e-02,
374,9.60e-03,6.00e-02,
375,-9.60e-03,8.00e-02,
376,-7.20e-03,6.00e-02,
377,6.80e-03,8.00e-02,
378,4.00e-03,8.00e-02,
379,-2.80e-03,6.00e-02,
380,-1.60e-03,4.00e-02,
381,2.40e-03,8.00e-02,
382,1.20e-03,6.00e-02,
383,-8.00e-04,8.00e-02,
384,1.20e-03,8.00e-02,
385,-8.00e-04,4.00e-02,
386,-4.00e-04,8.00e-02,
387,1.20e-03,2.00e-02,
388,-4.00e-04,2.00e-02,
389,1.20e-03,8.00e-02,
390,1.20e-03,8.00e-02,
391,-1.20e-03,2.00e-02,
392,-2.80e-03,8.00e-02,
393,2.80e-03,2.00e-02,
394,2.80e-03,2.00e-02,
395,8.00e-03,1.82e+00,
396,3.20e-03,1.60e-01,
397,-1.60e-03,1.20e-01,
398,2.40e-03,1.40e-01,
399,-1.60e-03,8.00e-02,
400,-8.00e-04,1.00e-01,
401,2.00e-03,8.00e-02,
402,2.00e-03,1.00e-01,
403,-8.00e-04,6.00e-02,
404,-8.00e-04,6.00e-02,
405,1.20e-03,1.00e-01,
406,0.00e+00,6.00e-02,
407,2.00e-03,8.00e-02,
408,2.40e-03,6.00e-02,
409,-2.40e-03,8.00e-02,
410,-2.80e-03,6.00e-02,
411,4.00e-03,8.00e-02,
412,5.20e-03,8.00e-02,
413,-6.80e-03,6.00e-02,
414,8.80e-03,6.00e-02,
415,-8.80e-03,8.00e-02,
416,-7.20e-03,6.00e-02,
417,6.40e-03,8.00e-02,
418,4.80e-03,8.00e-02,
419,-2.40e-03,6.00e-02,
420,-1.60e-03,6.00e-02,
421,2.40e-03,8.00e-02,
422,1.60e-03,6.00e-02,
423,-8.00e-04,8.00e-02,
424,-8.00e-04,8.00e-02,
425,1.60e-03,4.00e-02,
426,2.00e-03,8.00e-02,
427,-8.00e-04,4.00e-02,
428,-8.00e-04,8.00e-02,
429,2.00e-03,2.00e-02,
430,-1.20e-03,2.00e-02,
431,2.40e-03,8.00e-02,
432,-3.60e-03,2.00e-02,
433,2.80e-03,8.00e-02,
434,7.20e-03,2.00e-02,
435,2.80e-03,1.98e+00,
436,3.20e-03,1.60e-01,
437,-1.60e-03,1.00e-01,
438,2.80e-03,1.20e-01,
439,-1.20e-03,8.00e-02,
440,-1.20e-03,8.00e-02,
441,2.00e-03,1.00e-01,
442,2.00e-03,1.00e-01,
443,-1.20e-03,6.00e-02,
444,-8.00e-04,6.00e-02,
445,1.20e-03,1.00e-01,
446,0.00e+00,6.00e-02,
447,2.00e-03,8.00e-02,
448,2.00e-03,6.00e-02,
449,-1.60e-03,8.00e-02,
450,-2.80e-03,6.00e-02,
451,3.20e-03,8.00e-02,
452,5.20e-03,8.00e-02,
453,-6.00e-03,6.00e-02,
454,8.00e-03,6.00e-02,
455,-8.00e-03,8.00e-02,
456,-7.20e-03,8.00e-02,
457,6.40e-03,6.00e-02,
458,4.00e-03,6.00e-02,
459,-2.80e-03,8.00e-02,
460,-2.40e-03,6.00e-02,
461,2.40e-03,8.00e-02,
462,1.20e-03,8.00e-02,
463,-8.00e-04,4.00e-02,
464,-8.00e-04,8.00e-02,
465,1.20e-03,2.00e-02,
466,1.20e-03,8.00e-02,
467,-1.20e-03,4.00e-02,
468,2.00e-03,8.00e-02,
469,-1.20e-03,2.00e-02,
470,-8.00e-04,2.00e-02,
471,2.00e-03,8.00e-02,
472,-2.80e-03,2.00e-02,
473,2.80e-03,8.00e-02,
474,2.80e-03,1.92e+00,
475,7.60e-03,0.00e+00,
476,3.20e-03,1.60e-01,
477,-1.60e-03,1.20e-01,
478,2.80e-03,1.40e-01,
479,-1.20e-03,8.00e-02,
480,-8.00e-04,1.00e-01,
481,1.60e-03,8.00e-02,
482,2.00e-03,1.00e-01,
483,-1.20e-03,6.00e-02,
484,-1.20e-03,6.00e-02,
485,1.20e-03,1.00e-01,
486,1.20e-03,6.00e-02,
487,-4.00e-04,8.00e-02,
488,-1.20e-03,8.00e-02,
489,2.40e-03,6.00e-02,
490,-1.60e-03,6.00e-02,
491,4.00e-03,8.00e-02,
492,5.20e-03,6.00e-02,
493,-5.60e-03,8.00e-02,
494,7.60e-03,6.00e-02,
495,-6.80e-03,8.00e-02,
496,-5.60e-03,6.00e-02,
497,5.20e-03,8.00e-02,
498,3.60e-03,6.00e-02,
499,-2.40e-03,8.00e-02,
500,-1.60e-03,6.00e-02,
501,2.00e-03,8.00e-02,
502,1.20e-03,4.00e-02,
503,0.00e+00,8.00e-02,
504,-8.00e-04,8.00e-02,
505,1.20e-03,2.00e-02,
506,1.20e-03,8.00e-02,
507,-1.20e-03,2.00e-02,
508,-8.00e-04,8.00e-02,
509,2.00e-03,2.00e-02,
510,-1.20e-03,8.00e-02,
511,2.40e-03,2.00e-02,
512,2.80e-03,8.00e-02,
513,-2.40e-03,2.00e-02,
514,2.80e-03,2.00e-02,
515,7.60e-03,1.82e+00,
516,2.80e-03,1.60e-01,
517,-1.60e-03,1.20e-01,
518,3.20e-03,1.20e-01,
519,-1.20e-03,8.00e-02,
520,-1.20e-03,1.00e-01,
521,2.00e-03,8.00e-02,
522,2.00e-03,1.00e-01,
523,-8.00e-04,6.00e-02,
524,-8.00e-04,1.00e-01,
525,2.00e-03,6.00e-02,
526,0.00e+00,6.00e-02,
527,1.20e-03,8.00e-02,
528,1.60e-03,6.00e-02,
529,-1.20e-03,8.00e-02,
530,-1.60e-03,6.00e-02,
531,3.60e-03,8.00e-02,
532,5.20e-03,8.00e-02,
533,-5.60e-03,6.00e-02,
534,-7.20e-03,8.00e-02,
535,6.80e-03,6.00e-02,
536,-5.60e-03,6.00e-02,
537,4.40e-03,8.00e-02,
538,2.80e-03,8.00e-02,
539,-2.80e-03,6.00e-02,
540,-1.20e-03,8.00e-02,
541,2.00e-03,2.00e-02,
542,2.40e-03,8.00e-02,
543,-8.00e-04,2.00e-02,
544,-8.00e-04,8.00e-02,
545,2.00e-03,2.00e-02,
546,0.00e+00,8.00e-02,
547,2.00e-03,2.00e-02,
548,-8.00e-04,8.00e-02,
549,1.20e-03,2.00e-02,
550,-1.20e-03,8.00e-02,
551,2.00e-03,2.00e-02,
552,2.40e-03,8.00e-02,
553,-3.60e-03,2.00e-02,
554,2.40e-03,1.96e+00,
555,8.00e-03,0.00e+00,
556,3.20e-03,1.60e-01,
557,-1.60e-03,8.00e-02,
558,2.80e-03,1.40e-01,
559,-1.60e-03,8.00e-02,
560,-1.20e-03,1.00e-01,
561,2.00e-03,8.00e-02,
562,-1.20e-03,1.00e-01,
563,2.00e-03,6.00e-02,
564,-8.00e-04,6.00e-02,
565,2.00e-03,1.00e-01,
566,1.20e-03,6.00e-02,
567,-4.00e-04,8.00e-02,
568,-1.20e-03,6.00e-02,
569,1.20e-03,8.00e-02,
570,-1.60e-03,8.00e-02,
571,3.60e-03,6.00e-02,
572,4.40e-03,6.00e-02,
573,-4.40e-03,8.00e-02,
574,-6.00e-03,8.00e-02,
575,6.40e-03,6.00e-02,
576,-5.20e-03,8.00e-02,
577,4.80e-03,6.00e-02,
578,3.60e-03,6.00e-02,
579,-2.40e-03,8.00e-02,
580,-1.60e-03,6.00e-02,
581,1.60e-03,8.00e-02,
582,1.20e-03,8.00e-02,
583,-8.00e-04,2.00e-02,
584,-8.00e-04,8.00e-02,
585,1.20e-03,2.00e-02,
586,1.60e-03,8.00e-02,
587,-8.00e-04,2.00e-02,
588,-1.20e-03,8.00e-02,
589,1.20e-03,2.00e-02,
590,2.00e-03,2.00e-02,
591,-1.60e-03,8.00e-02,
592,2.80e-03,2.00e-02,
593,-3.60e-03,8.00e-02,
594,1.60e-03,2.00e-02,
595,7.20e-03,1.66e+00,
596,3.20e-03,1.60e-01,
597,-1.60e-03,1.20e-01,
598,2.80e-03,1.40e-01,
599,-1.60e-03,8.00e-02,
600,-1.20e-03,8.00e-02,
601,2.00e-03,1.00e-01,
602,2.40e-03,1.00e-01,
603,-8.00e-04,6.00e-02,
604,-8.00e-04,6.00e-02,
605,1.20e-03,8.00e-02,
606,1.20e-03,6.00e-02,
607,-8.00e-04,8.00e-02,
608,2.40e-03,6.00e-02,
609,-1.20e-03,8.00e-02,
610,-2.40e-03,6.00e-02,
611,2.80e-03,8.00e-02,
612,4.00e-03,8.00e-02,
613,-4.00e-03,6.00e-02,
614,-5.60e-03,6.00e-02,
615,6.00e-03,8.00e-02,
616,-4.40e-03,6.00e-02,
617,4.40e-03,8.00e-02,
618,3.20e-03,8.00e-02,
619,-2.00e-03,4.00e-02,
620,-1.20e-03,8.00e-02,
621,2.00e-03,2.00e-02,
622,1.20e-03,8.00e-02,
623,-8.00e-04,2.00e-02,
624,1.20e-03,8.00e-02,
625,-8.00e-04,2.00e-02,
626,2.00e-03,8.00e-02,
627,0.00e+00,2.00e-02,
628,-1.20e-03,8.00e-02,
629,1.20e-03,2.00e-02,
630,-1.60e-03,8.00e-02,
631,2.40e-03,2.00e-02,
632,3.60e-03,8.00e-02,
633,-3.60e-03,2.00e-02,
634,2.00e-03,2.00e-02,
635,8.00e-03,1.94e+00,
636,3.20e-03,1.60e-01,
637,-1.60e-03,1.20e-01,
638,2.80e-03,1.20e-01,
639,-1.60e-03,8.00e-02,
640,-8.00e-04,8.00e-02,
641,2.40e-03,1.00e-01,
642,2.00e-03,1.00e-01,
643,-8.00e-04,6.00e-02,
644,1.20e-03,6.00e-02,
645,-8.00e-04,1.00e-01,
646,1.20e-03,6.00e-02,
647,-8.00e-04,8.00e-02,
648,-8.00e-04,6.00e-02,
649,2.00e-03,8.00e-02,
650,2.40e-03,6.00e-02,
651,-1.20e-03,8.00e-02,
652,3.60e-03,6.00e-02,
653,-4.40e-03,8.00e-02,
654,-4.40e-03,6.00e-02,
655,5.60e-03,8.00e-02,
656,-4.40e-03,8.00e-02,
657,4.00e-03,6.00e-02,
658,2.40e-03,6.00e-02,
659,-2.40e-03,8.00e-02,
660,1.20e-03,6.00e-02,
661,-1.20e-03,8.00e-02,
662,1.20e-03,8.00e-02,
663,-8.00e-04,4.00e-02,
664,1.20e-03,6.00e-02,
665,-1.20e-03,8.00e-02,
666,-8.00e-04,8.00e-02,
667,2.00e-03,4.00e-02,
668,-1.20e-03,8.00e-02,
669,1.20e-03,4.00e-02,
670,-1.20e-03,8.00e-02,
671,2.40e-03,2.00e-02,
672,3.60e-03,8.00e-02,
673,-4.00e-03,2.00e-02,
674,1.20e-03,1.96e+00,
675,7.20e-03,0.00e+00,
676,3.20e-03,1.60e-01,
677,-1.60e-03,1.00e-01,
678,3.60e-03,8.00e-02,
679,-1.60e-03,1.40e-01,
680,-1.60e-03,1.00e-01,
681,1.60e-03,8.00e-02,
682,2.00e-03,1.00e-01,
683,-1.20e-03,6.00e-02,
684,-1.60e-03,6.00e-02,
685,1.20e-03,8.00e-02,
686,1.20e-03,6.00e-02,
687,-8.00e-04,8.00e-02,
688,1.20e-03,6.00e-02,
689,-1.20e-03,8.00e-02,
690,-1.20e-03,6.00e-02,
691,2.80e-03,8.00e-02,
692,3.60e-03,6.00e-02,
693,-3.60e-03,8.00e-02,
694,5.60e-03,6.00e-02,
695,-4.40e-03,8.00e-02,
696,-4.40e-03,6.00e-02,
697,4.00e-03,8.00e-02,
698,2.40e-03,6.00e-02,
699,-1.20e-03,8.00e-02,
700,-1.20e-03,8.00e-02,
701,2.40e-03,4.00e-02,
702,1.20e-03,6.00e-02,
703,-8.00e-04,8.00e-02,
704,-4.00e-04,8.00e-02,
705,1.60e-03,2.00e-02,
706,2.00e-03,8.00e-02,
707,-8.00e-04,4.00e-02,
708,-8.00e-04,2.00e-02,
709,1.60e-03,8.00e-02,
710,-1.20e-03,8.00e-02,
711,2.80e-03,2.00e-02,
712,2.80e-03,4.00e-02,
713,-3.20e-03,2.00e-02,
714,2.00e-03,2.00e-02,
715,8.00e-03,1.74e+00,
716,3.60e-03,1.60e-01,
717,-1.60e-03,1.20e-01,
718,4.00e-03,1.20e-01,
719,-1.60e-03,8.00e-02,
720,-1.60e-03,1.00e-01,
721,2.00e-03,8.00e-02,
722,2.00e-03,1.00e-01,
723,-1.20e-03,6.00e-02,
724,1.20e-03,6.00e-02,
725,-8.00e-04,8.00e-02,
726,1.20e-03,6.00e-02,
727,-1.20e-03,8.00e-02,
728,2.00e-03,6.00e-02,
729,-1.20e-03,8.00e-02,
730,-1.60e-03,8.00e-02,
731,2.40e-03,6.00e-02,
732,2.80e-03,6.00e-02,
733,-3.60e-03,8.00e-02,
734,-4.40e-03,8.00e-02,
735,5.20e-03,6.00e-02,
736,-3.60e-03,8.00e-02,
737,3.60e-03,6.00e-02,
738,2.80e-03,6.00e-02,
739,-1.20e-03,8.00e-02,
740,1.20e-03,8.00e-02,
741,-8.00e-04,2.00e-02,
742,1.20e-03,8.00e-02,
743,-8.00e-04,2.00e-02,
744,2.00e-03,8.00e-02,
745,-4.00e-04,2.00e-02,
746,-8.00e-04,8.00e-02,
747,1.60e-03,2.00e-02,
748,-8.00e-04,2.00e-02,
749,2.00e-03,8.00e-02,
750,-1.60e-03,8.00e-02,
751,2.40e-03,2.00e-02,
752,3.60e-03,2.00e-02,
753,-3.20e-03,8.00e-02,
754,1.60e-03,2.00e-02,
755,7.60e-03,1.98e+00,
756,3.20e-03,1.60e-01,
757,-1.60e-03,1.20e-01,
758,3.60e-03,1.40e-01,
759,-1.60e-03,8.00e-02,
760,-1.20e-03,1.00e-01,
761,2.00e-03,8.00e-02,
762,-1.60e-03,1.00e-01,
763,1.60e-03,6.00e-02,
764,1.20e-03,1.00e-01,
765,-1.20e-03,6.00e-02,
766,0.00e+00,6.00e-02,
767,1.20e-03,8.00e-02,
768,1.20e-03,6.00e-02,
769,-8.00e-04,8.00e-02,
770,-1.60e-03,8.00e-02,
771,2.00e-03,6.00e-02,
772,2.80e-03,8.00e-02,
773,-3.60e-03,6.00e-02,
774,4.80e-03,6.00e-02,
775,-4.00e-03,8.00e-02,
776,-3.60e-03,6.00e-02,
777,2.80e-03,8.00e-02,
778,2.40e-03,6.00e-02,
779,-1.60e-03,8.00e-02,
780,-4.00e-04,8.00e-02,
781,2.40e-03,2.00e-02,
782,0.00e+00,8.00e-02,
783,1.60e-03,4.00e-02,
784,0.00e+00,8.00e-02,
785,2.00e-03,4.00e-02,
786,1.60e-03,8.00e-02,
787,-8.00e-04,2.00e-02,
788,1.60e-03,8.00e-02,
789,-1.60e-03,2.00e-02,
790,2.40e-03,2.00e-02,
791,-1.60e-03,8.00e-02,
792,4.00e-03,2.00e-02,
793,-4.00e-03,8.00e-02,
794,1.20e-03,2.00e-02,
795,8.00e-03,1.96e+00,
796,3.60e-03,1.60e-01,
797,-2.00e-03,1.20e-01,
798,4.00e-03,1.40e-01,
799,-1.60e-03,8.00e-02,
800,-1.20e-03,1.00e-01,
801,2.40e-03,8.00e-02,
802,-8.00e-04,1.00e-01,
803,2.00e-03,6.00e-02,
804,1.20e-03,6.00e-02,
805,-1.20e-03,1.00e-01,
806,1.60e-03,8.00e-02,
807,0.00e+00,6.00e-02,
808,2.00e-03,8.00e-02,
809,-8.00e-04,6.00e-02,
810,-1.20e-03,6.00e-02,
811,2.40e-03,8.00e-02,
812,3.60e-03,6.00e-02,
813,-2.40e-03,8.00e-02,
814,4.40e-03,6.00e-02,
815,-4.40e-03,8.00e-02,
816,-2.80e-03,6.00e-02,
817,3.20e-03,8.00e-02,
818,2.40e-03,8.00e-02,
819,-1.60e-03,6.00e-02,
820,-1.20e-03,6.00e-02,
821,2.00e-03,8.00e-02,
822,1.20e-03,6.00e-02,
823,-8.00e-04,8.00e-02,
824,-8.00e-04,8.00e-02,
825,1.20e-03,2.00e-02,
826,1.20e-03,8.00e-02,
827,-8.00e-04,2.00e-02,
828,-1.20e-03,8.00e-02,
829,2.00e-03,2.00e-02,
830,-1.60e-03,8.00e-02,
831,3.20e-03,2.00e-02,
832,4.80e-03,8.00e-02,
833,-3.60e-03,2.00e-02,
834,1.20e-03,2.00e-02,
835,7.20e-03,1.76e+00,
836,3.20e-03,1.60e-01,
837,-1.60e-03,1.20e-01,
838,4.00e-03,1.20e-01,
839,-1.60e-03,8.00e-02,
840,-1.60e-03,8.00e-02,
841,2.00e-03,1.00e-01,
842,-1.60e-03,1.00e-01,
843,2.00e-03,6.00e-02,
844,-8.00e-04,1.00e-01,
845,2.00e-03,6.00e-02,
846,1.20e-03,8.00e-02,
847,-8.00e-04,6.00e-02,
848,1.20e-03,6.00e-02,
849,-1.20e-03,8.00e-02,
850,-1.20e-03,6.00e-02,
851,2.40e-03,8.00e-02,
852,2.40e-03,6.00e-02,
853,-2.80e-03,8.00e-02,
