CarrPurc_P1-19_P2-38_tauVary/Gly92/NewFile1.csv

X,CH1,CH2,Start,Increment,
Sequence,Volt,Volt,-5.000000e-03,1.000000e-04
0,0.00e+00,4.00e-02,
1,8.00e-04,0.00e+00,
2,8.00e-04,4.00e-02,
3,-8.00e-04,0.00e+00,
4,-4.00e-04,4.00e-02,
5,8.00e-04,0.00e+00,
6,4.00e-04,0.00e+00,
7,-8.00e-04,4.00e-02,
8,8.00e-04,4.00e-02,
9,-4.00e-04,0.00e+00,
10,1.20e-03,4.00e-02,
11,0.00e+00,0.00e+00,
12,0.00e+00,4.00e-02,
13,8.00e-04,0.00e+00,
14,0.00e+00,4.00e-02,
15,8.00e-04,0.00e+00,
16,1.20e-03,4.00e-02,
17,0.00e+00,0.00e+00,
18,0.00e+00,4.00e-02,
19,8.00e-04,0.00e+00,
20,-8.00e-04,0.00e+00,
21,8.00e-04,4.00e-02,
22,1.20e-03,4.00e-02,
23,0.00e+00,0.00e+00,
24,8.00e-04,4.00e-02,
25,-4.00e-04,0.00e+00,
26,-8.00e-04,4.00e-02,
27,1.20e-03,0.00e+00,
28,0.00e+00,4.00e-02,
29,8.00e-04,0.00e+00,
30,0.00e+00,0.00e+00,
31,8.00e-04,4.00e-02,
32,1.20e-03,4.00e-02,
33,0.00e+00,0.00e+00,
34,8.00e-04,4.00e-02,
35,0.00e+00,0.00e+00,
36,8.00e-04,4.00e-02,
37,-8.00e-04,0.00e+00,
38,8.00e-04,4.00e-02,
39,0.00e+00,0.00e+00,
40,0.00e+00,4.00e-02,
41,8.00e-04,0.00e+00,
42,-4.00e-04,4.00e-02,
43,8.00e-04,0.00e+00,
44,8.00e-04,0.00e+00,
45,0.00e+00,4.00e-02,
46,8.00e-04,4.00e-02,
47,0.00e+00,0.00e+00,
48,8.00e-04,4.00e-02,
49,-8.00e-04,0.00e+00,
50,-4.00e-04,4.00e-02,
51,1.20e-03,0.00e+00,
52,8.00e-04,4.00e-02,
53,0.00e+00,0.00e+00,
54,4.00e-04,0.00e+00,
55,4.80e-03,1.90e+00,
56,3.60e-03,1.60e-01,
57,-3.04e-02,8.00e-02,
58,-1.80e-02,1.00e-01,
59,1.56e-02,8.00e-02,
60,9.20e-03,1.00e-01,
61,-8.40e-03,6.00e-02,
62,-2.80e-03,6.00e-02,
63,4.00e-03,1.00e-01,
64,-2.40e-03,6.00e-02,
65,2.40e-03,8.00e-02,
66,2.80e-03,6.00e-02,
67,-1.60e-03,8.00e-02,
68,-1.20e-03,8.00e-02,
69,2.40e-03,6.00e-02,
70,2.00e-03,6.00e-02,
71,-1.20e-03,8.00e-02,
72,2.00e-03,8.00e-02,
73,-1.20e-03,6.00e-02,
74,4.00e-04,6.00e-02,
75,7.60e-03,1.94e+00,
76,4.00e-03,1.60e-01,
77,-8.00e-03,1.00e-01,
78,-8.80e-03,1.20e-01,
79,6.40e-03,8.00e-02,
80,3.60e-03,1.00e-01,
81,-1.60e-03,8.00e-02,
82,-8.00e-04,1.00e-01,
83,2.00e-03,6.00e-02,
84,2.00e-03,8.00e-02,
85,-1.20e-03,6.00e-02,
86,1.20e-03,6.00e-02,
87,-1.60e-03,8.00e-02,
88,-3.20e-03,8.00e-02,
89,5.20e-03,6.00e-02,
90,9.20e-03,6.00e-02,
91,-1.00e-02,8.00e-02,
92,-1.60e-02,6.00e-02,
93,1.80e-02,8.00e-02,
94,-2.20e-02,6.00e-02,
95,2.16e-02,8.00e-02,
96,-2.00e-02,8.00e-02,
97,1.68e-02,4.00e-02,
98,1.16e-02,8.00e-02,
99,-8.80e-03,2.00e-02,
100,-5.60e-03,8.00e-02,
101,5.20e-03,2.00e-02,
102,2.80e-03,8.00e-02,
103,-1.20e-03,2.00e-02,
104,2.00e-03,8.00e-02,
105,-1.20e-03,2.00e-02,
106,-1.20e-03,2.00e-02,
107,2.00e-03,8.00e-02,
108,-1.60e-03,2.00e-02,
109,2.00e-03,8.00e-02,
110,1.20e-03,2.00e-02,
111,-1.20e-03,8.00e-02,
112,1.20e-03,2.00e-02,
113,-8.00e-04,8.00e-02,
114,0.00e+00,2.00e-02,
115,7.20e-03,1.84e+00,
116,3.20e-03,1.60e-01,
117,-1.20e-03,1.00e-01,
118,-8.00e-04,1.40e-01,
119,2.00e-03,8.00e-02,
120,-8.00e-04,1.00e-01,
121,2.00e-03,6.00e-02,
122,-1.20e-03,6.00e-02,
123,2.00e-03,1.00e-01,
124,1.20e-03,6.00e-02,
125,-8.00e-04,1.00e-01,
126,2.80e-03,8.00e-02,
127,-1.60e-03,6.00e-02,
128,-3.60e-03,6.00e-02,
129,4.80e-03,8.00e-02,
130,-5.60e-03,6.00e-02,
131,8.00e-03,8.00e-02,
132,1.16e-02,6.00e-02,
133,-1.44e-02,8.00e-02,
134,-1.72e-02,8.00e-02,
135,1.80e-02,2.00e-02,
136,-1.36e-02,8.00e-02,
137,1.20e-02,4.00e-02,
138,8.00e-03,8.00e-02,
139,-5.60e-03,2.00e-02,
140,-3.20e-03,2.00e-02,
141,2.80e-03,8.00e-02,
142,2.40e-03,8.00e-02,
143,-8.00e-04,2.00e-02,
144,2.00e-03,8.00e-02,
145,-1.20e-03,2.00e-02,
146,1.20e-03,2.00e-02,
147,-8.00e-04,8.00e-02,
148,-1.20e-03,2.00e-02,
149,2.00e-03,8.00e-02,
150,2.80e-03,2.00e-02,
151,-2.40e-03,8.00e-02,
152,-3.60e-03,8.00e-02,
153,5.20e-03,2.00e-02,
154,2.80e-03,2.00e-02,
155,7.20e-03,1.88e+00,
156,2.80e-03,1.60e-01,
157,-8.00e-04,1.00e-01,
158,2.40e-03,1.40e-01,
159,-8.00e-04,8.00e-02,
160,-8.00e-04,1.00e-01,
161,1.60e-03,6.00e-02,
162,2.00e-03,1.00e-01,
163,-1.20e-03,6.00e-02,
164,1.20e-03,1.00e-01,
165,-8.00e-04,6.00e-02,
166,-8.00e-04,6.00e-02,
167,2.40e-03,8.00e-02,
168,3.60e-03,6.00e-02,
169,-3.60e-03,8.00e-02,
170,-5.20e-03,8.00e-02,
171,7.60e-03,6.00e-02,
172,1.16e-02,6.00e-02,
173,-1.48e-02,8.00e-02,
174,1.68e-02,6.00e-02,
175,-1.72e-02,8.00e-02,
176,-1.28e-02,8.00e-02,
177,1.16e-02,2.00e-02,
178,8.40e-03,8.00e-02,
179,-6.00e-03,6.00e-02,
180,-3.60e-03,8.00e-02,
181,3.60e-03,2.00e-02,
182,2.00e-03,8.00e-02,
183,-1.20e-03,2.00e-02,
184,-1.20e-03,8.00e-02,
185,2.00e-03,2.00e-02,
186,2.00e-03,8.00e-02,
187,-1.20e-03,2.00e-02,
188,1.20e-03,8.00e-02,
189,-8.00e-04,2.00e-02,
190,2.00e-03,2.00e-02,
191,-2.40e-03,8.00e-02,
192,-3.60e-03,2.00e-02,
193,5.60e-03,8.00e-02,
194,8.00e-03,2.00e-02,
195,2.80e-03,1.98e+00,
196,3.60e-03,1.60e-01,
197,-2.40e-03,8.00e-02,
198,-2.40e-03,1.20e-01,
199,2.00e-03,8.00e-02,
200,1.20e-03,8.00e-02,
201,-8.00e-04,1.00e-01,
202,-1.20e-03,1.00e-01,
203,2.00e-03,6.00e-02,
204,-1.60e-03,1.00e-01,
205,1.20e-03,6.00e-02,
206,2.00e-03,6.00e-02,
207,-1.20e-03,8.00e-02,
208,-2.00e-03,8.00e-02,
209,2.80e-03,6.00e-02,
210,-4.40e-03,6.00e-02,
211,5.60e-03,8.00e-02,
212,8.00e-03,6.00e-02,
213,-9.60e-03,8.00e-02,
214,-1.28e-02,6.00e-02,
215,1.32e-02,8.00e-02,
216,-1.20e-02,8.00e-02,
217,1.00e-02,4.00e-02,
218,6.00e-03,8.00e-02,
219,-5.20e-03,4.00e-02,
220,-3.20e-03,8.00e-02,
221,2.80e-03,2.00e-02,
222,2.00e-03,2.00e-02,
223,-8.00e-04,8.00e-02,
224,0.00e+00,8.00e-02,
225,1.20e-03,2.00e-02,
226,1.20e-03,8.00e-02,
227,-1.20e-03,2.00e-02,
228,-8.00e-04,2.00e-02,
229,1.20e-03,8.00e-02,
230,2.00e-03,2.00e-02,
231,-1.20e-03,8.00e-02,
232,-2.40e-03,2.00e-02,
233,4.00e-03,8.00e-02,
234,7.60e-03,2.00e-02,
235,2.80e-03,1.76e+00,
236,3.20e-03,1.60e-01,
237,-2.00e-03,8.00e-02,
238,-2.00e-03,8.00e-02,
239,1.60e-03,1.40e-01,
240,-4.00e-04,1.00e-01,
241,2.00e-03,6.00e-02,
242,-8.00e-04,6.00e-02,
243,2.00e-03,1.00e-01,
244,-8.00e-04,6.00e-02,
245,2.00e-03,8.00e-02,
246,2.00e-03,6.00e-02,
247,-8.00e-04,8.00e-02,
248,-2.80e-03,8.00e-02,
249,3.20e-03,6.00e-02,
250,-4.40e-03,8.00e-02,
251,5.60e-03,6.00e-02,
252,9.20e-03,6.00e-02,
253,-1.00e-02,8.00e-02,
254,1.20e-02,8.00e-02,
255,-1.16e-02,6.00e-02,
256,-1.08e-02,8.00e-02,
257,1.00e-02,4.00e-02,
258,5.20e-03,8.00e-02,
259,-4.40e-03,4.00e-02,
260,-2.40e-03,8.00e-02,
261,2.40e-03,2.00e-02,
262,1.60e-03,8.00e-02,
263,-1.20e-03,2.00e-02,
264,-8.00e-04,2.00e-02,
265,2.00e-03,8.00e-02,
266,2.00e-03,8.00e-02,
267,-8.00e-04,2.00e-02,
268,-8.00e-04,2.00e-02,
269,8.00e-04,8.00e-02,
270,2.00e-03,2.00e-02,
271,-1.20e-03,8.00e-02,
272,-2.40e-03,2.00e-02,
273,2.80e-03,8.00e-02,
274,2.80e-03,-2.00e-02,
275,7.60e-03,1.90e+00,
276,3.60e-03,1.60e-01,
277,-1.60e-03,1.00e-01,
278,-1.20e-03,1.20e-01,
279,2.00e-03,8.00e-02,
280,1.20e-03,1.00e-01,
281,-8.00e-04,6.00e-02,
282,1.20e-03,1.00e-01,
283,-8.00e-04,6.00e-02,
284,-8.00e-04,6.00e-02,
285,1.20e-03,8.00e-02,
286,0.00e+00,6.00e-02,
287,2.00e-03,8.00e-02,
288,3.20e-03,6.00e-02,
289,-1.60e-03,8.00e-02,
290,-3.60e-03,6.00e-02,
291,5.60e-03,8.00e-02,
292,8.40e-03,8.00e-02,
293,-8.80e-03,6.00e-02,
294,-1.20e-02,8.00e-02,
295,1.28e-02,2.00e-02,
296,-9.60e-03,8.00e-02,
297,9.60e-03,2.00e-02,
298,5.60e-03,8.00e-02,
299,-4.80e-03,2.00e-02,
300,-2.80e-03,8.00e-02,
301,2.80e-03,2.00e-02,
302,2.40e-03,2.00e-02,
303,-1.60e-03,8.00e-02,
304,-8.00e-04,2.00e-02,
305,1.20e-03,8.00e-02,
306,2.00e-03,2.00e-02,
307,-1.20e-03,8.00e-02,
308,-1.20e-03,2.00e-02,
309,1.20e-03,8.00e-02,
310,2.00e-03,2.00e-02,
311,-1.60e-03,8.00e-02,
312,-2.80e-03,2.00e-02,
313,3.60e-03,8.00e-02,
314,7.60e-03,2.00e-02,
315,2.80e-03,1.74e+00,
316,3.60e-03,1.60e-01,
317,-1.20e-03,8.00e-02,
318,2.80e-03,8.00e-02,
319,-8.00e-04,1.20e-01,
320,2.00e-03,1.00e-01,
321,-1.20e-03,6.00e-02,
322,2.40e-03,1.00e-01,
323,-1.20e-03,6.00e-02,
324,-1.60e-03,8.00e-02,
325,2.00e-03,6.00e-02,
326,-8.00e-04,6.00e-02,
327,2.00e-03,8.00e-02,
328,2.40e-03,6.00e-02,
329,-1.60e-03,8.00e-02,
330,-3.60e-03,6.00e-02,
331,4.40e-03,8.00e-02,
332,6.80e-03,8.00e-02,
333,-8.40e-03,6.00e-02,
334,-1.12e-02,8.00e-02,
335,1.12e-02,4.00e-02,
336,-9.60e-03,8.00e-02,
337,8.00e-03,2.00e-02,
338,5.60e-03,8.00e-02,
339,-4.00e-03,2.00e-02,
340,-2.80e-03,8.00e-02,
341,2.80e-03,2.00e-02,
342,2.00e-03,8.00e-02,
343,-8.00e-04,2.00e-02,
344,-8.00e-04,8.00e-02,
345,1.20e-03,2.00e-02,
346,1.20e-03,2.00e-02,
347,-8.00e-04,8.00e-02,
348,-8.00e-04,8.00e-02,
349,1.20e-03,2.00e-02,
350,2.00e-03,2.00e-02,
351,-1.20e-03,8.00e-02,
352,-2.40e-03,8.00e-02,
353,3.60e-03,2.00e-02,
354,7.20e-03,2.00e-02,
355,2.80e-03,1.80e+00,
356,3.60e-03,1.60e-01,
357,-1.20e-03,8.00e-02,
358,-8.00e-04,8.00e-02,
359,3.20e-03,1.40e-01,
360,-8.00e-04,1.00e-01,
361,2.00e-03,6.00e-02,
362,2.00e-03,1.00e-01,
363,-1.60e-03,6.00e-02,
364,-8.00e-04,8.00e-02,
365,1.60e-03,6.00e-02,
366,1.20e-03,6.00e-02,
367,-1.20e-03,8.00e-02,
368,2.00e-03,6.00e-02,
369,-1.60e-03,8.00e-02,
370,-3.60e-03,6.00e-02,
371,5.20e-03,8.00e-02,
372,6.80e-03,6.00e-02,
373,-8.00e-03,8.00e-02,
374,1.08e-02,8.00e-02,
375,-1.00e-02,4.00e-02,
376,-8.40e-03,8.00e-02,
377,6.80e-03,4.00e-02,
378,4.80e-03,8.00e-02,
379,-3.20e-03,2.00e-02,
380,-1.60e-03,8.00e-02,
381,2.40e-03,2.00e-02,
382,1.20e-03,2.00e-02,
383,-4.00e-04,8.00e-02,
384,-8.00e-04,8.00e-02,
385,1.60e-03,2.00e-02,
386,1.20e-03,8.00e-02,
387,-4.00e-04,2.00e-02,
388,-8.00e-04,2.00e-02,
389,1.20e-03,8.00e-02,
390,1.20e-03,8.00e-02,
391,-1.20e-03,2.00e-02,
392,-2.40e-03,8.00e-02,
393,2.80e-03,2.00e-02,
394,8.00e-03,2.00e-02,
395,2.80e-03,1.84e+00,
396,3.60e-03,1.60e-01,
397,-1.20e-03,1.00e-01,
398,2.40e-03,8.00e-02,
399,-1.20e-03,1.40e-01,
400,1.20e-03,1.00e-01,
401,-1.20e-03,6.00e-02,
402,-8.00e-04,1.00e-01,
403,2.00e-03,6.00e-02,
404,-8.00e-04,6.00e-02,
405,2.00e-03,1.00e-01,
406,1.20e-03,6.00e-02,
407,-8.00e-04,8.00e-02,
408,1.60e-03,6.00e-02,
409,-1.60e-03,8.00e-02,
410,-3.60e-03,6.00e-02,
411,3.60e-03,8.00e-02,
412,5.60e-03,8.00e-02,
413,-6.80e-03,6.00e-02,
414,-9.20e-03,6.00e-02,
415,9.60e-03,8.00e-02,
416,-7.20e-03,6.00e-02,
417,6.40e-03,8.00e-02,
418,4.00e-03,8.00e-02,
419,-3.20e-03,4.00e-02,
420,-1.60e-03,2.00e-02,
421,2.40e-03,8.00e-02,
422,1.20e-03,2.00e-02,
423,-8.00e-04,8.00e-02,
424,1.20e-03,8.00e-02,
425,-1.20e-03,2.00e-02,
426,2.00e-03,8.00e-02,
427,-8.00e-04,2.00e-02,
428,-8.00e-04,8.00e-02,
429,1.20e-03,2.00e-02,
430,2.00e-03,2.00e-02,
431,-1.20e-03,8.00e-02,
432,2.40e-03,2.00e-02,
433,-3.20e-03,8.00e-02,
434,2.80e-03,2.00e-02,
435,7.20e-03,1.86e+00,
436,3.60e-03,1.60e-01,
437,-1.60e-03,8.00e-02,
438,2.80e-03,1.20e-01,
439,-1.20e-03,8.00e-02,
440,-8.00e-04,1.00e-01,
441,2.00e-03,6.00e-02,
442,2.00e-03,6.00e-02,
443,-8.00e-04,1.00e-01,
444,-1.20e-03,8.00e-02,
445,1.20e-03,6.00e-02,
446,2.00e-03,6.00e-02,
447,-8.00e-04,8.00e-02,
448,2.00e-03,6.00e-02,
449,-1.60e-03,8.00e-02,
450,-2.80e-03,6.00e-02,
451,4.00e-03,8.00e-02,
452,5.20e-03,8.00e-02,
453,-6.80e-03,6.00e-02,
454,-8.00e-03,8.00e-02,
455,8.80e-03,4.00e-02,
456,-7.20e-03,8.00e-02,
457,6.80e-03,2.00e-02,
458,4.00e-03,8.00e-02,
459,-3.60e-03,2.00e-02,
460,-1.60e-03,8.00e-02,
461,2.80e-03,2.00e-02,
462,2.00e-03,2.00e-02,
463,-8.00e-04,8.00e-02,
464,1.20e-03,2.00e-02,
465,-1.20e-03,8.00e-02,
466,1.20e-03,2.00e-02,
467,-1.20e-03,8.00e-02,
468,-1.20e-03,8.00e-02,
469,2.00e-03,2.00e-02,
470,2.00e-03,2.00e-02,
471,-1.20e-03,8.00e-02,
472,-3.20e-03,2.00e-02,
473,2.80e-03,8.00e-02,
474,2.80e-03,2.00e-02,
475,7.60e-03,1.66e+00,
476,3.60e-03,1.60e-01,
477,-1.60e-03,8.00e-02,
478,3.60e-03,8.00e-02,
479,-1.20e-03,1.40e-01,
480,2.00e-03,1.00e-01,
481,-1.60e-03,6.00e-02,
482,2.00e-03,6.00e-02,
483,-1.20e-03,1.00e-01,
484,2.00e-03,1.00e-01,
485,-8.00e-04,6.00e-02,
486,1.20e-03,6.00e-02,
487,-8.00e-04,8.00e-02,
488,2.00e-03,8.00e-02,
489,-1.60e-03,6.00e-02,
490,-2.80e-03,6.00e-02,
491,4.00e-03,8.00e-02,
492,5.60e-03,6.00e-02,
493,-6.80e-03,8.00e-02,
494,8.00e-03,6.00e-02,
495,-7.60e-03,8.00e-02,
496,-6.00e-03,4.00e-02,
497,5.60e-03,8.00e-02,
498,4.00e-03,8.00e-02,
499,-2.80e-03,2.00e-02,
500,-1.60e-03,8.00e-02,
501,2.00e-03,4.00e-02,
502,1.20e-03,8.00e-02,
503,-8.00e-04,2.00e-02,
504,-8.00e-04,2.00e-02,
505,1.20e-03,8.00e-02,
506,1.20e-03,2.00e-02,
507,-8.00e-04,8.00e-02,
508,-1.20e-03,8.00e-02,
509,1.20e-03,2.00e-02,
510,-1.20e-03,8.00e-02,
511,2.00e-03,2.00e-02,
512,2.80e-03,8.00e-02,
513,-2.40e-03,2.00e-02,
514,7.60e-03,1.96e+00,
515,2.80e-03,0.00e+00,
516,2.80e-03,1.60e-01,
517,-1.60e-03,1.20e-01,
518,3.20e-03,8.00e-02,
519,-1.20e-03,1.40e-01,
520,-8.00e-04,1.00e-01,
521,2.40e-03,8.00e-02,
522,2.40e-03,1.00e-01,
523,-4.00e-04,6.00e-02,
524,-1.20e-03,6.00e-02,
525,1.20e-03,1.00e-01,
526,1.20e-03,6.00e-02,
527,-8.00e-04,8.00e-02,
528,-8.00e-04,6.00e-02,
529,2.00e-03,8.00e-02,
530,-2.40e-03,6.00e-02,
531,3.60e-03,8.00e-02,
532,4.80e-03,8.00e-02,
533,-5.60e-03,6.00e-02,
534,-6.80e-03,8.00e-02,
535,7.60e-03,6.00e-02,
536,-5.60e-03,6.00e-02,
537,5.20e-03,8.00e-02,
538,4.00e-03,8.00e-02,
539,-2.40e-03,4.00e-02,
540,-2.40e-03,4.00e-02,
541,2.00e-03,8.00e-02,
542,1.20e-03,8.00e-02,
543,-1.20e-03,2.00e-02,
544,1.20e-03,8.00e-02,
545,-1.20e-03,2.00e-02,
546,-1.20e-03,2.00e-02,
547,2.00e-03,8.00e-02,
548,-1.20e-03,2.00e-02,
549,2.00e-03,8.00e-02,
550,-8.00e-04,2.00e-02,
551,2.40e-03,8.00e-02,
552,2.80e-03,2.00e-02,
553,-3.60e-03,8.00e-02,
554,2.40e-03,2.00e-02,
555,8.00e-03,1.78e+00,
556,3.60e-03,1.60e-01,
557,-1.20e-03,1.00e-01,
558,2.80e-03,1.40e-01,
559,-1.60e-03,8.00e-02,
560,-1.20e-03,1.00e-01,
561,2.00e-03,8.00e-02,
562,-1.20e-03,1.00e-01,
563,2.00e-03,6.00e-02,
564,1.20e-03,6.00e-02,
565,-8.00e-04,1.00e-01,
566,1.20e-03,6.00e-02,
567,-8.00e-04,8.00e-02,
568,2.00e-03,6.00e-02,
569,-1.60e-03,8.00e-02,
570,-1.60e-03,8.00e-02,
571,2.80e-03,6.00e-02,
572,4.00e-03,6.00e-02,
573,-4.40e-03,8.00e-02,
574,6.40e-03,8.00e-02,
575,-6.40e-03,6.00e-02,
576,-6.00e-03,8.00e-02,
577,5.20e-03,4.00e-02,
578,3.60e-03,8.00e-02,
579,-2.40e-03,2.00e-02,
580,1.20e-03,8.00e-02,
581,-1.60e-03,4.00e-02,
582,-8.00e-04,8.00e-02,
583,1.20e-03,2.00e-02,
584,1.20e-03,8.00e-02,
585,-1.20e-03,2.00e-02,
586,1.20e-03,8.00e-02,
587,-1.20e-03,2.00e-02,
588,-1.20e-03,8.00e-02,
589,1.20e-03,2.00e-02,
590,2.40e-03,8.00e-02,
591,-1.20e-03,2.00e-02,
592,2.40e-03,2.00e-02,
593,-2.80e-03,8.00e-02,
594,2.00e-03,2.00e-02,
595,7.20e-03,1.92e+00,
596,3.20e-03,1.60e-01,
597,-1.60e-03,1.20e-01,
598,2.80e-03,1.40e-01,
599,-1.60e-03,8.00e-02,
600,2.00e-03,8.00e-02,
601,-1.20e-03,1.00e-01,
602,2.00e-03,1.00e-01,
603,-1.20e-03,6.00e-02,
604,-8.00e-04,6.00e-02,
605,1.20e-03,1.00e-01,
606,1.60e-03,6.00e-02,
607,-8.00e-04,8.00e-02,
608,-8.00e-04,6.00e-02,
609,2.80e-03,8.00e-02,
610,-1.60e-03,6.00e-02,
611,2.80e-03,8.00e-02,
612,4.80e-03,8.00e-02,
613,-5.20e-03,6.00e-02,
614,-6.00e-03,8.00e-02,
615,6.80e-03,4.00e-02,
616,-5.60e-03,8.00e-02,
617,4.40e-03,4.00e-02,
618,2.80e-03,8.00e-02,
619,-2.80e-03,4.00e-02,
620,-1.20e-03,8.00e-02,
621,2.00e-03,2.00e-02,
622,0.00e+00,8.00e-02,
623,2.00e-03,2.00e-02,
624,2.40e-03,8.00e-02,
625,-8.00e-04,2.00e-02,
626,2.00e-03,2.00e-02,
627,-4.00e-04,8.00e-02,
628,-8.00e-04,2.00e-02,
629,2.00e-03,8.00e-02,
630,2.00e-03,2.00e-02,
631,-1.60e-03,8.00e-02,
632,4.00e-03,8.00e-02,
633,-4.00e-03,2.00e-02,
634,2.80e-03,2.00e-02,
635,8.00e-03,1.92e+00,
636,3.60e-03,1.60e-01,
637,-2.40e-03,8.00e-02,
638,3.60e-03,1.20e-01,
639,-1.60e-03,8.00e-02,
640,-1.60e-03,1.00e-01,
641,2.00e-03,6.00e-02,
642,2.00e-03,1.00e-01,
643,-1.20e-03,6.00e-02,
644,1.60e-03,6.00e-02,
645,-4.00e-04,1.00e-01,
646,1.20e-03,6.00e-02,
647,-8.00e-04,8.00e-02,
648,-8.00e-04,6.00e-02,
649,1.20e-03,8.00e-02,
650,-1.60e-03,6.00e-02,
651,3.20e-03,8.00e-02,
652,4.00e-03,6.00e-02,
653,-4.00e-03,8.00e-02,
654,6.40e-03,6.00e-02,
655,-5.60e-03,8.00e-02,
656,-4.40e-03,8.00e-02,
657,4.00e-03,4.00e-02,
658,2.80e-03,8.00e-02,
659,-2.40e-03,2.00e-02,
660,1.20e-03,8.00e-02,
661,-1.60e-03,2.00e-02,
662,1.20e-03,8.00e-02,
663,-8.00e-04,2.00e-02,
664,-8.00e-04,2.00e-02,
665,1.20e-03,8.00e-02,
666,-1.20e-03,2.00e-02,
667,2.00e-03,8.00e-02,
668,-1.20e-03,8.00e-02,
669,1.60e-03,2.00e-02,
670,2.40e-03,2.00e-02,
671,-1.60e-03,8.00e-02,
672,2.80e-03,2.00e-02,
673,-3.60e-03,6.00e-02,
674,1.60e-03,2.00e-02,
675,7.20e-03,1.96e+00,
676,3.20e-03,1.60e-01,
677,-1.60e-03,8.00e-02,
678,4.00e-03,8.00e-02,
679,-1.20e-03,1.40e-01,
680,-1.20e-03,1.00e-01,
681,2.40e-03,6.00e-02,
682,2.40e-03,1.00e-01,
683,-1.20e-03,6.00e-02,
684,2.00e-03,6.00e-02,
685,-8.00e-04,1.00e-01,
686,1.20e-03,6.00e-02,
687,-8.00e-04,8.00e-02,
688,1.20e-03,6.00e-02,
689,-1.60e-03,8.00e-02,
690,2.40e-03,6.00e-02,
691,-2.00e-03,8.00e-02,
692,4.00e-03,6.00e-02,
693,-3.60e-03,8.00e-02,
694,-5.20e-03,8.00e-02,
695,5.60e-03,2.00e-02,
696,-4.40e-03,6.00e-02,
697,4.80e-03,8.00e-02,
698,2.80e-03,8.00e-02,
699,-2.00e-03,2.00e-02,
700,-1.20e-03,8.00e-02,
701,2.00e-03,2.00e-02,
702,1.60e-03,8.00e-02,
703,0.00e+00,2.00e-02,
704,-8.00e-04,2.00e-02,
705,1.20e-03,8.00e-02,
706,1.20e-03,8.00e-02,
707,-1.20e-03,2.00e-02,
708,-1.20e-03,2.00e-02,
709,1.60e-03,8.00e-02,
710,-1.60e-03,2.00e-02,
711,2.40e-03,8.00e-02,
712,3.20e-03,4.00e-02,
713,-4.00e-03,2.00e-02,
714,1.60e-03,2.00e-02,
715,8.00e-03,1.78e+00,
716,3.60e-03,1.60e-01,
717,-1.60e-03,8.00e-02,
718,4.00e-03,1.20e-01,
719,-1.60e-03,8.00e-02,
720,-1.20e-03,1.00e-01,
721,2.40e-03,6.00e-02,
722,2.40e-03,1.00e-01,
723,-1.20e-03,6.00e-02,
724,-8.00e-04,6.00e-02,
725,2.00e-03,1.00e-01,
726,0.00e+00,6.00e-02,
727,2.00e-03,8.00e-02,
728,1.20e-03,6.00e-02,
729,-1.20e-03,8.00e-02,
730,-2.00e-03,8.00e-02,
731,2.40e-03,6.00e-02,
732,4.00e-03,6.00e-02,
733,-4.00e-03,8.00e-02,
734,5.20e-03,8.00e-02,
735,-5.20e-03,6.00e-02,
736,-4.40e-03,8.00e-02,
737,4.00e-03,6.00e-02,
738,2.40e-03,8.00e-02,
739,-1.60e-03,4.00e-02,
740,1.20e-03,8.00e-02,
741,-8.00e-04,2.00e-02,
742,1.20e-03,2.00e-02,
743,-8.00e-04,8.00e-02,
744,1.20e-03,8.00e-02,
745,-1.20e-03,2.00e-02,
746,-8.00e-04,8.00e-02,
747,2.40e-03,2.00e-02,
748,-4.00e-04,8.00e-02,
749,2.00e-03,2.00e-02,
750,2.40e-03,8.00e-02,
751,-1.20e-03,2.00e-02,
752,3.20e-03,2.00e-02,
753,-4.00e-03,8.00e-02,
754,1.60e-03,2.00e-02,
755,7.60e-03,1.92e+00,
756,3.20e-03,1.60e-01,
757,-1.60e-03,1.20e-01,
758,4.00e-03,8.00e-02,
759,-1.60e-03,1.40e-01,
760,-1.20e-03,1.00e-01,
761,2.40e-03,6.00e-02,
762,-1.20e-03,1.00e-01,
763,2.40e-03,6.00e-02,
764,1.60e-03,6.00e-02,
765,-1.20e-03,1.00e-01,
766,1.20e-03,6.00e-02,
767,-8.00e-04,8.00e-02,
768,1.20e-03,6.00e-02,
769,-1.20e-03,8.00e-02,
770,-1.60e-03,8.00e-02,
771,2.40e-03,6.00e-02,
772,3.20e-03,8.00e-02,
773,-3.60e-03,6.00e-02,
774,-4.00e-03,8.00e-02,
775,5.20e-03,2.00e-02,
776,-3.20e-03,8.00e-02,
777,4.00e-03,2.00e-02,
778,2.40e-03,2.00e-02,
779,-1.60e-03,8.00e-02,
780,1.60e-03,2.00e-02,
781,-8.00e-04,8.00e-02,
782,0.00e+00,8.00e-02,
783,2.00e-03,2.00e-02,
784,-8.00e-04,2.00e-02,
785,2.00e-03,8.00e-02,
786,1.60e-03,2.00e-02,
787,-1.20e-03,8.00e-02,
788,2.40e-03,2.00e-02,
789,-1.20e-03,8.00e-02,
790,2.40e-03,2.00e-02,
791,-2.40e-03,8.00e-02,
792,3.60e-03,2.00e-02,
793,-4.40e-03,6.00e-02,
794,1.20e-03,2.00e-02,
795,8.00e-03,1.74e+00,
796,3.20e-03,1.60e-01,
797,-1.60e-03,1.00e-01,
798,4.00e-03,1.40e-01,
799,-1.60e-03,8.00e-02,
800,-1.20e-03,1.00e-01,
801,2.40e-03,8.00e-02,
802,2.00e-03,1.00e-01,
803,-1.20e-03,6.00e-02,
804,2.00e-03,6.00e-02,
805,-1.20e-03,1.00e-01,
806,-8.00e-04,8.00e-02,
807,1.20e-03,6.00e-02,
808,-8.00e-04,8.00e-02,
809,1.20e-03,6.00e-02,
810,2.00e-03,6.00e-02,
811,-1.20e-03,8.00e-02,
812,2.40e-03,6.00e-02,
813,-3.20e-03,8.00e-02,
814,-4.00e-03,8.00e-02,
815,4.80e-03,4.00e-02,
816,-4.00e-03,8.00e-02,
817,3.20e-03,2.00e-02,
818,2.40e-03,8.00e-02,
819,-1.60e-03,2.00e-02,
820,-1.20e-03,2.00e-02,
821,2.00e-03,8.00e-02,
822,0.00e+00,2.00e-02,
823,1.20e-03,8.00e-02,
824,1.20e-03,8.00e-02,
825,-1.20e-03,2.00e-02,
826,1.20e-03,2.00e-02,
827,-8.00e-04,8.00e-02,
828,-1.20e-03,2.00e-02,
829,2.00e-03,8.00e-02,
830,-1.60e-03,8.00e-02,
831,3.20e-03,2.00e-02,
832,3.60e-03,2.00e-02,
833,-4.00e-03,8.00e-02,
834,1.20e-03,2.00e-02,
835,7.20e-03,1.94e+00,
836,3.20e-03,1.60e-01,
837,-2.40e-03,1.00e-01,
838,4.00e-03,1.20e-01,
839,-2.00e-03,8.00e-02,
840,-1.60e-03,1.00e-01,
841,2.40e-03,6.00e-02,
842,2.00e-03,6.00e-02,
843,-1.20e-03,1.00e-01,
844,1.20e-03,6.00e-02,
845,-1.20e-03,1.00e-01,
846,-8.00e-04,8.00e-02,
847,1.60e-03,6.00e-02,
848,1.20e-03,6.00e-02,
849,-1.20e-03,8.00e-02,
850,-1.20e-03,6.00e-02,
851,2.00e-03,8.00e-02,
852,2.80e-03,6.00e-02,
853,-2.80e-03,8.00e-02,
