CarrPurc_P1-19_P2-38_tauVary/Gly93/NewFile4.csv

X,CH1,CH2,Start,Increment,
Sequence,Volt,Volt,-5.000000e-03,1.000000e-04
0,0.00e+00,4.00e-02,
1,1.20e-03,0.00e+00,
2,0.00e+00,4.00e-02,
3,1.60e-03,0.00e+00,
4,1.20e-03,4.00e-02,
5,0.00e+00,0.00e+00,
6,1.20e-03,2.00e-02,
7,0.00e+00,4.00e-02,
8,1.20e-03,4.00e-02,
9,0.00e+00,2.00e-02,
10,0.00e+00,4.00e-02,
11,8.00e-04,0.00e+00,
12,0.00e+00,4.00e-02,
13,8.00e-04,2.00e-02,
14,0.00e+00,4.00e-02,
15,1.20e-03,2.00e-02,
16,8.00e-04,4.00e-02,
17,-8.00e-04,2.00e-02,
18,0.00e+00,4.00e-02,
19,8.00e-04,2.00e-02,
20,8.00e-04,4.00e-02,
21,-8.00e-04,0.00e+00,
22,8.00e-04,4.00e-02,
23,0.00e+00,0.00e+00,
24,0.00e+00,4.00e-02,
25,8.00e-04,2.00e-02,
26,8.00e-04,4.00e-02,
27,-8.00e-04,2.00e-02,
28,0.00e+00,4.00e-02,
29,1.20e-03,0.00e+00,
30,0.00e+00,2.00e-02,
31,1.60e-03,4.00e-02,
32,8.00e-04,4.00e-02,
33,0.00e+00,2.00e-02,
34,1.20e-03,4.00e-02,
35,-4.00e-04,2.00e-02,
36,-8.00e-04,4.00e-02,
37,8.00e-04,0.00e+00,
38,0.00e+00,4.00e-02,
39,8.00e-04,2.00e-02,
40,0.00e+00,4.00e-02,
41,1.20e-03,0.00e+00,
42,1.20e-03,4.00e-02,
43,0.00e+00,2.00e-02,
44,1.20e-03,4.00e-02,
45,-8.00e-04,0.00e+00,
46,-4.00e-04,4.00e-02,
47,8.00e-04,0.00e+00,
48,0.00e+00,4.00e-02,
49,8.00e-04,2.00e-02,
50,1.20e-03,4.00e-02,
51,0.00e+00,0.00e+00,
52,0.00e+00,2.00e-02,
53,8.00e-04,4.00e-02,
54,0.00e+00,1.82e+00,
55,4.80e-03,-6.00e-02,
56,4.40e-03,1.60e-01,
57,-2.88e-02,1.00e-01,
58,-1.48e-02,1.20e-01,
59,1.68e-02,8.00e-02,
60,8.40e-03,1.00e-01,
61,-8.80e-03,8.00e-02,
62,-2.40e-03,1.00e-01,
63,4.00e-03,6.00e-02,
64,-2.40e-03,6.00e-02,
65,2.80e-03,8.00e-02,
66,2.40e-03,6.00e-02,
67,-2.00e-03,8.00e-02,
68,-1.20e-03,8.00e-02,
69,2.80e-03,6.00e-02,
70,2.00e-03,6.00e-02,
71,-1.20e-03,8.00e-02,
72,-1.20e-03,8.00e-02,
73,2.00e-03,6.00e-02,
74,8.00e-04,6.00e-02,
75,7.60e-03,1.92e+00,
76,6.40e-03,1.60e-01,
77,-7.60e-03,1.20e-01,
78,-8.40e-03,1.20e-01,
79,6.40e-03,8.00e-02,
80,4.00e-03,1.00e-01,
81,-1.60e-03,8.00e-02,
82,-4.00e-04,1.00e-01,
83,2.40e-03,6.00e-02,
84,-1.20e-03,8.00e-02,
85,2.40e-03,6.00e-02,
86,1.20e-03,6.00e-02,
87,-1.20e-03,8.00e-02,
88,-3.60e-03,8.00e-02,
89,5.60e-03,6.00e-02,
90,8.80e-03,6.00e-02,
91,-1.04e-02,8.00e-02,
92,-1.56e-02,6.00e-02,
93,1.88e-02,8.00e-02,
94,-2.16e-02,6.00e-02,
95,2.36e-02,8.00e-02,
96,-1.92e-02,6.00e-02,
97,1.76e-02,8.00e-02,
98,1.16e-02,6.00e-02,
99,-8.80e-03,8.00e-02,
100,-6.00e-03,8.00e-02,
101,4.80e-03,6.00e-02,
102,2.40e-03,8.00e-02,
103,-1.20e-03,2.00e-02,
104,2.00e-03,8.00e-02,
105,-1.20e-03,2.00e-02,
106,-1.20e-03,2.00e-02,
107,1.60e-03,8.00e-02,
108,-1.20e-03,2.00e-02,
109,2.40e-03,8.00e-02,
110,1.20e-03,2.00e-02,
111,-8.00e-04,8.00e-02,
112,1.20e-03,2.00e-02,
113,-8.00e-04,6.00e-02,
114,4.00e-04,2.00e-02,
115,7.20e-03,1.88e+00,
116,5.60e-03,1.60e-01,
117,8.00e-04,1.20e-01,
118,2.80e-03,1.40e-01,
119,0.00e+00,8.00e-02,
120,2.40e-03,8.00e-02,
121,-1.20e-03,1.00e-01,
122,-1.60e-03,1.00e-01,
123,2.40e-03,6.00e-02,
124,-8.00e-04,6.00e-02,
125,1.60e-03,1.00e-01,
126,2.40e-03,8.00e-02,
127,-1.60e-03,6.00e-02,
128,-3.60e-03,6.00e-02,
129,4.80e-03,8.00e-02,
130,-5.60e-03,6.00e-02,
131,8.00e-03,8.00e-02,
132,1.20e-02,6.00e-02,
133,-1.44e-02,8.00e-02,
134,-1.68e-02,6.00e-02,
135,1.72e-02,8.00e-02,
136,-1.36e-02,8.00e-02,
137,1.20e-02,4.00e-02,
138,8.40e-03,8.00e-02,
139,-5.60e-03,6.00e-02,
140,-3.20e-03,8.00e-02,
141,4.00e-03,2.00e-02,
142,2.80e-03,8.00e-02,
143,-1.20e-03,2.00e-02,
144,2.40e-03,8.00e-02,
145,-1.20e-03,4.00e-02,
146,1.20e-03,8.00e-02,
147,-8.00e-04,2.00e-02,
148,-8.00e-04,8.00e-02,
149,2.40e-03,2.00e-02,
150,2.40e-03,8.00e-02,
151,-2.00e-03,2.00e-02,
152,-4.00e-03,8.00e-02,
153,5.20e-03,2.00e-02,
154,2.00e-03,2.00e-02,
155,7.20e-03,1.80e+00,
156,5.60e-03,1.60e-01,
157,0.00e+00,1.20e-01,
158,0.00e+00,1.40e-01,
159,2.80e-03,8.00e-02,
160,2.00e-03,1.00e-01,
161,-8.00e-04,8.00e-02,
162,-8.00e-04,1.00e-01,
163,2.40e-03,6.00e-02,
164,-8.00e-04,1.00e-01,
165,2.00e-03,6.00e-02,
166,2.40e-03,6.00e-02,
167,-8.00e-04,8.00e-02,
168,2.80e-03,6.00e-02,
169,-3.60e-03,8.00e-02,
170,-5.20e-03,8.00e-02,
171,7.20e-03,6.00e-02,
172,1.20e-02,6.00e-02,
173,-1.36e-02,8.00e-02,
174,1.80e-02,6.00e-02,
175,-1.64e-02,8.00e-02,
176,-1.32e-02,8.00e-02,
177,1.16e-02,6.00e-02,
178,9.20e-03,8.00e-02,
179,-6.40e-03,6.00e-02,
180,-4.00e-03,8.00e-02,
181,4.00e-03,4.00e-02,
182,2.40e-03,8.00e-02,
183,-8.00e-04,6.00e-02,
184,-1.20e-03,8.00e-02,
185,2.40e-03,4.00e-02,
186,2.40e-03,8.00e-02,
187,-8.00e-04,4.00e-02,
188,-4.00e-04,8.00e-02,
189,1.20e-03,2.00e-02,
190,2.40e-03,8.00e-02,
191,-1.60e-03,4.00e-02,
192,-3.60e-03,8.00e-02,
193,5.20e-03,2.00e-02,
194,3.20e-03,2.00e-02,
195,8.00e-03,1.98e+00,
196,5.60e-03,1.60e-01,
197,-1.60e-03,1.20e-01,
198,-1.60e-03,8.00e-02,
199,2.40e-03,1.40e-01,
200,2.00e-03,8.00e-02,
201,0.00e+00,1.00e-01,
202,2.00e-03,1.00e-01,
203,-1.20e-03,6.00e-02,
204,-1.20e-03,6.00e-02,
205,2.40e-03,1.00e-01,
206,2.00e-03,6.00e-02,
207,-1.20e-03,8.00e-02,
208,2.80e-03,8.00e-02,
209,-2.00e-03,6.00e-02,
210,-4.40e-03,6.00e-02,
211,6.00e-03,8.00e-02,
212,8.40e-03,6.00e-02,
213,-9.20e-03,8.00e-02,
214,-1.32e-02,6.00e-02,
215,1.36e-02,8.00e-02,
216,-1.16e-02,6.00e-02,
217,1.12e-02,8.00e-02,
218,6.80e-03,8.00e-02,
219,-5.20e-03,6.00e-02,
220,-2.80e-03,6.00e-02,
221,2.80e-03,8.00e-02,
222,2.00e-03,6.00e-02,
223,-8.00e-04,8.00e-02,
224,-4.00e-04,6.00e-02,
225,1.20e-03,8.00e-02,
226,1.20e-03,8.00e-02,
227,-1.20e-03,4.00e-02,
228,-8.00e-04,8.00e-02,
229,1.20e-03,4.00e-02,
230,-8.00e-04,8.00e-02,
231,1.60e-03,2.00e-02,
232,2.40e-03,8.00e-02,
233,-2.00e-03,2.00e-02,
234,2.00e-03,2.00e+00,
235,7.20e-03,0.00e+00,
236,5.60e-03,1.60e-01,
237,-8.00e-04,1.20e-01,
238,-8.00e-04,1.40e-01,
239,2.40e-03,8.00e-02,
240,2.00e-03,1.00e-01,
241,0.00e+00,8.00e-02,
242,-8.00e-04,1.00e-01,
243,2.00e-03,6.00e-02,
244,-8.00e-04,1.00e-01,
245,1.60e-03,6.00e-02,
246,2.40e-03,6.00e-02,
247,-8.00e-04,8.00e-02,
248,3.20e-03,8.00e-02,
249,-2.80e-03,6.00e-02,
250,-4.40e-03,8.00e-02,
251,6.80e-03,6.00e-02,
252,9.20e-03,6.00e-02,
253,-1.00e-02,8.00e-02,
254,1.40e-02,8.00e-02,
255,-1.32e-02,6.00e-02,
256,-1.16e-02,8.00e-02,
257,9.60e-03,6.00e-02,
258,6.80e-03,6.00e-02,
259,-4.40e-03,8.00e-02,
260,-2.40e-03,8.00e-02,
261,2.80e-03,4.00e-02,
262,2.40e-03,8.00e-02,
263,-8.00e-04,4.00e-02,
264,-8.00e-04,8.00e-02,
265,2.00e-03,2.00e-02,
266,2.00e-03,2.00e-02,
267,-8.00e-04,8.00e-02,
268,1.20e-03,2.00e-02,
269,-1.20e-03,8.00e-02,
270,-8.00e-04,2.00e-02,
271,2.40e-03,8.00e-02,
272,-2.40e-03,8.00e-02,
273,4.00e-03,2.00e-02,
274,3.20e-03,2.00e-02,
275,8.00e-03,1.84e+00,
276,5.60e-03,1.60e-01,
277,0.00e+00,1.20e-01,
278,2.40e-03,8.00e-02,
279,-8.00e-04,1.20e-01,
280,-8.00e-04,1.00e-01,
281,1.60e-03,8.00e-02,
282,-8.00e-04,1.00e-01,
283,2.00e-03,6.00e-02,
284,-8.00e-04,6.00e-02,
285,2.00e-03,1.00e-01,
286,2.00e-03,6.00e-02,
287,-8.00e-04,8.00e-02,
288,2.80e-03,6.00e-02,
289,-2.40e-03,8.00e-02,
290,-4.00e-03,6.00e-02,
291,5.20e-03,8.00e-02,
292,8.00e-03,8.00e-02,
293,-9.20e-03,6.00e-02,
294,-1.12e-02,6.00e-02,
295,1.24e-02,8.00e-02,
296,-9.60e-03,8.00e-02,
297,9.60e-03,6.00e-02,
298,6.40e-03,8.00e-02,
299,-4.00e-03,6.00e-02,
300,-2.80e-03,8.00e-02,
301,2.80e-03,6.00e-02,
302,2.00e-03,8.00e-02,
303,-1.20e-03,4.00e-02,
304,-8.00e-04,8.00e-02,
305,2.40e-03,2.00e-02,
306,-8.00e-04,2.00e-02,
307,2.00e-03,8.00e-02,
308,-8.00e-04,8.00e-02,
309,2.00e-03,2.00e-02,
310,2.00e-03,8.00e-02,
311,-1.20e-03,2.00e-02,
312,-1.60e-03,2.00e-02,
313,3.60e-03,8.00e-02,
314,3.20e-03,2.00e-02,
315,7.20e-03,1.92e+00,
316,5.60e-03,1.60e-01,
317,0.00e+00,1.20e-01,
318,2.80e-03,8.00e-02,
319,-4.00e-04,1.40e-01,
320,2.00e-03,1.00e-01,
321,-8.00e-04,8.00e-02,
322,2.40e-03,1.00e-01,
323,-8.00e-04,6.00e-02,
324,2.00e-03,1.00e-01,
325,-8.00e-04,6.00e-02,
326,1.60e-03,6.00e-02,
327,-8.00e-04,8.00e-02,
328,2.40e-03,6.00e-02,
329,-1.60e-03,8.00e-02,
330,-2.80e-03,6.00e-02,
331,5.20e-03,8.00e-02,
332,6.80e-03,8.00e-02,
333,-8.00e-03,6.00e-02,
334,1.12e-02,6.00e-02,
335,-1.00e-02,8.00e-02,
336,-9.60e-03,6.00e-02,
337,9.20e-03,8.00e-02,
338,5.60e-03,8.00e-02,
339,-4.00e-03,6.00e-02,
340,-2.40e-03,6.00e-02,
341,2.80e-03,8.00e-02,
342,2.00e-03,8.00e-02,
343,-8.00e-04,4.00e-02,
344,0.00e+00,8.00e-02,
345,2.00e-03,2.00e-02,
346,-8.00e-04,8.00e-02,
347,1.60e-03,4.00e-02,
348,0.00e+00,2.00e-02,
349,1.20e-03,8.00e-02,
350,2.00e-03,8.00e-02,
351,-1.20e-03,2.00e-02,
352,-1.60e-03,8.00e-02,
353,4.00e-03,2.00e-02,
354,3.60e-03,2.00e-02,
355,8.00e-03,1.82e+00,
356,5.60e-03,1.60e-01,
357,-4.00e-04,1.20e-01,
358,2.80e-03,1.40e-01,
359,-8.00e-04,8.00e-02,
360,2.00e-03,1.00e-01,
361,-8.00e-04,6.00e-02,
362,2.00e-03,1.00e-01,
363,0.00e+00,6.00e-02,
364,-8.00e-04,8.00e-02,
365,2.00e-03,6.00e-02,
366,1.20e-03,6.00e-02,
367,-8.00e-04,8.00e-02,
368,2.40e-03,6.00e-02,
369,-2.40e-03,8.00e-02,
370,-3.60e-03,6.00e-02,
371,5.60e-03,8.00e-02,
372,6.80e-03,6.00e-02,
373,-7.20e-03,8.00e-02,
374,-9.60e-03,6.00e-02,
375,1.04e-02,8.00e-02,
376,-8.40e-03,8.00e-02,
377,6.80e-03,4.00e-02,
378,4.40e-03,8.00e-02,
379,-3.20e-03,2.00e-02,
380,-1.60e-03,8.00e-02,
381,2.40e-03,4.00e-02,
382,0.00e+00,8.00e-02,
383,1.60e-03,2.00e-02,
384,-8.00e-04,8.00e-02,
385,1.20e-03,2.00e-02,
386,1.60e-03,8.00e-02,
387,-8.00e-04,2.00e-02,
388,-1.20e-03,2.00e-02,
389,2.00e-03,8.00e-02,
390,-8.00e-04,2.00e-02,
391,2.40e-03,8.00e-02,
392,-2.00e-03,4.00e-02,
393,4.00e-03,2.00e-02,
394,3.20e-03,2.00e-02,
395,7.20e-03,1.90e+00,
396,5.60e-03,1.60e-01,
397,0.00e+00,1.20e-01,
398,3.20e-03,8.00e-02,
399,-8.00e-04,1.40e-01,
400,-8.00e-04,1.00e-01,
401,2.00e-03,8.00e-02,
402,2.40e-03,1.00e-01,
403,-4.00e-04,6.00e-02,
404,-8.00e-04,6.00e-02,
405,2.00e-03,1.00e-01,
406,0.00e+00,6.00e-02,
407,2.40e-03,8.00e-02,
408,-1.60e-03,6.00e-02,
409,2.40e-03,8.00e-02,
410,-2.80e-03,6.00e-02,
411,4.80e-03,8.00e-02,
412,6.40e-03,8.00e-02,
413,-6.80e-03,6.00e-02,
414,-7.60e-03,6.00e-02,
415,1.00e-02,8.00e-02,
416,-6.80e-03,8.00e-02,
417,6.80e-03,4.00e-02,
418,5.20e-03,8.00e-02,
419,-3.20e-03,6.00e-02,
420,-1.60e-03,6.00e-02,
421,2.40e-03,8.00e-02,
422,2.00e-03,6.00e-02,
423,0.00e+00,8.00e-02,
424,-8.00e-04,6.00e-02,
425,1.20e-03,8.00e-02,
426,2.00e-03,8.00e-02,
427,-8.00e-04,4.00e-02,
428,-8.00e-04,8.00e-02,
429,2.00e-03,4.00e-02,
430,2.00e-03,2.00e-02,
431,-1.20e-03,8.00e-02,
432,3.60e-03,2.00e-02,
433,-2.40e-03,8.00e-02,
434,2.80e-03,2.00e-02,
435,7.60e-03,1.86e+00,
436,5.60e-03,1.60e-01,
437,0.00e+00,1.20e-01,
438,4.00e-03,8.00e-02,
439,-4.00e-04,1.40e-01,
440,-8.00e-04,8.00e-02,
441,2.40e-03,1.00e-01,
442,2.40e-03,1.00e-01,
443,-1.20e-03,6.00e-02,
444,2.00e-03,6.00e-02,
445,-8.00e-04,1.00e-01,
446,1.60e-03,6.00e-02,
447,-4.00e-04,8.00e-02,
448,-1.20e-03,6.00e-02,
449,2.40e-03,8.00e-02,
450,-2.40e-03,6.00e-02,
451,4.00e-03,8.00e-02,
452,6.40e-03,8.00e-02,
453,-6.00e-03,6.00e-02,
454,-8.40e-03,6.00e-02,
455,9.20e-03,8.00e-02,
456,-6.80e-03,8.00e-02,
457,6.80e-03,4.00e-02,
458,4.40e-03,6.00e-02,
459,-3.60e-03,8.00e-02,
460,-2.40e-03,6.00e-02,
461,2.40e-03,8.00e-02,
462,-8.00e-04,6.00e-02,
463,2.00e-03,8.00e-02,
464,1.20e-03,6.00e-02,
465,-8.00e-04,8.00e-02,
466,2.00e-03,8.00e-02,
467,-1.20e-03,4.00e-02,
468,-8.00e-04,8.00e-02,
469,1.20e-03,2.00e-02,
470,-8.00e-04,8.00e-02,
471,2.00e-03,2.00e-02,
472,-2.40e-03,8.00e-02,
473,3.20e-03,2.00e-02,
474,3.60e-03,2.00e-02,
475,7.20e-03,1.74e+00,
476,5.60e-03,1.60e-01,
477,0.00e+00,1.20e-01,
478,4.40e-03,1.40e-01,
479,-1.20e-03,8.00e-02,
480,-1.20e-03,1.00e-01,
481,2.00e-03,8.00e-02,
482,2.40e-03,1.00e-01,
483,-8.00e-04,6.00e-02,
484,-4.00e-04,1.00e-01,
485,2.00e-03,6.00e-02,
486,2.00e-03,6.00e-02,
487,-8.00e-04,8.00e-02,
488,2.40e-03,8.00e-02,
489,-1.60e-03,6.00e-02,
490,-2.80e-03,6.00e-02,
491,4.40e-03,8.00e-02,
492,5.20e-03,6.00e-02,
493,-6.00e-03,8.00e-02,
494,7.60e-03,6.00e-02,
495,-7.60e-03,8.00e-02,
496,-6.80e-03,6.00e-02,
497,6.40e-03,8.00e-02,
498,3.60e-03,6.00e-02,
499,-2.80e-03,8.00e-02,
500,-1.60e-03,6.00e-02,
501,2.40e-03,8.00e-02,
502,1.20e-03,6.00e-02,
503,-4.00e-04,8.00e-02,
504,-4.00e-04,4.00e-02,
505,1.60e-03,8.00e-02,
506,2.00e-03,8.00e-02,
507,-8.00e-04,2.00e-02,
508,-8.00e-04,8.00e-02,
509,1.20e-03,2.00e-02,
510,2.00e-03,8.00e-02,
511,-1.60e-03,2.00e-02,
512,-2.80e-03,8.00e-02,
513,3.60e-03,2.00e-02,
514,3.60e-03,2.00e-02,
515,7.60e-03,1.82e+00,
516,5.60e-03,1.60e-01,
517,0.00e+00,1.20e-01,
518,4.00e-03,8.00e-02,
519,-8.00e-04,1.40e-01,
520,1.20e-03,1.00e-01,
521,-1.20e-03,8.00e-02,
522,1.60e-03,1.00e-01,
523,-1.20e-03,6.00e-02,
524,-1.20e-03,1.00e-01,
525,1.20e-03,6.00e-02,
526,0.00e+00,6.00e-02,
527,2.00e-03,8.00e-02,
528,2.00e-03,6.00e-02,
529,-1.20e-03,8.00e-02,
530,-1.60e-03,6.00e-02,
531,4.00e-03,8.00e-02,
532,5.60e-03,8.00e-02,
533,-5.20e-03,6.00e-02,
534,-6.80e-03,8.00e-02,
535,8.00e-03,6.00e-02,
536,-6.00e-03,6.00e-02,
537,5.60e-03,8.00e-02,
538,4.00e-03,8.00e-02,
539,-2.40e-03,6.00e-02,
540,-1.20e-03,6.00e-02,
541,2.40e-03,8.00e-02,
542,2.00e-03,8.00e-02,
543,-8.00e-04,2.00e-02,
544,1.20e-03,8.00e-02,
545,-1.20e-03,2.00e-02,
546,-8.00e-04,8.00e-02,
547,2.00e-03,2.00e-02,
548,2.40e-03,8.00e-02,
549,-1.20e-03,2.00e-02,
550,2.40e-03,8.00e-02,
551,-1.60e-03,2.00e-02,
552,-3.60e-03,8.00e-02,
553,3.20e-03,2.00e-02,
554,3.20e-03,2.00e-02,
555,7.20e-03,1.94e+00,
556,5.60e-03,1.60e-01,
557,0.00e+00,1.20e-01,
558,4.40e-03,1.40e-01,
559,-8.00e-04,8.00e-02,
560,-1.20e-03,1.00e-01,
561,2.40e-03,8.00e-02,
562,-8.00e-04,1.00e-01,
563,2.40e-03,6.00e-02,
564,-8.00e-04,1.00e-01,
565,2.00e-03,6.00e-02,
566,1.20e-03,6.00e-02,
567,-8.00e-04,8.00e-02,
568,-1.20e-03,6.00e-02,
569,1.60e-03,8.00e-02,
570,-1.60e-03,8.00e-02,
571,2.80e-03,6.00e-02,
572,4.40e-03,6.00e-02,
573,-4.40e-03,8.00e-02,
574,7.20e-03,8.00e-02,
575,-6.00e-03,6.00e-02,
576,-5.60e-03,8.00e-02,
577,5.20e-03,6.00e-02,
578,3.60e-03,6.00e-02,
579,-2.40e-03,8.00e-02,
580,-1.60e-03,6.00e-02,
581,1.60e-03,8.00e-02,
582,2.00e-03,8.00e-02,
583,-4.00e-04,4.00e-02,
584,1.20e-03,6.00e-02,
585,-8.00e-04,8.00e-02,
586,-8.00e-04,8.00e-02,
587,1.60e-03,2.00e-02,
588,1.20e-03,8.00e-02,
589,-1.20e-03,4.00e-02,
590,-1.20e-03,8.00e-02,
591,2.40e-03,2.00e-02,
592,3.60e-03,8.00e-02,
593,-3.20e-03,4.00e-02,
594,2.80e-03,2.00e-02,
595,8.00e-03,1.82e+00,
596,5.60e-03,1.60e-01,
597,0.00e+00,1.20e-01,
598,4.80e-03,1.40e-01,
599,-8.00e-04,8.00e-02,
600,-1.20e-03,8.00e-02,
601,2.00e-03,1.00e-01,
602,2.40e-03,1.00e-01,
603,-4.00e-04,6.00e-02,
604,2.00e-03,6.00e-02,
605,-4.00e-04,8.00e-02,
606,2.00e-03,6.00e-02,
607,0.00e+00,8.00e-02,
608,2.40e-03,6.00e-02,
609,-1.20e-03,8.00e-02,
610,-1.60e-03,6.00e-02,
611,3.60e-03,8.00e-02,
612,4.00e-03,8.00e-02,
613,-4.40e-03,6.00e-02,
614,-5.60e-03,6.00e-02,
615,6.80e-03,8.00e-02,
616,-4.40e-03,6.00e-02,
617,5.20e-03,8.00e-02,
618,3.60e-03,6.00e-02,
619,-1.60e-03,8.00e-02,
620,-8.00e-04,8.00e-02,
621,2.00e-03,4.00e-02,
622,1.20e-03,8.00e-02,
623,0.00e+00,2.00e-02,
624,-8.00e-04,8.00e-02,
625,1.20e-03,2.00e-02,
626,-8.00e-04,2.00e-02,
627,2.00e-03,8.00e-02,
628,-8.00e-04,8.00e-02,
629,2.00e-03,2.00e-02,
630,-1.20e-03,2.00e-02,
631,3.60e-03,8.00e-02,
632,3.60e-03,8.00e-02,
633,-4.00e-03,2.00e-02,
634,2.80e-03,2.00e-02,
635,7.20e-03,1.92e+00,
636,5.60e-03,1.60e-01,
637,0.00e+00,1.20e-01,
638,4.00e-03,1.20e-01,
639,-1.60e-03,8.00e-02,
640,-8.00e-04,8.00e-02,
641,2.40e-03,1.00e-01,
642,2.40e-03,1.00e-01,
643,-1.20e-03,6.00e-02,
644,1.20e-03,6.00e-02,
645,-1.20e-03,8.00e-02,
646,0.00e+00,6.00e-02,
647,1.20e-03,8.00e-02,
648,-8.00e-04,6.00e-02,
649,2.40e-03,8.00e-02,
650,-1.60e-03,6.00e-02,
651,2.80e-03,8.00e-02,
652,4.00e-03,6.00e-02,
653,-4.00e-03,8.00e-02,
654,5.60e-03,6.00e-02,
655,-5.20e-03,8.00e-02,
656,-4.40e-03,8.00e-02,
657,4.40e-03,6.00e-02,
658,3.60e-03,6.00e-02,
659,-1.60e-03,8.00e-02,
660,-1.20e-03,6.00e-02,
661,2.40e-03,8.00e-02,
662,2.00e-03,8.00e-02,
663,-8.00e-04,4.00e-02,
664,-8.00e-04,4.00e-02,
665,1.60e-03,8.00e-02,
666,2.00e-03,8.00e-02,
667,-8.00e-04,2.00e-02,
668,-1.20e-03,8.00e-02,
669,2.40e-03,2.00e-02,
670,-1.20e-03,2.00e-02,
671,3.20e-03,8.00e-02,
672,3.60e-03,8.00e-02,
673,-4.00e-03,2.00e-02,
674,2.80e-03,1.94e+00,
675,7.60e-03,-2.00e-02,
676,6.40e-03,1.60e-01,
677,-8.00e-04,1.20e-01,
678,4.00e-03,1.40e-01,
679,-1.20e-03,8.00e-02,
680,-1.60e-03,1.00e-01,
681,2.40e-03,8.00e-02,
682,2.40e-03,1.00e-01,
683,-8.00e-04,6.00e-02,
684,2.40e-03,6.00e-02,
685,-4.00e-04,1.00e-01,
686,0.00e+00,6.00e-02,
687,2.00e-03,8.00e-02,
688,-8.00e-04,6.00e-02,
689,1.20e-03,8.00e-02,
690,-1.20e-03,6.00e-02,
691,3.60e-03,8.00e-02,
692,4.00e-03,6.00e-02,
693,-3.20e-03,8.00e-02,
694,6.00e-03,6.00e-02,
695,-5.20e-03,8.00e-02,
696,-4.00e-03,6.00e-02,
697,4.40e-03,8.00e-02,
698,3.20e-03,6.00e-02,
699,-1.60e-03,8.00e-02,
700,-8.00e-04,6.00e-02,
701,2.40e-03,8.00e-02,
702,2.00e-03,6.00e-02,
703,0.00e+00,8.00e-02,
704,-4.00e-04,8.00e-02,
705,2.00e-03,2.00e-02,
706,2.00e-03,8.00e-02,
707,-8.00e-04,2.00e-02,
708,-8.00e-04,2.00e-02,
709,2.80e-03,8.00e-02,
710,2.80e-03,8.00e-02,
711,-1.20e-03,2.00e-02,
712,4.00e-03,2.00e-02,
713,-3.20e-03,8.00e-02,
714,2.80e-03,2.00e-02,
715,7.20e-03,2.00e+00,
716,5.60e-03,1.60e-01,
717,-4.00e-04,1.20e-01,
718,4.80e-03,1.20e-01,
719,-1.60e-03,8.00e-02,
720,-1.20e-03,1.00e-01,
721,2.80e-03,6.00e-02,
722,2.40e-03,1.00e-01,
723,-8.00e-04,6.00e-02,
724,-8.00e-04,1.00e-01,
725,1.60e-03,6.00e-02,
726,0.00e+00,6.00e-02,
727,2.00e-03,8.00e-02,
728,1.60e-03,6.00e-02,
729,-8.00e-04,8.00e-02,
730,-1.20e-03,8.00e-02,
731,3.20e-03,6.00e-02,
732,4.00e-03,6.00e-02,
733,-3.60e-03,8.00e-02,
734,5.20e-03,8.00e-02,
735,-4.00e-03,6.00e-02,
736,-4.00e-03,8.00e-02,
737,4.00e-03,6.00e-02,
738,3.20e-03,6.00e-02,
739,-1.60e-03,8.00e-02,
740,-8.00e-04,8.00e-02,
741,1.20e-03,4.00e-02,
742,-8.00e-04,2.00e-02,
743,2.00e-03,8.00e-02,
744,-8.00e-04,2.00e-02,
745,1.20e-03,8.00e-02,
746,2.40e-03,8.00e-02,
747,-8.00e-04,2.00e-02,
748,-1.60e-03,2.00e-02,
749,1.20e-03,8.00e-02,
750,2.40e-03,8.00e-02,
751,-1.20e-03,2.00e-02,
752,3.60e-03,2.00e-02,
753,-3.60e-03,8.00e-02,
754,2.80e-03,2.00e-02,
755,8.00e-03,1.86e+00,
756,5.60e-03,1.60e-01,
757,0.00e+00,1.20e-01,
758,4.40e-03,1.20e-01,
759,-1.20e-03,8.00e-02,
760,-1.20e-03,1.00e-01,
761,2.40e-03,8.00e-02,
762,2.00e-03,1.00e-01,
763,-8.00e-04,6.00e-02,
764,-8.00e-04,6.00e-02,
765,2.00e-03,1.00e-01,
766,1.20e-03,6.00e-02,
767,-4.00e-04,8.00e-02,
768,1.20e-03,6.00e-02,
769,-8.00e-04,8.00e-02,
770,-1.20e-03,8.00e-02,
771,2.40e-03,6.00e-02,
772,3.20e-03,8.00e-02,
773,-2.80e-03,6.00e-02,
774,-3.60e-03,6.00e-02,
775,4.80e-03,8.00e-02,
776,-2.80e-03,6.00e-02,
777,3.60e-03,8.00e-02,
778,2.40e-03,6.00e-02,
779,-1.60e-03,8.00e-02,
780,1.20e-03,6.00e-02,
781,-1.20e-03,8.00e-02,
782,1.20e-03,8.00e-02,
783,-8.00e-04,4.00e-02,
784,-8.00e-04,8.00e-02,
785,1.20e-03,2.00e-02,
786,2.00e-03,8.00e-02,
787,-1.20e-03,2.00e-02,
788,2.40e-03,8.00e-02,
789,-1.20e-03,4.00e-02,
790,-1.60e-03,8.00e-02,
791,2.40e-03,2.00e-02,
792,4.00e-03,8.00e-02,
793,-4.00e-03,2.00e-02,
794,2.00e-03,1.94e+00,
795,7.20e-03,-2.00e-02,
796,5.60e-03,1.60e-01,
797,0.00e+00,1.20e-01,
798,4.80e-03,1.40e-01,
799,-1.60e-03,8.00e-02,
800,-1.20e-03,1.00e-01,
801,2.40e-03,8.00e-02,
802,2.40e-03,1.00e-01,
803,-1.20e-03,6.00e-02,
804,-8.00e-04,6.00e-02,
805,2.00e-03,1.00e-01,
806,0.00e+00,8.00e-02,
807,2.00e-03,6.00e-02,
808,1.20e-03,8.00e-02,
809,-8.00e-04,6.00e-02,
810,2.40e-03,6.00e-02,
811,-1.20e-03,8.00e-02,
812,2.80e-03,6.00e-02,
813,-2.40e-03,8.00e-02,
814,4.80e-03,6.00e-02,
815,-3.60e-03,8.00e-02,
816,-2.80e-03,6.00e-02,
817,3.20e-03,8.00e-02,
818,2.40e-03,8.00e-02,
819,-1.20e-03,6.00e-02,
820,-8.00e-04,6.00e-02,
821,2.00e-03,8.00e-02,
822,1.60e-03,6.00e-02,
823,-8.00e-04,8.00e-02,
824,2.00e-03,8.00e-02,
825,-4.00e-04,4.00e-02,
826,-8.00e-04,8.00e-02,
827,2.40e-03,2.00e-02,
828,2.40e-03,8.00e-02,
829,-1.60e-03,4.00e-02,
830,-1.60e-03,8.00e-02,
831,3.20e-03,2.00e-02,
832,4.00e-03,8.00e-02,
833,-4.00e-03,2.00e-02,
834,2.40e-03,2.00e-02,
835,8.00e-03,1.78e+00,
836,6.40e-03,1.60e-01,
837,-8.00e-04,1.20e-01,
838,4.80e-03,1.20e-01,
839,-1.60e-03,8.00e-02,
840,-1.20e-03,8.00e-02,
841,2.40e-03,1.00e-01,
842,2.00e-03,1.00e-01,
843,-1.20e-03,6.00e-02,
844,-8.00e-04,1.00e-01,
845,2.00e-03,6.00e-02,
846,1.60e-03,8.00e-02,
847,-8.00e-04,6.00e-02,
848,-8.00e-04,6.00e-02,
849,2.40e-03,8.00e-02,
850,-8.00e-04,6.00e-02,
851,2.40e-03,8.00e-02,
852,3.60e-03,6.00e-02,
853,-2.40e-03,8.00e-02,
854,-2.80e-03,8.00e-02,
