CarrPurc_P1-19_P2-38_tauVary/Gly93/NewFile5.csv

X,CH1,CH2,Start,Increment,
Sequence,Volt,Volt,-5.000000e-03,1.000000e-04
0,0.00e+00,4.00e-02,
1,8.00e-04,2.00e-02,
2,8.00e-04,4.00e-02,
3,0.00e+00,2.00e-02,
4,8.00e-04,4.00e-02,
5,0.00e+00,0.00e+00,
6,-8.00e-04,2.00e-02,
7,1.20e-03,4.00e-02,
8,1.20e-03,4.00e-02,
9,0.00e+00,2.00e-02,
10,1.20e-03,4.00e-02,
11,0.00e+00,2.00e-02,
12,8.00e-04,4.00e-02,
13,-8.00e-04,2.00e-02,
14,4.00e-04,4.00e-02,
15,-8.00e-04,2.00e-02,
16,-8.00e-04,4.00e-02,
17,4.00e-04,2.00e-02,
18,0.00e+00,4.00e-02,
19,1.20e-03,2.00e-02,
20,8.00e-04,2.00e-02,
21,0.00e+00,4.00e-02,
22,0.00e+00,4.00e-02,
23,8.00e-04,2.00e-02,
24,0.00e+00,4.00e-02,
25,8.00e-04,2.00e-02,
26,8.00e-04,4.00e-02,
27,0.00e+00,2.00e-02,
28,8.00e-04,4.00e-02,
29,-8.00e-04,2.00e-02,
30,0.00e+00,2.00e-02,
31,8.00e-04,4.00e-02,
32,1.20e-03,4.00e-02,
33,0.00e+00,0.00e+00,
34,0.00e+00,4.00e-02,
35,1.20e-03,0.00e+00,
36,8.00e-04,4.00e-02,
37,-8.00e-04,2.00e-02,
38,0.00e+00,4.00e-02,
39,8.00e-04,2.00e-02,
40,0.00e+00,2.00e-02,
41,1.20e-03,4.00e-02,
42,1.20e-03,4.00e-02,
43,0.00e+00,2.00e-02,
44,4.00e-04,4.00e-02,
45,1.20e-03,0.00e+00,
46,1.20e-03,4.00e-02,
47,0.00e+00,2.00e-02,
48,8.00e-04,4.00e-02,
49,0.00e+00,2.00e-02,
50,0.00e+00,4.00e-02,
51,1.20e-03,2.00e-02,
52,8.00e-04,2.00e-02,
53,-8.00e-04,4.00e-02,
54,0.00e+00,1.88e+00,
55,4.80e-03,-2.00e-02,
56,5.20e-03,1.60e-01,
57,-2.88e-02,1.20e-01,
58,-1.48e-02,8.00e-02,
59,1.60e-02,1.40e-01,
60,9.20e-03,1.00e-01,
61,-8.00e-03,6.00e-02,
62,4.00e-03,6.00e-02,
63,-2.80e-03,1.00e-01,
64,2.80e-03,6.00e-02,
65,-2.00e-03,1.00e-01,
66,2.40e-03,6.00e-02,
67,-1.60e-03,8.00e-02,
68,-2.40e-03,8.00e-02,
69,2.40e-03,6.00e-02,
70,2.40e-03,6.00e-02,
71,-1.20e-03,8.00e-02,
72,-8.00e-04,8.00e-02,
73,2.00e-03,6.00e-02,
74,8.00e-04,6.00e-02,
75,7.60e-03,1.90e+00,
76,6.40e-03,1.60e-01,
77,-8.00e-03,1.20e-01,
78,-8.80e-03,1.20e-01,
79,6.40e-03,8.00e-02,
80,3.60e-03,1.00e-01,
81,-1.60e-03,8.00e-02,
82,-8.00e-04,1.00e-01,
83,2.00e-03,6.00e-02,
84,-8.00e-04,1.00e-01,
85,2.40e-03,6.00e-02,
86,2.00e-03,6.00e-02,
87,-4.00e-04,8.00e-02,
88,-3.20e-03,8.00e-02,
89,6.00e-03,6.00e-02,
90,9.20e-03,6.00e-02,
91,-1.04e-02,8.00e-02,
92,-1.56e-02,6.00e-02,
93,2.08e-02,8.00e-02,
94,-2.08e-02,6.00e-02,
95,2.32e-02,8.00e-02,
96,-1.96e-02,6.00e-02,
97,1.96e-02,8.00e-02,
98,1.24e-02,6.00e-02,
99,-8.80e-03,8.00e-02,
100,-5.60e-03,8.00e-02,
101,5.20e-03,6.00e-02,
102,2.80e-03,8.00e-02,
103,-1.20e-03,4.00e-02,
104,-8.00e-04,8.00e-02,
105,2.40e-03,2.00e-02,
106,-1.20e-03,2.00e-02,
107,1.60e-03,8.00e-02,
108,-1.20e-03,8.00e-02,
109,2.40e-03,2.00e-02,
110,1.60e-03,2.00e-02,
111,-8.00e-04,8.00e-02,
112,1.20e-03,8.00e-02,
113,-8.00e-04,2.00e-02,
114,4.00e-04,2.00e-02,
115,7.20e-03,1.78e+00,
116,5.60e-03,1.60e-01,
117,0.00e+00,1.00e-01,
118,2.80e-03,1.40e-01,
119,0.00e+00,8.00e-02,
120,1.20e-03,8.00e-02,
121,-1.20e-03,1.00e-01,
122,2.00e-03,1.00e-01,
123,-8.00e-04,6.00e-02,
124,-8.00e-04,1.00e-01,
125,1.60e-03,6.00e-02,
126,2.40e-03,8.00e-02,
127,-1.60e-03,6.00e-02,
128,-3.60e-03,6.00e-02,
129,4.80e-03,8.00e-02,
130,-5.60e-03,6.00e-02,
131,8.40e-03,8.00e-02,
132,1.20e-02,6.00e-02,
133,-1.32e-02,8.00e-02,
134,-1.64e-02,6.00e-02,
135,1.72e-02,8.00e-02,
136,-1.36e-02,6.00e-02,
137,1.16e-02,8.00e-02,
138,8.00e-03,8.00e-02,
139,-6.00e-03,6.00e-02,
140,-3.20e-03,8.00e-02,
141,3.60e-03,4.00e-02,
142,2.40e-03,4.00e-02,
143,-1.20e-03,8.00e-02,
144,2.40e-03,8.00e-02,
145,-1.20e-03,4.00e-02,
146,2.00e-03,8.00e-02,
147,-8.00e-04,2.00e-02,
148,2.00e-03,8.00e-02,
149,-4.00e-04,4.00e-02,
150,2.40e-03,8.00e-02,
151,-2.40e-03,2.00e-02,
152,-4.00e-03,8.00e-02,
153,5.20e-03,2.00e-02,
154,2.80e-03,2.00e-02,
155,7.20e-03,1.88e+00,
156,5.60e-03,1.60e-01,
157,8.00e-04,1.20e-01,
158,2.80e-03,1.40e-01,
159,-8.00e-04,8.00e-02,
160,-8.00e-04,1.00e-01,
161,1.60e-03,6.00e-02,
162,2.40e-03,1.00e-01,
163,-1.20e-03,6.00e-02,
164,-1.20e-03,6.00e-02,
165,1.20e-03,1.00e-01,
166,-8.00e-04,6.00e-02,
167,2.40e-03,8.00e-02,
168,2.40e-03,6.00e-02,
169,-3.60e-03,8.00e-02,
170,-5.20e-03,8.00e-02,
171,6.80e-03,6.00e-02,
172,1.12e-02,6.00e-02,
173,-1.24e-02,8.00e-02,
174,1.52e-02,6.00e-02,
175,-1.44e-02,8.00e-02,
176,-1.28e-02,8.00e-02,
177,1.12e-02,6.00e-02,
178,8.00e-03,8.00e-02,
179,-5.60e-03,6.00e-02,
180,-3.60e-03,8.00e-02,
181,3.60e-03,6.00e-02,
182,2.40e-03,8.00e-02,
183,-4.00e-04,6.00e-02,
184,2.00e-03,8.00e-02,
185,-8.00e-04,2.00e-02,
186,2.40e-03,8.00e-02,
187,-1.20e-03,4.00e-02,
188,1.20e-03,8.00e-02,
189,-4.00e-04,4.00e-02,
190,2.00e-03,8.00e-02,
191,-1.20e-03,2.00e-02,
192,-3.60e-03,8.00e-02,
193,5.20e-03,2.00e-02,
194,3.20e-03,2.00e-02,
195,8.00e-03,1.86e+00,
196,6.40e-03,1.60e-01,
197,-8.00e-04,1.20e-01,
198,-1.20e-03,1.40e-01,
199,2.80e-03,8.00e-02,
200,2.00e-03,8.00e-02,
201,-4.00e-04,1.00e-01,
202,2.00e-03,1.00e-01,
203,-1.20e-03,6.00e-02,
204,-1.20e-03,1.00e-01,
205,2.00e-03,6.00e-02,
206,2.40e-03,6.00e-02,
207,-8.00e-04,8.00e-02,
208,-2.00e-03,8.00e-02,
209,3.20e-03,6.00e-02,
210,-3.60e-03,6.00e-02,
211,5.60e-03,8.00e-02,
212,7.60e-03,6.00e-02,
213,-8.80e-03,8.00e-02,
214,-1.16e-02,6.00e-02,
215,1.32e-02,8.00e-02,
216,-1.16e-02,6.00e-02,
217,1.00e-02,8.00e-02,
218,6.00e-03,8.00e-02,
219,-4.40e-03,6.00e-02,
220,-2.80e-03,6.00e-02,
221,2.80e-03,8.00e-02,
222,2.40e-03,6.00e-02,
223,-4.00e-04,8.00e-02,
224,-8.00e-04,6.00e-02,
225,1.20e-03,8.00e-02,
226,1.20e-03,8.00e-02,
227,0.00e+00,4.00e-02,
228,0.00e+00,8.00e-02,
229,1.20e-03,4.00e-02,
230,2.40e-03,8.00e-02,
231,-1.20e-03,2.00e-02,
232,-1.60e-03,8.00e-02,
233,3.60e-03,2.00e-02,
234,2.80e-03,1.82e+00,
235,7.60e-03,-2.00e-02,
236,5.60e-03,1.60e-01,
237,-4.00e-04,1.20e-01,
238,2.80e-03,1.40e-01,
239,-8.00e-04,8.00e-02,
240,1.60e-03,1.00e-01,
241,0.00e+00,8.00e-02,
242,-8.00e-04,1.00e-01,
243,1.60e-03,6.00e-02,
244,-8.00e-04,6.00e-02,
245,1.20e-03,8.00e-02,
246,2.00e-03,6.00e-02,
247,-8.00e-04,8.00e-02,
248,-2.40e-03,8.00e-02,
249,4.00e-03,6.00e-02,
250,-4.40e-03,8.00e-02,
251,5.60e-03,6.00e-02,
252,8.00e-03,6.00e-02,
253,-8.80e-03,8.00e-02,
254,1.24e-02,8.00e-02,
255,-1.12e-02,6.00e-02,
256,-9.60e-03,8.00e-02,
257,8.80e-03,6.00e-02,
258,5.20e-03,6.00e-02,
259,-4.00e-03,8.00e-02,
260,-2.00e-03,8.00e-02,
261,2.40e-03,2.00e-02,
262,2.00e-03,8.00e-02,
263,-8.00e-04,2.00e-02,
264,-1.20e-03,2.00e-02,
265,2.00e-03,8.00e-02,
266,2.00e-03,8.00e-02,
267,-8.00e-04,2.00e-02,
268,-8.00e-04,2.00e-02,
269,1.20e-03,8.00e-02,
270,1.60e-03,2.00e-02,
271,-1.20e-03,8.00e-02,
272,-1.60e-03,8.00e-02,
273,3.60e-03,2.00e-02,
274,3.20e-03,2.00e-02,
275,8.00e-03,1.88e+00,
276,6.40e-03,1.60e-01,
277,8.00e-04,1.20e-01,
278,2.80e-03,1.20e-01,
279,-8.00e-04,8.00e-02,
280,-8.00e-04,1.00e-01,
281,1.60e-03,8.00e-02,
282,2.40e-03,1.00e-01,
283,-4.00e-04,6.00e-02,
284,-8.00e-04,6.00e-02,
285,1.20e-03,1.00e-01,
286,1.60e-03,6.00e-02,
287,-8.00e-04,8.00e-02,
288,2.40e-03,6.00e-02,
289,-1.60e-03,8.00e-02,
290,-4.00e-03,6.00e-02,
291,4.40e-03,8.00e-02,
292,8.00e-03,8.00e-02,
293,-9.20e-03,6.00e-02,
294,1.16e-02,6.00e-02,
295,-1.04e-02,8.00e-02,
296,-8.80e-03,8.00e-02,
297,8.00e-03,6.00e-02,
298,6.40e-03,8.00e-02,
299,-3.60e-03,6.00e-02,
300,-2.40e-03,8.00e-02,
301,2.40e-03,6.00e-02,
302,2.40e-03,8.00e-02,
303,-8.00e-04,4.00e-02,
304,-8.00e-04,8.00e-02,
305,1.20e-03,4.00e-02,
306,2.40e-03,8.00e-02,
307,-8.00e-04,2.00e-02,
308,-8.00e-04,8.00e-02,
309,1.20e-03,2.00e-02,
310,2.40e-03,8.00e-02,
311,-8.00e-04,2.00e-02,
312,-2.40e-03,2.00e-02,
313,3.60e-03,8.00e-02,
314,3.20e-03,2.00e-02,
315,7.20e-03,2.00e+00,
316,5.60e-03,1.60e-01,
317,4.00e-04,1.20e-01,
318,2.80e-03,1.20e-01,
319,-4.00e-04,8.00e-02,
320,1.20e-03,1.00e-01,
321,-1.20e-03,8.00e-02,
322,2.40e-03,1.00e-01,
323,-1.20e-03,6.00e-02,
324,2.40e-03,8.00e-02,
325,-8.00e-04,6.00e-02,
326,-8.00e-04,6.00e-02,
327,2.00e-03,8.00e-02,
328,-1.20e-03,6.00e-02,
329,2.40e-03,8.00e-02,
330,-2.80e-03,6.00e-02,
331,4.40e-03,8.00e-02,
332,6.80e-03,8.00e-02,
333,-6.80e-03,6.00e-02,
334,-8.80e-03,6.00e-02,
335,1.08e-02,8.00e-02,
336,-8.40e-03,6.00e-02,
337,7.60e-03,8.00e-02,
338,5.60e-03,8.00e-02,
339,-3.20e-03,4.00e-02,
340,-2.40e-03,8.00e-02,
341,2.80e-03,2.00e-02,
342,2.00e-03,8.00e-02,
343,-8.00e-04,2.00e-02,
344,1.20e-03,8.00e-02,
345,-8.00e-04,2.00e-02,
346,1.60e-03,8.00e-02,
347,0.00e+00,2.00e-02,
348,-4.00e-04,8.00e-02,
349,2.00e-03,2.00e-02,
350,2.40e-03,8.00e-02,
351,-1.20e-03,2.00e-02,
352,-2.40e-03,8.00e-02,
353,2.80e-03,2.00e-02,
354,2.40e-03,2.00e-02,
355,7.20e-03,1.74e+00,
356,5.60e-03,1.60e-01,
357,4.00e-04,1.20e-01,
358,3.60e-03,1.40e-01,
359,-8.00e-04,8.00e-02,
360,2.00e-03,1.00e-01,
361,-8.00e-04,8.00e-02,
362,2.00e-03,1.00e-01,
363,-8.00e-04,6.00e-02,
364,-8.00e-04,1.00e-01,
365,2.00e-03,6.00e-02,
366,0.00e+00,6.00e-02,
367,2.40e-03,8.00e-02,
368,2.80e-03,6.00e-02,
369,-1.60e-03,8.00e-02,
370,-3.60e-03,6.00e-02,
371,5.20e-03,8.00e-02,
372,7.20e-03,6.00e-02,
373,-6.80e-03,8.00e-02,
374,-8.40e-03,6.00e-02,
375,1.00e-02,8.00e-02,
376,-7.20e-03,6.00e-02,
377,6.80e-03,8.00e-02,
378,5.20e-03,8.00e-02,
379,-2.40e-03,6.00e-02,
380,-1.60e-03,6.00e-02,
381,2.00e-03,8.00e-02,
382,1.20e-03,8.00e-02,
383,-8.00e-04,4.00e-02,
384,-8.00e-04,8.00e-02,
385,1.20e-03,4.00e-02,
386,1.20e-03,8.00e-02,
387,-4.00e-04,2.00e-02,
388,-8.00e-04,2.00e-02,
389,1.60e-03,8.00e-02,
390,1.60e-03,8.00e-02,
391,-1.20e-03,4.00e-02,
392,2.80e-03,8.00e-02,
393,-2.40e-03,2.00e-02,
394,3.20e-03,2.00e-02,
395,7.20e-03,1.92e+00,
396,6.40e-03,1.60e-01,
397,4.00e-04,1.20e-01,
398,3.20e-03,1.40e-01,
399,-1.20e-03,8.00e-02,
400,2.00e-03,1.00e-01,
401,-8.00e-04,8.00e-02,
402,1.60e-03,1.00e-01,
403,-8.00e-04,6.00e-02,
404,-1.20e-03,6.00e-02,
405,1.20e-03,1.00e-01,
406,1.20e-03,6.00e-02,
407,-8.00e-04,8.00e-02,
408,2.40e-03,6.00e-02,
409,-1.20e-03,8.00e-02,
410,-2.40e-03,6.00e-02,
411,4.00e-03,8.00e-02,
412,5.60e-03,8.00e-02,
413,-5.20e-03,6.00e-02,
414,-8.00e-03,6.00e-02,
415,8.80e-03,8.00e-02,
416,-6.80e-03,6.00e-02,
417,6.80e-03,8.00e-02,
418,4.00e-03,8.00e-02,
419,-2.80e-03,6.00e-02,
420,-1.60e-03,6.00e-02,
421,2.40e-03,8.00e-02,
422,2.00e-03,8.00e-02,
423,-4.00e-04,2.00e-02,
424,2.00e-03,8.00e-02,
425,-1.20e-03,2.00e-02,
426,-8.00e-04,8.00e-02,
427,2.00e-03,2.00e-02,
428,1.20e-03,8.00e-02,
429,-1.20e-03,2.00e-02,
430,2.00e-03,2.00e-02,
431,-1.20e-03,8.00e-02,
432,-2.40e-03,8.00e-02,
433,3.60e-03,2.00e-02,
434,3.60e-03,2.00e-02,
435,7.20e-03,1.96e+00,
436,5.60e-03,1.60e-01,
437,0.00e+00,1.20e-01,
438,3.60e-03,1.40e-01,
439,-8.00e-04,8.00e-02,
440,-8.00e-04,8.00e-02,
441,2.00e-03,1.00e-01,
442,2.40e-03,6.00e-02,
443,-8.00e-04,1.00e-01,
444,-8.00e-04,6.00e-02,
445,2.40e-03,1.00e-01,
446,-8.00e-04,6.00e-02,
447,2.00e-03,8.00e-02,
448,-1.20e-03,6.00e-02,
449,2.00e-03,8.00e-02,
450,3.20e-03,6.00e-02,
451,-2.80e-03,8.00e-02,
452,5.60e-03,8.00e-02,
453,-5.60e-03,6.00e-02,
454,-8.00e-03,6.00e-02,
455,8.00e-03,8.00e-02,
456,-6.00e-03,8.00e-02,
457,6.40e-03,6.00e-02,
458,4.40e-03,6.00e-02,
459,-2.40e-03,8.00e-02,
460,-1.60e-03,6.00e-02,
461,2.40e-03,8.00e-02,
462,1.60e-03,8.00e-02,
463,-4.00e-04,4.00e-02,
464,-8.00e-04,2.00e-02,
465,1.20e-03,8.00e-02,
466,-8.00e-04,8.00e-02,
467,2.00e-03,2.00e-02,
468,-8.00e-04,8.00e-02,
469,2.00e-03,2.00e-02,
470,-8.00e-04,8.00e-02,
471,2.40e-03,2.00e-02,
472,-2.40e-03,2.00e-02,
473,3.20e-03,8.00e-02,
474,3.20e-03,2.00e-02,
475,7.60e-03,1.72e+00,
476,6.00e-03,1.60e-01,
477,0.00e+00,1.20e-01,
478,3.60e-03,1.40e-01,
479,-1.20e-03,8.00e-02,
480,-1.20e-03,1.00e-01,
481,2.00e-03,8.00e-02,
482,2.40e-03,1.00e-01,
483,-8.00e-04,6.00e-02,
484,-8.00e-04,6.00e-02,
485,1.20e-03,1.00e-01,
486,-8.00e-04,6.00e-02,
487,1.60e-03,8.00e-02,
488,2.00e-03,8.00e-02,
489,-1.20e-03,6.00e-02,
490,-2.40e-03,6.00e-02,
491,3.60e-03,8.00e-02,
492,5.60e-03,6.00e-02,
493,-4.40e-03,8.00e-02,
494,7.20e-03,6.00e-02,
495,-6.40e-03,8.00e-02,
496,-5.60e-03,6.00e-02,
497,5.60e-03,8.00e-02,
498,2.80e-03,6.00e-02,
499,-2.40e-03,8.00e-02,
500,-1.20e-03,6.00e-02,
501,2.40e-03,8.00e-02,
502,0.00e+00,6.00e-02,
503,2.00e-03,8.00e-02,
504,1.20e-03,6.00e-02,
505,-8.00e-04,8.00e-02,
506,1.20e-03,8.00e-02,
507,-1.20e-03,4.00e-02,
508,-1.20e-03,8.00e-02,
509,2.00e-03,2.00e-02,
510,-1.20e-03,8.00e-02,
511,2.00e-03,2.00e-02,
512,-2.80e-03,8.00e-02,
513,3.60e-03,2.00e-02,
514,3.60e-03,-8.00e-02,
515,7.60e-03,1.92e+00,
516,5.60e-03,1.60e-01,
517,0.00e+00,1.20e-01,
518,4.00e-03,1.40e-01,
519,-8.00e-04,8.00e-02,
520,-8.00e-04,1.00e-01,
521,2.40e-03,8.00e-02,
522,2.00e-03,1.00e-01,
523,-1.20e-03,6.00e-02,
524,-8.00e-04,6.00e-02,
525,1.20e-03,1.00e-01,
526,1.20e-03,6.00e-02,
527,-8.00e-04,8.00e-02,
528,1.60e-03,6.00e-02,
529,-1.60e-03,8.00e-02,
530,-1.60e-03,6.00e-02,
531,3.60e-03,8.00e-02,
532,4.80e-03,8.00e-02,
533,-5.60e-03,6.00e-02,
534,6.80e-03,8.00e-02,
535,-5.60e-03,6.00e-02,
536,-5.20e-03,6.00e-02,
537,5.20e-03,8.00e-02,
538,3.60e-03,8.00e-02,
539,-2.40e-03,6.00e-02,
540,-1.60e-03,8.00e-02,
541,2.00e-03,2.00e-02,
542,2.00e-03,8.00e-02,
543,-8.00e-04,2.00e-02,
544,0.00e+00,8.00e-02,
545,1.20e-03,2.00e-02,
546,-8.00e-04,8.00e-02,
547,2.40e-03,2.00e-02,
548,2.40e-03,2.00e-02,
549,-1.20e-03,8.00e-02,
550,1.60e-03,2.00e-02,
551,-1.60e-03,8.00e-02,
552,-2.80e-03,8.00e-02,
553,3.20e-03,2.00e-02,
554,3.20e-03,1.96e+00,
555,8.00e-03,0.00e+00,
556,5.60e-03,1.60e-01,
557,0.00e+00,1.20e-01,
558,4.00e-03,1.40e-01,
559,-1.60e-03,8.00e-02,
560,-8.00e-04,1.00e-01,
561,2.80e-03,8.00e-02,
562,2.40e-03,1.00e-01,
563,-8.00e-04,6.00e-02,
564,-8.00e-04,6.00e-02,
565,2.40e-03,8.00e-02,
566,2.00e-03,6.00e-02,
567,0.00e+00,8.00e-02,
568,-8.00e-04,6.00e-02,
569,2.00e-03,8.00e-02,
570,-2.40e-03,8.00e-02,
571,3.60e-03,6.00e-02,
572,4.00e-03,6.00e-02,
573,-4.00e-03,8.00e-02,
574,-5.60e-03,8.00e-02,
575,6.80e-03,6.00e-02,
576,-4.80e-03,8.00e-02,
577,4.40e-03,6.00e-02,
578,2.80e-03,6.00e-02,
579,-2.40e-03,8.00e-02,
580,-1.20e-03,6.00e-02,
581,1.60e-03,8.00e-02,
582,-8.00e-04,8.00e-02,
583,2.00e-03,6.00e-02,
584,2.00e-03,6.00e-02,
585,-8.00e-04,8.00e-02,
586,-8.00e-04,8.00e-02,
587,2.00e-03,2.00e-02,
588,2.00e-03,8.00e-02,
589,-8.00e-04,4.00e-02,
590,-1.20e-03,8.00e-02,
591,2.40e-03,4.00e-02,
592,3.60e-03,2.00e-02,
593,-3.20e-03,8.00e-02,
594,3.20e-03,2.00e-02,
595,7.20e-03,1.72e+00,
596,5.60e-03,1.60e-01,
597,0.00e+00,1.20e-01,
598,4.00e-03,1.40e-01,
599,-1.60e-03,8.00e-02,
600,-1.20e-03,8.00e-02,
601,2.40e-03,1.00e-01,
602,2.40e-03,1.00e-01,
603,-1.20e-03,6.00e-02,
604,-1.20e-03,6.00e-02,
605,1.20e-03,1.00e-01,
606,-8.00e-04,6.00e-02,
607,1.60e-03,8.00e-02,
608,1.60e-03,6.00e-02,
609,-1.60e-03,8.00e-02,
610,-1.60e-03,6.00e-02,
611,3.20e-03,8.00e-02,
612,4.80e-03,8.00e-02,
613,-4.00e-03,6.00e-02,
614,-5.20e-03,6.00e-02,
615,6.40e-03,8.00e-02,
616,-4.40e-03,6.00e-02,
617,4.00e-03,8.00e-02,
618,3.60e-03,6.00e-02,
619,-1.60e-03,8.00e-02,
620,2.00e-03,8.00e-02,
621,-1.20e-03,4.00e-02,
622,1.20e-03,8.00e-02,
623,-4.00e-04,2.00e-02,
624,1.20e-03,8.00e-02,
625,-1.20e-03,4.00e-02,
626,2.00e-03,2.00e-02,
627,-8.00e-04,8.00e-02,
628,-1.20e-03,2.00e-02,
629,1.20e-03,8.00e-02,
630,-1.20e-03,2.00e-02,
631,2.40e-03,8.00e-02,
632,3.60e-03,8.00e-02,
633,-3.60e-03,2.00e-02,
634,2.80e-03,2.00e-02,
635,8.00e-03,1.92e+00,
636,5.60e-03,1.60e-01,
637,-8.00e-04,1.20e-01,
638,4.80e-03,8.00e-02,
639,-1.20e-03,1.40e-01,
640,-8.00e-04,8.00e-02,
641,2.80e-03,1.00e-01,
642,2.40e-03,1.00e-01,
643,-1.20e-03,6.00e-02,
644,-8.00e-04,6.00e-02,
645,2.00e-03,1.00e-01,
646,2.00e-03,6.00e-02,
647,-8.00e-04,8.00e-02,
648,-8.00e-04,6.00e-02,
649,1.20e-03,8.00e-02,
650,-1.20e-03,6.00e-02,
651,3.20e-03,8.00e-02,
652,4.00e-03,6.00e-02,
653,-3.60e-03,8.00e-02,
654,5.60e-03,6.00e-02,
655,-4.40e-03,8.00e-02,
656,-4.00e-03,8.00e-02,
657,4.40e-03,6.00e-02,
658,3.60e-03,8.00e-02,
659,-1.60e-03,4.00e-02,
660,-1.20e-03,8.00e-02,
661,1.20e-03,4.00e-02,
662,1.60e-03,8.00e-02,
663,-4.00e-04,4.00e-02,
664,1.20e-03,4.00e-02,
665,-1.20e-03,8.00e-02,
666,2.00e-03,8.00e-02,
667,-8.00e-04,2.00e-02,
668,-1.20e-03,8.00e-02,
669,2.40e-03,2.00e-02,
670,-1.60e-03,2.00e-02,
671,2.40e-03,8.00e-02,
672,3.60e-03,2.00e-02,
673,-2.80e-03,8.00e-02,
674,3.20e-03,2.00e-02,
675,7.20e-03,1.94e+00,
676,5.60e-03,1.60e-01,
677,-8.00e-04,1.20e-01,
678,4.00e-03,1.40e-01,
679,-1.20e-03,8.00e-02,
680,-1.20e-03,1.00e-01,
681,2.40e-03,8.00e-02,
682,2.40e-03,1.00e-01,
683,-1.20e-03,6.00e-02,
684,-4.00e-04,6.00e-02,
685,2.00e-03,1.00e-01,
686,1.60e-03,6.00e-02,
687,0.00e+00,8.00e-02,
688,2.00e-03,6.00e-02,
689,-8.00e-04,8.00e-02,
690,-1.60e-03,6.00e-02,
691,2.40e-03,8.00e-02,
692,3.60e-03,6.00e-02,
693,-3.60e-03,8.00e-02,
694,4.80e-03,6.00e-02,
695,-4.00e-03,8.00e-02,
696,-4.00e-03,6.00e-02,
697,4.00e-03,8.00e-02,
698,2.80e-03,6.00e-02,
699,-1.60e-03,8.00e-02,
700,-1.20e-03,6.00e-02,
701,1.60e-03,8.00e-02,
702,0.00e+00,8.00e-02,
703,1.20e-03,2.00e-02,
704,1.20e-03,8.00e-02,
705,-8.00e-04,4.00e-02,
706,1.20e-03,8.00e-02,
707,-1.60e-03,2.00e-02,
708,1.20e-03,8.00e-02,
709,-1.60e-03,2.00e-02,
710,-1.20e-03,8.00e-02,
711,2.80e-03,2.00e-02,
712,4.00e-03,2.00e-02,
713,-3.60e-03,8.00e-02,
714,2.40e-03,2.00e-02,
715,8.00e-03,1.80e+00,
716,6.40e-03,1.60e-01,
717,0.00e+00,1.20e-01,
718,4.80e-03,1.20e-01,
719,-1.20e-03,8.00e-02,
720,2.40e-03,1.00e-01,
721,-1.20e-03,8.00e-02,
722,2.40e-03,1.00e-01,
723,-8.00e-04,6.00e-02,
724,-8.00e-04,6.00e-02,
725,2.00e-03,1.00e-01,
726,-8.00e-04,6.00e-02,
727,1.60e-03,8.00e-02,
728,2.00e-03,6.00e-02,
729,-4.00e-04,8.00e-02,
730,2.80e-03,8.00e-02,
731,-1.60e-03,6.00e-02,
732,3.60e-03,6.00e-02,
733,-3.60e-03,8.00e-02,
734,-4.00e-03,8.00e-02,
735,4.80e-03,6.00e-02,
736,-2.80e-03,8.00e-02,
737,4.00e-03,6.00e-02,
738,2.40e-03,8.00e-02,
739,-1.20e-03,4.00e-02,
740,-1.20e-03,6.00e-02,
741,1.20e-03,8.00e-02,
742,-4.00e-04,6.00e-02,
743,1.20e-03,8.00e-02,
744,1.20e-03,8.00e-02,
745,-8.00e-04,2.00e-02,
746,2.00e-03,8.00e-02,
747,-1.20e-03,4.00e-02,
748,2.40e-03,8.00e-02,
749,-8.00e-04,2.00e-02,
750,-1.20e-03,8.00e-02,
751,2.80e-03,2.00e-02,
752,3.60e-03,2.00e-02,
753,-4.00e-03,8.00e-02,
754,2.00e-03,2.00e-02,
755,7.60e-03,1.90e+00,
756,5.60e-03,1.60e-01,
757,0.00e+00,1.20e-01,
758,4.80e-03,1.40e-01,
759,-1.20e-03,8.00e-02,
760,-1.20e-03,1.00e-01,
761,2.80e-03,8.00e-02,
762,2.40e-03,1.00e-01,
763,-8.00e-04,6.00e-02,
764,-8.00e-04,1.00e-01,
765,1.20e-03,6.00e-02,
766,0.00e+00,6.00e-02,
767,2.00e-03,8.00e-02,
768,2.00e-03,6.00e-02,
769,-8.00e-04,8.00e-02,
770,2.00e-03,8.00e-02,
771,-1.20e-03,6.00e-02,
772,2.80e-03,8.00e-02,
773,-2.40e-03,6.00e-02,
774,4.80e-03,6.00e-02,
775,-3.60e-03,8.00e-02,
776,-3.20e-03,6.00e-02,
777,2.80e-03,8.00e-02,
778,2.80e-03,6.00e-02,
779,-1.60e-03,8.00e-02,
780,-8.00e-04,6.00e-02,
781,1.60e-03,8.00e-02,
782,1.20e-03,8.00e-02,
783,-4.00e-04,6.00e-02,
784,-8.00e-04,6.00e-02,
785,1.20e-03,8.00e-02,
786,2.00e-03,8.00e-02,
787,-1.20e-03,2.00e-02,
788,-1.20e-03,8.00e-02,
789,2.40e-03,4.00e-02,
790,-1.20e-03,8.00e-02,
791,2.80e-03,4.00e-02,
792,4.00e-03,8.00e-02,
793,-4.00e-03,2.00e-02,
794,2.00e-03,2.00e-02,
795,8.00e-03,1.92e+00,
796,6.40e-03,1.60e-01,
797,0.00e+00,1.20e-01,
798,5.20e-03,1.40e-01,
799,-1.60e-03,8.00e-02,
800,-1.20e-03,1.00e-01,
801,2.40e-03,8.00e-02,
802,-1.20e-03,1.00e-01,
803,2.40e-03,6.00e-02,
804,1.20e-03,6.00e-02,
805,-1.20e-03,1.00e-01,
806,0.00e+00,8.00e-02,
807,1.20e-03,6.00e-02,
808,-8.00e-04,8.00e-02,
809,1.20e-03,6.00e-02,
810,-8.00e-04,6.00e-02,
811,2.40e-03,8.00e-02,
812,2.80e-03,6.00e-02,
813,-2.80e-03,8.00e-02,
814,4.00e-03,6.00e-02,
815,-3.60e-03,8.00e-02,
816,-2.80e-03,6.00e-02,
817,3.20e-03,8.00e-02,
818,2.40e-03,8.00e-02,
819,-1.20e-03,6.00e-02,
820,-8.00e-04,6.00e-02,
821,2.00e-03,8.00e-02,
822,1.20e-03,8.00e-02,
823,-8.00e-04,4.00e-02,
824,-8.00e-04,8.00e-02,
825,1.20e-03,2.00e-02,
826,-8.00e-04,4.00e-02,
827,2.40e-03,8.00e-02,
828,2.00e-03,8.00e-02,
829,-1.20e-03,2.00e-02,
830,-1.60e-03,8.00e-02,
831,3.20e-03,2.00e-02,
832,4.00e-03,2.00e-02,
833,-4.40e-03,8.00e-02,
834,2.40e-03,2.00e-02,
835,7.20e-03,1.80e+00,
836,5.60e-03,1.60e-01,
837,0.00e+00,1.20e-01,
838,5.20e-03,1.20e-01,
839,-1.60e-03,8.00e-02,
840,-1.20e-03,8.00e-02,
841,2.00e-03,1.00e-01,
842,-1.20e-03,1.00e-01,
843,2.40e-03,6.00e-02,
844,1.20e-03,6.00e-02,
845,-8.00e-04,1.00e-01,
846,0.00e+00,8.00e-02,
847,1.20e-03,6.00e-02,
848,1.60e-03,6.00e-02,
849,-8.00e-04,8.00e-02,
850,2.00e-03,6.00e-02,
851,-8.00e-04,8.00e-02,
852,2.80e-03,6.00e-02,
853,-2.40e-03,8.00e-02,
854,-2.80e-03,8.00e-02,
