CarrPurc_P1-19_P2-38_tauVary/Gly93/NewFile7.csv

X,CH1,CH2,Start,Increment,
Sequence,Volt,Volt,-5.000000e-03,1.000000e-04
0,0.00e+00,4.00e-02,
1,8.00e-04,0.00e+00,
2,8.00e-04,4.00e-02,
3,-8.00e-04,2.00e-02,
4,8.00e-04,4.00e-02,
5,-4.00e-04,2.00e-02,
6,0.00e+00,4.00e-02,
7,8.00e-04,0.00e+00,
8,1.20e-03,4.00e-02,
9,-4.00e-04,0.00e+00,
10,-8.00e-04,4.00e-02,
11,8.00e-04,0.00e+00,
12,0.00e+00,4.00e-02,
13,8.00e-04,2.00e-02,
14,0.00e+00,4.00e-02,
15,1.20e-03,2.00e-02,
16,0.00e+00,4.00e-02,
17,1.20e-03,2.00e-02,
18,-4.00e-04,4.00e-02,
19,1.20e-03,2.00e-02,
20,0.00e+00,2.00e-02,
21,1.20e-03,4.00e-02,
22,8.00e-04,4.00e-02,
23,-8.00e-04,0.00e+00,
24,-8.00e-04,4.00e-02,
25,8.00e-04,0.00e+00,
26,1.20e-03,4.00e-02,
27,-8.00e-04,0.00e+00,
28,8.00e-04,4.00e-02,
29,-4.00e-04,2.00e-02,
30,-8.00e-04,4.00e-02,
31,8.00e-04,0.00e+00,
32,-8.00e-04,4.00e-02,
33,1.20e-03,2.00e-02,
34,1.20e-03,4.00e-02,
35,0.00e+00,2.00e-02,
36,8.00e-04,4.00e-02,
37,-8.00e-04,0.00e+00,
38,0.00e+00,4.00e-02,
39,1.20e-03,2.00e-02,
40,1.20e-03,0.00e+00,
41,0.00e+00,4.00e-02,
42,8.00e-04,4.00e-02,
43,0.00e+00,2.00e-02,
44,0.00e+00,4.00e-02,
45,1.20e-03,2.00e-02,
46,1.20e-03,4.00e-02,
47,0.00e+00,2.00e-02,
48,1.20e-03,4.00e-02,
49,0.00e+00,2.00e-02,
50,1.20e-03,4.00e-02,
51,0.00e+00,2.00e-02,
52,1.20e-03,4.00e-02,
53,0.00e+00,0.00e+00,
54,0.00e+00,1.84e+00,
55,4.80e-03,-6.00e-02,
56,5.20e-03,1.60e-01,
57,-3.24e-02,8.00e-02,
58,1.96e-02,8.00e-02,
59,-1.76e-02,1.20e-01,
60,9.20e-03,1.00e-01,
61,-1.00e-02,6.00e-02,
62,-2.80e-03,1.00e-01,
63,5.20e-03,6.00e-02,
64,-2.40e-03,6.00e-02,
65,3.60e-03,1.00e-01,
66,3.60e-03,6.00e-02,
67,-2.00e-03,8.00e-02,
68,-2.00e-03,8.00e-02,
69,2.40e-03,6.00e-02,
70,2.40e-03,6.00e-02,
71,-1.20e-03,8.00e-02,
72,-1.60e-03,8.00e-02,
73,2.00e-03,6.00e-02,
74,1.60e-03,6.00e-02,
75,7.60e-03,1.88e+00,
76,5.60e-03,1.60e-01,
77,-9.60e-03,1.20e-01,
78,-1.00e-02,1.20e-01,
79,7.20e-03,8.00e-02,
80,4.40e-03,1.00e-01,
81,-1.60e-03,8.00e-02,
82,-8.00e-04,1.00e-01,
83,2.40e-03,6.00e-02,
84,2.40e-03,1.00e-01,
85,-1.20e-03,6.00e-02,
86,1.20e-03,6.00e-02,
87,-1.20e-03,8.00e-02,
88,-4.40e-03,8.00e-02,
89,6.40e-03,6.00e-02,
90,1.08e-02,6.00e-02,
91,-1.16e-02,8.00e-02,
92,-1.88e-02,6.00e-02,
93,2.28e-02,8.00e-02,
94,-2.48e-02,6.00e-02,
95,2.60e-02,8.00e-02,
96,-2.28e-02,6.00e-02,
97,2.28e-02,8.00e-02,
98,1.44e-02,6.00e-02,
99,-1.16e-02,8.00e-02,
100,-6.40e-03,8.00e-02,
101,6.40e-03,2.00e-02,
102,3.60e-03,8.00e-02,
103,-1.20e-03,4.00e-02,
104,-1.20e-03,8.00e-02,
105,2.40e-03,2.00e-02,
106,2.80e-03,2.00e-02,
107,-1.60e-03,8.00e-02,
108,2.40e-03,2.00e-02,
109,-1.20e-03,8.00e-02,
110,-1.20e-03,2.00e-02,
111,2.00e-03,8.00e-02,
112,1.20e-03,2.00e-02,
113,-8.00e-04,8.00e-02,
114,0.00e+00,2.00e-02,
115,7.20e-03,2.00e+00,
116,5.60e-03,1.60e-01,
117,-8.00e-04,1.20e-01,
118,2.40e-03,1.40e-01,
119,-8.00e-04,8.00e-02,
120,2.00e-03,1.00e-01,
121,-8.00e-04,6.00e-02,
122,2.40e-03,1.00e-01,
123,-1.20e-03,6.00e-02,
124,-8.00e-04,6.00e-02,
125,2.00e-03,1.00e-01,
126,2.40e-03,6.00e-02,
127,-2.40e-03,1.00e-01,
128,-4.00e-03,6.00e-02,
129,6.00e-03,8.00e-02,
130,-7.20e-03,6.00e-02,
131,8.40e-03,8.00e-02,
132,1.28e-02,6.00e-02,
133,-1.56e-02,8.00e-02,
134,1.88e-02,6.00e-02,
135,-1.92e-02,8.00e-02,
136,-1.64e-02,8.00e-02,
137,1.36e-02,4.00e-02,
138,9.20e-03,8.00e-02,
139,-7.20e-03,4.00e-02,
140,-4.00e-03,8.00e-02,
141,4.40e-03,4.00e-02,
142,2.40e-03,8.00e-02,
143,-1.60e-03,4.00e-02,
144,-1.60e-03,8.00e-02,
145,2.00e-03,2.00e-02,
146,2.00e-03,8.00e-02,
147,-1.20e-03,2.00e-02,
148,-1.20e-03,2.00e-02,
149,2.00e-03,8.00e-02,
150,3.20e-03,2.00e-02,
151,-2.80e-03,8.00e-02,
152,-4.40e-03,8.00e-02,
153,6.40e-03,2.00e-02,
154,2.80e-03,2.00e-02,
155,7.20e-03,1.84e+00,
156,5.60e-03,1.60e-01,
157,-8.00e-04,1.20e-01,
158,2.40e-03,1.40e-01,
159,-8.00e-04,8.00e-02,
160,1.60e-03,1.00e-01,
161,-8.00e-04,8.00e-02,
162,-1.60e-03,6.00e-02,
163,1.60e-03,1.00e-01,
164,-8.00e-04,6.00e-02,
165,2.40e-03,1.00e-01,
166,-1.20e-03,6.00e-02,
167,2.40e-03,8.00e-02,
168,4.00e-03,6.00e-02,
169,-3.60e-03,8.00e-02,
170,-6.00e-03,8.00e-02,
171,8.40e-03,6.00e-02,
172,1.32e-02,6.00e-02,
173,-1.48e-02,8.00e-02,
174,1.92e-02,6.00e-02,
175,-1.88e-02,8.00e-02,
176,-1.56e-02,8.00e-02,
177,1.40e-02,2.00e-02,
178,9.60e-03,8.00e-02,
179,-7.60e-03,2.00e-02,
180,-4.00e-03,8.00e-02,
181,4.40e-03,2.00e-02,
182,2.80e-03,8.00e-02,
183,-1.60e-03,2.00e-02,
184,-8.00e-04,8.00e-02,
185,2.40e-03,2.00e-02,
186,2.40e-03,8.00e-02,
187,-8.00e-04,2.00e-02,
188,-8.00e-04,8.00e-02,
189,1.20e-03,2.00e-02,
190,2.40e-03,2.00e-02,
191,-1.60e-03,8.00e-02,
192,-4.00e-03,2.00e-02,
193,5.20e-03,8.00e-02,
194,3.20e-03,2.00e-02,
195,8.00e-03,1.92e+00,
196,6.40e-03,1.60e-01,
197,-1.20e-03,1.20e-01,
198,-1.20e-03,1.20e-01,
199,3.60e-03,8.00e-02,
200,1.20e-03,8.00e-02,
201,-8.00e-04,1.00e-01,
202,-1.20e-03,1.00e-01,
203,2.40e-03,6.00e-02,
204,-2.40e-03,6.00e-02,
205,2.40e-03,1.00e-01,
206,2.00e-03,6.00e-02,
207,-1.20e-03,8.00e-02,
208,-2.00e-03,8.00e-02,
209,3.20e-03,6.00e-02,
210,-4.40e-03,6.00e-02,
211,6.80e-03,8.00e-02,
212,9.20e-03,6.00e-02,
213,-9.60e-03,8.00e-02,
214,-1.32e-02,6.00e-02,
215,1.56e-02,8.00e-02,
216,-1.32e-02,6.00e-02,
217,1.24e-02,8.00e-02,
218,8.00e-03,8.00e-02,
219,-5.60e-03,4.00e-02,
220,-3.20e-03,8.00e-02,
221,3.60e-03,4.00e-02,
222,2.40e-03,8.00e-02,
223,-8.00e-04,2.00e-02,
224,1.20e-03,8.00e-02,
225,-4.00e-04,2.00e-02,
226,1.60e-03,8.00e-02,
227,-1.20e-03,2.00e-02,
228,-8.00e-04,2.00e-02,
229,2.00e-03,8.00e-02,
230,2.00e-03,8.00e-02,
231,-1.60e-03,2.00e-02,
232,3.20e-03,2.00e-02,
233,-2.40e-03,8.00e-02,
234,2.80e-03,1.74e+00,
235,7.20e-03,0.00e+00,
236,5.60e-03,1.60e-01,
237,-1.20e-03,1.20e-01,
238,2.80e-03,1.40e-01,
239,-8.00e-04,8.00e-02,
240,2.00e-03,1.00e-01,
241,-8.00e-04,8.00e-02,
242,2.00e-03,1.00e-01,
243,-4.00e-04,6.00e-02,
244,-8.00e-04,6.00e-02,
245,1.60e-03,1.00e-01,
246,-8.00e-04,6.00e-02,
247,2.40e-03,8.00e-02,
248,-2.80e-03,8.00e-02,
249,4.00e-03,6.00e-02,
250,-4.40e-03,8.00e-02,
251,6.80e-03,6.00e-02,
252,9.60e-03,6.00e-02,
253,-1.00e-02,8.00e-02,
254,-1.20e-02,8.00e-02,
255,1.40e-02,6.00e-02,
256,-1.08e-02,8.00e-02,
257,9.60e-03,6.00e-02,
258,6.00e-03,4.00e-02,
259,-4.40e-03,8.00e-02,
260,-3.20e-03,8.00e-02,
261,2.80e-03,2.00e-02,
262,2.00e-03,8.00e-02,
263,-8.00e-04,2.00e-02,
264,2.00e-03,2.00e-02,
265,-1.20e-03,8.00e-02,
266,2.00e-03,8.00e-02,
267,-1.20e-03,2.00e-02,
268,-4.00e-04,2.00e-02,
269,1.60e-03,8.00e-02,
270,1.60e-03,2.00e-02,
271,-1.60e-03,8.00e-02,
272,-2.40e-03,8.00e-02,
273,3.60e-03,2.00e-02,
274,3.20e-03,2.00e-02,
275,8.00e-03,1.80e+00,
276,6.40e-03,1.60e-01,
277,-4.00e-04,8.00e-02,
278,2.80e-03,1.20e-01,
279,0.00e+00,8.00e-02,
280,-8.00e-04,1.00e-01,
281,1.60e-03,6.00e-02,
282,-1.20e-03,1.00e-01,
283,2.00e-03,6.00e-02,
284,-8.00e-04,6.00e-02,
285,2.00e-03,1.00e-01,
286,2.00e-03,6.00e-02,
287,-8.00e-04,8.00e-02,
288,2.80e-03,6.00e-02,
289,-2.40e-03,8.00e-02,
290,-3.60e-03,6.00e-02,
291,5.60e-03,8.00e-02,
292,8.40e-03,8.00e-02,
293,-9.20e-03,6.00e-02,
294,-1.20e-02,8.00e-02,
295,1.24e-02,4.00e-02,
296,-9.60e-03,8.00e-02,
297,9.20e-03,6.00e-02,
298,6.40e-03,8.00e-02,
299,-4.40e-03,4.00e-02,
300,-2.80e-03,8.00e-02,
301,2.80e-03,2.00e-02,
302,1.60e-03,2.00e-02,
303,-1.20e-03,8.00e-02,
304,-8.00e-04,8.00e-02,
305,1.20e-03,2.00e-02,
306,-1.20e-03,8.00e-02,
307,2.00e-03,2.00e-02,
308,-8.00e-04,2.00e-02,
309,1.20e-03,8.00e-02,
310,2.40e-03,2.00e-02,
311,-1.60e-03,8.00e-02,
312,-2.80e-03,2.00e-02,
313,3.60e-03,8.00e-02,
314,2.80e-03,2.00e-02,
315,7.20e-03,1.96e+00,
316,5.60e-03,1.60e-01,
317,-4.00e-04,1.00e-01,
318,2.80e-03,8.00e-02,
319,-1.20e-03,1.40e-01,
320,2.40e-03,1.00e-01,
321,-1.20e-03,6.00e-02,
322,2.40e-03,1.00e-01,
323,-1.20e-03,6.00e-02,
324,-1.20e-03,8.00e-02,
325,2.40e-03,6.00e-02,
326,1.60e-03,6.00e-02,
327,-8.00e-04,8.00e-02,
328,-1.60e-03,6.00e-02,
329,2.80e-03,8.00e-02,
330,-3.20e-03,6.00e-02,
331,5.20e-03,8.00e-02,
332,8.00e-03,8.00e-02,
333,-7.60e-03,6.00e-02,
334,-1.04e-02,6.00e-02,
335,1.16e-02,8.00e-02,
336,-9.60e-03,6.00e-02,
337,8.40e-03,8.00e-02,
338,6.40e-03,8.00e-02,
339,-4.00e-03,6.00e-02,
340,-2.80e-03,6.00e-02,
341,2.40e-03,8.00e-02,
342,1.20e-03,6.00e-02,
343,-1.20e-03,8.00e-02,
344,-8.00e-04,8.00e-02,
345,1.20e-03,2.00e-02,
346,1.60e-03,8.00e-02,
347,-8.00e-04,2.00e-02,
348,-4.00e-04,2.00e-02,
349,1.60e-03,8.00e-02,
350,2.00e-03,8.00e-02,
351,-1.20e-03,2.00e-02,
352,-2.80e-03,8.00e-02,
353,4.00e-03,2.00e-02,
354,3.60e-03,2.00e-02,
355,8.00e-03,1.80e+00,
356,5.60e-03,1.60e-01,
357,-8.00e-04,1.20e-01,
358,3.20e-03,1.40e-01,
359,-1.20e-03,8.00e-02,
360,2.00e-03,1.00e-01,
361,-1.20e-03,8.00e-02,
362,2.40e-03,1.00e-01,
363,-4.00e-04,6.00e-02,
364,-1.20e-03,1.00e-01,
365,1.20e-03,6.00e-02,
366,2.00e-03,6.00e-02,
367,-8.00e-04,8.00e-02,
368,-2.40e-03,6.00e-02,
369,2.80e-03,8.00e-02,
370,-3.20e-03,6.00e-02,
371,5.60e-03,8.00e-02,
372,7.20e-03,6.00e-02,
373,-7.60e-03,8.00e-02,
374,1.08e-02,6.00e-02,
375,-1.12e-02,8.00e-02,
376,-1.00e-02,6.00e-02,
377,8.00e-03,8.00e-02,
378,5.20e-03,8.00e-02,
379,-4.00e-03,2.00e-02,
380,-2.40e-03,4.00e-02,
381,2.40e-03,8.00e-02,
382,-8.00e-04,4.00e-02,
383,1.60e-03,8.00e-02,
384,1.20e-03,8.00e-02,
385,-1.20e-03,2.00e-02,
386,1.20e-03,8.00e-02,
387,-8.00e-04,2.00e-02,
388,-8.00e-04,2.00e-02,
389,2.00e-03,8.00e-02,
390,2.00e-03,8.00e-02,
391,-1.20e-03,2.00e-02,
392,-3.20e-03,8.00e-02,
393,4.00e-03,2.00e-02,
394,4.00e-03,2.00e-02,
395,7.20e-03,1.92e+00,
396,5.60e-03,1.60e-01,
397,-8.00e-04,1.20e-01,
398,3.60e-03,8.00e-02,
399,-8.00e-04,1.40e-01,
400,-8.00e-04,1.00e-01,
401,2.00e-03,8.00e-02,
402,2.00e-03,1.00e-01,
403,-4.00e-04,6.00e-02,
404,-8.00e-04,6.00e-02,
405,2.40e-03,1.00e-01,
406,-1.20e-03,6.00e-02,
407,1.20e-03,8.00e-02,
408,2.00e-03,6.00e-02,
409,-1.60e-03,8.00e-02,
410,-3.20e-03,6.00e-02,
411,5.20e-03,8.00e-02,
412,6.40e-03,8.00e-02,
413,-6.80e-03,6.00e-02,
414,-8.80e-03,6.00e-02,
415,1.00e-02,8.00e-02,
416,-7.60e-03,6.00e-02,
417,7.60e-03,8.00e-02,
418,5.20e-03,8.00e-02,
419,-2.80e-03,2.00e-02,
420,-2.80e-03,8.00e-02,
421,2.40e-03,2.00e-02,
422,2.00e-03,2.00e-02,
423,-1.20e-03,8.00e-02,
424,1.60e-03,8.00e-02,
425,-1.20e-03,2.00e-02,
426,2.40e-03,8.00e-02,
427,-1.20e-03,2.00e-02,
428,-8.00e-04,8.00e-02,
429,2.40e-03,2.00e-02,
430,2.40e-03,2.00e-02,
431,-1.20e-03,8.00e-02,
432,-2.80e-03,8.00e-02,
433,4.40e-03,2.00e-02,
434,4.40e-03,2.00e-02,
435,8.00e-03,1.92e+00,
436,6.00e-03,1.60e-01,
437,-4.00e-04,1.20e-01,
438,3.60e-03,8.00e-02,
439,-1.20e-03,1.40e-01,
440,-1.60e-03,8.00e-02,
441,2.00e-03,1.00e-01,
442,2.40e-03,1.00e-01,
443,-1.20e-03,6.00e-02,
444,-1.20e-03,6.00e-02,
445,2.40e-03,1.00e-01,
446,-1.20e-03,6.00e-02,
447,2.40e-03,8.00e-02,
448,2.40e-03,6.00e-02,
449,-1.20e-03,8.00e-02,
450,-2.80e-03,6.00e-02,
451,4.00e-03,8.00e-02,
452,5.60e-03,8.00e-02,
453,-6.00e-03,6.00e-02,
454,-8.40e-03,6.00e-02,
455,8.80e-03,8.00e-02,
456,-8.40e-03,8.00e-02,
457,6.40e-03,6.00e-02,
458,4.40e-03,2.00e-02,
459,-4.00e-03,8.00e-02,
460,-2.00e-03,6.00e-02,
461,2.40e-03,8.00e-02,
462,2.40e-03,8.00e-02,
463,-8.00e-04,2.00e-02,
464,-8.00e-04,4.00e-02,
465,2.00e-03,8.00e-02,
466,2.00e-03,2.00e-02,
467,-8.00e-04,8.00e-02,
468,-8.00e-04,8.00e-02,
469,1.60e-03,2.00e-02,
470,2.40e-03,2.00e-02,
471,-1.20e-03,8.00e-02,
472,-2.80e-03,2.00e-02,
473,4.00e-03,8.00e-02,
474,4.00e-03,2.00e-02,
475,7.60e-03,1.94e+00,
476,5.60e-03,1.60e-01,
477,-4.00e-04,1.20e-01,
478,4.00e-03,8.00e-02,
479,-8.00e-04,1.40e-01,
480,-1.20e-03,1.00e-01,
481,2.00e-03,8.00e-02,
482,2.00e-03,1.00e-01,
483,-1.20e-03,6.00e-02,
484,-8.00e-04,1.00e-01,
485,2.00e-03,6.00e-02,
486,-8.00e-04,6.00e-02,
487,2.40e-03,8.00e-02,
488,2.40e-03,8.00e-02,
489,-1.60e-03,6.00e-02,
490,-2.80e-03,6.00e-02,
491,4.00e-03,8.00e-02,
492,6.40e-03,6.00e-02,
493,-6.00e-03,8.00e-02,
494,8.00e-03,6.00e-02,
495,-7.60e-03,8.00e-02,
496,-6.00e-03,6.00e-02,
497,6.40e-03,8.00e-02,
498,4.00e-03,8.00e-02,
499,-2.80e-03,2.00e-02,
500,-1.60e-03,8.00e-02,
501,2.00e-03,2.00e-02,
502,2.00e-03,2.00e-02,
503,0.00e+00,8.00e-02,
504,1.60e-03,8.00e-02,
505,-1.20e-03,2.00e-02,
506,2.00e-03,8.00e-02,
507,-8.00e-04,2.00e-02,
508,-1.20e-03,8.00e-02,
509,1.60e-03,2.00e-02,
510,2.00e-03,8.00e-02,
511,-1.20e-03,2.00e-02,
512,-3.60e-03,8.00e-02,
513,4.00e-03,2.00e-02,
514,3.60e-03,2.00e-02,
515,7.60e-03,1.84e+00,
516,5.60e-03,1.60e-01,
517,-8.00e-04,1.20e-01,
518,4.00e-03,8.00e-02,
519,-1.20e-03,1.40e-01,
520,-8.00e-04,1.00e-01,
521,2.80e-03,8.00e-02,
522,2.00e-03,1.00e-01,
523,-1.60e-03,6.00e-02,
524,-1.20e-03,6.00e-02,
525,2.00e-03,1.00e-01,
526,1.20e-03,6.00e-02,
527,-8.00e-04,8.00e-02,
528,1.60e-03,6.00e-02,
529,-1.20e-03,8.00e-02,
530,3.60e-03,6.00e-02,
531,-1.60e-03,8.00e-02,
532,5.60e-03,8.00e-02,
533,-5.20e-03,6.00e-02,
534,-7.20e-03,8.00e-02,
535,8.00e-03,6.00e-02,
536,-5.60e-03,6.00e-02,
537,5.20e-03,8.00e-02,
538,4.00e-03,8.00e-02,
539,-2.80e-03,2.00e-02,
540,-1.20e-03,8.00e-02,
541,2.40e-03,4.00e-02,
542,1.20e-03,8.00e-02,
543,-8.00e-04,4.00e-02,
544,-1.20e-03,8.00e-02,
545,1.20e-03,2.00e-02,
546,2.00e-03,8.00e-02,
547,-1.20e-03,2.00e-02,
548,-8.00e-04,8.00e-02,
549,2.40e-03,2.00e-02,
550,-1.20e-03,8.00e-02,
551,2.40e-03,2.00e-02,
552,3.60e-03,2.00e-02,
553,-4.00e-03,8.00e-02,
554,4.00e-03,1.96e+00,
555,8.00e-03,0.00e+00,
556,5.60e-03,1.60e-01,
557,0.00e+00,1.00e-01,
558,4.40e-03,1.20e-01,
559,-1.20e-03,8.00e-02,
560,-1.20e-03,1.00e-01,
561,2.40e-03,8.00e-02,
562,2.40e-03,6.00e-02,
563,-1.20e-03,1.00e-01,
564,-1.20e-03,1.00e-01,
565,2.00e-03,6.00e-02,
566,-8.00e-04,6.00e-02,
567,2.00e-03,8.00e-02,
568,2.00e-03,6.00e-02,
569,-1.20e-03,8.00e-02,
570,-1.60e-03,8.00e-02,
571,3.20e-03,6.00e-02,
572,4.40e-03,6.00e-02,
573,-4.40e-03,8.00e-02,
574,7.20e-03,8.00e-02,
575,-6.00e-03,6.00e-02,
576,-5.60e-03,8.00e-02,
577,6.00e-03,4.00e-02,
578,4.00e-03,8.00e-02,
579,-2.40e-03,2.00e-02,
580,-1.60e-03,2.00e-02,
581,1.60e-03,8.00e-02,
582,1.60e-03,8.00e-02,
583,-4.00e-04,2.00e-02,
584,2.00e-03,8.00e-02,
585,-4.00e-04,2.00e-02,
586,2.00e-03,8.00e-02,
587,-1.20e-03,2.00e-02,
588,-8.00e-04,8.00e-02,
589,2.40e-03,2.00e-02,
590,2.80e-03,8.00e-02,
591,-1.20e-03,2.00e-02,
592,3.60e-03,6.00e-02,
593,-3.20e-03,2.00e-02,
594,3.60e-03,2.00e-02,
595,8.00e-03,2.00e+00,
596,6.00e-03,1.60e-01,
597,-4.00e-04,1.20e-01,
598,4.00e-03,1.40e-01,
599,-1.60e-03,8.00e-02,
600,-1.60e-03,1.00e-01,
601,2.40e-03,6.00e-02,
602,2.40e-03,1.00e-01,
603,-1.20e-03,6.00e-02,
604,-8.00e-04,6.00e-02,
605,1.20e-03,8.00e-02,
606,-8.00e-04,6.00e-02,
607,1.60e-03,8.00e-02,
608,2.40e-03,6.00e-02,
609,-1.20e-03,8.00e-02,
610,-1.60e-03,6.00e-02,
611,4.00e-03,8.00e-02,
612,4.80e-03,8.00e-02,
613,-4.40e-03,6.00e-02,
614,-5.60e-03,6.00e-02,
615,6.80e-03,8.00e-02,
616,-5.20e-03,6.00e-02,
617,4.40e-03,8.00e-02,
618,3.60e-03,8.00e-02,
619,-2.40e-03,4.00e-02,
620,-1.60e-03,8.00e-02,
621,1.20e-03,2.00e-02,
622,-8.00e-04,8.00e-02,
623,2.00e-03,2.00e-02,
624,1.60e-03,4.00e-02,
625,-1.20e-03,8.00e-02,
626,2.00e-03,2.00e-02,
627,-1.20e-03,8.00e-02,
628,-1.60e-03,8.00e-02,
629,2.00e-03,2.00e-02,
630,-1.60e-03,2.00e-02,
631,2.40e-03,8.00e-02,
632,4.00e-03,8.00e-02,
633,-3.60e-03,2.00e-02,
634,4.00e-03,2.00e-02,
635,8.00e-03,1.86e+00,
636,6.00e-03,1.60e-01,
637,-8.00e-04,1.20e-01,
638,4.00e-03,8.00e-02,
639,-1.60e-03,1.40e-01,
640,2.40e-03,8.00e-02,
641,-1.20e-03,1.00e-01,
642,2.00e-03,1.00e-01,
643,-1.20e-03,6.00e-02,
644,1.20e-03,6.00e-02,
645,-8.00e-04,1.00e-01,
646,1.60e-03,6.00e-02,
647,0.00e+00,8.00e-02,
648,-8.00e-04,6.00e-02,
649,1.20e-03,8.00e-02,
650,-1.60e-03,6.00e-02,
651,3.20e-03,8.00e-02,
652,4.80e-03,6.00e-02,
653,-3.60e-03,8.00e-02,
654,6.40e-03,6.00e-02,
655,-4.40e-03,8.00e-02,
656,-4.40e-03,8.00e-02,
657,4.00e-03,4.00e-02,
658,2.80e-03,6.00e-02,
659,-1.60e-03,8.00e-02,
660,-1.60e-03,8.00e-02,
661,2.00e-03,2.00e-02,
662,1.60e-03,8.00e-02,
663,-8.00e-04,4.00e-02,
664,-8.00e-04,8.00e-02,
665,1.20e-03,2.00e-02,
666,-1.20e-03,8.00e-02,
667,2.00e-03,2.00e-02,
668,2.00e-03,8.00e-02,
669,-1.20e-03,2.00e-02,
670,2.40e-03,2.00e-02,
671,-1.60e-03,8.00e-02,
672,3.60e-03,8.00e-02,
673,-4.00e-03,2.00e-02,
674,2.80e-03,1.94e+00,
675,7.20e-03,0.00e+00,
676,5.60e-03,1.60e-01,
677,-8.00e-04,1.20e-01,
678,4.80e-03,1.40e-01,
679,-1.20e-03,8.00e-02,
680,-1.60e-03,1.00e-01,
681,2.40e-03,6.00e-02,
682,2.40e-03,1.00e-01,
683,-1.20e-03,6.00e-02,
684,-1.20e-03,1.00e-01,
685,2.00e-03,6.00e-02,
686,1.60e-03,6.00e-02,
687,-8.00e-04,8.00e-02,
688,-1.20e-03,6.00e-02,
689,2.00e-03,8.00e-02,
690,-1.20e-03,6.00e-02,
691,3.60e-03,8.00e-02,
692,4.00e-03,6.00e-02,
693,-3.60e-03,8.00e-02,
694,5.20e-03,6.00e-02,
695,-4.40e-03,8.00e-02,
696,-3.60e-03,6.00e-02,
697,4.00e-03,8.00e-02,
698,3.20e-03,6.00e-02,
699,-1.60e-03,8.00e-02,
700,-1.20e-03,8.00e-02,
701,1.20e-03,4.00e-02,
702,-4.00e-04,8.00e-02,
703,2.00e-03,2.00e-02,
704,0.00e+00,8.00e-02,
705,2.00e-03,4.00e-02,
706,2.00e-03,8.00e-02,
707,-1.20e-03,2.00e-02,
708,1.60e-03,2.00e-02,
709,-8.00e-04,8.00e-02,
710,-1.20e-03,2.00e-02,
711,2.40e-03,8.00e-02,
712,4.00e-03,8.00e-02,
713,-4.00e-03,2.00e-02,
714,2.40e-03,2.00e-02,
715,7.60e-03,1.88e+00,
716,5.60e-03,1.60e-01,
717,-8.00e-04,1.20e-01,
718,4.80e-03,1.20e-01,
719,-1.60e-03,8.00e-02,
720,-1.60e-03,1.00e-01,
721,2.00e-03,8.00e-02,
722,2.40e-03,1.00e-01,
723,-1.20e-03,6.00e-02,
724,-8.00e-04,6.00e-02,
725,2.00e-03,1.00e-01,
726,-8.00e-04,6.00e-02,
727,1.60e-03,8.00e-02,
728,1.20e-03,6.00e-02,
729,-1.20e-03,8.00e-02,
730,-1.20e-03,8.00e-02,
731,2.40e-03,6.00e-02,
732,3.60e-03,6.00e-02,
733,-3.60e-03,8.00e-02,
734,-4.40e-03,8.00e-02,
735,5.20e-03,6.00e-02,
736,-2.80e-03,8.00e-02,
737,4.00e-03,6.00e-02,
738,2.80e-03,8.00e-02,
739,-1.60e-03,4.00e-02,
740,-1.20e-03,8.00e-02,
741,2.00e-03,2.00e-02,
742,1.20e-03,2.00e-02,
743,0.00e+00,8.00e-02,
744,2.00e-03,4.00e-02,
745,-8.00e-04,8.00e-02,
746,-1.20e-03,8.00e-02,
747,2.00e-03,2.00e-02,
748,-1.20e-03,8.00e-02,
749,2.00e-03,2.00e-02,
750,-1.20e-03,8.00e-02,
751,2.80e-03,2.00e-02,
752,4.00e-03,2.00e-02,
753,-3.60e-03,8.00e-02,
754,2.80e-03,2.00e-02,
755,8.00e-03,1.92e+00,
756,6.40e-03,1.60e-01,
757,-4.00e-04,1.00e-01,
758,5.20e-03,1.20e-01,
759,-1.60e-03,8.00e-02,
760,-1.20e-03,1.00e-01,
761,2.40e-03,6.00e-02,
762,2.40e-03,1.00e-01,
763,-1.20e-03,6.00e-02,
764,1.60e-03,6.00e-02,
765,-8.00e-04,1.00e-01,
766,1.20e-03,6.00e-02,
767,-8.00e-04,8.00e-02,
768,-8.00e-04,6.00e-02,
769,1.20e-03,8.00e-02,
770,-1.20e-03,8.00e-02,
771,2.40e-03,6.00e-02,
772,2.80e-03,8.00e-02,
773,-2.80e-03,6.00e-02,
774,4.80e-03,8.00e-02,
775,-4.00e-03,4.00e-02,
776,-3.20e-03,8.00e-02,
777,4.00e-03,2.00e-02,
778,2.40e-03,8.00e-02,
779,-1.20e-03,2.00e-02,
780,-1.20e-03,8.00e-02,
781,2.00e-03,4.00e-02,
782,1.60e-03,8.00e-02,
783,-8.00e-04,2.00e-02,
784,-8.00e-04,2.00e-02,
785,1.20e-03,8.00e-02,
786,-1.20e-03,2.00e-02,
787,2.40e-03,8.00e-02,
788,-1.20e-03,2.00e-02,
789,2.00e-03,8.00e-02,
790,2.40e-03,2.00e-02,
791,-1.60e-03,8.00e-02,
792,4.00e-03,2.00e-02,
793,-4.40e-03,8.00e-02,
794,2.00e-03,2.00e-02,
795,8.00e-03,1.90e+00,
796,6.40e-03,1.60e-01,
797,-4.00e-04,8.00e-02,
798,5.20e-03,1.40e-01,
799,-1.60e-03,8.00e-02,
800,-1.20e-03,1.00e-01,
801,2.40e-03,8.00e-02,
802,2.40e-03,1.00e-01,
803,-1.20e-03,6.00e-02,
804,-8.00e-04,6.00e-02,
805,2.00e-03,1.00e-01,
806,0.00e+00,8.00e-02,
807,1.20e-03,6.00e-02,
808,2.00e-03,8.00e-02,
809,-8.00e-04,6.00e-02,
810,-1.20e-03,6.00e-02,
811,2.40e-03,8.00e-02,
812,2.80e-03,6.00e-02,
813,-2.80e-03,8.00e-02,
814,-3.60e-03,6.00e-02,
815,4.00e-03,8.00e-02,
816,-3.20e-03,6.00e-02,
817,3.20e-03,8.00e-02,
818,2.40e-03,8.00e-02,
819,-8.00e-04,6.00e-02,
820,-8.00e-04,2.00e-02,
821,1.60e-03,8.00e-02,
822,1.20e-03,2.00e-02,
823,0.00e+00,8.00e-02,
824,-8.00e-04,8.00e-02,
825,1.20e-03,2.00e-02,
826,-1.20e-03,2.00e-02,
827,2.40e-03,8.00e-02,
828,2.00e-03,2.00e-02,
829,-1.20e-03,8.00e-02,
830,2.80e-03,8.00e-02,
831,-1.60e-03,2.00e-02,
832,4.00e-03,8.00e-02,
833,-4.00e-03,2.00e-02,
834,2.40e-03,2.00e-02,
835,7.20e-03,1.78e+00,
836,5.60e-03,1.60e-01,
837,-8.00e-04,1.20e-01,
838,5.20e-03,1.20e-01,
839,-1.60e-03,8.00e-02,
840,-1.60e-03,8.00e-02,
841,2.40e-03,1.00e-01,
842,2.40e-03,1.00e-01,
843,-1.20e-03,6.00e-02,
844,2.00e-03,6.00e-02,
845,-8.00e-04,1.00e-01,
846,0.00e+00,8.00e-02,
847,1.60e-03,6.00e-02,
848,2.00e-03,6.00e-02,
849,-1.20e-03,8.00e-02,
850,-1.20e-03,6.00e-02,
851,2.40e-03,8.00e-02,
852,2.80e-03,6.00e-02,
853,-2.40e-03,8.00e-02,
