CarrPurc_P1-19_P2-38_tauVary/Gly93/NewFile9.csv

X,CH1,CH2,Start,Increment,
Sequence,Volt,Volt,-5.000000e-03,1.000000e-04
0,1.20e-03,4.00e-02,
1,0.00e+00,2.00e-02,
2,8.00e-04,4.00e-02,
3,0.00e+00,2.00e-02,
4,0.00e+00,4.00e-02,
5,1.20e-03,2.00e-02,
6,1.20e-03,4.00e-02,
7,0.00e+00,0.00e+00,
8,-8.00e-04,4.00e-02,
9,8.00e-04,2.00e-02,
10,0.00e+00,4.00e-02,
11,1.20e-03,2.00e-02,
12,0.00e+00,4.00e-02,
13,8.00e-04,2.00e-02,
14,0.00e+00,4.00e-02,
15,1.20e-03,2.00e-02,
16,-4.00e-04,4.00e-02,
17,1.60e-03,2.00e-02,
18,1.20e-03,4.00e-02,
19,0.00e+00,2.00e-02,
20,0.00e+00,2.00e-02,
21,1.20e-03,4.00e-02,
22,8.00e-04,4.00e-02,
23,0.00e+00,2.00e-02,
24,1.20e-03,4.00e-02,
25,0.00e+00,2.00e-02,
26,0.00e+00,4.00e-02,
27,1.20e-03,0.00e+00,
28,1.20e-03,4.00e-02,
29,0.00e+00,2.00e-02,
30,1.20e-03,2.00e-02,
31,0.00e+00,4.00e-02,
32,0.00e+00,4.00e-02,
33,1.20e-03,2.00e-02,
34,4.00e-04,4.00e-02,
35,1.20e-03,2.00e-02,
36,1.20e-03,4.00e-02,
37,0.00e+00,2.00e-02,
38,0.00e+00,4.00e-02,
39,8.00e-04,2.00e-02,
40,0.00e+00,2.00e-02,
41,1.20e-03,4.00e-02,
42,4.00e-04,4.00e-02,
43,1.20e-03,2.00e-02,
44,0.00e+00,4.00e-02,
45,1.20e-03,2.00e-02,
46,4.00e-04,4.00e-02,
47,1.20e-03,2.00e-02,
48,0.00e+00,4.00e-02,
49,1.20e-03,2.00e-02,
50,8.00e-04,4.00e-02,
51,-4.00e-04,2.00e-02,
52,0.00e+00,2.00e-02,
53,1.20e-03,4.00e-02,
54,4.00e-04,2.00e-02,
55,5.20e-03,1.94e+00,
56,5.20e-03,1.60e-01,
57,-3.00e-02,8.00e-02,
58,1.60e-02,1.40e-01,
59,-1.56e-02,8.00e-02,
60,8.00e-03,1.00e-01,
61,-8.40e-03,8.00e-02,
62,-2.40e-03,1.00e-01,
63,4.00e-03,6.00e-02,
64,-2.40e-03,1.00e-01,
65,2.80e-03,6.00e-02,
66,2.80e-03,6.00e-02,
67,-1.60e-03,8.00e-02,
68,-1.20e-03,8.00e-02,
69,2.80e-03,6.00e-02,
70,2.40e-03,6.00e-02,
71,-8.00e-04,8.00e-02,
72,-1.20e-03,8.00e-02,
73,2.00e-03,6.00e-02,
74,8.00e-04,2.00e+00,
75,7.60e-03,4.00e-02,
76,5.60e-03,1.60e-01,
77,-7.60e-03,1.20e-01,
78,-8.40e-03,1.20e-01,
79,6.40e-03,8.00e-02,
80,4.00e-03,1.00e-01,
81,-1.60e-03,8.00e-02,
82,-8.00e-04,1.00e-01,
83,2.40e-03,6.00e-02,
84,1.20e-03,1.00e-01,
85,-1.20e-03,6.00e-02,
86,1.20e-03,8.00e-02,
87,-8.00e-04,6.00e-02,
88,-2.80e-03,8.00e-02,
89,5.60e-03,6.00e-02,
90,9.60e-03,6.00e-02,
91,-9.20e-03,8.00e-02,
92,-1.56e-02,6.00e-02,
93,1.96e-02,8.00e-02,
94,-2.12e-02,6.00e-02,
95,2.36e-02,8.00e-02,
96,-2.00e-02,6.00e-02,
97,1.84e-02,8.00e-02,
98,1.16e-02,6.00e-02,
99,-9.60e-03,8.00e-02,
100,-5.60e-03,8.00e-02,
101,5.20e-03,6.00e-02,
102,2.80e-03,6.00e-02,
103,-1.20e-03,8.00e-02,
104,-1.20e-03,6.00e-02,
105,2.00e-03,8.00e-02,
106,-1.20e-03,6.00e-02,
107,1.60e-03,8.00e-02,
108,-8.00e-04,8.00e-02,
109,2.00e-03,4.00e-02,
110,-8.00e-04,2.00e-02,
111,1.60e-03,8.00e-02,
112,1.20e-03,8.00e-02,
113,-8.00e-04,2.00e-02,
114,0.00e+00,2.00e-02,
115,7.20e-03,1.70e+00,
116,5.60e-03,1.60e-01,
117,4.00e-04,1.20e-01,
118,2.80e-03,1.40e-01,
119,0.00e+00,8.00e-02,
120,-8.00e-04,8.00e-02,
121,2.00e-03,1.00e-01,
122,2.00e-03,1.00e-01,
123,-8.00e-04,6.00e-02,
124,-4.00e-04,6.00e-02,
125,1.20e-03,1.00e-01,
126,2.40e-03,8.00e-02,
127,-1.60e-03,6.00e-02,
128,-4.00e-03,6.00e-02,
129,4.80e-03,8.00e-02,
130,-5.60e-03,6.00e-02,
131,8.40e-03,8.00e-02,
132,1.20e-02,6.00e-02,
133,-1.40e-02,8.00e-02,
134,-1.68e-02,6.00e-02,
135,1.76e-02,8.00e-02,
136,-1.44e-02,6.00e-02,
137,1.24e-02,8.00e-02,
138,8.40e-03,8.00e-02,
139,-6.00e-03,6.00e-02,
140,-4.00e-03,6.00e-02,
141,2.80e-03,8.00e-02,
142,-1.20e-03,6.00e-02,
143,2.40e-03,8.00e-02,
144,2.40e-03,8.00e-02,
145,-1.20e-03,6.00e-02,
146,2.00e-03,8.00e-02,
147,-8.00e-04,2.00e-02,
148,-8.00e-04,8.00e-02,
149,2.00e-03,2.00e-02,
150,2.80e-03,2.00e-02,
151,-2.40e-03,8.00e-02,
152,-4.00e-03,8.00e-02,
153,5.20e-03,2.00e-02,
154,2.80e-03,2.00e-02,
155,7.20e-03,1.90e+00,
156,5.60e-03,1.60e-01,
157,-4.00e-04,1.20e-01,
158,2.40e-03,1.40e-01,
159,-8.00e-04,8.00e-02,
160,1.20e-03,1.00e-01,
161,-8.00e-04,8.00e-02,
162,-8.00e-04,1.00e-01,
163,2.40e-03,6.00e-02,
164,1.20e-03,1.00e-01,
165,-8.00e-04,6.00e-02,
166,2.40e-03,6.00e-02,
167,-8.00e-04,8.00e-02,
168,2.80e-03,6.00e-02,
169,-3.20e-03,8.00e-02,
170,-5.60e-03,8.00e-02,
171,7.60e-03,6.00e-02,
172,1.12e-02,6.00e-02,
173,-1.36e-02,8.00e-02,
174,1.60e-02,6.00e-02,
175,-1.64e-02,8.00e-02,
176,-1.28e-02,8.00e-02,
177,1.16e-02,6.00e-02,
178,8.00e-03,8.00e-02,
179,-6.00e-03,6.00e-02,
180,-3.60e-03,8.00e-02,
181,3.60e-03,6.00e-02,
182,2.00e-03,8.00e-02,
183,-1.20e-03,4.00e-02,
184,2.00e-03,8.00e-02,
185,-1.20e-03,6.00e-02,
186,2.00e-03,8.00e-02,
187,-1.60e-03,4.00e-02,
188,-8.00e-04,8.00e-02,
189,8.00e-04,2.00e-02,
190,2.40e-03,8.00e-02,
191,-1.60e-03,2.00e-02,
192,-3.60e-03,8.00e-02,
193,5.20e-03,2.00e-02,
194,3.20e-03,2.00e-02,
195,8.00e-03,1.98e+00,
196,6.40e-03,1.60e-01,
197,-1.20e-03,1.20e-01,
198,-1.20e-03,1.40e-01,
199,2.80e-03,8.00e-02,
200,-8.00e-04,8.00e-02,
201,1.20e-03,1.00e-01,
202,-1.20e-03,1.00e-01,
203,2.40e-03,6.00e-02,
204,2.40e-03,6.00e-02,
205,-1.20e-03,1.00e-01,
206,2.40e-03,6.00e-02,
207,-1.20e-03,8.00e-02,
208,-2.40e-03,8.00e-02,
209,3.20e-03,6.00e-02,
210,-3.60e-03,6.00e-02,
211,6.40e-03,8.00e-02,
212,8.40e-03,6.00e-02,
213,-9.60e-03,8.00e-02,
214,-1.32e-02,6.00e-02,
215,1.44e-02,8.00e-02,
216,-1.20e-02,6.00e-02,
217,1.12e-02,8.00e-02,
218,7.60e-03,8.00e-02,
219,-4.40e-03,6.00e-02,
220,-3.20e-03,6.00e-02,
221,3.60e-03,8.00e-02,
222,2.00e-03,6.00e-02,
223,-8.00e-04,8.00e-02,
224,1.20e-03,8.00e-02,
225,-8.00e-04,4.00e-02,
226,-8.00e-04,8.00e-02,
227,1.20e-03,6.00e-02,
228,-8.00e-04,8.00e-02,
229,1.20e-03,4.00e-02,
230,1.60e-03,8.00e-02,
231,-1.60e-03,2.00e-02,
232,-2.00e-03,6.00e-02,
233,3.60e-03,8.00e-02,
234,2.80e-03,2.00e-02,
235,7.20e-03,1.82e+00,
236,5.60e-03,1.60e-01,
237,-8.00e-04,1.20e-01,
238,2.80e-03,1.40e-01,
239,-8.00e-04,8.00e-02,
240,1.20e-03,1.00e-01,
241,-4.00e-04,8.00e-02,
242,2.00e-03,1.00e-01,
243,-8.00e-04,6.00e-02,
244,-8.00e-04,6.00e-02,
245,2.00e-03,1.00e-01,
246,-8.00e-04,6.00e-02,
247,2.00e-03,8.00e-02,
248,-2.40e-03,8.00e-02,
249,4.00e-03,6.00e-02,
250,-4.00e-03,8.00e-02,
251,6.40e-03,6.00e-02,
252,9.20e-03,6.00e-02,
253,-9.20e-03,8.00e-02,
254,-1.16e-02,8.00e-02,
255,1.36e-02,6.00e-02,
256,-1.00e-02,8.00e-02,
257,9.60e-03,6.00e-02,
258,5.60e-03,6.00e-02,
259,-4.00e-03,8.00e-02,
260,-2.80e-03,6.00e-02,
261,2.40e-03,8.00e-02,
262,2.00e-03,8.00e-02,
263,-8.00e-04,6.00e-02,
264,-8.00e-04,6.00e-02,
265,2.00e-03,8.00e-02,
266,-1.20e-03,8.00e-02,
267,1.60e-03,4.00e-02,
268,-4.00e-04,8.00e-02,
269,1.20e-03,4.00e-02,
270,1.20e-03,4.00e-02,
271,-1.20e-03,8.00e-02,
272,3.60e-03,8.00e-02,
273,-1.60e-03,2.00e-02,
274,3.20e-03,-6.00e-02,
275,7.60e-03,1.98e+00,
276,5.60e-03,1.60e-01,
277,0.00e+00,1.20e-01,
278,2.80e-03,1.20e-01,
279,-8.00e-04,8.00e-02,
280,2.00e-03,1.00e-01,
281,-8.00e-04,8.00e-02,
282,-1.20e-03,1.00e-01,
283,2.00e-03,6.00e-02,
284,-1.20e-03,1.00e-01,
285,1.20e-03,6.00e-02,
286,-8.00e-04,6.00e-02,
287,1.60e-03,8.00e-02,
288,2.40e-03,6.00e-02,
289,-2.40e-03,8.00e-02,
290,-3.60e-03,6.00e-02,
291,5.20e-03,8.00e-02,
292,8.40e-03,8.00e-02,
293,-8.80e-03,6.00e-02,
294,-1.12e-02,6.00e-02,
295,1.24e-02,8.00e-02,
296,-8.80e-03,8.00e-02,
297,8.00e-03,6.00e-02,
298,6.40e-03,8.00e-02,
299,-4.00e-03,6.00e-02,
300,-2.80e-03,8.00e-02,
301,2.80e-03,6.00e-02,
302,2.40e-03,6.00e-02,
303,-8.00e-04,8.00e-02,
304,2.00e-03,8.00e-02,
305,-1.20e-03,4.00e-02,
306,1.20e-03,8.00e-02,
307,-8.00e-04,4.00e-02,
308,-8.00e-04,8.00e-02,
309,2.00e-03,2.00e-02,
310,2.00e-03,8.00e-02,
311,-1.20e-03,2.00e-02,
312,-2.80e-03,8.00e-02,
313,4.00e-03,2.00e-02,
314,3.60e-03,2.00e-02,
315,7.20e-03,1.80e+00,
316,5.60e-03,1.60e-01,
317,0.00e+00,1.20e-01,
318,2.80e-03,1.40e-01,
319,-8.00e-04,8.00e-02,
320,2.00e-03,1.00e-01,
321,-1.20e-03,8.00e-02,
322,-1.20e-03,1.00e-01,
323,2.40e-03,6.00e-02,
324,2.00e-03,1.00e-01,
325,-1.20e-03,6.00e-02,
326,1.20e-03,6.00e-02,
327,-8.00e-04,8.00e-02,
328,-1.60e-03,6.00e-02,
329,2.80e-03,8.00e-02,
330,-2.80e-03,6.00e-02,
331,5.20e-03,8.00e-02,
332,6.40e-03,8.00e-02,
333,-7.20e-03,6.00e-02,
334,-1.00e-02,6.00e-02,
335,1.08e-02,8.00e-02,
336,-8.40e-03,6.00e-02,
337,8.00e-03,8.00e-02,
338,5.60e-03,8.00e-02,
339,-2.80e-03,6.00e-02,
340,-2.40e-03,8.00e-02,
341,2.40e-03,2.00e-02,
342,2.00e-03,6.00e-02,
343,-8.00e-04,8.00e-02,
344,-8.00e-04,8.00e-02,
345,1.20e-03,6.00e-02,
346,-8.00e-04,8.00e-02,
347,1.60e-03,2.00e-02,
348,1.60e-03,8.00e-02,
349,-8.00e-04,2.00e-02,
350,2.00e-03,8.00e-02,
351,-1.60e-03,2.00e-02,
352,-2.40e-03,8.00e-02,
353,4.00e-03,2.00e-02,
354,3.60e-03,2.00e-02,
355,7.20e-03,1.68e+00,
356,5.60e-03,1.60e-01,
357,0.00e+00,1.20e-01,
358,3.20e-03,1.40e-01,
359,-8.00e-04,8.00e-02,
360,-8.00e-04,1.00e-01,
361,1.60e-03,8.00e-02,
362,-8.00e-04,1.00e-01,
363,2.40e-03,6.00e-02,
364,2.00e-03,1.00e-01,
365,-8.00e-04,6.00e-02,
366,-8.00e-04,6.00e-02,
367,2.00e-03,8.00e-02,
368,-1.60e-03,6.00e-02,
369,2.80e-03,8.00e-02,
370,-2.80e-03,6.00e-02,
371,5.20e-03,8.00e-02,
372,6.80e-03,6.00e-02,
373,-7.20e-03,8.00e-02,
374,9.60e-03,6.00e-02,
375,-9.60e-03,8.00e-02,
376,-7.60e-03,6.00e-02,
377,6.80e-03,8.00e-02,
378,4.80e-03,8.00e-02,
379,-2.40e-03,6.00e-02,
380,-1.60e-03,6.00e-02,
381,2.40e-03,8.00e-02,
382,1.60e-03,6.00e-02,
383,-8.00e-04,8.00e-02,
384,1.20e-03,8.00e-02,
385,-1.20e-03,6.00e-02,
386,1.20e-03,8.00e-02,
387,-1.20e-03,2.00e-02,
388,-8.00e-04,4.00e-02,
389,1.60e-03,8.00e-02,
390,2.00e-03,8.00e-02,
391,-1.60e-03,2.00e-02,
392,-1.60e-03,8.00e-02,
393,4.00e-03,2.00e-02,
394,3.20e-03,-1.00e-01,
395,8.00e-03,1.96e+00,
396,5.60e-03,1.60e-01,
397,-8.00e-04,1.20e-01,
398,2.40e-03,1.40e-01,
399,-1.20e-03,8.00e-02,
400,2.00e-03,1.00e-01,
401,-1.20e-03,8.00e-02,
402,1.20e-03,1.00e-01,
403,-8.00e-04,6.00e-02,
404,-8.00e-04,1.00e-01,
405,2.00e-03,6.00e-02,
406,1.20e-03,6.00e-02,
407,-8.00e-04,8.00e-02,
408,2.00e-03,6.00e-02,
409,-1.60e-03,8.00e-02,
410,-2.80e-03,6.00e-02,
411,4.00e-03,8.00e-02,
412,6.40e-03,8.00e-02,
413,-6.00e-03,6.00e-02,
414,-8.00e-03,6.00e-02,
415,9.60e-03,8.00e-02,
416,-6.00e-03,6.00e-02,
417,6.80e-03,8.00e-02,
418,4.40e-03,8.00e-02,
419,-2.80e-03,6.00e-02,
420,-2.40e-03,6.00e-02,
421,2.00e-03,8.00e-02,
422,2.00e-03,8.00e-02,
423,0.00e+00,4.00e-02,
424,-8.00e-04,8.00e-02,
425,1.60e-03,2.00e-02,
426,2.00e-03,8.00e-02,
427,-8.00e-04,2.00e-02,
428,-8.00e-04,8.00e-02,
429,2.00e-03,2.00e-02,
430,2.00e-03,8.00e-02,
431,-1.20e-03,2.00e-02,
432,-2.80e-03,8.00e-02,
433,3.60e-03,2.00e-02,
434,3.20e-03,2.00e-02,
435,7.20e-03,1.98e+00,
436,5.60e-03,1.60e-01,
437,0.00e+00,1.20e-01,
438,3.20e-03,1.40e-01,
439,-8.00e-04,8.00e-02,
440,2.40e-03,1.00e-01,
441,-1.20e-03,6.00e-02,
442,2.00e-03,1.00e-01,
443,-1.20e-03,6.00e-02,
444,-1.20e-03,6.00e-02,
445,1.60e-03,1.00e-01,
446,-8.00e-04,6.00e-02,
447,2.00e-03,8.00e-02,
448,2.00e-03,6.00e-02,
449,-1.20e-03,8.00e-02,
450,-2.40e-03,6.00e-02,
451,4.00e-03,8.00e-02,
452,5.20e-03,8.00e-02,
453,-6.00e-03,6.00e-02,
454,8.00e-03,6.00e-02,
455,-8.40e-03,8.00e-02,
456,-6.80e-03,8.00e-02,
457,6.40e-03,6.00e-02,
458,4.40e-03,6.00e-02,
459,-2.80e-03,8.00e-02,
460,-1.60e-03,6.00e-02,
461,2.40e-03,8.00e-02,
462,2.00e-03,8.00e-02,
463,-8.00e-04,2.00e-02,
464,-8.00e-04,8.00e-02,
465,1.20e-03,2.00e-02,
466,-1.20e-03,8.00e-02,
467,2.00e-03,4.00e-02,
468,1.60e-03,8.00e-02,
469,-1.60e-03,2.00e-02,
470,-1.60e-03,8.00e-02,
471,2.00e-03,2.00e-02,
472,-2.40e-03,8.00e-02,
473,3.20e-03,2.00e-02,
474,3.60e-03,2.00e-02,
475,7.60e-03,1.72e+00,
476,6.40e-03,1.60e-01,
477,0.00e+00,1.20e-01,
478,4.00e-03,1.40e-01,
479,-1.20e-03,8.00e-02,
480,-8.00e-04,1.00e-01,
481,2.40e-03,8.00e-02,
482,2.40e-03,1.00e-01,
483,-8.00e-04,6.00e-02,
484,-8.00e-04,6.00e-02,
485,1.20e-03,1.00e-01,
486,-8.00e-04,6.00e-02,
487,2.00e-03,8.00e-02,
488,2.40e-03,8.00e-02,
489,-1.60e-03,6.00e-02,
490,-2.80e-03,6.00e-02,
491,3.60e-03,8.00e-02,
492,5.20e-03,6.00e-02,
493,-5.20e-03,8.00e-02,
494,8.00e-03,6.00e-02,
495,-6.00e-03,8.00e-02,
496,-6.00e-03,6.00e-02,
497,5.20e-03,8.00e-02,
498,4.00e-03,6.00e-02,
499,-1.60e-03,8.00e-02,
500,1.20e-03,6.00e-02,
501,-1.20e-03,8.00e-02,
502,1.20e-03,6.00e-02,
503,-8.00e-04,8.00e-02,
504,-8.00e-04,8.00e-02,
505,1.20e-03,4.00e-02,
506,2.00e-03,8.00e-02,
507,-8.00e-04,4.00e-02,
508,1.20e-03,8.00e-02,
509,-1.20e-03,2.00e-02,
510,-1.20e-03,4.00e-02,
511,2.40e-03,8.00e-02,
512,2.80e-03,8.00e-02,
513,-2.80e-03,2.00e-02,
514,3.60e-03,-8.00e-02,
515,7.60e-03,1.96e+00,
516,5.60e-03,1.60e-01,
517,0.00e+00,1.20e-01,
518,4.00e-03,1.40e-01,
519,-1.20e-03,8.00e-02,
520,-1.20e-03,1.00e-01,
521,2.00e-03,8.00e-02,
522,2.40e-03,1.00e-01,
523,-8.00e-04,6.00e-02,
524,-8.00e-04,6.00e-02,
525,2.00e-03,1.00e-01,
526,1.20e-03,6.00e-02,
527,-8.00e-04,8.00e-02,
528,-8.00e-04,6.00e-02,
529,2.00e-03,8.00e-02,
530,-2.40e-03,6.00e-02,
531,3.60e-03,8.00e-02,
532,4.80e-03,8.00e-02,
533,-5.20e-03,6.00e-02,
534,-6.80e-03,8.00e-02,
535,7.60e-03,6.00e-02,
536,-5.60e-03,6.00e-02,
537,5.20e-03,8.00e-02,
538,3.60e-03,8.00e-02,
539,-2.80e-03,6.00e-02,
540,-1.60e-03,6.00e-02,
541,2.00e-03,8.00e-02,
542,0.00e+00,8.00e-02,
543,1.60e-03,6.00e-02,
544,-8.00e-04,8.00e-02,
545,1.20e-03,2.00e-02,
546,-1.20e-03,8.00e-02,
547,2.00e-03,4.00e-02,
548,1.20e-03,8.00e-02,
549,-1.20e-03,2.00e-02,
550,2.40e-03,8.00e-02,
551,-8.00e-04,4.00e-02,
552,3.60e-03,4.00e-02,
553,-3.60e-03,8.00e-02,
554,3.20e-03,4.00e-02,
555,8.00e-03,1.78e+00,
556,6.40e-03,1.60e-01,
557,0.00e+00,1.20e-01,
558,4.40e-03,1.40e-01,
559,-1.20e-03,8.00e-02,
560,-1.60e-03,1.00e-01,
561,2.00e-03,8.00e-02,
562,2.40e-03,1.00e-01,
563,-1.20e-03,6.00e-02,
564,-8.00e-04,6.00e-02,
565,2.00e-03,1.00e-01,
566,1.20e-03,6.00e-02,
567,0.00e+00,8.00e-02,
568,2.00e-03,6.00e-02,
569,-1.20e-03,8.00e-02,
570,-2.40e-03,8.00e-02,
571,2.80e-03,6.00e-02,
572,4.00e-03,6.00e-02,
573,-4.40e-03,8.00e-02,
574,6.40e-03,8.00e-02,
575,-6.00e-03,6.00e-02,
576,-5.60e-03,8.00e-02,
577,5.20e-03,6.00e-02,
578,3.60e-03,6.00e-02,
579,-2.40e-03,8.00e-02,
580,-1.20e-03,8.00e-02,
581,2.40e-03,4.00e-02,
582,2.00e-03,8.00e-02,
583,-4.00e-04,6.00e-02,
584,2.00e-03,6.00e-02,
585,-8.00e-04,8.00e-02,
586,-8.00e-04,8.00e-02,
587,1.60e-03,2.00e-02,
588,-8.00e-04,8.00e-02,
589,1.20e-03,2.00e-02,
590,-1.20e-03,8.00e-02,
591,2.40e-03,4.00e-02,
592,-3.20e-03,8.00e-02,
593,3.20e-03,2.00e-02,
594,3.20e-03,2.00e-02,
595,7.20e-03,1.74e+00,
596,5.60e-03,1.60e-01,
597,-4.00e-04,1.20e-01,
598,4.80e-03,1.40e-01,
599,-8.00e-04,8.00e-02,
600,-1.20e-03,8.00e-02,
601,2.00e-03,1.00e-01,
602,2.40e-03,1.00e-01,
603,-8.00e-04,6.00e-02,
604,-8.00e-04,1.00e-01,
605,1.60e-03,6.00e-02,
606,-4.00e-04,6.00e-02,
607,2.00e-03,8.00e-02,
608,1.20e-03,6.00e-02,
609,-1.60e-03,8.00e-02,
610,-2.80e-03,6.00e-02,
611,3.60e-03,8.00e-02,
612,4.80e-03,8.00e-02,
613,-4.00e-03,6.00e-02,
614,6.40e-03,6.00e-02,
615,-5.60e-03,8.00e-02,
616,-5.20e-03,6.00e-02,
617,5.20e-03,8.00e-02,
618,3.20e-03,6.00e-02,
619,-1.60e-03,8.00e-02,
620,-1.20e-03,6.00e-02,
621,2.00e-03,8.00e-02,
622,1.20e-03,6.00e-02,
623,-8.00e-04,8.00e-02,
624,-8.00e-04,6.00e-02,
625,1.20e-03,8.00e-02,
626,1.20e-03,6.00e-02,
627,-8.00e-04,8.00e-02,
628,-1.20e-03,8.00e-02,
629,2.00e-03,2.00e-02,
630,-1.60e-03,8.00e-02,
631,2.40e-03,4.00e-02,
632,2.80e-03,8.00e-02,
633,-4.00e-03,2.00e-02,
634,2.80e-03,2.00e-02,
635,8.00e-03,2.00e+00,
636,5.60e-03,1.60e-01,
637,-8.00e-04,1.20e-01,
638,4.00e-03,8.00e-02,
639,-1.60e-03,1.40e-01,
640,-8.00e-04,8.00e-02,
641,2.40e-03,1.00e-01,
642,2.40e-03,1.00e-01,
643,-8.00e-04,6.00e-02,
644,-1.20e-03,1.00e-01,
645,1.20e-03,6.00e-02,
646,-8.00e-04,6.00e-02,
647,1.60e-03,8.00e-02,
648,2.00e-03,6.00e-02,
649,-8.00e-04,8.00e-02,
650,-1.20e-03,6.00e-02,
651,3.20e-03,8.00e-02,
652,3.60e-03,6.00e-02,
653,-4.00e-03,8.00e-02,
654,-5.20e-03,6.00e-02,
655,5.60e-03,8.00e-02,
656,-4.00e-03,8.00e-02,
657,4.00e-03,6.00e-02,
658,2.80e-03,6.00e-02,
659,-2.40e-03,8.00e-02,
660,2.00e-03,6.00e-02,
661,-1.20e-03,8.00e-02,
662,1.60e-03,8.00e-02,
663,0.00e+00,4.00e-02,
664,-8.00e-04,6.00e-02,
665,1.20e-03,8.00e-02,
666,2.00e-03,8.00e-02,
667,-1.20e-03,4.00e-02,
668,1.20e-03,8.00e-02,
669,-8.00e-04,2.00e-02,
670,2.00e-03,8.00e-02,
671,-1.60e-03,2.00e-02,
672,4.00e-03,8.00e-02,
673,-3.60e-03,2.00e-02,
674,2.80e-03,2.00e-02,
675,7.20e-03,1.76e+00,
676,5.60e-03,1.60e-01,
677,-8.00e-04,1.20e-01,
678,4.00e-03,1.40e-01,
679,-1.60e-03,8.00e-02,
680,-1.20e-03,1.00e-01,
681,2.40e-03,8.00e-02,
682,2.00e-03,1.00e-01,
683,-1.20e-03,6.00e-02,
684,-8.00e-04,1.00e-01,
685,2.00e-03,6.00e-02,
686,1.20e-03,6.00e-02,
687,-8.00e-04,8.00e-02,
688,2.00e-03,6.00e-02,
689,-1.20e-03,8.00e-02,
690,-1.60e-03,6.00e-02,
691,2.40e-03,8.00e-02,
692,3.20e-03,6.00e-02,
693,-2.80e-03,8.00e-02,
694,-4.00e-03,6.00e-02,
695,5.60e-03,8.00e-02,
696,-4.00e-03,6.00e-02,
697,4.00e-03,8.00e-02,
698,3.60e-03,6.00e-02,
699,-1.60e-03,8.00e-02,
700,-1.60e-03,6.00e-02,
701,1.20e-03,8.00e-02,
702,1.20e-03,6.00e-02,
703,0.00e+00,8.00e-02,
704,-8.00e-04,6.00e-02,
705,1.20e-03,8.00e-02,
706,-8.00e-04,8.00e-02,
707,2.40e-03,2.00e-02,
708,1.60e-03,2.00e-02,
709,-1.20e-03,8.00e-02,
710,-2.00e-03,8.00e-02,
711,2.40e-03,4.00e-02,
712,4.00e-03,8.00e-02,
713,-3.20e-03,2.00e-02,
714,3.60e-03,2.00e-02,
715,8.00e-03,1.80e+00,
716,6.40e-03,1.80e-01,
717,-4.00e-04,1.20e-01,
718,4.40e-03,1.40e-01,
719,-1.60e-03,8.00e-02,
720,-1.20e-03,1.00e-01,
721,2.40e-03,8.00e-02,
722,-8.00e-04,1.00e-01,
723,2.80e-03,6.00e-02,
724,0.00e+00,1.00e-01,
725,2.00e-03,6.00e-02,
726,1.20e-03,6.00e-02,
727,-8.00e-04,8.00e-02,
728,1.20e-03,6.00e-02,
729,-8.00e-04,8.00e-02,
730,-1.60e-03,8.00e-02,
731,2.40e-03,6.00e-02,
732,2.80e-03,6.00e-02,
733,-3.60e-03,8.00e-02,
734,5.20e-03,8.00e-02,
735,-4.40e-03,6.00e-02,
736,-4.00e-03,8.00e-02,
737,3.60e-03,6.00e-02,
738,2.40e-03,6.00e-02,
739,-8.00e-04,8.00e-02,
740,-8.00e-04,6.00e-02,
741,2.00e-03,8.00e-02,
742,0.00e+00,8.00e-02,
743,2.00e-03,4.00e-02,
744,-8.00e-04,2.00e-02,
745,1.20e-03,8.00e-02,
746,-1.20e-03,8.00e-02,
747,2.00e-03,2.00e-02,
748,-1.20e-03,8.00e-02,
749,2.00e-03,2.00e-02,
750,-1.20e-03,8.00e-02,
751,2.80e-03,2.00e-02,
752,4.40e-03,8.00e-02,
753,-3.60e-03,2.00e-02,
754,2.00e-03,2.00e-02,
755,7.60e-03,1.80e+00,
756,5.60e-03,1.60e-01,
757,-4.00e-04,1.20e-01,
758,5.20e-03,8.00e-02,
759,-1.60e-03,1.40e-01,
760,-1.60e-03,1.00e-01,
761,2.00e-03,8.00e-02,
762,2.40e-03,1.00e-01,
763,-8.00e-04,6.00e-02,
764,2.00e-03,6.00e-02,
765,-8.00e-04,1.00e-01,
766,1.20e-03,6.00e-02,
767,-8.00e-04,8.00e-02,
768,2.00e-03,6.00e-02,
769,-8.00e-04,8.00e-02,
770,-1.20e-03,8.00e-02,
771,2.40e-03,6.00e-02,
772,3.20e-03,8.00e-02,
773,-2.80e-03,6.00e-02,
774,4.00e-03,6.00e-02,
775,-4.00e-03,8.00e-02,
776,-3.20e-03,6.00e-02,
777,3.20e-03,8.00e-02,
778,-1.20e-03,6.00e-02,
779,2.80e-03,8.00e-02,
780,2.00e-03,6.00e-02,
781,-8.00e-04,8.00e-02,
782,-8.00e-04,8.00e-02,
783,2.00e-03,6.00e-02,
784,-8.00e-04,6.00e-02,
785,1.20e-03,8.00e-02,
786,-1.20e-03,4.00e-02,
787,2.00e-03,8.00e-02,
788,-1.20e-03,8.00e-02,
789,2.40e-03,2.00e-02,
790,-1.20e-03,8.00e-02,
791,2.40e-03,2.00e-02,
792,4.00e-03,8.00e-02,
793,-4.00e-03,2.00e-02,
794,2.00e-03,2.00e-02,
795,8.00e-03,2.00e+00,
796,6.40e-03,1.60e-01,
797,4.00e-04,1.20e-01,
798,5.20e-03,1.40e-01,
799,-1.20e-03,8.00e-02,
800,-1.20e-03,1.00e-01,
801,2.40e-03,8.00e-02,
802,-1.20e-03,1.00e-01,
803,2.40e-03,8.00e-02,
804,-8.00e-04,1.00e-01,
805,2.00e-03,6.00e-02,
806,0.00e+00,6.00e-02,
807,2.00e-03,1.00e-01,
808,-8.00e-04,8.00e-02,
809,1.20e-03,6.00e-02,
810,-1.20e-03,6.00e-02,
811,2.00e-03,8.00e-02,
812,2.80e-03,6.00e-02,
813,-2.80e-03,8.00e-02,
814,4.00e-03,6.00e-02,
815,-3.60e-03,8.00e-02,
816,-2.80e-03,6.00e-02,
817,3.20e-03,8.00e-02,
818,2.40e-03,8.00e-02,
819,-1.20e-03,6.00e-02,
820,-8.00e-04,6.00e-02,
821,2.00e-03,8.00e-02,
822,1.20e-03,6.00e-02,
823,-8.00e-04,8.00e-02,
824,-8.00e-04,8.00e-02,
825,1.20e-03,6.00e-02,
826,-8.00e-04,6.00e-02,
827,2.40e-03,8.00e-02,
828,-8.00e-04,6.00e-02,
829,2.00e-03,8.00e-02,
830,2.40e-03,8.00e-02,
831,-1.60e-03,4.00e-02,
832,3.60e-03,8.00e-02,
833,-4.40e-03,2.00e-02,
834,2.00e-03,2.00e-02,
835,7.20e-03,1.76e+00,
836,5.60e-03,1.60e-01,
837,0.00e+00,1.20e-01,
838,5.20e-03,1.40e-01,
839,-1.60e-03,8.00e-02,
840,-1.60e-03,8.00e-02,
841,2.40e-03,1.00e-01,
842,2.40e-03,1.00e-01,
843,-1.20e-03,6.00e-02,
844,-8.00e-04,1.00e-01,
845,2.00e-03,6.00e-02,
846,0.00e+00,8.00e-02,
847,1.20e-03,6.00e-02,
848,2.00e-03,6.00e-02,
849,-8.00e-04,8.00e-02,
850,2.40e-03,6.00e-02,
851,-8.00e-04,8.00e-02,
852,2.80e-03,6.00e-02,
853,-2.40e-03,8.00e-02,
854,-3.20e-03,8.00e-02,
