CarrPurc_P1-19_P2-38_tauVary/Gly95/NewFile4.csv

X,CH1,CH2,Start,Increment,
Sequence,Volt,Volt,-6.000000e-04,1.000000e-04
0,8.00e-04,4.00e-02,
1,0.00e+00,2.00e-02,
2,0.00e+00,4.00e-02,
3,8.00e-04,2.00e-02,
4,0.00e+00,4.00e-02,
5,8.00e-04,2.00e-02,
6,-8.00e-04,2.00e-02,
7,8.00e-04,4.00e-02,
8,8.00e-04,4.00e-02,
9,-8.00e-04,2.00e-02,
10,0.00e+00,2.00e-02,
11,5.20e-03,1.88e+00,
12,4.00e-03,1.60e-01,
13,-2.76e-02,1.20e-01,
14,-1.64e-02,1.20e-01,
15,1.44e-02,8.00e-02,
16,8.00e-03,8.00e-02,
17,-7.60e-03,1.00e-01,
18,3.60e-03,1.00e-01,
19,-2.40e-03,6.00e-02,
20,3.20e-03,6.00e-02,
21,-2.00e-03,1.00e-01,
22,2.80e-03,6.00e-02,
23,-2.40e-03,8.00e-02,
24,-1.60e-03,8.00e-02,
25,2.40e-03,6.00e-02,
26,2.00e-03,6.00e-02,
27,-8.00e-04,8.00e-02,
28,-1.20e-03,6.00e-02,
29,1.20e-03,8.00e-02,
30,8.00e-04,1.88e+00,
31,7.20e-03,2.00e-02,
32,4.40e-03,1.60e-01,
33,-7.60e-03,8.00e-02,
34,-8.40e-03,1.20e-01,
35,6.40e-03,8.00e-02,
36,3.60e-03,1.00e-01,
37,-1.60e-03,8.00e-02,
38,-4.00e-04,1.00e-01,
39,2.00e-03,6.00e-02,
40,2.40e-03,1.00e-01,
41,-1.20e-03,6.00e-02,
42,2.00e-03,6.00e-02,
43,-1.20e-03,8.00e-02,
44,-3.60e-03,6.00e-02,
45,5.20e-03,8.00e-02,
46,8.80e-03,6.00e-02,
47,-8.80e-03,8.00e-02,
48,-1.48e-02,8.00e-02,
49,1.68e-02,6.00e-02,
50,-2.00e-02,6.00e-02,
51,2.08e-02,8.00e-02,
52,-1.88e-02,6.00e-02,
53,1.72e-02,8.00e-02,
54,1.12e-02,8.00e-02,
55,-7.20e-03,4.00e-02,
56,-5.20e-03,4.00e-02,
57,4.80e-03,8.00e-02,
58,2.80e-03,8.00e-02,
59,-8.00e-04,2.00e-02,
60,2.00e-03,2.00e-02,
61,-8.00e-04,8.00e-02,
62,-8.00e-04,8.00e-02,
63,1.60e-03,2.00e-02,
64,2.00e-03,8.00e-02,
65,-8.00e-04,2.00e-02,
66,8.00e-04,2.00e-02,
67,-1.20e-03,8.00e-02,
68,0.00e+00,2.00e-02,
69,1.20e-03,8.00e-02,
70,4.00e-04,2.00e-02,
71,6.80e-03,1.88e+00,
72,4.00e-03,1.60e-01,
73,-4.00e-04,1.20e-01,
74,2.00e-03,8.00e-02,
75,-4.00e-04,1.40e-01,
76,2.00e-03,1.00e-01,
77,-8.00e-04,6.00e-02,
78,1.20e-03,1.00e-01,
79,-8.00e-04,6.00e-02,
80,-8.00e-04,8.00e-02,
81,1.20e-03,6.00e-02,
82,2.00e-03,8.00e-02,
83,-1.20e-03,6.00e-02,
84,-3.20e-03,8.00e-02,
85,4.40e-03,6.00e-02,
86,-5.20e-03,6.00e-02,
87,8.00e-03,8.00e-02,
88,1.12e-02,8.00e-02,
89,-1.32e-02,6.00e-02,
90,-1.72e-02,6.00e-02,
91,1.64e-02,8.00e-02,
92,-1.32e-02,6.00e-02,
93,1.16e-02,8.00e-02,
94,8.00e-03,6.00e-02,
95,-5.20e-03,8.00e-02,
96,-3.60e-03,6.00e-02,
97,2.80e-03,8.00e-02,
98,2.40e-03,6.00e-02,
99,-1.60e-03,8.00e-02,
100,-8.00e-04,8.00e-02,
101,2.40e-03,4.00e-02,
102,2.00e-03,8.00e-02,
103,-4.00e-04,2.00e-02,
104,-4.00e-04,8.00e-02,
105,2.00e-03,2.00e-02,
106,2.80e-03,2.00e-02,
107,-1.60e-03,8.00e-02,
108,-3.20e-03,8.00e-02,
109,4.40e-03,2.00e-02,
110,2.00e-03,2.00e-02,
111,7.20e-03,1.90e+00,
112,4.00e-03,1.60e-01,
113,-8.00e-04,1.20e-01,
114,2.40e-03,1.40e-01,
115,-1.20e-03,8.00e-02,
116,1.20e-03,1.00e-01,
117,-8.00e-04,8.00e-02,
118,-8.00e-04,1.00e-01,
119,2.40e-03,6.00e-02,
120,-8.00e-04,6.00e-02,
121,2.00e-03,1.00e-01,
122,2.00e-03,6.00e-02,
123,-8.00e-04,8.00e-02,
124,2.80e-03,6.00e-02,
125,-3.20e-03,8.00e-02,
126,-4.80e-03,8.00e-02,
127,7.20e-03,6.00e-02,
128,1.08e-02,6.00e-02,
129,-1.28e-02,8.00e-02,
130,1.52e-02,6.00e-02,
131,-1.56e-02,8.00e-02,
132,-1.24e-02,6.00e-02,
133,1.04e-02,8.00e-02,
134,7.20e-03,6.00e-02,
135,-4.40e-03,8.00e-02,
136,-2.80e-03,6.00e-02,
137,3.60e-03,8.00e-02,
138,2.00e-03,8.00e-02,
139,-8.00e-04,2.00e-02,
140,-8.00e-04,8.00e-02,
141,2.40e-03,2.00e-02,
142,0.00e+00,8.00e-02,
143,2.00e-03,4.00e-02,
144,-4.00e-04,8.00e-02,
145,2.00e-03,2.00e-02,
146,2.40e-03,8.00e-02,
147,-1.60e-03,2.00e-02,
148,-3.60e-03,2.00e-02,
149,4.00e-03,8.00e-02,
150,3.20e-03,2.00e-02,
151,7.20e-03,1.96e+00,
152,4.80e-03,1.60e-01,
153,-1.60e-03,8.00e-02,
154,-1.60e-03,8.00e-02,
155,2.40e-03,1.40e-01,
156,1.20e-03,8.00e-02,
157,-8.00e-04,1.00e-01,
158,-8.00e-04,1.00e-01,
159,2.40e-03,6.00e-02,
160,-8.00e-04,6.00e-02,
161,2.40e-03,8.00e-02,
162,2.00e-03,6.00e-02,
163,-8.00e-04,8.00e-02,
164,2.40e-03,6.00e-02,
165,-2.40e-03,8.00e-02,
166,-3.20e-03,6.00e-02,
167,5.60e-03,8.00e-02,
168,7.20e-03,6.00e-02,
169,-8.40e-03,8.00e-02,
170,-1.20e-02,8.00e-02,
171,1.28e-02,6.00e-02,
172,-9.60e-03,6.00e-02,
173,1.04e-02,8.00e-02,
174,6.80e-03,6.00e-02,
175,-4.40e-03,8.00e-02,
176,-2.80e-03,8.00e-02,
177,2.40e-03,6.00e-02,
178,-8.00e-04,8.00e-02,
179,2.00e-03,2.00e-02,
180,0.00e+00,8.00e-02,
181,1.20e-03,2.00e-02,
182,1.20e-03,8.00e-02,
183,0.00e+00,2.00e-02,
184,-4.00e-04,8.00e-02,
185,1.20e-03,2.00e-02,
186,1.20e-03,8.00e-02,
187,-1.20e-03,4.00e-02,
188,-1.60e-03,8.00e-02,
189,2.80e-03,2.00e-02,
190,2.80e-03,2.00e-02,
191,7.20e-03,2.00e+00,
192,4.40e-03,1.60e-01,
193,-4.00e-04,1.20e-01,
194,-8.00e-04,8.00e-02,
195,2.40e-03,1.40e-01,
196,0.00e+00,1.00e-01,
197,2.00e-03,8.00e-02,
198,2.00e-03,1.00e-01,
199,-8.00e-04,6.00e-02,
200,-8.00e-04,1.00e-01,
201,2.00e-03,6.00e-02,
202,1.20e-03,6.00e-02,
203,-8.00e-04,8.00e-02,
204,-2.80e-03,6.00e-02,
205,2.40e-03,8.00e-02,
206,-4.00e-03,6.00e-02,
207,5.20e-03,8.00e-02,
208,8.00e-03,8.00e-02,
209,-8.00e-03,6.00e-02,
210,-1.00e-02,6.00e-02,
211,1.16e-02,8.00e-02,
212,-9.20e-03,6.00e-02,
213,8.00e-03,8.00e-02,
214,5.20e-03,6.00e-02,
215,-3.60e-03,8.00e-02,
216,-2.40e-03,6.00e-02,
217,2.40e-03,8.00e-02,
218,2.00e-03,8.00e-02,
219,-8.00e-04,4.00e-02,
220,-8.00e-04,8.00e-02,
221,1.60e-03,2.00e-02,
222,2.00e-03,8.00e-02,
223,-8.00e-04,4.00e-02,
224,-1.20e-03,8.00e-02,
225,1.20e-03,2.00e-02,
226,-8.00e-04,8.00e-02,
227,1.60e-03,2.00e-02,
228,-1.20e-03,8.00e-02,
229,3.60e-03,2.00e-02,
230,3.20e-03,2.00e-02,
231,7.20e-03,1.80e+00,
232,4.80e-03,1.60e-01,
233,0.00e+00,1.20e-01,
234,2.80e-03,1.40e-01,
235,-8.00e-04,8.00e-02,
236,0.00e+00,1.00e-01,
237,2.00e-03,8.00e-02,
238,2.00e-03,1.00e-01,
239,0.00e+00,6.00e-02,
240,-8.00e-04,1.00e-01,
241,1.20e-03,6.00e-02,
242,1.20e-03,6.00e-02,
243,-8.00e-04,8.00e-02,
244,2.40e-03,6.00e-02,
245,-1.60e-03,8.00e-02,
246,-3.20e-03,6.00e-02,
247,4.00e-03,8.00e-02,
248,7.60e-03,8.00e-02,
249,-7.20e-03,6.00e-02,
250,-1.00e-02,8.00e-02,
251,1.08e-02,6.00e-02,
252,-8.40e-03,6.00e-02,
253,8.00e-03,8.00e-02,
254,5.20e-03,8.00e-02,
255,-3.20e-03,6.00e-02,
256,-1.60e-03,8.00e-02,
257,2.40e-03,4.00e-02,
258,2.00e-03,8.00e-02,
259,-8.00e-04,2.00e-02,
260,1.20e-03,8.00e-02,
261,-1.20e-03,2.00e-02,
262,1.20e-03,8.00e-02,
263,-8.00e-04,2.00e-02,
264,-8.00e-04,2.00e-02,
265,1.20e-03,8.00e-02,
266,2.40e-03,2.00e-02,
267,-8.00e-04,8.00e-02,
268,-2.40e-03,2.00e-02,
269,2.80e-03,8.00e-02,
270,2.80e-03,2.00e-02,
271,7.20e-03,1.96e+00,
272,4.00e-03,1.60e-01,
273,-8.00e-04,1.20e-01,
274,3.20e-03,1.40e-01,
275,-8.00e-04,8.00e-02,
276,2.00e-03,8.00e-02,
277,-8.00e-04,1.00e-01,
278,2.00e-03,8.00e-02,
279,-1.20e-03,1.00e-01,
280,-1.20e-03,1.00e-01,
281,1.20e-03,6.00e-02,
282,2.00e-03,6.00e-02,
283,0.00e+00,8.00e-02,
284,2.40e-03,6.00e-02,
285,-1.20e-03,8.00e-02,
286,-2.80e-03,6.00e-02,
287,4.00e-03,8.00e-02,
288,5.60e-03,6.00e-02,
289,-6.80e-03,8.00e-02,
290,-8.40e-03,6.00e-02,
291,1.00e-02,8.00e-02,
292,-7.20e-03,8.00e-02,
293,7.20e-03,6.00e-02,
294,4.00e-03,6.00e-02,
295,-3.20e-03,8.00e-02,
296,-1.60e-03,8.00e-02,
297,2.40e-03,6.00e-02,
298,2.00e-03,8.00e-02,
299,-8.00e-04,6.00e-02,
300,-8.00e-04,8.00e-02,
301,1.20e-03,6.00e-02,
302,1.20e-03,8.00e-02,
303,-8.00e-04,2.00e-02,
304,-4.00e-04,8.00e-02,
305,1.20e-03,4.00e-02,
306,-8.00e-04,8.00e-02,
307,2.00e-03,4.00e-02,
308,3.20e-03,8.00e-02,
309,-2.40e-03,4.00e-02,
310,2.00e-03,1.98e+00,
311,7.60e-03,0.00e+00,
312,4.40e-03,1.60e-01,
313,-8.00e-04,1.20e-01,
314,2.80e-03,1.20e-01,
315,-8.00e-04,8.00e-02,
316,2.00e-03,1.00e-01,
317,-8.00e-04,8.00e-02,
318,2.40e-03,1.00e-01,
319,-8.00e-04,6.00e-02,
320,1.20e-03,1.00e-01,
321,-8.00e-04,6.00e-02,
322,-8.00e-04,6.00e-02,
323,2.00e-03,8.00e-02,
324,2.00e-03,8.00e-02,
325,-1.60e-03,6.00e-02,
326,-2.80e-03,6.00e-02,
327,4.00e-03,8.00e-02,
328,5.60e-03,6.00e-02,
329,-6.40e-03,8.00e-02,
330,8.00e-03,6.00e-02,
331,-8.40e-03,8.00e-02,
332,-6.00e-03,8.00e-02,
333,5.60e-03,6.00e-02,
334,4.00e-03,6.00e-02,
335,-2.40e-03,8.00e-02,
336,-1.60e-03,8.00e-02,
337,1.20e-03,4.00e-02,
338,1.60e-03,8.00e-02,
339,-8.00e-04,6.00e-02,
340,-4.00e-04,8.00e-02,
341,1.20e-03,2.00e-02,
342,1.20e-03,8.00e-02,
343,-8.00e-04,2.00e-02,
344,-8.00e-04,8.00e-02,
345,2.00e-03,2.00e-02,
346,2.00e-03,2.00e-02,
347,-1.20e-03,8.00e-02,
348,2.80e-03,2.00e-02,
349,-2.40e-03,8.00e-02,
350,2.80e-03,2.00e-02,
351,7.20e-03,1.66e+00,
352,4.00e-03,1.60e-01,
353,-8.00e-04,1.20e-01,
354,3.20e-03,1.40e-01,
355,-1.60e-03,8.00e-02,
356,-8.00e-04,8.00e-02,
357,2.40e-03,1.00e-01,
358,2.00e-03,6.00e-02,
359,-8.00e-04,1.00e-01,
360,-8.00e-04,6.00e-02,
361,1.20e-03,8.00e-02,
362,1.20e-03,6.00e-02,
363,-8.00e-04,8.00e-02,
364,1.20e-03,8.00e-02,
365,-1.60e-03,6.00e-02,
366,-2.40e-03,6.00e-02,
367,3.60e-03,8.00e-02,
368,5.20e-03,6.00e-02,
369,-5.20e-03,8.00e-02,
370,-7.20e-03,6.00e-02,
371,7.60e-03,8.00e-02,
372,-5.60e-03,6.00e-02,
373,5.20e-03,8.00e-02,
374,4.00e-03,6.00e-02,
375,-1.60e-03,8.00e-02,
376,-1.20e-03,8.00e-02,
377,1.60e-03,4.00e-02,
378,1.20e-03,8.00e-02,
379,-4.00e-04,6.00e-02,
380,-8.00e-04,8.00e-02,
381,1.60e-03,2.00e-02,
382,-8.00e-04,8.00e-02,
383,2.00e-03,2.00e-02,
384,2.00e-03,2.00e-02,
385,-8.00e-04,8.00e-02,
386,2.00e-03,8.00e-02,
387,-1.20e-03,2.00e-02,
388,2.80e-03,8.00e-02,
389,-3.20e-03,2.00e-02,
390,2.80e-03,2.00e-02,
391,7.60e-03,1.88e+00,
392,4.80e-03,1.60e-01,
393,-8.00e-04,1.20e-01,
394,3.60e-03,8.00e-02,
395,-1.60e-03,1.40e-01,
396,2.00e-03,1.00e-01,
397,-1.20e-03,8.00e-02,
398,2.00e-03,1.00e-01,
399,-8.00e-04,6.00e-02,
400,-8.00e-04,1.00e-01,
401,2.00e-03,6.00e-02,
402,2.00e-03,8.00e-02,
403,0.00e+00,6.00e-02,
404,1.20e-03,6.00e-02,
405,-1.20e-03,8.00e-02,
406,-1.60e-03,6.00e-02,
407,2.80e-03,8.00e-02,
408,4.80e-03,6.00e-02,
409,-4.40e-03,8.00e-02,
410,-5.60e-03,6.00e-02,
411,6.80e-03,8.00e-02,
412,-4.80e-03,8.00e-02,
413,5.20e-03,6.00e-02,
414,2.80e-03,6.00e-02,
415,-2.40e-03,8.00e-02,
416,-1.20e-03,6.00e-02,
417,2.40e-03,8.00e-02,
418,1.20e-03,8.00e-02,
419,-1.20e-03,2.00e-02,
420,1.20e-03,8.00e-02,
421,-8.00e-04,2.00e-02,
422,0.00e+00,8.00e-02,
423,1.60e-03,2.00e-02,
424,1.20e-03,8.00e-02,
425,-8.00e-04,2.00e-02,
426,-8.00e-04,8.00e-02,
427,2.00e-03,2.00e-02,
428,2.80e-03,8.00e-02,
429,-3.20e-03,2.00e-02,
430,2.00e-03,1.86e+00,
431,7.20e-03,-2.00e-02,
432,4.40e-03,1.60e-01,
433,-8.00e-04,1.20e-01,
434,3.60e-03,1.20e-01,
435,-1.60e-03,8.00e-02,
436,-8.00e-04,1.00e-01,
437,2.40e-03,8.00e-02,
438,2.40e-03,1.00e-01,
439,-8.00e-04,6.00e-02,
440,-8.00e-04,6.00e-02,
441,2.00e-03,1.00e-01,
442,1.20e-03,6.00e-02,
443,0.00e+00,8.00e-02,
444,1.20e-03,8.00e-02,
445,-1.20e-03,6.00e-02,
446,-1.60e-03,6.00e-02,
447,2.80e-03,8.00e-02,
448,4.00e-03,6.00e-02,
449,-4.40e-03,8.00e-02,
450,-5.60e-03,6.00e-02,
451,6.00e-03,8.00e-02,
452,-4.00e-03,8.00e-02,
453,4.80e-03,6.00e-02,
454,2.80e-03,6.00e-02,
455,-2.40e-03,8.00e-02,
456,-1.20e-03,8.00e-02,
457,2.00e-03,6.00e-02,
458,0.00e+00,2.00e-02,
459,2.00e-03,8.00e-02,
460,-8.00e-04,6.00e-02,
461,8.00e-04,8.00e-02,
462,1.20e-03,2.00e-02,
463,-1.20e-03,8.00e-02,
464,1.60e-03,8.00e-02,
465,-1.20e-03,2.00e-02,
466,2.40e-03,2.00e-02,
467,-1.20e-03,8.00e-02,
468,2.80e-03,8.00e-02,
469,-2.80e-03,2.00e-02,
470,3.20e-03,4.00e-02,
471,8.00e-03,1.70e+00,
472,4.40e-03,1.60e-01,
473,-1.20e-03,1.20e-01,
474,4.00e-03,1.40e-01,
475,-1.20e-03,8.00e-02,
476,-1.20e-03,1.00e-01,
477,2.40e-03,8.00e-02,
478,2.00e-03,1.00e-01,
479,-4.00e-04,6.00e-02,
480,-8.00e-04,1.00e-01,
481,2.40e-03,6.00e-02,
482,1.20e-03,6.00e-02,
483,-8.00e-04,8.00e-02,
484,-8.00e-04,8.00e-02,
485,2.00e-03,6.00e-02,
486,2.40e-03,6.00e-02,
487,-1.60e-03,8.00e-02,
488,3.60e-03,8.00e-02,
489,-4.40e-03,6.00e-02,
490,5.60e-03,6.00e-02,
491,-5.20e-03,8.00e-02,
492,-4.40e-03,6.00e-02,
493,3.60e-03,8.00e-02,
494,2.40e-03,6.00e-02,
495,-1.60e-03,8.00e-02,
496,-8.00e-04,6.00e-02,
497,2.00e-03,8.00e-02,
498,1.20e-03,8.00e-02,
499,0.00e+00,4.00e-02,
500,1.20e-03,8.00e-02,
501,-8.00e-04,2.00e-02,
502,1.20e-03,8.00e-02,
503,-8.00e-04,2.00e-02,
504,-8.00e-04,8.00e-02,
505,1.20e-03,2.00e-02,
506,-1.20e-03,8.00e-02,
507,2.40e-03,2.00e-02,
508,3.60e-03,8.00e-02,
509,-2.80e-03,2.00e-02,
510,2.80e-03,4.00e-02,
511,7.20e-03,1.88e+00,
512,4.00e-03,1.60e-01,
513,-4.00e-04,1.20e-01,
514,4.00e-03,1.40e-01,
515,-1.60e-03,8.00e-02,
516,-1.20e-03,1.00e-01,
517,2.40e-03,8.00e-02,
518,2.00e-03,1.00e-01,
519,-8.00e-04,6.00e-02,
520,-8.00e-04,1.00e-01,
521,1.60e-03,6.00e-02,
522,2.00e-03,6.00e-02,
523,0.00e+00,8.00e-02,
524,2.00e-03,6.00e-02,
525,-8.00e-04,8.00e-02,
526,-1.20e-03,6.00e-02,
527,2.80e-03,8.00e-02,
528,2.80e-03,6.00e-02,
529,-3.60e-03,8.00e-02,
530,5.20e-03,6.00e-02,
531,-4.40e-03,8.00e-02,
532,-4.00e-03,8.00e-02,
533,4.00e-03,6.00e-02,
534,2.80e-03,8.00e-02,
535,-1.60e-03,6.00e-02,
536,-1.20e-03,6.00e-02,
537,1.20e-03,8.00e-02,
538,1.60e-03,8.00e-02,
539,-8.00e-04,6.00e-02,
540,8.00e-04,6.00e-02,
541,-1.20e-03,8.00e-02,
542,-1.20e-03,8.00e-02,
543,1.20e-03,2.00e-02,
544,-1.20e-03,8.00e-02,
545,1.20e-03,4.00e-02,
546,-1.60e-03,8.00e-02,
547,2.00e-03,2.00e-02,
548,2.80e-03,8.00e-02,
549,-3.20e-03,2.00e-02,
550,2.40e-03,1.84e+00,
551,8.00e-03,-2.00e-02,
552,4.80e-03,1.60e-01,
553,-4.00e-04,1.20e-01,
554,4.00e-03,1.40e-01,
555,-1.20e-03,8.00e-02,
556,-8.00e-04,8.00e-02,
557,2.40e-03,1.00e-01,
558,1.60e-03,1.00e-01,
559,-8.00e-04,6.00e-02,
560,-1.20e-03,1.00e-01,
561,2.00e-03,6.00e-02,
562,2.00e-03,6.00e-02,
563,-8.00e-04,8.00e-02,
564,-8.00e-04,6.00e-02,
565,2.00e-03,8.00e-02,
566,-1.60e-03,6.00e-02,
567,2.40e-03,8.00e-02,
568,3.60e-03,6.00e-02,
569,-2.80e-03,8.00e-02,
570,4.80e-03,8.00e-02,
571,-4.00e-03,6.00e-02,
572,-2.80e-03,6.00e-02,
573,2.80e-03,8.00e-02,
574,2.40e-03,8.00e-02,
575,-8.00e-04,6.00e-02,
576,1.20e-03,8.00e-02,
577,-4.00e-04,6.00e-02,
578,1.20e-03,6.00e-02,
579,0.00e+00,8.00e-02,
580,-8.00e-04,4.00e-02,
581,1.20e-03,8.00e-02,
582,1.20e-03,8.00e-02,
583,-8.00e-04,2.00e-02,
584,-1.20e-03,8.00e-02,
585,1.20e-03,2.00e-02,
586,2.00e-03,8.00e-02,
587,-1.20e-03,4.00e-02,
588,3.20e-03,8.00e-02,
589,-3.20e-03,2.00e-02,
590,1.60e-03,4.00e-02,
591,7.20e-03,2.00e+00,
592,4.80e-03,1.60e-01,
593,-8.00e-04,1.20e-01,
594,4.00e-03,1.40e-01,
595,-1.60e-03,8.00e-02,
596,-1.60e-03,1.00e-01,
597,1.60e-03,8.00e-02,
598,2.00e-03,1.00e-01,
599,-8.00e-04,6.00e-02,
600,-8.00e-04,6.00e-02,
601,1.20e-03,1.00e-01,
602,1.20e-03,8.00e-02,
603,0.00e+00,6.00e-02,
604,1.20e-03,6.00e-02,
605,-4.00e-04,8.00e-02,
606,-1.20e-03,6.00e-02,
607,2.40e-03,8.00e-02,
608,2.80e-03,6.00e-02,
609,-2.40e-03,8.00e-02,
610,4.00e-03,6.00e-02,
611,-3.20e-03,8.00e-02,
612,-2.80e-03,8.00e-02,
613,2.40e-03,6.00e-02,
614,2.40e-03,6.00e-02,
615,-1.20e-03,8.00e-02,
616,-1.20e-03,6.00e-02,
617,1.20e-03,8.00e-02,
618,0.00e+00,6.00e-02,
619,1.20e-03,8.00e-02,
620,1.20e-03,8.00e-02,
621,-8.00e-04,4.00e-02,
622,1.20e-03,8.00e-02,
623,-8.00e-04,4.00e-02,
624,2.00e-03,8.00e-02,
625,-1.20e-03,2.00e-02,
626,-8.00e-04,2.00e-02,
627,3.20e-03,8.00e-02,
628,4.80e-03,8.00e-02,
629,-4.00e-03,2.00e-02,
630,1.60e-03,2.00e-02,
631,8.00e-03,1.78e+00,
632,4.80e-03,1.60e-01,
633,-8.00e-04,1.20e-01,
634,5.20e-03,8.00e-02,
635,-1.20e-03,1.40e-01,
636,2.40e-03,1.00e-01,
637,-1.20e-03,6.00e-02,
638,2.40e-03,1.00e-01,
639,-1.20e-03,6.00e-02,
640,1.20e-03,1.00e-01,
641,-1.20e-03,6.00e-02,
642,0.00e+00,6.00e-02,
643,1.20e-03,8.00e-02,
644,-8.00e-04,6.00e-02,
645,2.00e-03,8.00e-02,
646,-1.20e-03,6.00e-02,
647,1.60e-03,8.00e-02,
648,2.80e-03,6.00e-02,
649,-2.40e-03,8.00e-02,
650,3.60e-03,6.00e-02,
651,-2.80e-03,8.00e-02,
652,-2.80e-03,6.00e-02,
653,2.80e-03,8.00e-02,
654,2.40e-03,6.00e-02,
655,-8.00e-04,8.00e-02,
656,-4.00e-04,8.00e-02,
657,2.00e-03,6.00e-02,
658,-1.20e-03,6.00e-02,
659,1.20e-03,8.00e-02,
660,-1.20e-03,8.00e-02,
661,1.20e-03,4.00e-02,
662,-8.00e-04,8.00e-02,
663,2.00e-03,4.00e-02,
664,1.20e-03,8.00e-02,
665,-1.20e-03,2.00e-02,
666,-1.20e-03,8.00e-02,
667,2.40e-03,2.00e-02,
668,4.00e-03,8.00e-02,
669,-4.00e-03,2.00e-02,
670,1.60e-03,2.00e-02,
671,7.20e-03,1.96e+00,
672,4.40e-03,1.60e-01,
673,-1.20e-03,1.20e-01,
674,4.40e-03,1.40e-01,
675,-1.60e-03,8.00e-02,
676,2.40e-03,8.00e-02,
677,-1.20e-03,1.00e-01,
678,2.00e-03,8.00e-02,
679,-1.20e-03,1.00e-01,
680,1.20e-03,1.00e-01,
681,-8.00e-04,6.00e-02,
682,1.20e-03,8.00e-02,
683,-8.00e-04,6.00e-02,
684,-8.00e-04,6.00e-02,
685,1.20e-03,8.00e-02,
686,-1.20e-03,6.00e-02,
687,2.00e-03,8.00e-02,
688,2.80e-03,6.00e-02,
689,-1.60e-03,8.00e-02,
690,3.60e-03,6.00e-02,
691,-2.40e-03,8.00e-02,
692,-2.40e-03,6.00e-02,
693,2.40e-03,8.00e-02,
694,-1.20e-03,6.00e-02,
695,2.00e-03,8.00e-02,
696,-8.00e-04,8.00e-02,
697,1.20e-03,4.00e-02,
698,0.00e+00,8.00e-02,
699,1.20e-03,4.00e-02,
700,-8.00e-04,8.00e-02,
701,1.20e-03,2.00e-02,
702,-4.00e-04,8.00e-02,
703,2.40e-03,2.00e-02,
704,2.00e-03,8.00e-02,
705,-1.20e-03,4.00e-02,
706,-1.20e-03,8.00e-02,
707,2.40e-03,2.00e-02,
708,3.20e-03,2.00e-02,
709,-4.00e-03,8.00e-02,
710,4.00e-04,4.00e-02,
711,7.20e-03,1.74e+00,
712,4.00e-03,1.60e-01,
713,-1.20e-03,1.20e-01,
714,4.80e-03,1.20e-01,
715,-1.20e-03,8.00e-02,
716,2.40e-03,1.00e-01,
717,-1.60e-03,8.00e-02,
718,2.00e-03,1.00e-01,
719,-8.00e-04,6.00e-02,
720,-8.00e-04,1.00e-01,
721,1.20e-03,6.00e-02,
722,2.00e-03,8.00e-02,
723,0.00e+00,6.00e-02,
724,1.20e-03,6.00e-02,
725,-8.00e-04,8.00e-02,
726,-8.00e-04,6.00e-02,
727,1.60e-03,8.00e-02,
728,2.40e-03,6.00e-02,
729,-1.60e-03,8.00e-02,
730,3.60e-03,8.00e-02,
731,-2.40e-03,6.00e-02,
732,-1.60e-03,6.00e-02,
733,2.40e-03,8.00e-02,
734,2.00e-03,8.00e-02,
735,-8.00e-04,6.00e-02,
736,1.20e-03,8.00e-02,
737,-8.00e-04,6.00e-02,
738,0.00e+00,6.00e-02,
739,1.60e-03,8.00e-02,
740,0.00e+00,6.00e-02,
741,1.20e-03,8.00e-02,
742,-1.20e-03,8.00e-02,
743,2.00e-03,2.00e-02,
744,1.20e-03,8.00e-02,
745,-1.60e-03,4.00e-02,
746,-1.60e-03,2.00e-02,
747,2.80e-03,8.00e-02,
748,3.60e-03,2.00e-02,
749,-4.00e-03,8.00e-02,
750,0.00e+00,2.00e-02,
751,7.20e-03,1.92e+00,
752,4.00e-03,1.60e-01,
753,-4.00e-04,1.20e-01,
754,4.40e-03,1.40e-01,
755,-1.60e-03,8.00e-02,
756,-1.60e-03,1.00e-01,
757,2.40e-03,8.00e-02,
758,2.00e-03,1.00e-01,
759,-8.00e-04,6.00e-02,
760,-1.20e-03,1.00e-01,
761,2.00e-03,6.00e-02,
762,2.00e-03,8.00e-02,
763,0.00e+00,6.00e-02,
764,0.00e+00,6.00e-02,
765,1.60e-03,8.00e-02,
766,-8.00e-04,6.00e-02,
767,2.00e-03,8.00e-02,
768,2.00e-03,6.00e-02,
769,-1.20e-03,8.00e-02,
770,-2.00e-03,8.00e-02,
771,2.80e-03,6.00e-02,
772,-1.60e-03,8.00e-02,
773,1.60e-03,6.00e-02,
774,-8.00e-04,6.00e-02,
775,1.60e-03,8.00e-02,
776,-8.00e-04,6.00e-02,
777,1.20e-03,8.00e-02,
778,1.20e-03,6.00e-02,
779,-8.00e-04,8.00e-02,
780,2.00e-03,6.00e-02,
781,-4.00e-04,8.00e-02,
782,-1.20e-03,8.00e-02,
783,2.40e-03,6.00e-02,
784,1.20e-03,8.00e-02,
785,-1.60e-03,2.00e-02,
786,-1.20e-03,2.00e-02,
787,2.80e-03,8.00e-02,
788,4.40e-03,4.00e-02,
789,-4.40e-03,8.00e-02,
790,8.00e-04,4.00e-02,
791,8.00e-03,1.90e+00,
792,4.80e-03,1.80e-01,
793,-1.60e-03,1.20e-01,
794,4.40e-03,1.40e-01,
795,-2.40e-03,8.00e-02,
796,-1.20e-03,1.00e-01,
797,2.40e-03,8.00e-02,
798,2.40e-03,1.00e-01,
799,-4.00e-04,6.00e-02,
800,1.20e-03,1.00e-01,
801,-8.00e-04,6.00e-02,
802,-4.00e-04,6.00e-02,
803,2.00e-03,1.00e-01,
804,0.00e+00,6.00e-02,
805,2.00e-03,8.00e-02,
806,2.00e-03,8.00e-02,
807,-8.00e-04,6.00e-02,
808,2.40e-03,8.00e-02,
809,-1.20e-03,6.00e-02,
810,2.80e-03,6.00e-02,
811,-1.60e-03,8.00e-02,
812,-1.60e-03,6.00e-02,
813,2.00e-03,8.00e-02,
814,-8.00e-04,6.00e-02,
815,2.00e-03,8.00e-02,
816,1.20e-03,6.00e-02,
817,0.00e+00,8.00e-02,
818,1.20e-03,8.00e-02,
819,0.00e+00,6.00e-02,
820,-8.00e-04,6.00e-02,
821,1.20e-03,8.00e-02,
822,2.40e-03,8.00e-02,
823,-8.00e-04,4.00e-02,
824,-8.00e-04,8.00e-02,
825,2.40e-03,4.00e-02,
826,2.40e-03,8.00e-02,
827,-1.60e-03,2.00e-02,
828,4.00e-03,8.00e-02,
829,-4.40e-03,2.00e-02,
830,0.00e+00,1.80e+00,
831,7.20e-03,0.00e+00,
832,4.80e-03,1.60e-01,
833,-1.20e-03,1.20e-01,
834,4.40e-03,1.40e-01,
835,-2.00e-03,8.00e-02,
836,1.60e-03,8.00e-02,
837,-1.60e-03,1.00e-01,
838,2.40e-03,1.00e-01,
839,-8.00e-04,6.00e-02,
840,-8.00e-04,1.00e-01,
841,2.00e-03,6.00e-02,
842,1.20e-03,8.00e-02,
843,0.00e+00,6.00e-02,
844,0.00e+00,6.00e-02,
845,1.20e-03,8.00e-02,
846,1.20e-03,8.00e-02,
847,-8.00e-04,6.00e-02,
848,2.00e-03,6.00e-02,
849,-1.20e-03,8.00e-02,
850,2.40e-03,6.00e-02,
851,-1.20e-03,8.00e-02,
852,-1.60e-03,6.00e-02,
853,2.00e-03,8.00e-02,
