CarrPurc_P1-19_P2-38_tauVary/Gly95/NewFile7.csv

X,CH1,CH2,Start,Increment,
Sequence,Volt,Volt,-6.000000e-04,1.000000e-04
0,1.20e-03,4.00e-02,
1,0.00e+00,2.00e-02,
2,0.00e+00,4.00e-02,
3,8.00e-04,2.00e-02,
4,0.00e+00,4.00e-02,
5,1.20e-03,2.00e-02,
6,0.00e+00,2.00e-02,
7,1.20e-03,4.00e-02,
8,0.00e+00,4.00e-02,
9,8.00e-04,2.00e-02,
10,0.00e+00,2.00e-02,
11,5.20e-03,1.64e+00,
12,4.00e-03,1.60e-01,
13,-2.84e-02,8.00e-02,
14,-1.64e-02,1.20e-01,
15,1.44e-02,8.00e-02,
16,8.00e-03,8.00e-02,
17,-7.60e-03,1.00e-01,
18,3.60e-03,1.00e-01,
19,-2.40e-03,6.00e-02,
20,2.80e-03,1.00e-01,
21,-2.00e-03,6.00e-02,
22,2.40e-03,6.00e-02,
23,-1.60e-03,8.00e-02,
24,-1.60e-03,8.00e-02,
25,2.40e-03,6.00e-02,
26,1.60e-03,6.00e-02,
27,-8.00e-04,8.00e-02,
28,-8.00e-04,6.00e-02,
29,1.20e-03,8.00e-02,
30,8.00e-04,6.00e-02,
31,7.20e-03,1.90e+00,
32,4.40e-03,1.60e-01,
33,-8.80e-03,1.20e-01,
34,-8.80e-03,1.20e-01,
35,6.40e-03,8.00e-02,
36,4.00e-03,1.00e-01,
37,-1.20e-03,8.00e-02,
38,-8.00e-04,1.00e-01,
39,2.40e-03,6.00e-02,
40,-1.20e-03,1.00e-01,
41,2.00e-03,6.00e-02,
42,2.00e-03,6.00e-02,
43,-8.00e-04,8.00e-02,
44,-2.80e-03,6.00e-02,
45,5.20e-03,8.00e-02,
46,8.40e-03,6.00e-02,
47,-9.60e-03,8.00e-02,
48,-1.56e-02,8.00e-02,
49,1.72e-02,6.00e-02,
50,-2.16e-02,6.00e-02,
51,2.24e-02,8.00e-02,
52,-2.00e-02,6.00e-02,
53,1.84e-02,8.00e-02,
54,1.24e-02,6.00e-02,
55,-8.00e-03,8.00e-02,
56,-5.60e-03,6.00e-02,
57,4.80e-03,8.00e-02,
58,2.80e-03,8.00e-02,
59,-1.20e-03,4.00e-02,
60,-8.00e-04,8.00e-02,
61,2.00e-03,4.00e-02,
62,-1.20e-03,8.00e-02,
63,1.60e-03,4.00e-02,
64,2.00e-03,8.00e-02,
65,-1.20e-03,2.00e-02,
66,-8.00e-04,2.00e-02,
67,2.00e-03,8.00e-02,
68,1.20e-03,2.00e-02,
69,-8.00e-04,8.00e-02,
70,4.00e-04,2.00e-02,
71,6.80e-03,1.84e+00,
72,4.00e-03,1.60e-01,
73,-8.00e-04,1.20e-01,
74,2.00e-03,1.40e-01,
75,0.00e+00,8.00e-02,
76,1.60e-03,1.00e-01,
77,-8.00e-04,6.00e-02,
78,2.40e-03,1.00e-01,
79,-8.00e-04,6.00e-02,
80,-8.00e-04,8.00e-02,
81,1.20e-03,6.00e-02,
82,2.40e-03,8.00e-02,
83,-1.60e-03,6.00e-02,
84,-3.60e-03,8.00e-02,
85,5.20e-03,6.00e-02,
86,-5.60e-03,6.00e-02,
87,8.40e-03,8.00e-02,
88,1.28e-02,8.00e-02,
89,-1.40e-02,6.00e-02,
90,-1.76e-02,6.00e-02,
91,1.84e-02,8.00e-02,
92,-1.56e-02,6.00e-02,
93,1.24e-02,8.00e-02,
94,8.00e-03,8.00e-02,
95,-6.00e-03,2.00e-02,
96,-4.00e-03,8.00e-02,
97,3.20e-03,4.00e-02,
98,2.40e-03,2.00e-02,
99,-1.60e-03,8.00e-02,
100,-1.20e-03,8.00e-02,
101,2.80e-03,2.00e-02,
102,2.00e-03,8.00e-02,
103,-4.00e-04,2.00e-02,
104,1.60e-03,8.00e-02,
105,-1.20e-03,2.00e-02,
106,2.80e-03,2.00e-02,
107,-2.40e-03,8.00e-02,
108,-3.20e-03,2.00e-02,
109,5.20e-03,8.00e-02,
110,2.80e-03,2.00e-02,
111,7.20e-03,1.98e+00,
112,4.40e-03,1.60e-01,
113,-8.00e-04,1.20e-01,
114,0.00e+00,1.40e-01,
115,2.40e-03,8.00e-02,
116,2.00e-03,1.00e-01,
117,0.00e+00,8.00e-02,
118,-8.00e-04,1.00e-01,
119,2.40e-03,6.00e-02,
120,-1.20e-03,1.00e-01,
121,2.00e-03,6.00e-02,
122,-1.60e-03,6.00e-02,
123,2.00e-03,8.00e-02,
124,3.60e-03,6.00e-02,
125,-3.20e-03,8.00e-02,
126,-6.00e-03,8.00e-02,
127,7.20e-03,6.00e-02,
128,1.16e-02,6.00e-02,
129,-1.44e-02,8.00e-02,
130,-1.76e-02,6.00e-02,
131,1.68e-02,8.00e-02,
132,-1.24e-02,6.00e-02,
133,1.20e-02,8.00e-02,
134,7.20e-03,6.00e-02,
135,-5.60e-03,8.00e-02,
136,-4.00e-03,6.00e-02,
137,3.60e-03,8.00e-02,
138,2.40e-03,8.00e-02,
139,-8.00e-04,4.00e-02,
140,2.00e-03,8.00e-02,
141,-1.60e-03,2.00e-02,
142,1.60e-03,8.00e-02,
143,-1.20e-03,2.00e-02,
144,-8.00e-04,8.00e-02,
145,1.20e-03,2.00e-02,
146,2.00e-03,8.00e-02,
147,-1.60e-03,2.00e-02,
148,-3.60e-03,2.00e-02,
149,4.80e-03,8.00e-02,
150,3.60e-03,2.00e-02,
151,7.20e-03,1.90e+00,
152,4.80e-03,1.60e-01,
153,-1.60e-03,1.20e-01,
154,-1.60e-03,1.20e-01,
155,3.20e-03,8.00e-02,
156,1.60e-03,8.00e-02,
157,-8.00e-04,1.00e-01,
158,2.00e-03,1.00e-01,
159,-1.20e-03,6.00e-02,
160,-1.20e-03,6.00e-02,
161,1.60e-03,1.00e-01,
162,-1.20e-03,6.00e-02,
163,2.40e-03,8.00e-02,
164,2.80e-03,6.00e-02,
165,-2.40e-03,8.00e-02,
166,-3.20e-03,6.00e-02,
167,5.60e-03,8.00e-02,
168,8.40e-03,6.00e-02,
169,-9.60e-03,8.00e-02,
170,-1.32e-02,8.00e-02,
171,1.48e-02,6.00e-02,
172,-1.12e-02,6.00e-02,
173,1.04e-02,8.00e-02,
174,6.80e-03,6.00e-02,
175,-4.80e-03,8.00e-02,
176,-3.20e-03,8.00e-02,
177,2.80e-03,6.00e-02,
178,2.40e-03,8.00e-02,
179,-8.00e-04,4.00e-02,
180,-8.00e-04,8.00e-02,
181,1.20e-03,2.00e-02,
182,1.20e-03,8.00e-02,
183,0.00e+00,2.00e-02,
184,1.20e-03,8.00e-02,
185,-4.00e-04,2.00e-02,
186,1.60e-03,8.00e-02,
187,-1.20e-03,2.00e-02,
188,-2.40e-03,8.00e-02,
189,3.20e-03,2.00e-02,
190,2.80e-03,2.00e-02,
191,7.20e-03,1.90e+00,
192,4.80e-03,1.60e-01,
193,-1.60e-03,1.20e-01,
194,-1.20e-03,1.20e-01,
195,2.40e-03,8.00e-02,
196,-4.00e-04,1.00e-01,
197,1.20e-03,8.00e-02,
198,-8.00e-04,1.00e-01,
199,1.60e-03,6.00e-02,
200,-8.00e-04,6.00e-02,
201,2.00e-03,1.00e-01,
202,2.00e-03,6.00e-02,
203,-1.20e-03,8.00e-02,
204,2.40e-03,6.00e-02,
205,-2.80e-03,8.00e-02,
206,-4.40e-03,6.00e-02,
207,5.60e-03,8.00e-02,
208,8.40e-03,8.00e-02,
209,-8.80e-03,6.00e-02,
210,-1.16e-02,6.00e-02,
211,1.24e-02,8.00e-02,
212,-1.08e-02,6.00e-02,
213,9.60e-03,8.00e-02,
214,5.60e-03,6.00e-02,
215,-4.00e-03,8.00e-02,
216,-2.00e-03,6.00e-02,
217,2.40e-03,8.00e-02,
218,2.40e-03,8.00e-02,
219,-8.00e-04,6.00e-02,
220,-1.20e-03,6.00e-02,
221,2.00e-03,8.00e-02,
222,-8.00e-04,2.00e-02,
223,2.00e-03,8.00e-02,
224,0.00e+00,8.00e-02,
225,2.00e-03,4.00e-02,
226,2.00e-03,8.00e-02,
227,-1.20e-03,2.00e-02,
228,-2.00e-03,8.00e-02,
229,3.20e-03,2.00e-02,
230,2.80e-03,1.90e+00,
231,7.20e-03,0.00e+00,
232,4.80e-03,1.60e-01,
233,-1.20e-03,1.20e-01,
234,3.20e-03,1.40e-01,
235,-8.00e-04,8.00e-02,
236,-8.00e-04,1.00e-01,
237,2.40e-03,8.00e-02,
238,2.40e-03,1.00e-01,
239,-8.00e-04,6.00e-02,
240,-8.00e-04,1.00e-01,
241,1.20e-03,6.00e-02,
242,1.20e-03,6.00e-02,
243,-8.00e-04,8.00e-02,
244,2.40e-03,6.00e-02,
245,-1.60e-03,8.00e-02,
246,-3.20e-03,6.00e-02,
247,4.40e-03,8.00e-02,
248,8.40e-03,8.00e-02,
249,-8.40e-03,6.00e-02,
250,-1.12e-02,8.00e-02,
251,1.12e-02,6.00e-02,
252,-8.80e-03,6.00e-02,
253,8.00e-03,8.00e-02,
254,5.60e-03,8.00e-02,
255,-4.00e-03,6.00e-02,
256,-1.60e-03,8.00e-02,
257,2.80e-03,4.00e-02,
258,2.00e-03,8.00e-02,
259,-8.00e-04,2.00e-02,
260,1.20e-03,8.00e-02,
261,-1.20e-03,2.00e-02,
262,-8.00e-04,8.00e-02,
263,2.00e-03,2.00e-02,
264,-8.00e-04,2.00e-02,
265,1.20e-03,8.00e-02,
266,2.00e-03,8.00e-02,
267,-1.20e-03,2.00e-02,
268,-2.40e-03,2.00e-02,
269,3.60e-03,8.00e-02,
270,2.80e-03,2.00e-02,
271,7.20e-03,1.94e+00,
272,4.00e-03,1.60e-01,
273,-1.20e-03,1.20e-01,
274,2.80e-03,1.40e-01,
275,-8.00e-04,8.00e-02,
276,2.00e-03,8.00e-02,
277,-1.20e-03,1.00e-01,
278,2.40e-03,6.00e-02,
279,-1.20e-03,1.00e-01,
280,-1.20e-03,1.00e-01,
281,1.60e-03,6.00e-02,
282,1.60e-03,6.00e-02,
283,-8.00e-04,8.00e-02,
284,2.40e-03,6.00e-02,
285,-1.60e-03,8.00e-02,
286,-2.80e-03,6.00e-02,
287,4.80e-03,8.00e-02,
288,6.40e-03,6.00e-02,
289,-7.20e-03,8.00e-02,
290,1.00e-02,6.00e-02,
291,-9.60e-03,8.00e-02,
292,-8.40e-03,8.00e-02,
293,8.00e-03,6.00e-02,
294,5.20e-03,6.00e-02,
295,-4.00e-03,8.00e-02,
296,-1.60e-03,8.00e-02,
297,2.40e-03,6.00e-02,
298,2.00e-03,8.00e-02,
299,-4.00e-04,2.00e-02,
300,-8.00e-04,8.00e-02,
301,2.00e-03,2.00e-02,
302,1.20e-03,2.00e-02,
303,-8.00e-04,8.00e-02,
304,-8.00e-04,8.00e-02,
305,1.20e-03,2.00e-02,
306,2.00e-03,2.00e-02,
307,-1.20e-03,8.00e-02,
308,-2.80e-03,2.00e-02,
309,3.20e-03,8.00e-02,
310,3.20e-03,2.00e-02,
311,7.60e-03,1.78e+00,
312,4.40e-03,1.60e-01,
313,-1.20e-03,1.20e-01,
314,2.80e-03,1.20e-01,
315,-1.20e-03,8.00e-02,
316,-8.00e-04,1.00e-01,
317,2.00e-03,6.00e-02,
318,2.40e-03,1.00e-01,
319,-8.00e-04,6.00e-02,
320,-8.00e-04,1.00e-01,
321,2.00e-03,6.00e-02,
322,-8.00e-04,6.00e-02,
323,2.00e-03,8.00e-02,
324,2.40e-03,8.00e-02,
325,-2.00e-03,6.00e-02,
326,-2.80e-03,6.00e-02,
327,4.80e-03,8.00e-02,
328,6.80e-03,6.00e-02,
329,-6.40e-03,8.00e-02,
330,-8.80e-03,6.00e-02,
331,9.60e-03,8.00e-02,
332,-6.80e-03,8.00e-02,
333,7.20e-03,6.00e-02,
334,4.40e-03,6.00e-02,
335,-2.80e-03,8.00e-02,
336,-1.60e-03,6.00e-02,
337,2.00e-03,8.00e-02,
338,1.20e-03,8.00e-02,
339,-8.00e-04,6.00e-02,
340,2.00e-03,6.00e-02,
341,-4.00e-04,8.00e-02,
342,2.00e-03,8.00e-02,
343,-8.00e-04,2.00e-02,
344,1.20e-03,8.00e-02,
345,-1.20e-03,2.00e-02,
346,-1.20e-03,2.00e-02,
347,2.00e-03,8.00e-02,
348,2.80e-03,8.00e-02,
349,-2.80e-03,2.00e-02,
350,2.80e-03,2.00e-02,
351,7.20e-03,1.80e+00,
352,4.00e-03,1.60e-01,
353,-1.20e-03,1.20e-01,
354,3.60e-03,1.40e-01,
355,-8.00e-04,8.00e-02,
356,-8.00e-04,8.00e-02,
357,2.00e-03,1.00e-01,
358,2.00e-03,1.00e-01,
359,-8.00e-04,6.00e-02,
360,-8.00e-04,6.00e-02,
361,2.00e-03,1.00e-01,
362,1.20e-03,6.00e-02,
363,-8.00e-04,8.00e-02,
364,2.00e-03,8.00e-02,
365,-1.60e-03,6.00e-02,
366,-2.80e-03,6.00e-02,
367,3.60e-03,8.00e-02,
368,5.60e-03,6.00e-02,
369,-5.60e-03,8.00e-02,
370,8.40e-03,6.00e-02,
371,-8.00e-03,8.00e-02,
372,-6.40e-03,6.00e-02,
373,6.40e-03,8.00e-02,
374,4.00e-03,6.00e-02,
375,-1.60e-03,8.00e-02,
376,-1.20e-03,6.00e-02,
377,2.40e-03,8.00e-02,
378,2.00e-03,8.00e-02,
379,-4.00e-04,4.00e-02,
380,-8.00e-04,8.00e-02,
381,1.20e-03,4.00e-02,
382,1.60e-03,8.00e-02,
383,-1.20e-03,2.00e-02,
384,-8.00e-04,8.00e-02,
385,1.20e-03,2.00e-02,
386,-1.20e-03,8.00e-02,
387,2.40e-03,2.00e-02,
388,-3.20e-03,2.00e-02,
389,2.80e-03,8.00e-02,
390,3.20e-03,2.00e-02,
391,7.60e-03,1.84e+00,
392,4.80e-03,1.60e-01,
393,-1.20e-03,1.20e-01,
394,4.00e-03,8.00e-02,
395,-1.60e-03,1.40e-01,
396,-1.20e-03,1.00e-01,
397,2.40e-03,8.00e-02,
398,2.40e-03,1.00e-01,
399,-8.00e-04,6.00e-02,
400,-8.00e-04,1.00e-01,
401,2.00e-03,6.00e-02,
402,2.00e-03,8.00e-02,
403,-8.00e-04,6.00e-02,
404,2.40e-03,6.00e-02,
405,-1.20e-03,8.00e-02,
406,-1.60e-03,6.00e-02,
407,3.60e-03,8.00e-02,
408,4.80e-03,6.00e-02,
409,-4.80e-03,8.00e-02,
410,7.60e-03,6.00e-02,
411,-7.20e-03,8.00e-02,
412,-6.80e-03,8.00e-02,
413,5.20e-03,6.00e-02,
414,3.60e-03,6.00e-02,
415,-2.40e-03,8.00e-02,
416,-1.20e-03,6.00e-02,
417,2.40e-03,8.00e-02,
418,1.60e-03,8.00e-02,
419,-8.00e-04,4.00e-02,
420,-8.00e-04,8.00e-02,
421,1.20e-03,2.00e-02,
422,2.00e-03,2.00e-02,
423,-1.20e-03,8.00e-02,
424,-8.00e-04,8.00e-02,
425,2.00e-03,2.00e-02,
426,-8.00e-04,8.00e-02,
427,2.40e-03,2.00e-02,
428,3.60e-03,2.00e-02,
429,-2.40e-03,8.00e-02,
430,3.20e-03,2.00e-02,
431,7.20e-03,1.78e+00,
432,4.80e-03,1.60e-01,
433,-8.00e-04,1.20e-01,
434,4.00e-03,1.20e-01,
435,-1.60e-03,8.00e-02,
436,-1.20e-03,1.00e-01,
437,2.40e-03,8.00e-02,
438,2.00e-03,1.00e-01,
439,-8.00e-04,6.00e-02,
440,-8.00e-04,1.00e-01,
441,1.20e-03,6.00e-02,
442,-8.00e-04,6.00e-02,
443,2.00e-03,8.00e-02,
444,-8.00e-04,8.00e-02,
445,2.40e-03,6.00e-02,
446,-2.40e-03,6.00e-02,
447,3.60e-03,8.00e-02,
448,4.40e-03,6.00e-02,
449,-4.00e-03,8.00e-02,
450,6.00e-03,6.00e-02,
451,-5.60e-03,8.00e-02,
452,-4.40e-03,8.00e-02,
453,4.00e-03,6.00e-02,
454,3.60e-03,6.00e-02,
455,-1.60e-03,8.00e-02,
456,-1.20e-03,8.00e-02,
457,2.00e-03,4.00e-02,
458,-8.00e-04,6.00e-02,
459,2.00e-03,8.00e-02,
460,-4.00e-04,6.00e-02,
461,2.00e-03,8.00e-02,
462,-8.00e-04,8.00e-02,
463,2.00e-03,2.00e-02,
464,-1.20e-03,4.00e-02,
465,1.20e-03,8.00e-02,
466,-1.20e-03,8.00e-02,
467,2.40e-03,2.00e-02,
468,2.80e-03,2.00e-02,
469,-3.60e-03,8.00e-02,
470,2.00e-03,2.00e-02,
471,7.20e-03,1.76e+00,
472,4.80e-03,1.60e-01,
473,-8.00e-04,1.20e-01,
474,4.40e-03,8.00e-02,
475,-1.20e-03,1.40e-01,
476,-1.20e-03,1.00e-01,
477,2.00e-03,8.00e-02,
478,2.40e-03,1.00e-01,
479,-1.20e-03,6.00e-02,
480,-1.20e-03,1.00e-01,
481,2.00e-03,6.00e-02,
482,1.20e-03,6.00e-02,
483,-8.00e-04,8.00e-02,
484,1.20e-03,8.00e-02,
485,-1.20e-03,6.00e-02,
486,-1.60e-03,6.00e-02,
487,2.80e-03,8.00e-02,
488,4.40e-03,8.00e-02,
489,-4.00e-03,6.00e-02,
490,-5.60e-03,6.00e-02,
491,6.40e-03,8.00e-02,
492,-4.80e-03,6.00e-02,
493,4.40e-03,8.00e-02,
494,3.60e-03,6.00e-02,
495,-1.60e-03,8.00e-02,
496,-1.60e-03,6.00e-02,
497,1.60e-03,8.00e-02,
498,1.20e-03,8.00e-02,
499,-8.00e-04,4.00e-02,
500,-1.20e-03,8.00e-02,
501,2.00e-03,2.00e-02,
502,2.00e-03,8.00e-02,
503,-8.00e-04,4.00e-02,
504,2.40e-03,8.00e-02,
505,-1.20e-03,2.00e-02,
506,-1.20e-03,8.00e-02,
507,3.20e-03,2.00e-02,
508,4.00e-03,8.00e-02,
509,-3.20e-03,2.00e-02,
510,2.80e-03,1.92e+00,
511,7.20e-03,-2.00e-02,
512,4.00e-03,1.60e-01,
513,-1.20e-03,1.20e-01,
514,4.80e-03,1.40e-01,
515,-1.60e-03,8.00e-02,
516,-1.20e-03,1.00e-01,
517,2.40e-03,8.00e-02,
518,-1.20e-03,8.00e-02,
519,2.40e-03,1.00e-01,
520,2.00e-03,1.00e-01,
521,-8.00e-04,6.00e-02,
522,1.20e-03,6.00e-02,
523,-8.00e-04,1.00e-01,
524,-8.00e-04,6.00e-02,
525,1.60e-03,8.00e-02,
526,2.40e-03,6.00e-02,
527,-1.20e-03,8.00e-02,
528,3.60e-03,6.00e-02,
529,-3.60e-03,8.00e-02,
530,-5.20e-03,6.00e-02,
531,5.60e-03,8.00e-02,
532,-4.40e-03,8.00e-02,
533,4.00e-03,6.00e-02,
534,2.80e-03,8.00e-02,
535,-1.60e-03,6.00e-02,
536,-1.20e-03,6.00e-02,
537,1.20e-03,8.00e-02,
538,2.00e-03,8.00e-02,
539,0.00e+00,2.00e-02,
540,2.00e-03,6.00e-02,
541,-8.00e-04,8.00e-02,
542,-8.00e-04,8.00e-02,
543,2.40e-03,4.00e-02,
544,1.60e-03,8.00e-02,
545,-1.20e-03,2.00e-02,
546,-1.60e-03,8.00e-02,
547,2.40e-03,2.00e-02,
548,4.00e-03,8.00e-02,
549,-4.00e-03,4.00e-02,
550,2.40e-03,2.00e-02,
551,8.00e-03,1.68e+00,
552,4.80e-03,1.60e-01,
553,-1.20e-03,1.20e-01,
554,4.80e-03,1.40e-01,
555,-1.60e-03,8.00e-02,
556,-1.20e-03,8.00e-02,
557,1.60e-03,1.00e-01,
558,2.00e-03,1.00e-01,
559,-8.00e-04,6.00e-02,
560,-8.00e-04,6.00e-02,
561,1.60e-03,1.00e-01,
562,1.20e-03,6.00e-02,
563,-8.00e-04,8.00e-02,
564,-8.00e-04,6.00e-02,
565,2.00e-03,8.00e-02,
566,-1.60e-03,6.00e-02,
567,2.40e-03,8.00e-02,
568,3.60e-03,6.00e-02,
569,-4.00e-03,8.00e-02,
570,4.80e-03,8.00e-02,
571,-4.40e-03,6.00e-02,
572,-3.60e-03,6.00e-02,
573,3.60e-03,8.00e-02,
574,2.80e-03,8.00e-02,
575,-1.60e-03,6.00e-02,
576,-1.20e-03,8.00e-02,
577,1.20e-03,6.00e-02,
578,1.20e-03,6.00e-02,
579,-8.00e-04,8.00e-02,
580,-1.20e-03,6.00e-02,
581,1.20e-03,8.00e-02,
582,-1.60e-03,8.00e-02,
583,1.60e-03,4.00e-02,
584,2.00e-03,8.00e-02,
585,-1.20e-03,4.00e-02,
586,-1.20e-03,8.00e-02,
587,2.80e-03,2.00e-02,
588,3.60e-03,8.00e-02,
589,-3.60e-03,2.00e-02,
590,1.60e-03,2.00e-02,
591,7.20e-03,1.80e+00,
592,4.00e-03,1.60e-01,
593,-1.20e-03,1.20e-01,
594,4.80e-03,1.40e-01,
595,-1.60e-03,8.00e-02,
596,-1.20e-03,1.00e-01,
597,2.40e-03,8.00e-02,
598,2.40e-03,1.00e-01,
599,-1.20e-03,6.00e-02,
600,1.20e-03,1.00e-01,
601,-1.20e-03,6.00e-02,
602,2.00e-03,8.00e-02,
603,-8.00e-04,6.00e-02,
604,1.20e-03,6.00e-02,
605,-1.20e-03,8.00e-02,
606,2.00e-03,6.00e-02,
607,-1.60e-03,8.00e-02,
608,3.60e-03,6.00e-02,
609,-2.80e-03,8.00e-02,
610,4.80e-03,6.00e-02,
611,-4.40e-03,8.00e-02,
612,-3.60e-03,8.00e-02,
613,3.20e-03,6.00e-02,
614,3.20e-03,6.00e-02,
615,-8.00e-04,8.00e-02,
616,1.20e-03,6.00e-02,
617,-1.20e-03,8.00e-02,
618,-8.00e-04,8.00e-02,
619,2.00e-03,4.00e-02,
620,2.00e-03,8.00e-02,
621,-4.00e-04,4.00e-02,
622,2.00e-03,8.00e-02,
623,-8.00e-04,4.00e-02,
624,1.60e-03,8.00e-02,
625,-1.60e-03,4.00e-02,
626,-1.20e-03,2.00e-02,
627,3.60e-03,8.00e-02,
628,4.00e-03,8.00e-02,
629,-4.00e-03,2.00e-02,
630,2.00e-03,1.98e+00,
631,8.00e-03,-2.00e-02,
632,4.80e-03,1.60e-01,
633,-2.00e-03,1.20e-01,
634,4.40e-03,8.00e-02,
635,-2.40e-03,1.40e-01,
636,-1.20e-03,8.00e-02,
637,2.40e-03,1.00e-01,
638,2.40e-03,1.00e-01,
639,-1.20e-03,6.00e-02,
640,-1.20e-03,6.00e-02,
641,2.40e-03,1.00e-01,
642,2.00e-03,6.00e-02,
643,0.00e+00,8.00e-02,
644,-8.00e-04,6.00e-02,
645,1.20e-03,8.00e-02,
646,-8.00e-04,6.00e-02,
647,2.40e-03,8.00e-02,
648,3.20e-03,6.00e-02,
649,-2.40e-03,8.00e-02,
650,-3.60e-03,6.00e-02,
651,4.00e-03,8.00e-02,
652,-2.80e-03,6.00e-02,
653,2.80e-03,8.00e-02,
654,2.00e-03,6.00e-02,
655,-1.20e-03,8.00e-02,
656,1.20e-03,8.00e-02,
657,-8.00e-04,6.00e-02,
658,0.00e+00,8.00e-02,
659,2.00e-03,4.00e-02,
660,-8.00e-04,8.00e-02,
661,2.00e-03,2.00e-02,
662,-4.00e-04,4.00e-02,
663,2.00e-03,8.00e-02,
664,1.60e-03,8.00e-02,
665,-1.20e-03,2.00e-02,
666,-1.60e-03,8.00e-02,
667,2.80e-03,2.00e-02,
668,4.40e-03,8.00e-02,
669,-4.00e-03,2.00e-02,
670,1.60e-03,2.00e-02,
671,7.20e-03,1.78e+00,
672,4.80e-03,1.60e-01,
673,-1.60e-03,1.20e-01,
674,4.80e-03,1.40e-01,
675,-2.40e-03,8.00e-02,
676,2.40e-03,8.00e-02,
677,-1.60e-03,1.00e-01,
678,2.00e-03,1.00e-01,
679,-1.20e-03,6.00e-02,
680,1.20e-03,1.00e-01,
681,-1.20e-03,6.00e-02,
682,1.20e-03,8.00e-02,
683,-8.00e-04,6.00e-02,
684,-8.00e-04,6.00e-02,
685,2.00e-03,8.00e-02,
686,-1.20e-03,6.00e-02,
687,2.40e-03,8.00e-02,
688,2.80e-03,6.00e-02,
689,-2.40e-03,8.00e-02,
690,3.60e-03,6.00e-02,
691,-3.20e-03,8.00e-02,
692,-2.80e-03,6.00e-02,
693,2.40e-03,8.00e-02,
694,-8.00e-04,6.00e-02,
695,2.00e-03,8.00e-02,
696,1.20e-03,8.00e-02,
697,-8.00e-04,4.00e-02,
698,0.00e+00,6.00e-02,
699,1.20e-03,8.00e-02,
700,2.00e-03,8.00e-02,
701,-8.00e-04,2.00e-02,
702,-8.00e-04,8.00e-02,
703,1.60e-03,2.00e-02,
704,2.00e-03,8.00e-02,
705,-1.60e-03,2.00e-02,
706,-2.40e-03,8.00e-02,
707,3.20e-03,2.00e-02,
708,4.40e-03,2.00e-02,
709,-4.40e-03,8.00e-02,
710,1.20e-03,2.00e-02,
711,7.60e-03,1.86e+00,
712,4.80e-03,1.60e-01,
713,-1.60e-03,1.20e-01,
714,5.20e-03,1.20e-01,
715,-1.60e-03,8.00e-02,
716,-2.40e-03,1.00e-01,
717,3.20e-03,8.00e-02,
718,2.40e-03,1.00e-01,
719,-1.20e-03,6.00e-02,
720,-8.00e-04,6.00e-02,
721,2.00e-03,1.00e-01,
722,0.00e+00,8.00e-02,
723,2.00e-03,6.00e-02,
724,1.20e-03,6.00e-02,
725,-8.00e-04,8.00e-02,
726,-8.00e-04,6.00e-02,
727,2.40e-03,8.00e-02,
728,2.80e-03,6.00e-02,
729,-1.60e-03,8.00e-02,
730,4.00e-03,8.00e-02,
731,-2.80e-03,6.00e-02,
732,-1.60e-03,6.00e-02,
733,2.80e-03,8.00e-02,
734,2.40e-03,8.00e-02,
735,-1.20e-03,6.00e-02,
736,1.20e-03,8.00e-02,
737,-8.00e-04,2.00e-02,
738,1.20e-03,8.00e-02,
739,-8.00e-04,4.00e-02,
740,-8.00e-04,8.00e-02,
741,1.20e-03,2.00e-02,
742,-8.00e-04,8.00e-02,
743,1.60e-03,2.00e-02,
744,-1.20e-03,8.00e-02,
745,1.60e-03,4.00e-02,
746,-1.60e-03,8.00e-02,
747,3.60e-03,2.00e-02,
748,4.40e-03,2.00e-02,
749,-4.80e-03,8.00e-02,
750,8.00e-04,1.96e+00,
751,7.20e-03,-4.00e-02,
752,4.00e-03,1.60e-01,
753,-1.60e-03,1.20e-01,
754,5.20e-03,1.40e-01,
755,-2.40e-03,8.00e-02,
756,-1.20e-03,1.00e-01,
757,2.40e-03,8.00e-02,
758,2.40e-03,1.00e-01,
759,-1.20e-03,6.00e-02,
760,-1.20e-03,6.00e-02,
761,1.20e-03,1.00e-01,
762,1.20e-03,8.00e-02,
763,-8.00e-04,6.00e-02,
764,1.20e-03,6.00e-02,
765,-8.00e-04,8.00e-02,
766,-8.00e-04,6.00e-02,
767,2.00e-03,8.00e-02,
768,2.00e-03,6.00e-02,
769,-1.60e-03,8.00e-02,
770,2.80e-03,8.00e-02,
771,-2.80e-03,6.00e-02,
772,-1.60e-03,8.00e-02,
773,2.80e-03,6.00e-02,
774,2.00e-03,8.00e-02,
775,-1.20e-03,2.00e-02,
776,-8.00e-04,8.00e-02,
777,1.20e-03,4.00e-02,
778,1.20e-03,6.00e-02,
779,0.00e+00,8.00e-02,
780,-8.00e-04,8.00e-02,
781,1.20e-03,2.00e-02,
782,-1.20e-03,8.00e-02,
783,2.40e-03,4.00e-02,
784,2.00e-03,8.00e-02,
785,-1.20e-03,2.00e-02,
786,-2.40e-03,8.00e-02,
787,3.60e-03,2.00e-02,
788,4.40e-03,2.00e-02,
789,-4.80e-03,8.00e-02,
790,1.20e-03,2.00e-02,
791,8.00e-03,1.76e+00,
792,4.80e-03,1.60e-01,
793,-2.40e-03,1.20e-01,
794,5.20e-03,1.40e-01,
795,-2.40e-03,8.00e-02,
796,-1.60e-03,1.00e-01,
797,3.20e-03,8.00e-02,
798,2.40e-03,1.00e-01,
799,-8.00e-04,6.00e-02,
800,-1.20e-03,6.00e-02,
801,2.00e-03,1.00e-01,
802,1.60e-03,6.00e-02,
803,-8.00e-04,8.00e-02,
804,-8.00e-04,6.00e-02,
805,1.20e-03,8.00e-02,
806,2.00e-03,8.00e-02,
807,-8.00e-04,6.00e-02,
808,2.40e-03,8.00e-02,
809,-1.60e-03,6.00e-02,
810,2.80e-03,6.00e-02,
811,-1.60e-03,8.00e-02,
812,-1.60e-03,6.00e-02,
813,2.40e-03,8.00e-02,
814,2.00e-03,6.00e-02,
815,-1.20e-03,8.00e-02,
816,8.00e-04,6.00e-02,
817,-8.00e-04,8.00e-02,
818,1.20e-03,8.00e-02,
819,0.00e+00,6.00e-02,
820,-8.00e-04,8.00e-02,
821,1.20e-03,4.00e-02,
822,2.00e-03,8.00e-02,
823,-1.20e-03,2.00e-02,
824,-1.20e-03,8.00e-02,
825,2.00e-03,2.00e-02,
826,-2.80e-03,2.00e-02,
827,3.60e-03,8.00e-02,
828,5.20e-03,2.00e-02,
829,-4.40e-03,8.00e-02,
830,4.00e-04,2.00e-02,
831,7.20e-03,1.80e+00,
832,4.80e-03,1.60e-01,
833,-1.20e-03,1.20e-01,
834,5.20e-03,1.40e-01,
835,-1.60e-03,8.00e-02,
836,-1.60e-03,1.00e-01,
837,2.40e-03,6.00e-02,
838,2.40e-03,1.00e-01,
839,-1.20e-03,6.00e-02,
840,-1.20e-03,6.00e-02,
841,2.40e-03,1.00e-01,
842,1.20e-03,8.00e-02,
843,-8.00e-04,6.00e-02,
844,1.20e-03,6.00e-02,
845,-4.00e-04,8.00e-02,
846,1.20e-03,8.00e-02,
847,-8.00e-04,6.00e-02,
848,1.60e-03,6.00e-02,
849,-1.60e-03,8.00e-02,
850,-1.20e-03,6.00e-02,
851,2.40e-03,8.00e-02,
852,-1.60e-03,6.00e-02,
853,2.00e-03,8.00e-02,
