CarrPurc_P1-19_P2-38_tauVary/Gly95/NewFile3.csv

X,CH1,CH2,Start,Increment,
Sequence,Volt,Volt,-6.000000e-04,1.000000e-04
0,8.00e-04,4.00e-02,
1,0.00e+00,2.00e-02,
2,8.00e-04,4.00e-02,
3,-4.00e-04,0.00e+00,
4,0.00e+00,4.00e-02,
5,1.20e-03,2.00e-02,
6,1.20e-03,2.00e-02,
7,-4.00e-04,4.00e-02,
8,0.00e+00,4.00e-02,
9,8.00e-04,2.00e-02,
10,4.00e-04,2.00e-02,
11,5.20e-03,2.00e+00,
12,3.60e-03,1.60e-01,
13,-2.80e-02,1.00e-01,
14,-1.60e-02,1.20e-01,
15,1.52e-02,8.00e-02,
16,8.00e-03,1.00e-01,
17,-8.40e-03,6.00e-02,
18,-1.60e-03,1.00e-01,
19,4.00e-03,6.00e-02,
20,2.80e-03,6.00e-02,
21,-2.40e-03,8.00e-02,
22,2.40e-03,6.00e-02,
23,-2.00e-03,8.00e-02,
24,-1.60e-03,8.00e-02,
25,2.00e-03,6.00e-02,
26,2.40e-03,6.00e-02,
27,-4.00e-04,8.00e-02,
28,-8.00e-04,6.00e-02,
29,1.20e-03,8.00e-02,
30,8.00e-04,2.00e+00,
31,6.80e-03,4.00e-02,
32,4.00e-03,1.60e-01,
33,-8.00e-03,1.00e-01,
34,-8.40e-03,1.20e-01,
35,5.60e-03,8.00e-02,
36,3.60e-03,1.00e-01,
37,-1.20e-03,8.00e-02,
38,-8.00e-04,1.00e-01,
39,2.00e-03,6.00e-02,
40,-1.20e-03,1.00e-01,
41,2.00e-03,6.00e-02,
42,1.20e-03,6.00e-02,
43,-1.20e-03,8.00e-02,
44,-2.80e-03,6.00e-02,
45,5.20e-03,8.00e-02,
46,8.40e-03,6.00e-02,
47,-8.40e-03,8.00e-02,
48,-1.44e-02,8.00e-02,
49,1.68e-02,6.00e-02,
50,-1.96e-02,6.00e-02,
51,2.08e-02,8.00e-02,
52,-1.84e-02,6.00e-02,
53,1.64e-02,8.00e-02,
54,1.00e-02,6.00e-02,
55,-8.00e-03,8.00e-02,
56,-5.20e-03,6.00e-02,
57,4.00e-03,8.00e-02,
58,2.40e-03,8.00e-02,
59,-1.20e-03,2.00e-02,
60,-1.20e-03,8.00e-02,
61,2.00e-03,2.00e-02,
62,-1.20e-03,8.00e-02,
63,1.60e-03,2.00e-02,
64,2.40e-03,8.00e-02,
65,-8.00e-04,2.00e-02,
66,1.20e-03,2.00e-02,
67,-1.20e-03,8.00e-02,
68,-4.00e-04,2.00e-02,
69,2.00e-03,8.00e-02,
70,4.00e-04,2.00e-02,
71,7.20e-03,1.98e+00,
72,4.00e-03,1.60e-01,
73,-8.00e-04,1.20e-01,
74,2.00e-03,1.40e-01,
75,-8.00e-04,8.00e-02,
76,2.00e-03,1.00e-01,
77,-4.00e-04,8.00e-02,
78,-8.00e-04,1.00e-01,
79,2.40e-03,6.00e-02,
80,1.20e-03,6.00e-02,
81,-8.00e-04,1.00e-01,
82,2.00e-03,8.00e-02,
83,-1.60e-03,6.00e-02,
84,-3.20e-03,8.00e-02,
85,4.00e-03,6.00e-02,
86,-5.60e-03,6.00e-02,
87,6.80e-03,8.00e-02,
88,1.00e-02,8.00e-02,
89,-1.24e-02,6.00e-02,
90,1.56e-02,6.00e-02,
91,-1.44e-02,8.00e-02,
92,-1.28e-02,6.00e-02,
93,1.12e-02,8.00e-02,
94,6.80e-03,6.00e-02,
95,-5.60e-03,8.00e-02,
96,-3.60e-03,6.00e-02,
97,3.20e-03,8.00e-02,
98,2.00e-03,6.00e-02,
99,-1.20e-03,8.00e-02,
100,-1.20e-03,8.00e-02,
101,2.00e-03,2.00e-02,
102,2.00e-03,8.00e-02,
103,-1.20e-03,4.00e-02,
104,-8.00e-04,8.00e-02,
105,2.00e-03,2.00e-02,
106,2.40e-03,2.00e-02,
107,-2.40e-03,8.00e-02,
108,-3.20e-03,8.00e-02,
109,4.80e-03,2.00e-02,
110,2.00e-03,2.00e-02,
111,7.20e-03,1.88e+00,
112,4.80e-03,1.60e-01,
113,4.00e-04,1.20e-01,
114,2.40e-03,1.40e-01,
115,-4.00e-04,8.00e-02,
116,1.20e-03,1.00e-01,
117,-4.00e-04,8.00e-02,
118,-8.00e-04,1.00e-01,
119,2.00e-03,6.00e-02,
120,1.20e-03,6.00e-02,
121,-8.00e-04,8.00e-02,
122,2.00e-03,6.00e-02,
123,-8.00e-04,8.00e-02,
124,2.80e-03,6.00e-02,
125,-3.20e-03,8.00e-02,
126,-4.80e-03,8.00e-02,
127,6.40e-03,6.00e-02,
128,1.00e-02,6.00e-02,
129,-1.20e-02,8.00e-02,
130,-1.36e-02,6.00e-02,
131,1.40e-02,8.00e-02,
132,-1.12e-02,6.00e-02,
133,1.00e-02,8.00e-02,
134,6.80e-03,8.00e-02,
135,-5.20e-03,4.00e-02,
136,-2.80e-03,8.00e-02,
137,2.80e-03,4.00e-02,
138,1.60e-03,8.00e-02,
139,-1.20e-03,4.00e-02,
140,-1.20e-03,8.00e-02,
141,1.60e-03,2.00e-02,
142,1.20e-03,8.00e-02,
143,-8.00e-04,2.00e-02,
144,-8.00e-04,8.00e-02,
145,1.20e-03,2.00e-02,
146,2.00e-03,8.00e-02,
147,-2.00e-03,2.00e-02,
148,-2.80e-03,8.00e-02,
149,4.80e-03,2.00e-02,
150,3.20e-03,2.00e-02,
151,7.60e-03,1.88e+00,
152,4.80e-03,1.60e-01,
153,-1.60e-03,1.20e-01,
154,-1.60e-03,8.00e-02,
155,3.20e-03,1.40e-01,
156,1.20e-03,8.00e-02,
157,-8.00e-04,1.00e-01,
158,-8.00e-04,1.00e-01,
159,2.40e-03,6.00e-02,
160,2.40e-03,6.00e-02,
161,-1.20e-03,1.00e-01,
162,-8.00e-04,6.00e-02,
163,2.40e-03,8.00e-02,
164,2.40e-03,6.00e-02,
165,-2.40e-03,8.00e-02,
166,-3.20e-03,6.00e-02,
167,4.80e-03,8.00e-02,
168,6.80e-03,6.00e-02,
169,-7.20e-03,8.00e-02,
170,-1.04e-02,8.00e-02,
171,1.24e-02,6.00e-02,
172,-1.04e-02,6.00e-02,
173,8.40e-03,8.00e-02,
174,5.60e-03,6.00e-02,
175,-3.60e-03,8.00e-02,
176,-2.40e-03,8.00e-02,
177,2.40e-03,4.00e-02,
178,2.00e-03,8.00e-02,
179,-4.00e-04,2.00e-02,
180,-8.00e-04,8.00e-02,
181,8.00e-04,2.00e-02,
182,-8.00e-04,8.00e-02,
183,1.20e-03,4.00e-02,
184,1.20e-03,8.00e-02,
185,0.00e+00,2.00e-02,
186,-8.00e-04,8.00e-02,
187,1.20e-03,2.00e-02,
188,-1.20e-03,8.00e-02,
189,2.80e-03,2.00e-02,
190,2.80e-03,2.00e-02,
191,7.20e-03,1.84e+00,
192,4.80e-03,1.60e-01,
193,-4.00e-04,1.20e-01,
194,-8.00e-04,1.20e-01,
195,2.80e-03,8.00e-02,
196,1.20e-03,1.00e-01,
197,-4.00e-04,8.00e-02,
198,1.20e-03,1.00e-01,
199,-8.00e-04,6.00e-02,
200,-8.00e-04,1.00e-01,
201,1.20e-03,6.00e-02,
202,1.20e-03,6.00e-02,
203,-8.00e-04,8.00e-02,
204,2.40e-03,6.00e-02,
205,-2.40e-03,8.00e-02,
206,-3.20e-03,6.00e-02,
207,5.20e-03,8.00e-02,
208,7.20e-03,8.00e-02,
209,-7.20e-03,6.00e-02,
210,1.04e-02,6.00e-02,
211,-9.60e-03,8.00e-02,
212,-8.00e-03,6.00e-02,
213,8.00e-03,8.00e-02,
214,4.80e-03,6.00e-02,
215,-3.60e-03,8.00e-02,
216,-2.40e-03,6.00e-02,
217,2.40e-03,8.00e-02,
218,1.60e-03,8.00e-02,
219,-8.00e-04,2.00e-02,
220,-8.00e-04,4.00e-02,
221,1.20e-03,8.00e-02,
222,1.20e-03,8.00e-02,
223,-8.00e-04,4.00e-02,
224,1.20e-03,8.00e-02,
225,-8.00e-04,2.00e-02,
226,1.60e-03,8.00e-02,
227,-1.20e-03,2.00e-02,
228,-2.00e-03,8.00e-02,
229,2.80e-03,2.00e-02,
230,2.80e-03,4.00e-02,
231,7.20e-03,1.66e+00,
232,4.00e-03,1.60e-01,
233,-1.20e-03,1.20e-01,
234,2.40e-03,1.40e-01,
235,-8.00e-04,8.00e-02,
236,-8.00e-04,1.00e-01,
237,2.00e-03,8.00e-02,
238,-1.20e-03,1.00e-01,
239,2.00e-03,6.00e-02,
240,-8.00e-04,6.00e-02,
241,1.60e-03,1.00e-01,
242,2.00e-03,6.00e-02,
243,-8.00e-04,8.00e-02,
244,2.00e-03,6.00e-02,
245,-1.60e-03,8.00e-02,
246,-2.80e-03,6.00e-02,
247,4.40e-03,8.00e-02,
248,6.80e-03,8.00e-02,
249,-6.00e-03,6.00e-02,
250,9.60e-03,8.00e-02,
251,-8.80e-03,6.00e-02,
252,-7.20e-03,6.00e-02,
253,7.20e-03,8.00e-02,
254,4.40e-03,8.00e-02,
255,-2.80e-03,6.00e-02,
256,-1.60e-03,8.00e-02,
257,2.40e-03,6.00e-02,
258,1.20e-03,8.00e-02,
259,-8.00e-04,4.00e-02,
260,2.00e-03,8.00e-02,
261,-8.00e-04,2.00e-02,
262,1.60e-03,8.00e-02,
263,-1.20e-03,2.00e-02,
264,-8.00e-04,8.00e-02,
265,1.20e-03,4.00e-02,
266,2.00e-03,8.00e-02,
267,-1.20e-03,2.00e-02,
268,2.80e-03,2.00e-02,
269,-2.40e-03,8.00e-02,
270,2.40e-03,2.00e-02,
271,7.20e-03,1.96e+00,
272,4.40e-03,1.60e-01,
273,-4.00e-04,1.20e-01,
274,3.20e-03,1.40e-01,
275,-8.00e-04,8.00e-02,
276,2.00e-03,8.00e-02,
277,-1.20e-03,1.00e-01,
278,2.00e-03,1.00e-01,
279,-1.20e-03,6.00e-02,
280,-8.00e-04,1.00e-01,
281,2.00e-03,6.00e-02,
282,2.00e-03,6.00e-02,
283,0.00e+00,8.00e-02,
284,2.40e-03,6.00e-02,
285,-1.60e-03,8.00e-02,
286,-2.40e-03,6.00e-02,
287,3.60e-03,8.00e-02,
288,5.60e-03,6.00e-02,
289,-6.00e-03,8.00e-02,
290,-8.40e-03,6.00e-02,
291,8.40e-03,8.00e-02,
292,-6.80e-03,8.00e-02,
293,6.40e-03,6.00e-02,
294,4.80e-03,6.00e-02,
295,-3.20e-03,8.00e-02,
296,-1.60e-03,8.00e-02,
297,1.20e-03,6.00e-02,
298,0.00e+00,8.00e-02,
299,2.00e-03,6.00e-02,
300,1.20e-03,8.00e-02,
301,-8.00e-04,6.00e-02,
302,1.20e-03,6.00e-02,
303,-8.00e-04,8.00e-02,
304,0.00e+00,8.00e-02,
305,1.20e-03,2.00e-02,
306,-8.00e-04,8.00e-02,
307,2.40e-03,4.00e-02,
308,2.40e-03,8.00e-02,
309,-1.60e-03,2.00e-02,
310,2.80e-03,2.00e+00,
311,7.20e-03,-2.00e-02,
312,4.00e-03,1.60e-01,
313,0.00e+00,1.20e-01,
314,3.60e-03,1.20e-01,
315,-1.20e-03,8.00e-02,
316,2.00e-03,1.00e-01,
317,-8.00e-04,8.00e-02,
318,2.00e-03,1.00e-01,
319,-1.20e-03,6.00e-02,
320,-1.60e-03,6.00e-02,
321,1.20e-03,1.00e-01,
322,2.00e-03,1.00e-01,
323,-8.00e-04,6.00e-02,
324,2.00e-03,8.00e-02,
325,-1.60e-03,6.00e-02,
326,-2.80e-03,6.00e-02,
327,4.00e-03,8.00e-02,
328,5.20e-03,6.00e-02,
329,-5.60e-03,8.00e-02,
330,8.00e-03,6.00e-02,
331,-6.80e-03,8.00e-02,
332,-5.60e-03,8.00e-02,
333,5.60e-03,6.00e-02,
334,4.00e-03,6.00e-02,
335,-2.40e-03,8.00e-02,
336,-1.60e-03,6.00e-02,
337,2.00e-03,8.00e-02,
338,1.20e-03,8.00e-02,
339,-8.00e-04,6.00e-02,
340,1.20e-03,6.00e-02,
341,-8.00e-04,8.00e-02,
342,1.20e-03,8.00e-02,
343,-8.00e-04,4.00e-02,
344,-8.00e-04,8.00e-02,
345,2.00e-03,2.00e-02,
346,-1.20e-03,8.00e-02,
347,2.00e-03,2.00e-02,
348,-2.80e-03,8.00e-02,
349,2.80e-03,2.00e-02,
350,3.20e-03,2.00e-02,
351,7.20e-03,1.70e+00,
352,4.80e-03,1.60e-01,
353,-8.00e-04,1.20e-01,
354,3.60e-03,1.40e-01,
355,-8.00e-04,8.00e-02,
356,1.20e-03,8.00e-02,
357,-8.00e-04,1.00e-01,
358,2.40e-03,1.00e-01,
359,-4.00e-04,6.00e-02,
360,-8.00e-04,6.00e-02,
361,2.00e-03,1.00e-01,
362,0.00e+00,6.00e-02,
363,1.60e-03,8.00e-02,
364,1.20e-03,8.00e-02,
365,-1.60e-03,6.00e-02,
366,-1.60e-03,6.00e-02,
367,2.80e-03,8.00e-02,
368,4.40e-03,6.00e-02,
369,-5.20e-03,8.00e-02,
370,-6.40e-03,6.00e-02,
371,7.60e-03,8.00e-02,
372,-4.80e-03,6.00e-02,
373,5.20e-03,8.00e-02,
374,2.80e-03,6.00e-02,
375,-2.40e-03,8.00e-02,
376,-1.60e-03,6.00e-02,
377,2.00e-03,8.00e-02,
378,1.20e-03,8.00e-02,
379,-8.00e-04,4.00e-02,
380,-8.00e-04,6.00e-02,
381,1.20e-03,8.00e-02,
382,1.60e-03,6.00e-02,
383,-8.00e-04,8.00e-02,
384,-8.00e-04,8.00e-02,
385,2.00e-03,4.00e-02,
386,1.60e-03,8.00e-02,
387,-1.20e-03,2.00e-02,
388,-2.80e-03,2.00e-02,
389,2.80e-03,8.00e-02,
390,3.20e-03,2.00e-02,
391,7.20e-03,1.88e+00,
392,4.80e-03,1.60e-01,
393,-1.20e-03,1.20e-01,
394,3.20e-03,1.20e-01,
395,-8.00e-04,8.00e-02,
396,1.20e-03,1.00e-01,
397,-1.20e-03,8.00e-02,
398,2.00e-03,1.00e-01,
399,-1.20e-03,6.00e-02,
400,2.00e-03,1.00e-01,
401,-8.00e-04,6.00e-02,
402,0.00e+00,8.00e-02,
403,2.00e-03,6.00e-02,
404,2.00e-03,6.00e-02,
405,-8.00e-04,8.00e-02,
406,2.40e-03,6.00e-02,
407,-1.60e-03,8.00e-02,
408,3.60e-03,6.00e-02,
409,-4.40e-03,8.00e-02,
410,-5.60e-03,6.00e-02,
411,6.40e-03,8.00e-02,
412,-4.80e-03,8.00e-02,
413,4.80e-03,6.00e-02,
414,3.60e-03,6.00e-02,
415,-2.40e-03,8.00e-02,
416,-1.20e-03,6.00e-02,
417,1.60e-03,8.00e-02,
418,1.20e-03,8.00e-02,
419,-8.00e-04,4.00e-02,
420,0.00e+00,8.00e-02,
421,2.00e-03,2.00e-02,
422,-8.00e-04,8.00e-02,
423,2.00e-03,2.00e-02,
424,-8.00e-04,8.00e-02,
425,1.20e-03,2.00e-02,
426,-8.00e-04,8.00e-02,
427,2.40e-03,2.00e-02,
428,2.40e-03,2.00e-02,
429,-2.80e-03,8.00e-02,
430,2.80e-03,2.00e-02,
431,7.60e-03,1.90e+00,
432,4.80e-03,1.60e-01,
433,-8.00e-04,1.20e-01,
434,4.00e-03,1.20e-01,
435,-1.20e-03,8.00e-02,
436,2.00e-03,1.00e-01,
437,-8.00e-04,8.00e-02,
438,2.00e-03,1.00e-01,
439,-8.00e-04,6.00e-02,
440,-8.00e-04,6.00e-02,
441,2.00e-03,8.00e-02,
442,1.20e-03,6.00e-02,
443,0.00e+00,8.00e-02,
444,-8.00e-04,8.00e-02,
445,2.00e-03,6.00e-02,
446,-1.60e-03,6.00e-02,
447,2.80e-03,8.00e-02,
448,4.00e-03,6.00e-02,
449,-4.40e-03,8.00e-02,
450,5.60e-03,6.00e-02,
451,-4.40e-03,8.00e-02,
452,-4.00e-03,8.00e-02,
453,3.60e-03,6.00e-02,
454,2.80e-03,6.00e-02,
455,-1.60e-03,8.00e-02,
456,-8.00e-04,8.00e-02,
457,2.00e-03,4.00e-02,
458,0.00e+00,8.00e-02,
459,1.60e-03,4.00e-02,
460,1.20e-03,8.00e-02,
461,-1.20e-03,2.00e-02,
462,-8.00e-04,8.00e-02,
463,2.00e-03,2.00e-02,
464,-8.00e-04,8.00e-02,
465,1.20e-03,4.00e-02,
466,2.00e-03,2.00e-02,
467,-8.00e-04,8.00e-02,
468,2.80e-03,8.00e-02,
469,-3.20e-03,2.00e-02,
470,2.40e-03,2.00e-02,
471,7.20e-03,1.78e+00,
472,4.00e-03,1.60e-01,
473,-8.00e-04,1.20e-01,
474,3.60e-03,8.00e-02,
475,-1.20e-03,1.40e-01,
476,-8.00e-04,1.00e-01,
477,2.40e-03,8.00e-02,
478,-8.00e-04,1.00e-01,
479,2.00e-03,6.00e-02,
480,1.20e-03,6.00e-02,
481,-8.00e-04,1.00e-01,
482,1.20e-03,6.00e-02,
483,-8.00e-04,8.00e-02,
484,-8.00e-04,8.00e-02,
485,2.00e-03,6.00e-02,
486,-1.20e-03,6.00e-02,
487,2.80e-03,8.00e-02,
488,3.60e-03,8.00e-02,
489,-3.20e-03,6.00e-02,
490,5.20e-03,6.00e-02,
491,-4.00e-03,8.00e-02,
492,-3.20e-03,6.00e-02,
493,3.60e-03,8.00e-02,
494,3.20e-03,6.00e-02,
495,-1.60e-03,8.00e-02,
496,-1.20e-03,6.00e-02,
497,2.00e-03,8.00e-02,
498,1.20e-03,8.00e-02,
499,-8.00e-04,4.00e-02,
500,1.20e-03,8.00e-02,
501,-8.00e-04,4.00e-02,
502,2.00e-03,4.00e-02,
503,-4.00e-04,8.00e-02,
504,2.00e-03,8.00e-02,
505,-8.00e-04,2.00e-02,
506,2.00e-03,8.00e-02,
507,-1.20e-03,2.00e-02,
508,3.60e-03,2.00e-02,
509,-3.20e-03,8.00e-02,
510,2.00e-03,2.00e-02,
511,7.20e-03,1.86e+00,
512,4.80e-03,1.60e-01,
513,-4.00e-04,1.20e-01,
514,4.80e-03,1.40e-01,
515,-1.20e-03,8.00e-02,
516,2.40e-03,1.00e-01,
517,-1.20e-03,8.00e-02,
518,2.40e-03,1.00e-01,
519,-1.20e-03,6.00e-02,
520,0.00e+00,1.00e-01,
521,2.00e-03,6.00e-02,
522,1.20e-03,6.00e-02,
523,0.00e+00,1.00e-01,
524,1.20e-03,6.00e-02,
525,-1.20e-03,8.00e-02,
526,-1.20e-03,6.00e-02,
527,2.40e-03,8.00e-02,
528,2.80e-03,6.00e-02,
529,-2.80e-03,8.00e-02,
530,-3.60e-03,6.00e-02,
531,5.20e-03,8.00e-02,
532,-2.80e-03,8.00e-02,
533,3.60e-03,6.00e-02,
534,2.80e-03,8.00e-02,
535,-1.60e-03,4.00e-02,
536,-1.20e-03,8.00e-02,
537,1.20e-03,4.00e-02,
538,0.00e+00,8.00e-02,
539,1.20e-03,4.00e-02,
540,1.20e-03,8.00e-02,
541,-8.00e-04,4.00e-02,
542,1.20e-03,8.00e-02,
543,-8.00e-04,2.00e-02,
544,1.20e-03,8.00e-02,
545,-1.20e-03,2.00e-02,
546,-1.20e-03,8.00e-02,
547,2.40e-03,2.00e-02,
548,3.60e-03,2.00e-02,
549,-3.20e-03,8.00e-02,
550,1.60e-03,2.00e+00,
551,7.60e-03,-2.00e-02,
552,4.80e-03,1.60e-01,
553,-1.20e-03,8.00e-02,
554,4.00e-03,8.00e-02,
555,-1.20e-03,1.40e-01,
556,2.00e-03,1.00e-01,
557,-8.00e-04,6.00e-02,
558,2.00e-03,1.00e-01,
559,-1.20e-03,6.00e-02,
560,-1.60e-03,6.00e-02,
561,1.20e-03,8.00e-02,
562,1.20e-03,6.00e-02,
563,-8.00e-04,8.00e-02,
564,-8.00e-04,6.00e-02,
565,2.00e-03,8.00e-02,
566,-1.60e-03,6.00e-02,
567,2.40e-03,8.00e-02,
568,2.80e-03,6.00e-02,
569,-2.80e-03,8.00e-02,
570,-3.20e-03,8.00e-02,
571,4.80e-03,6.00e-02,
572,-3.20e-03,6.00e-02,
573,3.60e-03,8.00e-02,
574,2.40e-03,8.00e-02,
575,-1.20e-03,6.00e-02,
576,-8.00e-04,8.00e-02,
577,1.20e-03,4.00e-02,
578,1.20e-03,8.00e-02,
579,-8.00e-04,2.00e-02,
580,-8.00e-04,2.00e-02,
581,1.20e-03,8.00e-02,
582,2.00e-03,8.00e-02,
583,-8.00e-04,2.00e-02,
584,-8.00e-04,8.00e-02,
585,2.00e-03,2.00e-02,
586,2.40e-03,2.00e-02,
587,-1.60e-03,8.00e-02,
588,3.60e-03,4.00e-02,
589,-3.60e-03,2.00e-02,
590,2.00e-03,2.00e-02,
591,7.60e-03,1.98e+00,
592,4.80e-03,1.60e-01,
593,-8.00e-04,1.20e-01,
594,4.80e-03,1.40e-01,
595,-8.00e-04,8.00e-02,
596,-1.20e-03,1.00e-01,
597,2.40e-03,8.00e-02,
598,2.00e-03,1.00e-01,
599,-1.20e-03,6.00e-02,
600,-8.00e-04,6.00e-02,
601,2.00e-03,1.00e-01,
602,1.20e-03,8.00e-02,
603,-8.00e-04,6.00e-02,
604,2.00e-03,6.00e-02,
605,-8.00e-04,8.00e-02,
606,-8.00e-04,6.00e-02,
607,2.40e-03,8.00e-02,
608,2.80e-03,6.00e-02,
609,-2.40e-03,8.00e-02,
610,3.60e-03,6.00e-02,
611,-3.20e-03,8.00e-02,
612,-2.80e-03,8.00e-02,
613,2.40e-03,4.00e-02,
614,2.00e-03,6.00e-02,
615,-8.00e-04,8.00e-02,
616,-8.00e-04,6.00e-02,
617,2.00e-03,8.00e-02,
618,1.20e-03,6.00e-02,
619,-8.00e-04,8.00e-02,
620,-8.00e-04,8.00e-02,
621,1.20e-03,4.00e-02,
622,2.00e-03,8.00e-02,
623,-8.00e-04,2.00e-02,
624,-8.00e-04,2.00e-02,
625,2.00e-03,8.00e-02,
626,2.40e-03,2.00e-02,
627,-1.20e-03,8.00e-02,
628,3.60e-03,8.00e-02,
629,-3.20e-03,2.00e-02,
630,2.00e-03,4.00e-02,
631,7.20e-03,1.84e+00,
632,4.80e-03,1.80e-01,
633,-1.20e-03,1.20e-01,
634,4.00e-03,1.40e-01,
635,-1.60e-03,8.00e-02,
636,-1.20e-03,8.00e-02,
637,2.40e-03,1.00e-01,
638,2.40e-03,1.00e-01,
639,-8.00e-04,6.00e-02,
640,-1.20e-03,1.00e-01,
641,1.20e-03,6.00e-02,
642,1.20e-03,6.00e-02,
643,0.00e+00,1.00e-01,
644,-8.00e-04,6.00e-02,
645,1.20e-03,8.00e-02,
646,2.00e-03,6.00e-02,
647,-8.00e-04,8.00e-02,
648,2.40e-03,6.00e-02,
649,-2.40e-03,8.00e-02,
650,-2.40e-03,6.00e-02,
651,4.00e-03,8.00e-02,
652,-2.80e-03,6.00e-02,
653,2.80e-03,8.00e-02,
654,2.40e-03,6.00e-02,
655,-8.00e-04,8.00e-02,
656,1.20e-03,8.00e-02,
657,-8.00e-04,6.00e-02,
658,0.00e+00,8.00e-02,
659,1.20e-03,4.00e-02,
660,-8.00e-04,8.00e-02,
661,1.20e-03,4.00e-02,
662,1.20e-03,8.00e-02,
663,-8.00e-04,4.00e-02,
664,-1.20e-03,8.00e-02,
665,2.40e-03,2.00e-02,
666,-1.20e-03,8.00e-02,
667,2.40e-03,2.00e-02,
668,3.60e-03,8.00e-02,
669,-4.00e-03,2.00e-02,
670,8.00e-04,-1.00e-01,
671,7.20e-03,1.90e+00,
672,4.00e-03,1.60e-01,
673,-1.20e-03,1.20e-01,
674,4.00e-03,1.40e-01,
675,-1.60e-03,8.00e-02,
676,-1.20e-03,8.00e-02,
677,2.40e-03,1.00e-01,
678,-4.00e-04,1.00e-01,
679,2.40e-03,6.00e-02,
680,-8.00e-04,1.00e-01,
681,2.00e-03,6.00e-02,
682,2.00e-03,8.00e-02,
683,0.00e+00,6.00e-02,
684,1.60e-03,6.00e-02,
685,-8.00e-04,8.00e-02,
686,2.00e-03,6.00e-02,
687,-1.20e-03,8.00e-02,
688,2.00e-03,6.00e-02,
689,-2.40e-03,8.00e-02,
690,3.60e-03,6.00e-02,
691,-2.40e-03,8.00e-02,
692,-2.40e-03,6.00e-02,
693,2.00e-03,8.00e-02,
694,1.20e-03,6.00e-02,
695,-1.20e-03,8.00e-02,
696,8.00e-04,6.00e-02,
697,-8.00e-04,8.00e-02,
698,0.00e+00,6.00e-02,
699,1.20e-03,8.00e-02,
700,-8.00e-04,8.00e-02,
701,8.00e-04,4.00e-02,
702,1.20e-03,8.00e-02,
703,-1.20e-03,4.00e-02,
704,2.00e-03,8.00e-02,
705,-1.20e-03,2.00e-02,
706,-1.20e-03,8.00e-02,
707,2.40e-03,2.00e-02,
708,3.20e-03,2.00e-02,
709,-4.00e-03,8.00e-02,
710,1.20e-03,4.00e-02,
711,7.20e-03,1.82e+00,
712,4.00e-03,1.80e-01,
713,-1.20e-03,8.00e-02,
714,4.80e-03,8.00e-02,
715,-1.20e-03,1.40e-01,
716,-1.20e-03,1.00e-01,
717,2.40e-03,8.00e-02,
718,2.40e-03,1.00e-01,
719,-8.00e-04,6.00e-02,
720,1.20e-03,1.00e-01,
721,-8.00e-04,6.00e-02,
722,1.20e-03,6.00e-02,
723,-8.00e-04,1.00e-01,
724,-8.00e-04,6.00e-02,
725,8.00e-04,8.00e-02,
726,-8.00e-04,6.00e-02,
727,2.40e-03,8.00e-02,
728,2.00e-03,6.00e-02,
729,-1.60e-03,8.00e-02,
730,-2.00e-03,8.00e-02,
731,3.60e-03,6.00e-02,
732,-1.20e-03,6.00e-02,
733,2.40e-03,8.00e-02,
734,-8.00e-04,8.00e-02,
735,2.00e-03,6.00e-02,
736,-8.00e-04,8.00e-02,
737,1.20e-03,6.00e-02,
738,0.00e+00,8.00e-02,
739,1.20e-03,4.00e-02,
740,1.20e-03,8.00e-02,
741,-1.20e-03,4.00e-02,
742,1.20e-03,6.00e-02,
743,-8.00e-04,8.00e-02,
744,2.40e-03,8.00e-02,
745,-1.20e-03,2.00e-02,
746,-1.60e-03,8.00e-02,
747,3.20e-03,4.00e-02,
748,4.00e-03,8.00e-02,
749,-4.00e-03,4.00e-02,
750,1.60e-03,2.00e-02,
751,8.00e-03,1.80e+00,
752,4.80e-03,1.60e-01,
753,-1.20e-03,1.20e-01,
754,4.40e-03,1.40e-01,
755,-2.40e-03,8.00e-02,
756,-1.60e-03,1.00e-01,
757,2.00e-03,8.00e-02,
758,1.20e-03,1.00e-01,
759,-1.60e-03,6.00e-02,
760,-8.00e-04,1.00e-01,
761,1.60e-03,6.00e-02,
762,-8.00e-04,1.00e-01,
763,1.20e-03,6.00e-02,
764,1.20e-03,6.00e-02,
765,-4.00e-04,8.00e-02,
766,-8.00e-04,6.00e-02,
767,1.60e-03,8.00e-02,
768,1.20e-03,6.00e-02,
769,-1.60e-03,8.00e-02,
770,-1.60e-03,8.00e-02,
771,2.80e-03,6.00e-02,
772,-1.60e-03,8.00e-02,
773,1.60e-03,6.00e-02,
774,-4.00e-04,6.00e-02,
775,2.40e-03,8.00e-02,
776,-4.00e-04,8.00e-02,
777,1.20e-03,2.00e-02,
778,1.20e-03,6.00e-02,
779,-8.00e-04,8.00e-02,
780,-4.00e-04,8.00e-02,
781,1.20e-03,2.00e-02,
782,2.00e-03,8.00e-02,
783,-4.00e-04,2.00e-02,
784,-1.20e-03,4.00e-02,
785,1.20e-03,8.00e-02,
786,-1.20e-03,8.00e-02,
787,2.80e-03,2.00e-02,
788,4.00e-03,8.00e-02,
789,-4.00e-03,2.00e-02,
790,8.00e-04,2.00e-02,
791,7.60e-03,1.86e+00,
792,4.80e-03,1.80e-01,
793,-1.20e-03,1.20e-01,
794,4.80e-03,1.40e-01,
795,-1.60e-03,8.00e-02,
796,-1.20e-03,1.00e-01,
797,2.40e-03,8.00e-02,
798,2.00e-03,1.00e-01,
799,-8.00e-04,6.00e-02,
800,-8.00e-04,1.00e-01,
801,1.60e-03,6.00e-02,
802,1.20e-03,6.00e-02,
803,-8.00e-04,8.00e-02,
804,1.20e-03,6.00e-02,
805,-4.00e-04,8.00e-02,
806,-8.00e-04,8.00e-02,
807,1.60e-03,6.00e-02,
808,2.00e-03,8.00e-02,
809,-1.20e-03,6.00e-02,
810,2.80e-03,6.00e-02,
811,-1.60e-03,8.00e-02,
812,-1.60e-03,6.00e-02,
813,2.00e-03,8.00e-02,
814,1.20e-03,6.00e-02,
815,-8.00e-04,8.00e-02,
816,-4.00e-04,8.00e-02,
817,1.20e-03,4.00e-02,
818,-8.00e-04,8.00e-02,
819,1.20e-03,6.00e-02,
820,0.00e+00,8.00e-02,
821,1.60e-03,4.00e-02,
822,2.00e-03,8.00e-02,
823,-8.00e-04,4.00e-02,
824,-1.20e-03,8.00e-02,
825,2.00e-03,2.00e-02,
826,2.40e-03,8.00e-02,
827,-1.60e-03,4.00e-02,
828,4.40e-03,2.00e-02,
829,-4.00e-03,8.00e-02,
830,1.20e-03,1.76e+00,
831,8.00e-03,0.00e+00,
832,4.80e-03,1.80e-01,
833,-8.00e-04,1.20e-01,
834,5.20e-03,1.40e-01,
835,-2.40e-03,8.00e-02,
836,-1.20e-03,8.00e-02,
837,2.80e-03,1.00e-01,
838,2.40e-03,1.00e-01,
839,-1.20e-03,6.00e-02,
840,-8.00e-04,6.00e-02,
841,1.20e-03,1.00e-01,
842,0.00e+00,8.00e-02,
843,1.20e-03,6.00e-02,
844,-8.00e-04,6.00e-02,
845,2.00e-03,8.00e-02,
846,1.20e-03,8.00e-02,
847,-8.00e-04,6.00e-02,
848,1.20e-03,6.00e-02,
849,-1.20e-03,8.00e-02,
850,2.40e-03,6.00e-02,
851,-1.60e-03,8.00e-02,
852,-1.20e-03,6.00e-02,
853,2.00e-03,8.00e-02,
