CarrPurc_P1-19_P2-38_tauVary/Gly95/NewFile6.csv

X,CH1,CH2,Start,Increment,
Sequence,Volt,Volt,-6.000000e-04,1.000000e-04
0,0.00e+00,4.00e-02,
1,8.00e-04,2.00e-02,
2,0.00e+00,4.00e-02,
3,8.00e-04,2.00e-02,
4,8.00e-04,4.00e-02,
5,0.00e+00,0.00e+00,
6,8.00e-04,2.00e-02,
7,-4.00e-04,4.00e-02,
8,-8.00e-04,4.00e-02,
9,8.00e-04,2.00e-02,
10,0.00e+00,1.88e+00,
11,5.20e-03,-4.00e-02,
12,4.00e-03,1.60e-01,
13,-2.72e-02,8.00e-02,
14,-1.56e-02,1.20e-01,
15,1.56e-02,8.00e-02,
16,6.80e-03,1.00e-01,
17,-8.80e-03,6.00e-02,
18,-2.40e-03,1.00e-01,
19,3.60e-03,6.00e-02,
20,2.80e-03,6.00e-02,
21,-2.00e-03,1.00e-01,
22,2.80e-03,6.00e-02,
23,-1.60e-03,8.00e-02,
24,-1.60e-03,8.00e-02,
25,2.40e-03,6.00e-02,
26,2.00e-03,6.00e-02,
27,-1.20e-03,8.00e-02,
28,2.00e-03,6.00e-02,
29,-1.20e-03,8.00e-02,
30,8.00e-04,6.00e-02,
31,7.20e-03,1.94e+00,
32,4.40e-03,1.60e-01,
33,-8.40e-03,1.20e-01,
34,-8.80e-03,1.20e-01,
35,6.40e-03,8.00e-02,
36,3.60e-03,1.00e-01,
37,-1.60e-03,6.00e-02,
38,-8.00e-04,1.00e-01,
39,2.00e-03,6.00e-02,
40,-1.20e-03,6.00e-02,
41,2.00e-03,1.00e-01,
42,1.20e-03,6.00e-02,
43,-8.00e-04,8.00e-02,
44,-2.80e-03,6.00e-02,
45,4.80e-03,8.00e-02,
46,8.40e-03,6.00e-02,
47,-8.80e-03,8.00e-02,
48,-1.48e-02,8.00e-02,
49,1.68e-02,6.00e-02,
50,-2.00e-02,6.00e-02,
51,2.16e-02,8.00e-02,
52,-1.88e-02,6.00e-02,
53,1.80e-02,8.00e-02,
54,1.12e-02,6.00e-02,
55,-7.60e-03,8.00e-02,
56,-5.60e-03,8.00e-02,
57,4.00e-03,4.00e-02,
58,2.40e-03,2.00e-02,
59,-1.20e-03,8.00e-02,
60,-8.00e-04,2.00e-02,
61,2.00e-03,8.00e-02,
62,-1.20e-03,8.00e-02,
63,1.60e-03,2.00e-02,
64,2.00e-03,8.00e-02,
65,-8.00e-04,2.00e-02,
66,-8.00e-04,2.00e-02,
67,1.60e-03,8.00e-02,
68,0.00e+00,8.00e-02,
69,2.00e-03,2.00e-02,
70,4.00e-04,1.94e+00,
71,7.20e-03,-2.00e-02,
72,4.00e-03,1.60e-01,
73,0.00e+00,8.00e-02,
74,2.40e-03,1.20e-01,
75,-8.00e-04,8.00e-02,
76,2.40e-03,1.00e-01,
77,-8.00e-04,6.00e-02,
78,-1.20e-03,1.00e-01,
79,2.00e-03,6.00e-02,
80,-8.00e-04,8.00e-02,
81,1.20e-03,6.00e-02,
82,2.40e-03,8.00e-02,
83,-1.20e-03,6.00e-02,
84,-3.20e-03,8.00e-02,
85,4.40e-03,6.00e-02,
86,-5.60e-03,6.00e-02,
87,7.20e-03,8.00e-02,
88,1.12e-02,8.00e-02,
89,-1.24e-02,6.00e-02,
90,1.64e-02,6.00e-02,
91,-1.68e-02,8.00e-02,
92,-1.32e-02,8.00e-02,
93,1.12e-02,4.00e-02,
94,7.20e-03,8.00e-02,
95,-5.20e-03,2.00e-02,
96,-3.20e-03,8.00e-02,
97,2.80e-03,2.00e-02,
98,2.40e-03,8.00e-02,
99,-1.20e-03,2.00e-02,
100,-1.20e-03,8.00e-02,
101,2.00e-03,2.00e-02,
102,2.40e-03,8.00e-02,
103,-8.00e-04,2.00e-02,
104,-1.20e-03,2.00e-02,
105,1.60e-03,8.00e-02,
106,2.40e-03,2.00e-02,
107,-2.40e-03,8.00e-02,
108,-3.20e-03,2.00e-02,
109,5.20e-03,8.00e-02,
110,2.80e-03,2.00e-02,
111,7.20e-03,1.86e+00,
112,4.80e-03,1.60e-01,
113,0.00e+00,1.20e-01,
114,2.40e-03,1.40e-01,
115,-8.00e-04,8.00e-02,
116,2.00e-03,1.00e-01,
117,-8.00e-04,6.00e-02,
118,-8.00e-04,1.00e-01,
119,2.40e-03,6.00e-02,
120,2.00e-03,6.00e-02,
121,-8.00e-04,1.00e-01,
122,-1.20e-03,6.00e-02,
123,2.00e-03,8.00e-02,
124,3.60e-03,6.00e-02,
125,-2.80e-03,8.00e-02,
126,-5.20e-03,8.00e-02,
127,7.20e-03,6.00e-02,
128,1.04e-02,6.00e-02,
129,-1.32e-02,8.00e-02,
130,1.60e-02,6.00e-02,
131,-1.44e-02,8.00e-02,
132,-1.20e-02,8.00e-02,
133,1.04e-02,2.00e-02,
134,7.60e-03,8.00e-02,
135,-5.20e-03,4.00e-02,
136,-2.80e-03,2.00e-02,
137,3.60e-03,8.00e-02,
138,2.40e-03,8.00e-02,
139,-1.20e-03,2.00e-02,
140,-8.00e-04,8.00e-02,
141,2.00e-03,2.00e-02,
142,2.40e-03,8.00e-02,
143,-8.00e-04,2.00e-02,
144,-8.00e-04,8.00e-02,
145,1.20e-03,2.00e-02,
146,2.40e-03,8.00e-02,
147,-1.60e-03,2.00e-02,
148,-3.60e-03,2.00e-02,
149,4.00e-03,8.00e-02,
150,3.20e-03,2.00e-02,
151,7.20e-03,1.96e+00,
152,4.80e-03,1.60e-01,
153,-1.60e-03,1.00e-01,
154,-1.20e-03,1.20e-01,
155,2.80e-03,8.00e-02,
156,1.20e-03,8.00e-02,
157,-8.00e-04,1.00e-01,
158,-8.00e-04,1.00e-01,
159,2.40e-03,6.00e-02,
160,-1.20e-03,6.00e-02,
161,2.00e-03,1.00e-01,
162,0.00e+00,6.00e-02,
163,2.80e-03,8.00e-02,
164,2.80e-03,6.00e-02,
165,-2.40e-03,8.00e-02,
166,-4.00e-03,6.00e-02,
167,5.20e-03,8.00e-02,
168,7.60e-03,6.00e-02,
169,-9.20e-03,8.00e-02,
170,-1.20e-02,8.00e-02,
171,1.24e-02,6.00e-02,
172,-1.16e-02,6.00e-02,
173,8.80e-03,8.00e-02,
174,5.60e-03,8.00e-02,
175,-4.40e-03,4.00e-02,
176,-2.40e-03,8.00e-02,
177,2.80e-03,4.00e-02,
178,2.40e-03,8.00e-02,
179,0.00e+00,2.00e-02,
180,0.00e+00,8.00e-02,
181,1.20e-03,2.00e-02,
182,0.00e+00,8.00e-02,
183,1.60e-03,2.00e-02,
184,0.00e+00,8.00e-02,
185,1.20e-03,2.00e-02,
186,-8.00e-04,2.00e-02,
187,1.20e-03,8.00e-02,
188,2.40e-03,8.00e-02,
189,-1.60e-03,2.00e-02,
190,2.80e-03,1.94e+00,
191,7.20e-03,-2.00e-02,
192,4.40e-03,1.60e-01,
193,-1.20e-03,8.00e-02,
194,-8.00e-04,1.20e-01,
195,2.40e-03,8.00e-02,
196,1.20e-03,1.00e-01,
197,0.00e+00,6.00e-02,
198,2.00e-03,1.00e-01,
199,-8.00e-04,6.00e-02,
200,1.20e-03,6.00e-02,
201,-8.00e-04,1.00e-01,
202,-8.00e-04,6.00e-02,
203,2.40e-03,8.00e-02,
204,2.40e-03,6.00e-02,
205,-2.40e-03,8.00e-02,
206,-4.00e-03,6.00e-02,
207,6.00e-03,8.00e-02,
208,7.20e-03,8.00e-02,
209,-8.40e-03,6.00e-02,
210,-1.08e-02,6.00e-02,
211,1.16e-02,8.00e-02,
212,-8.40e-03,6.00e-02,
213,8.00e-03,8.00e-02,
214,5.60e-03,4.00e-02,
215,-3.60e-03,8.00e-02,
216,-1.60e-03,6.00e-02,
217,2.80e-03,8.00e-02,
218,-8.00e-04,8.00e-02,
219,2.00e-03,2.00e-02,
220,-8.00e-04,8.00e-02,
221,1.20e-03,2.00e-02,
222,1.20e-03,8.00e-02,
223,-1.20e-03,2.00e-02,
224,-1.20e-03,8.00e-02,
225,1.20e-03,2.00e-02,
226,1.20e-03,8.00e-02,
227,-1.20e-03,2.00e-02,
228,-1.60e-03,2.00e-02,
229,3.60e-03,8.00e-02,
230,2.80e-03,2.00e-02,
231,7.20e-03,1.88e+00,
232,4.00e-03,1.60e-01,
233,-8.00e-04,1.20e-01,
234,3.20e-03,1.40e-01,
235,-1.20e-03,8.00e-02,
236,1.60e-03,1.00e-01,
237,-1.20e-03,8.00e-02,
238,2.00e-03,1.00e-01,
239,-8.00e-04,6.00e-02,
240,1.20e-03,6.00e-02,
241,-8.00e-04,1.00e-01,
242,1.20e-03,6.00e-02,
243,-8.00e-04,8.00e-02,
244,2.40e-03,6.00e-02,
245,-1.20e-03,8.00e-02,
246,-3.20e-03,6.00e-02,
247,4.80e-03,8.00e-02,
248,6.80e-03,8.00e-02,
249,-7.60e-03,6.00e-02,
250,1.00e-02,8.00e-02,
251,-1.00e-02,6.00e-02,
252,-8.00e-03,6.00e-02,
253,6.80e-03,8.00e-02,
254,5.20e-03,8.00e-02,
255,-3.20e-03,4.00e-02,
256,-1.60e-03,8.00e-02,
257,2.80e-03,2.00e-02,
258,2.40e-03,2.00e-02,
259,-8.00e-04,8.00e-02,
260,2.00e-03,8.00e-02,
261,-1.60e-03,2.00e-02,
262,-8.00e-04,8.00e-02,
263,2.00e-03,2.00e-02,
264,2.00e-03,2.00e-02,
265,-8.00e-04,8.00e-02,
266,1.20e-03,2.00e-02,
267,-1.20e-03,8.00e-02,
268,-2.40e-03,2.00e-02,
269,3.60e-03,8.00e-02,
270,2.80e-03,2.00e-02,
271,7.20e-03,1.94e+00,
272,4.80e-03,1.60e-01,
273,-1.20e-03,1.20e-01,
274,3.20e-03,1.40e-01,
275,-1.20e-03,8.00e-02,
276,1.20e-03,1.00e-01,
277,-1.20e-03,6.00e-02,
278,-8.00e-04,1.00e-01,
279,2.40e-03,6.00e-02,
280,-1.20e-03,6.00e-02,
281,2.00e-03,1.00e-01,
282,1.20e-03,6.00e-02,
283,-8.00e-04,8.00e-02,
284,2.00e-03,6.00e-02,
285,-1.20e-03,8.00e-02,
286,-2.80e-03,6.00e-02,
287,4.00e-03,8.00e-02,
288,6.40e-03,6.00e-02,
289,-7.20e-03,8.00e-02,
290,9.60e-03,6.00e-02,
291,-8.80e-03,8.00e-02,
292,-7.20e-03,8.00e-02,
293,6.80e-03,6.00e-02,
294,4.00e-03,8.00e-02,
295,-3.60e-03,2.00e-02,
296,-2.00e-03,8.00e-02,
297,2.00e-03,2.00e-02,
298,1.20e-03,8.00e-02,
299,-8.00e-04,2.00e-02,
300,-1.20e-03,8.00e-02,
301,1.20e-03,2.00e-02,
302,1.60e-03,2.00e-02,
303,-8.00e-04,8.00e-02,
304,1.20e-03,8.00e-02,
305,-8.00e-04,2.00e-02,
306,2.00e-03,2.00e-02,
307,-1.60e-03,8.00e-02,
308,-1.60e-03,2.00e-02,
309,2.80e-03,8.00e-02,
310,2.80e-03,1.94e+00,
311,8.00e-03,-2.00e-02,
312,4.80e-03,1.60e-01,
313,-8.00e-04,8.00e-02,
314,2.80e-03,8.00e-02,
315,-1.20e-03,1.20e-01,
316,2.00e-03,1.00e-01,
317,-1.20e-03,8.00e-02,
318,1.20e-03,1.00e-01,
319,-1.20e-03,6.00e-02,
320,-8.00e-04,6.00e-02,
321,2.00e-03,1.00e-01,
322,-1.20e-03,6.00e-02,
323,2.00e-03,8.00e-02,
324,2.00e-03,8.00e-02,
325,-1.60e-03,6.00e-02,
326,-2.80e-03,6.00e-02,
327,4.00e-03,8.00e-02,
328,6.40e-03,6.00e-02,
329,-6.40e-03,8.00e-02,
330,8.40e-03,6.00e-02,
331,-8.40e-03,8.00e-02,
332,-6.80e-03,8.00e-02,
333,5.60e-03,6.00e-02,
334,3.60e-03,8.00e-02,
335,-2.40e-03,4.00e-02,
336,-1.60e-03,8.00e-02,
337,2.40e-03,2.00e-02,
338,2.00e-03,8.00e-02,
339,-8.00e-04,2.00e-02,
340,2.00e-03,2.00e-02,
341,-4.00e-04,8.00e-02,
342,2.00e-03,8.00e-02,
343,0.00e+00,2.00e-02,
344,2.00e-03,2.00e-02,
345,-4.00e-04,8.00e-02,
346,1.60e-03,2.00e-02,
347,-1.20e-03,8.00e-02,
348,2.80e-03,8.00e-02,
349,-2.80e-03,2.00e-02,
350,2.80e-03,2.00e-02,
351,7.20e-03,1.88e+00,
352,4.80e-03,1.60e-01,
353,-1.20e-03,1.20e-01,
354,3.60e-03,1.40e-01,
355,-1.20e-03,8.00e-02,
356,-8.00e-04,8.00e-02,
357,2.40e-03,1.00e-01,
358,2.00e-03,1.00e-01,
359,-8.00e-04,6.00e-02,
360,1.20e-03,6.00e-02,
361,-8.00e-04,8.00e-02,
362,-8.00e-04,6.00e-02,
363,1.60e-03,8.00e-02,
364,2.40e-03,8.00e-02,
365,-1.20e-03,6.00e-02,
366,-1.60e-03,6.00e-02,
367,4.40e-03,8.00e-02,
368,5.60e-03,6.00e-02,
369,-5.60e-03,8.00e-02,
370,-7.20e-03,6.00e-02,
371,8.40e-03,8.00e-02,
372,-6.00e-03,8.00e-02,
373,5.60e-03,4.00e-02,
374,4.00e-03,8.00e-02,
375,-2.40e-03,2.00e-02,
376,-1.60e-03,8.00e-02,
377,2.00e-03,2.00e-02,
378,1.20e-03,8.00e-02,
379,-8.00e-04,2.00e-02,
380,-8.00e-04,8.00e-02,
381,1.20e-03,2.00e-02,
382,-1.20e-03,8.00e-02,
383,2.40e-03,2.00e-02,
384,2.00e-03,8.00e-02,
385,-8.00e-04,2.00e-02,
386,2.00e-03,8.00e-02,
387,-1.20e-03,2.00e-02,
388,2.80e-03,2.00e-02,
389,-2.40e-03,8.00e-02,
390,2.80e-03,2.00e-02,
391,7.60e-03,1.94e+00,
392,4.80e-03,1.60e-01,
393,-8.00e-04,1.20e-01,
394,4.00e-03,1.20e-01,
395,-1.60e-03,8.00e-02,
396,-1.20e-03,1.00e-01,
397,2.00e-03,6.00e-02,
398,2.40e-03,1.00e-01,
399,-8.00e-04,6.00e-02,
400,-8.00e-04,6.00e-02,
401,2.00e-03,8.00e-02,
402,0.00e+00,8.00e-02,
403,2.00e-03,6.00e-02,
404,2.00e-03,6.00e-02,
405,-1.60e-03,8.00e-02,
406,-1.20e-03,6.00e-02,
407,3.60e-03,8.00e-02,
408,4.00e-03,6.00e-02,
409,-4.40e-03,8.00e-02,
410,6.80e-03,6.00e-02,
411,-6.40e-03,8.00e-02,
412,-4.80e-03,8.00e-02,
413,5.20e-03,6.00e-02,
414,3.60e-03,6.00e-02,
415,-2.00e-03,8.00e-02,
416,-1.20e-03,8.00e-02,
417,2.40e-03,4.00e-02,
418,-8.00e-04,8.00e-02,
419,2.00e-03,2.00e-02,
420,1.60e-03,2.00e-02,
421,-4.00e-04,8.00e-02,
422,2.00e-03,2.00e-02,
423,0.00e+00,8.00e-02,
424,1.60e-03,8.00e-02,
425,-8.00e-04,2.00e-02,
426,-1.60e-03,8.00e-02,
427,2.00e-03,2.00e-02,
428,2.80e-03,8.00e-02,
429,-3.20e-03,2.00e-02,
430,2.80e-03,1.92e+00,
431,7.20e-03,0.00e+00,
432,4.80e-03,1.60e-01,
433,-8.00e-04,1.20e-01,
434,4.00e-03,1.20e-01,
435,-2.00e-03,8.00e-02,
436,-1.60e-03,1.00e-01,
437,2.00e-03,8.00e-02,
438,2.40e-03,1.00e-01,
439,-8.00e-04,6.00e-02,
440,-8.00e-04,6.00e-02,
441,2.00e-03,1.00e-01,
442,2.00e-03,6.00e-02,
443,-8.00e-04,8.00e-02,
444,2.00e-03,8.00e-02,
445,-1.20e-03,6.00e-02,
446,-1.60e-03,6.00e-02,
447,3.60e-03,8.00e-02,
448,4.40e-03,6.00e-02,
449,-4.00e-03,8.00e-02,
450,6.40e-03,6.00e-02,
451,-5.20e-03,8.00e-02,
452,-4.00e-03,8.00e-02,
453,4.80e-03,6.00e-02,
454,2.80e-03,8.00e-02,
455,-1.60e-03,4.00e-02,
456,-1.20e-03,8.00e-02,
457,2.00e-03,6.00e-02,
458,1.60e-03,8.00e-02,
459,-4.00e-04,2.00e-02,
460,0.00e+00,8.00e-02,
461,1.20e-03,2.00e-02,
462,-8.00e-04,2.00e-02,
463,2.00e-03,8.00e-02,
464,-1.20e-03,2.00e-02,
465,1.60e-03,8.00e-02,
466,-1.20e-03,8.00e-02,
467,2.40e-03,2.00e-02,
468,2.80e-03,8.00e-02,
469,-2.80e-03,2.00e-02,
470,3.20e-03,2.00e-02,
471,8.00e-03,1.92e+00,
472,4.00e-03,1.60e-01,
473,-1.20e-03,1.20e-01,
474,4.00e-03,1.20e-01,
475,-1.60e-03,8.00e-02,
476,-8.00e-04,1.00e-01,
477,2.00e-03,8.00e-02,
478,2.80e-03,1.00e-01,
479,0.00e+00,6.00e-02,
480,1.20e-03,6.00e-02,
481,-4.00e-04,1.00e-01,
482,1.20e-03,6.00e-02,
483,-8.00e-04,8.00e-02,
484,-8.00e-04,8.00e-02,
485,2.00e-03,6.00e-02,
486,2.40e-03,6.00e-02,
487,-1.60e-03,8.00e-02,
488,4.00e-03,8.00e-02,
489,-3.20e-03,6.00e-02,
490,6.00e-03,6.00e-02,
491,-4.80e-03,8.00e-02,
492,-4.00e-03,8.00e-02,
493,4.80e-03,2.00e-02,
494,3.60e-03,8.00e-02,
495,-1.20e-03,2.00e-02,
496,-8.00e-04,2.00e-02,
497,2.40e-03,8.00e-02,
498,1.20e-03,8.00e-02,
499,-8.00e-04,2.00e-02,
500,1.20e-03,2.00e-02,
501,-1.20e-03,8.00e-02,
502,1.20e-03,8.00e-02,
503,-8.00e-04,2.00e-02,
504,-1.20e-03,8.00e-02,
505,1.20e-03,2.00e-02,
506,-1.20e-03,2.00e-02,
507,2.40e-03,8.00e-02,
508,3.20e-03,2.00e-02,
509,-3.20e-03,8.00e-02,
510,2.00e-03,1.92e+00,
511,7.20e-03,0.00e+00,
512,4.40e-03,1.60e-01,
513,-4.00e-04,1.20e-01,
514,4.00e-03,1.40e-01,
515,-1.60e-03,8.00e-02,
516,-1.20e-03,1.00e-01,
517,2.00e-03,6.00e-02,
518,-8.00e-04,1.00e-01,
519,2.40e-03,6.00e-02,
520,0.00e+00,6.00e-02,
521,1.60e-03,1.00e-01,
522,2.00e-03,6.00e-02,
523,0.00e+00,8.00e-02,
524,2.00e-03,6.00e-02,
525,-8.00e-04,8.00e-02,
526,2.40e-03,6.00e-02,
527,-1.60e-03,8.00e-02,
528,3.60e-03,6.00e-02,
529,-3.60e-03,8.00e-02,
530,-4.40e-03,6.00e-02,
531,5.20e-03,8.00e-02,
532,-4.00e-03,8.00e-02,
533,4.00e-03,6.00e-02,
534,2.80e-03,8.00e-02,
535,-1.60e-03,6.00e-02,
536,-1.20e-03,6.00e-02,
537,1.20e-03,8.00e-02,
538,1.20e-03,8.00e-02,
539,-1.20e-03,2.00e-02,
540,1.20e-03,8.00e-02,
541,-8.00e-04,2.00e-02,
542,-1.20e-03,8.00e-02,
543,2.00e-03,2.00e-02,
544,1.60e-03,8.00e-02,
545,-1.20e-03,2.00e-02,
546,-1.20e-03,2.00e-02,
547,2.80e-03,8.00e-02,
548,4.00e-03,2.00e-02,
549,-3.20e-03,8.00e-02,
550,2.40e-03,2.00e-02,
551,8.00e-03,1.86e+00,
552,4.80e-03,1.60e-01,
553,-1.20e-03,1.20e-01,
554,4.00e-03,8.00e-02,
555,-1.20e-03,1.40e-01,
556,-8.00e-04,1.00e-01,
557,2.80e-03,6.00e-02,
558,2.00e-03,1.00e-01,
559,-1.20e-03,6.00e-02,
560,-8.00e-04,6.00e-02,
561,2.00e-03,1.00e-01,
562,0.00e+00,6.00e-02,
563,2.00e-03,8.00e-02,
564,1.60e-03,6.00e-02,
565,-8.00e-04,8.00e-02,
566,-1.20e-03,6.00e-02,
567,2.80e-03,8.00e-02,
568,4.00e-03,6.00e-02,
569,-2.80e-03,8.00e-02,
570,-3.20e-03,8.00e-02,
571,5.20e-03,6.00e-02,
572,-3.20e-03,2.00e-02,
573,4.00e-03,8.00e-02,
574,2.40e-03,8.00e-02,
575,-1.20e-03,4.00e-02,
576,-8.00e-04,8.00e-02,
577,2.00e-03,4.00e-02,
578,1.20e-03,8.00e-02,
579,-8.00e-04,2.00e-02,
580,0.00e+00,2.00e-02,
581,1.20e-03,8.00e-02,
582,-4.00e-04,8.00e-02,
583,2.40e-03,2.00e-02,
584,2.00e-03,8.00e-02,
585,-1.20e-03,2.00e-02,
586,-1.20e-03,8.00e-02,
587,2.80e-03,2.00e-02,
588,3.60e-03,8.00e-02,
589,-4.40e-03,2.00e-02,
590,1.60e-03,2.00e-02,
591,7.20e-03,1.92e+00,
592,4.80e-03,1.60e-01,
593,-8.00e-04,1.20e-01,
594,4.80e-03,1.40e-01,
595,-1.20e-03,8.00e-02,
596,-1.20e-03,1.00e-01,
597,2.40e-03,8.00e-02,
598,2.40e-03,1.00e-01,
599,-8.00e-04,6.00e-02,
600,2.00e-03,6.00e-02,
601,-8.00e-04,1.00e-01,
602,1.20e-03,8.00e-02,
603,-1.20e-03,6.00e-02,
604,2.00e-03,6.00e-02,
605,-1.20e-03,8.00e-02,
606,2.00e-03,6.00e-02,
607,-8.00e-04,8.00e-02,
608,2.80e-03,6.00e-02,
609,-2.80e-03,8.00e-02,
610,4.80e-03,6.00e-02,
611,-3.20e-03,8.00e-02,
612,-2.80e-03,8.00e-02,
613,2.80e-03,6.00e-02,
614,2.40e-03,8.00e-02,
615,-1.20e-03,4.00e-02,
616,1.20e-03,8.00e-02,
617,-8.00e-04,2.00e-02,
618,-8.00e-04,8.00e-02,
619,1.20e-03,2.00e-02,
620,-8.00e-04,8.00e-02,
621,1.20e-03,2.00e-02,
622,2.00e-03,8.00e-02,
623,-4.00e-04,2.00e-02,
624,2.00e-03,8.00e-02,
625,-1.60e-03,2.00e-02,
626,-1.60e-03,2.00e-02,
627,2.40e-03,8.00e-02,
628,4.00e-03,8.00e-02,
629,-4.00e-03,2.00e-02,
630,2.00e-03,1.90e+00,
631,8.00e-03,-2.00e-02,
632,4.80e-03,1.60e-01,
633,-1.20e-03,1.00e-01,
634,4.00e-03,1.20e-01,
635,-1.60e-03,8.00e-02,
636,2.40e-03,1.00e-01,
637,-1.60e-03,6.00e-02,
638,2.40e-03,1.00e-01,
639,-8.00e-04,6.00e-02,
640,-8.00e-04,6.00e-02,
641,2.00e-03,1.00e-01,
642,0.00e+00,6.00e-02,
643,2.00e-03,8.00e-02,
644,1.20e-03,6.00e-02,
645,-8.00e-04,8.00e-02,
646,-1.60e-03,6.00e-02,
647,2.40e-03,8.00e-02,
648,2.40e-03,6.00e-02,
649,-2.40e-03,8.00e-02,
650,-3.60e-03,8.00e-02,
651,4.00e-03,2.00e-02,
652,-1.60e-03,8.00e-02,
653,2.80e-03,4.00e-02,
654,2.40e-03,8.00e-02,
655,-8.00e-04,4.00e-02,
656,1.20e-03,8.00e-02,
657,-8.00e-04,2.00e-02,
658,0.00e+00,8.00e-02,
659,2.00e-03,2.00e-02,
660,1.20e-03,8.00e-02,
661,-8.00e-04,2.00e-02,
662,2.00e-03,2.00e-02,
663,-8.00e-04,8.00e-02,
664,1.60e-03,2.00e-02,
665,-1.20e-03,8.00e-02,
666,-1.60e-03,2.00e-02,
667,2.40e-03,8.00e-02,
668,4.00e-03,2.00e-02,
669,-3.60e-03,8.00e-02,
670,2.00e-03,2.00e-02,
671,7.20e-03,1.92e+00,
672,4.80e-03,1.60e-01,
673,-1.20e-03,1.20e-01,
674,4.80e-03,1.40e-01,
675,-1.60e-03,8.00e-02,
676,-1.60e-03,1.00e-01,
677,2.40e-03,6.00e-02,
678,2.40e-03,1.00e-01,
679,-8.00e-04,6.00e-02,
680,1.20e-03,6.00e-02,
681,-1.20e-03,1.00e-01,
682,0.00e+00,8.00e-02,
683,1.20e-03,6.00e-02,
684,-8.00e-04,6.00e-02,
685,2.40e-03,8.00e-02,
686,-8.00e-04,6.00e-02,
687,2.00e-03,8.00e-02,
688,2.40e-03,6.00e-02,
689,-2.40e-03,8.00e-02,
690,-2.80e-03,6.00e-02,
691,4.00e-03,8.00e-02,
692,-1.60e-03,6.00e-02,
693,2.80e-03,8.00e-02,
694,2.40e-03,8.00e-02,
695,-8.00e-04,2.00e-02,
696,1.20e-03,8.00e-02,
697,-8.00e-04,2.00e-02,
698,1.20e-03,8.00e-02,
699,-4.00e-04,2.00e-02,
700,1.20e-03,8.00e-02,
701,-8.00e-04,2.00e-02,
702,-1.20e-03,8.00e-02,
703,2.40e-03,4.00e-02,
704,2.00e-03,2.00e-02,
705,-1.20e-03,8.00e-02,
706,-1.60e-03,8.00e-02,
707,3.20e-03,2.00e-02,
708,3.60e-03,2.00e-02,
709,-4.40e-03,8.00e-02,
710,8.00e-04,2.00e-02,
711,8.00e-03,1.88e+00,
712,4.80e-03,1.60e-01,
713,-1.20e-03,1.20e-01,
714,4.00e-03,1.20e-01,
715,-2.40e-03,8.00e-02,
716,-1.20e-03,1.00e-01,
717,2.40e-03,8.00e-02,
718,2.00e-03,1.00e-01,
719,-1.60e-03,6.00e-02,
720,-8.00e-04,6.00e-02,
721,1.60e-03,1.00e-01,
722,1.20e-03,6.00e-02,
723,0.00e+00,1.00e-01,
724,1.20e-03,6.00e-02,
725,-8.00e-04,8.00e-02,
726,2.00e-03,6.00e-02,
727,-1.20e-03,8.00e-02,
728,2.40e-03,6.00e-02,
729,-2.40e-03,8.00e-02,
730,3.60e-03,8.00e-02,
731,-2.40e-03,6.00e-02,
732,-1.60e-03,6.00e-02,
733,2.40e-03,8.00e-02,
734,2.40e-03,8.00e-02,
735,-1.20e-03,6.00e-02,
736,-1.20e-03,8.00e-02,
737,1.20e-03,2.00e-02,
738,1.20e-03,8.00e-02,
739,-8.00e-04,2.00e-02,
740,-8.00e-04,8.00e-02,
741,1.20e-03,2.00e-02,
742,2.40e-03,2.00e-02,
743,-8.00e-04,8.00e-02,
744,1.60e-03,2.00e-02,
745,-1.20e-03,8.00e-02,
746,2.40e-03,8.00e-02,
747,-1.60e-03,2.00e-02,
748,4.00e-03,2.00e-02,
749,-4.00e-03,8.00e-02,
750,1.20e-03,1.94e+00,
751,7.20e-03,-4.00e-02,
752,4.00e-03,1.80e-01,
753,-8.00e-04,1.00e-01,
754,5.20e-03,1.40e-01,
755,-1.60e-03,8.00e-02,
756,-1.20e-03,1.00e-01,
757,2.40e-03,6.00e-02,
758,2.40e-03,6.00e-02,
759,-1.20e-03,1.00e-01,
760,2.00e-03,6.00e-02,
761,-4.00e-04,1.00e-01,
762,1.20e-03,8.00e-02,
763,-4.00e-04,6.00e-02,
764,0.00e+00,6.00e-02,
765,1.20e-03,8.00e-02,
766,-8.00e-04,6.00e-02,
767,2.00e-03,8.00e-02,
768,2.40e-03,6.00e-02,
769,-1.20e-03,8.00e-02,
770,-1.60e-03,8.00e-02,
771,3.20e-03,6.00e-02,
772,-1.60e-03,8.00e-02,
773,2.40e-03,6.00e-02,
774,2.40e-03,8.00e-02,
775,-8.00e-04,4.00e-02,
776,1.20e-03,4.00e-02,
777,-8.00e-04,8.00e-02,
778,1.20e-03,2.00e-02,
779,-8.00e-04,8.00e-02,
780,-1.20e-03,8.00e-02,
781,1.20e-03,2.00e-02,
782,1.20e-03,8.00e-02,
783,-8.00e-04,2.00e-02,
784,-1.60e-03,2.00e-02,
785,2.00e-03,8.00e-02,
786,-1.20e-03,8.00e-02,
787,2.80e-03,2.00e-02,
788,4.00e-03,2.00e-02,
789,-4.40e-03,8.00e-02,
790,8.00e-04,2.00e-02,
791,8.00e-03,1.70e+00,
792,4.80e-03,1.60e-01,
793,-1.60e-03,1.20e-01,
794,5.20e-03,1.40e-01,
795,-1.60e-03,8.00e-02,
796,-1.20e-03,1.00e-01,
797,3.20e-03,8.00e-02,
798,2.40e-03,1.00e-01,
799,-8.00e-04,6.00e-02,
800,-1.20e-03,6.00e-02,
801,1.60e-03,1.00e-01,
802,-4.00e-04,6.00e-02,
803,2.00e-03,8.00e-02,
804,1.20e-03,6.00e-02,
805,-8.00e-04,8.00e-02,
806,-8.00e-04,8.00e-02,
807,2.00e-03,6.00e-02,
808,2.40e-03,8.00e-02,
809,-1.60e-03,6.00e-02,
810,-1.60e-03,6.00e-02,
811,2.80e-03,8.00e-02,
812,-1.60e-03,6.00e-02,
813,2.40e-03,8.00e-02,
814,2.00e-03,6.00e-02,
815,-1.20e-03,8.00e-02,
816,-1.20e-03,8.00e-02,
817,1.20e-03,2.00e-02,
818,8.00e-04,8.00e-02,
819,-8.00e-04,2.00e-02,
820,-8.00e-04,2.00e-02,
821,1.20e-03,8.00e-02,
822,-8.00e-04,2.00e-02,
823,1.60e-03,8.00e-02,
824,-1.20e-03,8.00e-02,
825,2.40e-03,2.00e-02,
826,2.40e-03,2.00e-02,
827,-1.60e-03,8.00e-02,
828,4.40e-03,2.00e-02,
829,-4.40e-03,8.00e-02,
830,4.00e-04,2.00e-02,
831,7.20e-03,1.84e+00,
832,4.80e-03,1.60e-01,
833,-1.20e-03,1.20e-01,
834,5.20e-03,1.40e-01,
835,-1.60e-03,8.00e-02,
836,-1.20e-03,1.00e-01,
837,2.40e-03,6.00e-02,
838,2.40e-03,1.00e-01,
839,-1.20e-03,6.00e-02,
840,-8.00e-04,6.00e-02,
841,2.00e-03,1.00e-01,
842,1.20e-03,8.00e-02,
843,-8.00e-04,6.00e-02,
844,-8.00e-04,6.00e-02,
845,1.20e-03,8.00e-02,
846,-8.00e-04,8.00e-02,
847,2.00e-03,6.00e-02,
848,2.40e-03,6.00e-02,
849,-1.20e-03,8.00e-02,
850,2.40e-03,6.00e-02,
851,-1.60e-03,8.00e-02,
852,-1.20e-03,6.00e-02,
853,2.00e-03,8.00e-02,
