CarrPurc_P1-19_P2-38_tauVary/Gly95/NewFile5.csv

X,CH1,CH2,Start,Increment,
Sequence,Volt,Volt,-6.000000e-04,1.000000e-04
0,0.00e+00,4.00e-02,
1,1.20e-03,0.00e+00,
2,8.00e-04,4.00e-02,
3,0.00e+00,0.00e+00,
4,1.20e-03,4.00e-02,
5,-8.00e-04,2.00e-02,
6,-8.00e-04,4.00e-02,
7,8.00e-04,0.00e+00,
8,8.00e-04,4.00e-02,
9,-8.00e-04,0.00e+00,
10,0.00e+00,1.90e+00,
11,5.20e-03,-2.00e-02,
12,4.00e-03,1.60e-01,
13,-2.80e-02,1.00e-01,
14,-1.64e-02,1.20e-01,
15,1.36e-02,8.00e-02,
16,8.00e-03,1.00e-01,
17,-7.60e-03,6.00e-02,
18,-1.60e-03,6.00e-02,
19,4.80e-03,1.00e-01,
20,-2.40e-03,6.00e-02,
21,2.80e-03,1.00e-01,
22,2.80e-03,6.00e-02,
23,-1.60e-03,8.00e-02,
24,-1.20e-03,8.00e-02,
25,2.40e-03,6.00e-02,
26,2.00e-03,6.00e-02,
27,-1.20e-03,8.00e-02,
28,-1.20e-03,6.00e-02,
29,2.00e-03,8.00e-02,
30,1.60e-03,6.00e-02,
31,7.60e-03,1.84e+00,
32,5.20e-03,1.60e-01,
33,-8.40e-03,1.00e-01,
34,-8.40e-03,1.20e-01,
35,6.00e-03,8.00e-02,
36,4.00e-03,1.00e-01,
37,-1.60e-03,8.00e-02,
38,0.00e+00,1.00e-01,
39,2.00e-03,6.00e-02,
40,-1.20e-03,6.00e-02,
41,2.40e-03,1.00e-01,
42,2.40e-03,6.00e-02,
43,-1.20e-03,8.00e-02,
44,-3.20e-03,6.00e-02,
45,4.40e-03,8.00e-02,
46,8.00e-03,6.00e-02,
47,-9.60e-03,8.00e-02,
48,-1.44e-02,8.00e-02,
49,1.80e-02,6.00e-02,
50,-2.00e-02,8.00e-02,
51,2.16e-02,4.00e-02,
52,-1.92e-02,8.00e-02,
53,1.72e-02,4.00e-02,
54,1.08e-02,8.00e-02,
55,-8.40e-03,2.00e-02,
56,-5.20e-03,8.00e-02,
57,4.80e-03,2.00e-02,
58,2.80e-03,8.00e-02,
59,-1.20e-03,2.00e-02,
60,2.00e-03,2.00e-02,
61,-8.00e-04,8.00e-02,
62,-1.20e-03,8.00e-02,
63,1.60e-03,2.00e-02,
64,2.00e-03,8.00e-02,
65,-8.00e-04,2.00e-02,
66,1.20e-03,2.00e-02,
67,-8.00e-04,8.00e-02,
68,2.00e-03,8.00e-02,
69,0.00e+00,2.00e-02,
70,4.00e-04,2.00e-02,
71,6.80e-03,1.94e+00,
72,4.00e-03,1.60e-01,
73,-8.00e-04,8.00e-02,
74,2.40e-03,1.20e-01,
75,0.00e+00,8.00e-02,
76,-8.00e-04,1.00e-01,
77,1.20e-03,6.00e-02,
78,1.60e-03,6.00e-02,
79,-1.20e-03,1.00e-01,
80,1.20e-03,8.00e-02,
81,-8.00e-04,6.00e-02,
82,2.00e-03,8.00e-02,
83,-1.60e-03,6.00e-02,
84,-2.80e-03,8.00e-02,
85,4.00e-03,6.00e-02,
86,-5.20e-03,6.00e-02,
87,7.20e-03,8.00e-02,
88,1.00e-02,8.00e-02,
89,-1.24e-02,2.00e-02,
90,-1.52e-02,8.00e-02,
91,1.64e-02,4.00e-02,
92,-1.28e-02,8.00e-02,
93,1.12e-02,4.00e-02,
94,7.20e-03,2.00e-02,
95,-4.40e-03,8.00e-02,
96,-2.80e-03,8.00e-02,
97,3.20e-03,2.00e-02,
98,2.40e-03,8.00e-02,
99,-1.20e-03,2.00e-02,
100,-1.20e-03,8.00e-02,
101,1.60e-03,2.00e-02,
102,1.20e-03,8.00e-02,
103,-1.20e-03,2.00e-02,
104,-4.00e-04,8.00e-02,
105,2.00e-03,2.00e-02,
106,3.20e-03,2.00e-02,
107,-1.60e-03,8.00e-02,
108,-3.20e-03,2.00e-02,
109,4.80e-03,8.00e-02,
110,2.80e-03,2.00e-02,
111,7.60e-03,1.70e+00,
112,4.80e-03,1.60e-01,
113,0.00e+00,1.00e-01,
114,2.80e-03,1.20e-01,
115,-8.00e-04,8.00e-02,
116,1.20e-03,1.00e-01,
117,-8.00e-04,6.00e-02,
118,2.40e-03,6.00e-02,
119,-8.00e-04,1.00e-01,
120,-8.00e-04,6.00e-02,
121,1.60e-03,1.00e-01,
122,2.00e-03,6.00e-02,
123,-8.00e-04,8.00e-02,
124,3.20e-03,6.00e-02,
125,-2.80e-03,8.00e-02,
126,-4.80e-03,8.00e-02,
127,6.80e-03,6.00e-02,
128,1.08e-02,6.00e-02,
129,-1.24e-02,8.00e-02,
130,1.52e-02,6.00e-02,
131,-1.44e-02,8.00e-02,
132,-1.16e-02,8.00e-02,
133,1.00e-02,4.00e-02,
134,8.00e-03,8.00e-02,
135,-4.40e-03,2.00e-02,
136,-2.80e-03,8.00e-02,
137,3.60e-03,2.00e-02,
138,2.00e-03,8.00e-02,
139,-1.20e-03,2.00e-02,
140,2.00e-03,2.00e-02,
141,-8.00e-04,8.00e-02,
142,2.00e-03,8.00e-02,
143,-1.20e-03,2.00e-02,
144,-8.00e-04,8.00e-02,
145,1.20e-03,2.00e-02,
146,2.40e-03,2.00e-02,
147,-1.20e-03,8.00e-02,
148,-2.40e-03,2.00e-02,
149,4.40e-03,8.00e-02,
150,3.60e-03,2.00e-02,
151,7.60e-03,1.86e+00,
152,4.00e-03,1.60e-01,
153,-1.60e-03,1.20e-01,
154,-1.60e-03,1.20e-01,
155,2.40e-03,8.00e-02,
156,0.00e+00,1.00e-01,
157,1.60e-03,6.00e-02,
158,2.40e-03,1.00e-01,
159,-8.00e-04,6.00e-02,
160,-1.20e-03,6.00e-02,
161,1.60e-03,1.00e-01,
162,2.00e-03,6.00e-02,
163,-1.20e-03,8.00e-02,
164,2.40e-03,6.00e-02,
165,-1.60e-03,8.00e-02,
166,-2.80e-03,6.00e-02,
167,4.80e-03,8.00e-02,
168,6.40e-03,6.00e-02,
169,-7.20e-03,8.00e-02,
170,-1.00e-02,8.00e-02,
171,1.12e-02,6.00e-02,
172,-9.20e-03,8.00e-02,
173,8.40e-03,2.00e-02,
174,5.60e-03,8.00e-02,
175,-3.60e-03,2.00e-02,
176,-2.40e-03,8.00e-02,
177,2.80e-03,2.00e-02,
178,2.00e-03,8.00e-02,
179,-8.00e-04,2.00e-02,
180,0.00e+00,8.00e-02,
181,1.20e-03,2.00e-02,
182,1.20e-03,8.00e-02,
183,0.00e+00,2.00e-02,
184,0.00e+00,8.00e-02,
185,2.00e-03,2.00e-02,
186,1.60e-03,2.00e-02,
187,-4.00e-04,8.00e-02,
188,-2.40e-03,8.00e-02,
189,2.80e-03,2.00e-02,
190,2.80e-03,1.94e+00,
191,7.20e-03,-4.00e-02,
192,4.80e-03,1.60e-01,
193,-4.00e-04,8.00e-02,
194,-8.00e-04,8.00e-02,
195,3.60e-03,1.20e-01,
196,1.60e-03,1.00e-01,
197,0.00e+00,6.00e-02,
198,0.00e+00,6.00e-02,
199,2.40e-03,1.00e-01,
200,1.20e-03,6.00e-02,
201,-8.00e-04,1.00e-01,
202,1.20e-03,6.00e-02,
203,-1.20e-03,8.00e-02,
204,-2.00e-03,6.00e-02,
205,2.80e-03,8.00e-02,
206,-4.00e-03,6.00e-02,
207,5.20e-03,8.00e-02,
208,6.80e-03,8.00e-02,
209,-7.60e-03,6.00e-02,
210,-1.04e-02,6.00e-02,
211,1.04e-02,8.00e-02,
212,-8.40e-03,8.00e-02,
213,8.40e-03,2.00e-02,
214,5.20e-03,2.00e-02,
215,-2.80e-03,8.00e-02,
216,-1.60e-03,8.00e-02,
217,2.40e-03,2.00e-02,
218,1.20e-03,2.00e-02,
219,-8.00e-04,8.00e-02,
220,1.20e-03,8.00e-02,
221,-1.20e-03,2.00e-02,
222,-8.00e-04,2.00e-02,
223,2.00e-03,8.00e-02,
224,-8.00e-04,8.00e-02,
225,1.20e-03,2.00e-02,
226,1.20e-03,2.00e-02,
227,-1.20e-03,8.00e-02,
228,-1.60e-03,2.00e-02,
229,4.00e-03,8.00e-02,
230,3.60e-03,2.00e-02,
231,7.20e-03,1.72e+00,
232,4.40e-03,1.60e-01,
233,-1.20e-03,1.00e-01,
234,2.40e-03,1.20e-01,
235,-8.00e-04,8.00e-02,
236,1.20e-03,1.00e-01,
237,-4.00e-04,6.00e-02,
238,2.00e-03,1.00e-01,
239,0.00e+00,6.00e-02,
240,0.00e+00,1.00e-01,
241,2.00e-03,6.00e-02,
242,2.00e-03,6.00e-02,
243,0.00e+00,8.00e-02,
244,2.00e-03,6.00e-02,
245,-1.60e-03,8.00e-02,
246,-2.40e-03,6.00e-02,
247,4.40e-03,8.00e-02,
248,6.40e-03,8.00e-02,
249,-7.60e-03,6.00e-02,
250,-8.80e-03,8.00e-02,
251,9.20e-03,6.00e-02,
252,-6.80e-03,8.00e-02,
253,6.40e-03,4.00e-02,
254,4.40e-03,8.00e-02,
255,-2.80e-03,4.00e-02,
256,-2.40e-03,8.00e-02,
257,2.00e-03,4.00e-02,
258,1.20e-03,2.00e-02,
259,-1.20e-03,8.00e-02,
260,1.20e-03,8.00e-02,
261,-1.20e-03,2.00e-02,
262,2.00e-03,8.00e-02,
263,-8.00e-04,2.00e-02,
264,-8.00e-04,2.00e-02,
265,1.20e-03,8.00e-02,
266,-1.20e-03,8.00e-02,
267,1.60e-03,2.00e-02,
268,-1.60e-03,2.00e-02,
269,3.60e-03,8.00e-02,
270,2.80e-03,2.00e-02,
271,7.20e-03,1.88e+00,
272,4.80e-03,1.60e-01,
273,-8.00e-04,1.20e-01,
274,3.20e-03,1.40e-01,
275,-8.00e-04,8.00e-02,
276,2.00e-03,8.00e-02,
277,-1.20e-03,1.00e-01,
278,2.40e-03,1.00e-01,
279,-8.00e-04,6.00e-02,
280,-8.00e-04,6.00e-02,
281,2.00e-03,1.00e-01,
282,-8.00e-04,6.00e-02,
283,2.00e-03,8.00e-02,
284,2.40e-03,6.00e-02,
285,-1.60e-03,8.00e-02,
286,-2.40e-03,6.00e-02,
287,3.60e-03,8.00e-02,
288,5.60e-03,6.00e-02,
289,-5.60e-03,8.00e-02,
290,-8.40e-03,6.00e-02,
291,8.80e-03,8.00e-02,
292,-6.00e-03,8.00e-02,
293,6.40e-03,6.00e-02,
294,4.40e-03,8.00e-02,
295,-2.80e-03,4.00e-02,
296,-1.60e-03,8.00e-02,
297,2.40e-03,4.00e-02,
298,1.20e-03,8.00e-02,
299,-8.00e-04,2.00e-02,
300,-8.00e-04,8.00e-02,
301,1.20e-03,2.00e-02,
302,1.20e-03,2.00e-02,
303,-8.00e-04,8.00e-02,
304,0.00e+00,8.00e-02,
305,1.20e-03,2.00e-02,
306,2.00e-03,2.00e-02,
307,-1.20e-03,8.00e-02,
308,-2.40e-03,2.00e-02,
309,2.80e-03,8.00e-02,
310,2.80e-03,1.94e+00,
311,7.60e-03,-2.00e-02,
312,4.80e-03,1.60e-01,
313,-8.00e-04,1.20e-01,
314,2.80e-03,1.20e-01,
315,-1.20e-03,8.00e-02,
316,-8.00e-04,1.00e-01,
317,2.00e-03,8.00e-02,
318,-1.20e-03,1.00e-01,
319,2.00e-03,6.00e-02,
320,-8.00e-04,6.00e-02,
321,2.00e-03,1.00e-01,
322,2.00e-03,6.00e-02,
323,-8.00e-04,8.00e-02,
324,-1.20e-03,8.00e-02,
325,2.40e-03,6.00e-02,
326,-2.40e-03,6.00e-02,
327,3.60e-03,8.00e-02,
328,5.20e-03,6.00e-02,
329,-5.20e-03,8.00e-02,
330,-7.20e-03,6.00e-02,
331,8.00e-03,8.00e-02,
332,-4.80e-03,8.00e-02,
333,5.60e-03,6.00e-02,
334,3.60e-03,6.00e-02,
335,-2.40e-03,8.00e-02,
336,-1.60e-03,8.00e-02,
337,1.20e-03,2.00e-02,
338,2.00e-03,8.00e-02,
339,0.00e+00,2.00e-02,
340,1.20e-03,8.00e-02,
341,-8.00e-04,2.00e-02,
342,2.00e-03,8.00e-02,
343,-4.00e-04,2.00e-02,
344,-8.00e-04,8.00e-02,
345,1.20e-03,2.00e-02,
346,-8.00e-04,2.00e-02,
347,2.40e-03,8.00e-02,
348,3.20e-03,2.00e-02,
349,-2.80e-03,8.00e-02,
350,2.00e-03,2.00e-02,
351,7.20e-03,1.68e+00,
352,4.80e-03,1.60e-01,
353,-8.00e-04,1.20e-01,
354,3.60e-03,1.40e-01,
355,-1.20e-03,8.00e-02,
356,-8.00e-04,8.00e-02,
357,2.40e-03,1.00e-01,
358,2.40e-03,1.00e-01,
359,-8.00e-04,6.00e-02,
360,0.00e+00,1.00e-01,
361,2.00e-03,6.00e-02,
362,0.00e+00,6.00e-02,
363,2.00e-03,8.00e-02,
364,2.00e-03,8.00e-02,
365,-1.20e-03,6.00e-02,
366,-2.40e-03,6.00e-02,
367,4.00e-03,8.00e-02,
368,4.40e-03,6.00e-02,
369,-4.40e-03,8.00e-02,
370,-6.40e-03,6.00e-02,
371,6.80e-03,8.00e-02,
372,-4.80e-03,6.00e-02,
373,5.20e-03,8.00e-02,
374,4.00e-03,8.00e-02,
375,-1.60e-03,4.00e-02,
376,-1.20e-03,8.00e-02,
377,2.40e-03,2.00e-02,
378,2.00e-03,8.00e-02,
379,-4.00e-04,2.00e-02,
380,-8.00e-04,8.00e-02,
381,1.20e-03,4.00e-02,
382,2.00e-03,8.00e-02,
383,-8.00e-04,2.00e-02,
384,-8.00e-04,8.00e-02,
385,1.20e-03,2.00e-02,
386,-1.20e-03,8.00e-02,
387,1.60e-03,2.00e-02,
388,-3.20e-03,2.00e-02,
389,2.80e-03,8.00e-02,
390,3.20e-03,2.00e-02,
391,7.60e-03,1.94e+00,
392,4.80e-03,1.60e-01,
393,-8.00e-04,1.00e-01,
394,4.00e-03,1.20e-01,
395,-1.20e-03,8.00e-02,
396,-8.00e-04,1.00e-01,
397,2.00e-03,8.00e-02,
398,2.40e-03,1.00e-01,
399,-8.00e-04,6.00e-02,
400,1.20e-03,1.00e-01,
401,-8.00e-04,6.00e-02,
402,1.20e-03,8.00e-02,
403,-8.00e-04,6.00e-02,
404,1.20e-03,6.00e-02,
405,-1.20e-03,8.00e-02,
406,-1.60e-03,6.00e-02,
407,2.80e-03,8.00e-02,
408,4.80e-03,6.00e-02,
409,-3.20e-03,8.00e-02,
410,-5.20e-03,8.00e-02,
411,6.40e-03,4.00e-02,
412,-4.40e-03,8.00e-02,
413,4.80e-03,6.00e-02,
414,3.60e-03,8.00e-02,
415,-1.60e-03,2.00e-02,
416,-8.00e-04,8.00e-02,
417,2.40e-03,2.00e-02,
418,2.00e-03,8.00e-02,
419,0.00e+00,2.00e-02,
420,1.20e-03,2.00e-02,
421,-1.20e-03,8.00e-02,
422,1.20e-03,2.00e-02,
423,-8.00e-04,8.00e-02,
424,-8.00e-04,8.00e-02,
425,1.20e-03,2.00e-02,
426,2.00e-03,8.00e-02,
427,-1.60e-03,2.00e-02,
428,2.80e-03,8.00e-02,
429,-2.80e-03,2.00e-02,
430,3.60e-03,1.96e+00,
431,7.60e-03,-6.00e-02,
432,4.00e-03,1.60e-01,
433,-8.00e-04,1.20e-01,
434,3.60e-03,1.20e-01,
435,-1.60e-03,8.00e-02,
436,-1.20e-03,1.00e-01,
437,2.00e-03,8.00e-02,
438,-8.00e-04,1.00e-01,
439,2.00e-03,6.00e-02,
440,-8.00e-04,6.00e-02,
441,1.20e-03,1.00e-01,
442,1.20e-03,6.00e-02,
443,-8.00e-04,8.00e-02,
444,-8.00e-04,8.00e-02,
445,2.00e-03,6.00e-02,
446,-2.00e-03,6.00e-02,
447,2.80e-03,8.00e-02,
448,4.00e-03,6.00e-02,
449,-4.00e-03,8.00e-02,
450,5.20e-03,6.00e-02,
451,-5.60e-03,8.00e-02,
452,-4.00e-03,8.00e-02,
453,4.80e-03,6.00e-02,
454,3.60e-03,6.00e-02,
455,-1.60e-03,8.00e-02,
456,-1.20e-03,8.00e-02,
457,1.60e-03,2.00e-02,
458,1.20e-03,8.00e-02,
459,-4.00e-04,2.00e-02,
460,1.60e-03,8.00e-02,
461,-4.00e-04,2.00e-02,
462,0.00e+00,8.00e-02,
463,2.40e-03,2.00e-02,
464,2.00e-03,2.00e-02,
465,-8.00e-04,8.00e-02,
466,-1.20e-03,2.00e-02,
467,2.40e-03,8.00e-02,
468,2.80e-03,8.00e-02,
469,-2.80e-03,2.00e-02,
470,2.40e-03,2.00e-02,
471,7.60e-03,1.72e+00,
472,4.80e-03,1.60e-01,
473,-1.20e-03,1.00e-01,
474,4.00e-03,1.20e-01,
475,-1.60e-03,8.00e-02,
476,-1.20e-03,1.00e-01,
477,2.00e-03,8.00e-02,
478,-8.00e-04,1.00e-01,
479,2.40e-03,6.00e-02,
480,1.20e-03,6.00e-02,
481,-8.00e-04,1.00e-01,
482,2.00e-03,6.00e-02,
483,0.00e+00,8.00e-02,
484,-8.00e-04,8.00e-02,
485,2.00e-03,6.00e-02,
486,-8.00e-04,6.00e-02,
487,2.80e-03,8.00e-02,
488,3.60e-03,8.00e-02,
489,-3.20e-03,6.00e-02,
490,5.20e-03,6.00e-02,
491,-4.00e-03,8.00e-02,
492,-3.20e-03,8.00e-02,
493,4.00e-03,2.00e-02,
494,2.40e-03,8.00e-02,
495,-1.60e-03,2.00e-02,
496,-1.20e-03,8.00e-02,
497,1.60e-03,2.00e-02,
498,1.20e-03,8.00e-02,
499,-4.00e-04,2.00e-02,
500,-8.00e-04,8.00e-02,
501,1.60e-03,2.00e-02,
502,1.60e-03,2.00e-02,
503,-8.00e-04,8.00e-02,
504,1.20e-03,2.00e-02,
505,-8.00e-04,8.00e-02,
506,-1.20e-03,2.00e-02,
507,2.40e-03,8.00e-02,
508,3.60e-03,2.00e-02,
509,-2.80e-03,6.00e-02,
510,3.20e-03,1.96e+00,
511,7.20e-03,0.00e+00,
512,4.40e-03,1.60e-01,
513,-1.20e-03,8.00e-02,
514,4.00e-03,1.20e-01,
515,-1.60e-03,8.00e-02,
516,-1.20e-03,1.00e-01,
517,2.00e-03,6.00e-02,
518,2.00e-03,6.00e-02,
519,-1.20e-03,1.00e-01,
520,-8.00e-04,6.00e-02,
521,1.20e-03,8.00e-02,
522,2.00e-03,6.00e-02,
523,0.00e+00,8.00e-02,
524,2.00e-03,6.00e-02,
525,-8.00e-04,8.00e-02,
526,-1.20e-03,6.00e-02,
527,2.00e-03,8.00e-02,
528,3.20e-03,6.00e-02,
529,-2.80e-03,8.00e-02,
530,-4.00e-03,8.00e-02,
531,4.80e-03,4.00e-02,
532,-3.20e-03,8.00e-02,
533,3.60e-03,4.00e-02,
534,2.40e-03,8.00e-02,
535,-1.20e-03,2.00e-02,
536,-8.00e-04,8.00e-02,
537,1.20e-03,2.00e-02,
538,0.00e+00,2.00e-02,
539,1.60e-03,8.00e-02,
540,1.20e-03,8.00e-02,
541,-8.00e-04,2.00e-02,
542,-8.00e-04,8.00e-02,
543,2.00e-03,2.00e-02,
544,1.60e-03,8.00e-02,
545,-1.20e-03,2.00e-02,
546,-1.60e-03,2.00e-02,
547,2.40e-03,8.00e-02,
548,4.00e-03,2.00e-02,
549,-3.20e-03,8.00e-02,
550,2.40e-03,1.96e+00,
551,8.00e-03,-2.00e-02,
552,4.80e-03,1.60e-01,
553,-4.00e-04,1.00e-01,
554,4.80e-03,8.00e-02,
555,-1.60e-03,1.40e-01,
556,-1.60e-03,8.00e-02,
557,2.40e-03,1.00e-01,
558,2.40e-03,1.00e-01,
559,-8.00e-04,6.00e-02,
560,1.20e-03,6.00e-02,
561,-8.00e-04,1.00e-01,
562,1.20e-03,6.00e-02,
563,-4.00e-04,8.00e-02,
564,1.60e-03,6.00e-02,
565,-1.20e-03,8.00e-02,
566,-1.20e-03,6.00e-02,
567,2.00e-03,8.00e-02,
568,2.80e-03,6.00e-02,
569,-2.80e-03,8.00e-02,
570,4.00e-03,8.00e-02,
571,-3.20e-03,6.00e-02,
572,-2.80e-03,8.00e-02,
573,2.80e-03,4.00e-02,
574,2.80e-03,8.00e-02,
575,-8.00e-04,2.00e-02,
576,1.20e-03,8.00e-02,
577,-8.00e-04,2.00e-02,
578,0.00e+00,2.00e-02,
579,1.20e-03,8.00e-02,
580,-8.00e-04,2.00e-02,
581,1.60e-03,8.00e-02,
582,-8.00e-04,8.00e-02,
583,2.00e-03,2.00e-02,
584,-8.00e-04,8.00e-02,
585,2.00e-03,2.00e-02,
586,-1.60e-03,2.00e-02,
587,2.80e-03,8.00e-02,
588,3.60e-03,2.00e-02,
589,-3.60e-03,6.00e-02,
590,2.00e-03,2.00e-02,
591,7.20e-03,1.76e+00,
592,4.80e-03,1.60e-01,
593,-1.20e-03,1.20e-01,
594,4.00e-03,1.40e-01,
595,-1.60e-03,8.00e-02,
596,-1.60e-03,1.00e-01,
597,2.00e-03,8.00e-02,
598,2.00e-03,1.00e-01,
599,-8.00e-04,6.00e-02,
600,-4.00e-04,6.00e-02,
601,2.00e-03,8.00e-02,
602,0.00e+00,8.00e-02,
603,1.60e-03,6.00e-02,
604,-8.00e-04,6.00e-02,
605,2.00e-03,8.00e-02,
606,2.40e-03,6.00e-02,
607,-8.00e-04,8.00e-02,
608,2.80e-03,8.00e-02,
609,-2.40e-03,4.00e-02,
610,-2.80e-03,8.00e-02,
611,4.00e-03,2.00e-02,
612,-2.00e-03,8.00e-02,
613,3.20e-03,2.00e-02,
614,2.40e-03,8.00e-02,
615,-1.20e-03,2.00e-02,
616,-8.00e-04,8.00e-02,
617,2.00e-03,2.00e-02,
618,0.00e+00,8.00e-02,
619,1.60e-03,2.00e-02,
620,1.20e-03,8.00e-02,
621,-8.00e-04,2.00e-02,
622,-8.00e-04,8.00e-02,
623,1.60e-03,2.00e-02,
624,-1.20e-03,2.00e-02,
625,2.00e-03,8.00e-02,
626,-1.60e-03,2.00e-02,
627,3.20e-03,8.00e-02,
628,3.60e-03,2.00e-02,
629,-4.00e-03,8.00e-02,
630,1.60e-03,1.98e+00,
631,7.60e-03,0.00e+00,
632,4.80e-03,1.60e-01,
633,-8.00e-04,1.20e-01,
634,4.40e-03,1.20e-01,
635,-1.60e-03,8.00e-02,
636,-1.60e-03,8.00e-02,
637,2.00e-03,1.00e-01,
638,-8.00e-04,1.00e-01,
639,2.40e-03,6.00e-02,
640,-8.00e-04,1.00e-01,
641,2.00e-03,6.00e-02,
642,2.00e-03,6.00e-02,
643,0.00e+00,8.00e-02,
644,0.00e+00,6.00e-02,
645,1.20e-03,8.00e-02,
646,2.00e-03,6.00e-02,
647,-1.20e-03,8.00e-02,
648,-1.60e-03,6.00e-02,
649,2.40e-03,8.00e-02,
650,3.60e-03,6.00e-02,
651,-2.80e-03,8.00e-02,
652,-2.80e-03,6.00e-02,
653,2.80e-03,8.00e-02,
654,2.40e-03,8.00e-02,
655,-8.00e-04,2.00e-02,
656,1.20e-03,8.00e-02,
657,-8.00e-04,4.00e-02,
658,1.20e-03,8.00e-02,
659,-4.00e-04,2.00e-02,
660,0.00e+00,8.00e-02,
661,1.20e-03,2.00e-02,
662,-8.00e-04,8.00e-02,
663,1.60e-03,2.00e-02,
664,-8.00e-04,2.00e-02,
665,1.60e-03,8.00e-02,
666,2.40e-03,2.00e-02,
667,-1.60e-03,8.00e-02,
668,4.00e-03,2.00e-02,
669,-3.60e-03,8.00e-02,
670,8.00e-04,2.00e+00,
671,7.20e-03,-2.00e-02,
672,4.00e-03,1.60e-01,
673,-1.20e-03,1.00e-01,
674,4.00e-03,1.40e-01,
675,-2.40e-03,8.00e-02,
676,-1.60e-03,1.00e-01,
677,2.40e-03,6.00e-02,
678,-8.00e-04,6.00e-02,
679,2.40e-03,1.00e-01,
680,0.00e+00,6.00e-02,
681,2.00e-03,1.00e-01,
682,2.00e-03,8.00e-02,
683,-8.00e-04,6.00e-02,
684,-8.00e-04,6.00e-02,
685,1.20e-03,8.00e-02,
686,-8.00e-04,6.00e-02,
687,2.40e-03,8.00e-02,
688,2.40e-03,6.00e-02,
689,-1.60e-03,8.00e-02,
690,3.60e-03,6.00e-02,
691,-2.80e-03,8.00e-02,
692,-1.60e-03,6.00e-02,
693,2.80e-03,8.00e-02,
694,2.00e-03,6.00e-02,
695,-8.00e-04,8.00e-02,
696,-4.00e-04,6.00e-02,
697,1.20e-03,8.00e-02,
698,0.00e+00,8.00e-02,
699,1.20e-03,2.00e-02,
700,1.20e-03,8.00e-02,
701,-8.00e-04,2.00e-02,
702,2.00e-03,8.00e-02,
703,-4.00e-04,2.00e-02,
704,-1.20e-03,2.00e-02,
705,2.40e-03,8.00e-02,
706,-1.60e-03,8.00e-02,
707,3.20e-03,2.00e-02,
708,4.00e-03,2.00e-02,
709,-4.00e-03,8.00e-02,
710,2.00e-03,2.00e-02,
711,8.00e-03,1.82e+00,
712,4.80e-03,1.60e-01,
713,-1.20e-03,1.20e-01,
714,4.80e-03,1.20e-01,
715,-1.60e-03,8.00e-02,
716,-1.20e-03,1.00e-01,
717,2.40e-03,8.00e-02,
718,2.40e-03,1.00e-01,
719,-4.00e-04,6.00e-02,
720,-4.00e-04,1.00e-01,
721,2.00e-03,6.00e-02,
722,4.00e-04,8.00e-02,
723,1.20e-03,6.00e-02,
724,-8.00e-04,6.00e-02,
725,1.20e-03,8.00e-02,
726,0.00e+00,6.00e-02,
727,1.60e-03,8.00e-02,
728,2.00e-03,6.00e-02,
729,-1.60e-03,8.00e-02,
730,3.20e-03,8.00e-02,
731,-2.00e-03,6.00e-02,
732,-2.40e-03,6.00e-02,
733,2.40e-03,8.00e-02,
734,2.00e-03,8.00e-02,
735,-8.00e-04,2.00e-02,
736,1.20e-03,8.00e-02,
737,-4.00e-04,2.00e-02,
738,0.00e+00,8.00e-02,
739,1.20e-03,2.00e-02,
740,-8.00e-04,8.00e-02,
741,1.20e-03,2.00e-02,
742,-4.00e-04,2.00e-02,
743,2.00e-03,8.00e-02,
744,-8.00e-04,2.00e-02,
745,2.40e-03,8.00e-02,
746,-1.20e-03,2.00e-02,
747,2.80e-03,8.00e-02,
748,3.60e-03,8.00e-02,
749,-4.40e-03,2.00e-02,
750,8.00e-04,2.00e+00,
751,7.20e-03,-2.00e-02,
752,4.40e-03,1.60e-01,
753,-1.60e-03,1.20e-01,
754,4.40e-03,1.40e-01,
755,-1.60e-03,8.00e-02,
756,-1.20e-03,1.00e-01,
757,2.80e-03,8.00e-02,
758,2.00e-03,1.00e-01,
759,-8.00e-04,6.00e-02,
760,1.20e-03,6.00e-02,
761,-1.20e-03,1.00e-01,
762,-8.00e-04,8.00e-02,
763,1.60e-03,6.00e-02,
764,8.00e-04,6.00e-02,
765,-8.00e-04,8.00e-02,
766,-4.00e-04,6.00e-02,
767,2.40e-03,8.00e-02,
768,2.40e-03,6.00e-02,
769,-1.60e-03,8.00e-02,
770,2.40e-03,8.00e-02,
771,-2.40e-03,6.00e-02,
772,-1.60e-03,8.00e-02,
773,2.00e-03,4.00e-02,
774,2.00e-03,8.00e-02,
775,-8.00e-04,4.00e-02,
776,1.60e-03,8.00e-02,
777,-4.00e-04,2.00e-02,
778,1.20e-03,8.00e-02,
779,-8.00e-04,2.00e-02,
780,-8.00e-04,8.00e-02,
781,1.20e-03,2.00e-02,
782,2.00e-03,8.00e-02,
783,-8.00e-04,2.00e-02,
784,2.00e-03,2.00e-02,
785,-1.60e-03,8.00e-02,
786,-1.20e-03,2.00e-02,
787,2.80e-03,8.00e-02,
788,4.00e-03,2.00e-02,
789,-4.40e-03,8.00e-02,
790,8.00e-04,2.00e-02,
791,8.00e-03,1.98e+00,
792,4.80e-03,1.60e-01,
793,-1.20e-03,8.00e-02,
794,5.20e-03,8.00e-02,
795,-2.40e-03,1.40e-01,
796,-1.20e-03,1.00e-01,
797,2.40e-03,6.00e-02,
798,2.40e-03,1.00e-01,
799,-8.00e-04,6.00e-02,
800,2.00e-03,6.00e-02,
801,-8.00e-04,1.00e-01,
802,-8.00e-04,6.00e-02,
803,1.20e-03,8.00e-02,
804,-8.00e-04,6.00e-02,
805,8.00e-04,8.00e-02,
806,2.00e-03,8.00e-02,
807,-8.00e-04,6.00e-02,
808,2.40e-03,8.00e-02,
809,-1.20e-03,6.00e-02,
810,2.80e-03,6.00e-02,
811,-1.60e-03,8.00e-02,
812,-1.60e-03,6.00e-02,
813,2.40e-03,8.00e-02,
814,1.20e-03,8.00e-02,
815,-4.00e-04,2.00e-02,
816,1.20e-03,8.00e-02,
817,-8.00e-04,4.00e-02,
818,8.00e-04,8.00e-02,
819,-4.00e-04,4.00e-02,
820,-8.00e-04,2.00e-02,
821,1.20e-03,8.00e-02,
822,1.20e-03,2.00e-02,
823,-1.20e-03,8.00e-02,
824,-1.20e-03,8.00e-02,
825,2.00e-03,2.00e-02,
826,-1.60e-03,2.00e-02,
827,3.20e-03,8.00e-02,
828,3.60e-03,2.00e-02,
829,-4.00e-03,8.00e-02,
830,4.00e-04,2.00e-02,
831,7.20e-03,1.86e+00,
832,4.80e-03,1.60e-01,
833,-8.00e-04,1.20e-01,
834,5.20e-03,1.40e-01,
835,-1.60e-03,8.00e-02,
836,-1.20e-03,8.00e-02,
837,2.40e-03,1.00e-01,
838,2.40e-03,1.00e-01,
839,-1.20e-03,6.00e-02,
840,-8.00e-04,6.00e-02,
841,2.00e-03,1.00e-01,
842,2.00e-03,8.00e-02,
843,0.00e+00,6.00e-02,
844,-8.00e-04,6.00e-02,
845,1.20e-03,8.00e-02,
846,1.20e-03,8.00e-02,
847,-4.00e-04,6.00e-02,
848,1.20e-03,6.00e-02,
849,-1.60e-03,8.00e-02,
850,2.40e-03,6.00e-02,
851,-1.60e-03,8.00e-02,
852,-1.20e-03,6.00e-02,
853,2.40e-03,8.00e-02,
