CarrPurc_P1-19_P2-38_tauVary/Gly65/NewFile3.csv

X,CH1,CH2,Start,Increment,
Sequence,Volt,Volt,-3.600000e-03,2.000000e-04
0,0.00e+00,4.00e-02,
1,1.20e-03,2.00e-02,
2,1.60e-03,4.00e-02,
3,0.00e+00,2.00e-02,
4,1.20e-03,4.00e-02,
5,-8.00e-04,2.00e-02,
6,1.20e-03,2.00e-02,
7,-4.00e-04,4.00e-02,
8,1.20e-03,4.00e-02,
9,-8.00e-04,2.00e-02,
10,-4.00e-04,4.00e-02,
11,1.20e-03,2.00e-02,
12,0.00e+00,4.00e-02,
13,1.60e-03,2.00e-02,
14,8.00e-04,4.00e-02,
15,-4.00e-04,2.00e-02,
16,0.00e+00,4.00e-02,
17,1.60e-03,2.00e-02,
18,1.60e-03,4.00e-02,
19,0.00e+00,2.00e-02,
20,6.80e-03,2.00e-02,
21,-3.20e-02,1.74e+00,
22,2.16e-02,1.20e-01,
23,-1.84e-02,8.00e-02,
24,-3.60e-03,1.00e-01,
25,4.00e-03,6.00e-02,
26,2.80e-03,6.00e-02,
27,-1.60e-03,8.00e-02,
28,2.00e-03,6.00e-02,
29,-1.20e-03,8.00e-02,
30,2.40e-03,6.00e-02,
31,-1.20e-03,8.00e-02,
32,2.00e-03,8.00e-02,
33,-8.00e-04,6.00e-02,
34,-4.00e-04,4.00e-02,
35,8.00e-03,2.14e+00,
36,-7.20e-03,1.60e-01,
37,7.60e-03,8.00e-02,
38,6.40e-03,1.00e-01,
39,-3.20e-03,6.00e-02,
40,2.00e-03,6.00e-02,
41,-1.20e-03,1.00e-01,
42,2.00e-03,6.00e-02,
43,-1.20e-03,8.00e-02,
44,2.40e-03,6.00e-02,
45,-1.60e-03,8.00e-02,
46,-4.80e-03,6.00e-02,
47,8.00e-03,8.00e-02,
48,-2.36e-02,8.00e-02,
49,2.76e-02,4.00e-02,
50,-3.24e-02,8.00e-02,
51,3.32e-02,2.00e-02,
52,1.76e-02,8.00e-02,
53,-1.40e-02,2.00e-02,
54,4.40e-03,8.00e-02,
55,-1.60e-03,2.00e-02,
56,-1.20e-03,8.00e-02,
57,2.80e-03,2.00e-02,
58,2.00e-03,2.00e-02,
59,-1.20e-03,8.00e-02,
60,-4.00e-04,2.00e-02,
61,2.00e-03,8.00e-02,
62,-8.00e-04,2.00e-02,
63,1.60e-03,8.00e-02,
64,-8.00e-04,2.00e-02,
65,8.40e-03,2.04e+00,
66,5.60e-03,1.60e-01,
67,-8.00e-04,8.00e-02,
68,2.00e-03,1.00e-01,
69,-1.20e-03,6.00e-02,
70,-8.00e-04,1.00e-01,
71,2.00e-03,6.00e-02,
72,2.00e-03,8.00e-02,
73,-8.00e-04,6.00e-02,
74,2.00e-03,6.00e-02,
75,-1.20e-03,8.00e-02,
76,-4.40e-03,6.00e-02,
77,7.20e-03,8.00e-02,
78,1.64e-02,6.00e-02,
79,-2.08e-02,8.00e-02,
80,2.72e-02,8.00e-02,
81,-2.68e-02,4.00e-02,
82,1.16e-02,8.00e-02,
83,-9.60e-03,2.00e-02,
84,2.80e-03,8.00e-02,
85,-1.60e-03,2.00e-02,
86,2.40e-03,2.00e-02,
87,-1.20e-03,8.00e-02,
88,-4.00e-04,2.00e-02,
89,2.00e-03,8.00e-02,
90,2.40e-03,8.00e-02,
91,-2.40e-03,2.00e-02,
92,4.00e-03,2.00e-02,
93,-2.80e-03,8.00e-02,
94,-4.00e-03,2.00e-02,
95,8.00e-03,2.00e+00,
96,5.20e-03,1.60e-01,
97,0.00e+00,8.00e-02,
98,1.60e-03,1.00e-01,
99,-8.00e-04,6.00e-02,
100,2.00e-03,1.00e-01,
101,-1.20e-03,6.00e-02,
102,-8.00e-04,6.00e-02,
103,2.40e-03,8.00e-02,
104,2.40e-03,6.00e-02,
105,-1.20e-03,8.00e-02,
106,-5.60e-03,6.00e-02,
107,5.60e-03,8.00e-02,
108,1.72e-02,6.00e-02,
109,-2.28e-02,8.00e-02,
110,-2.88e-02,8.00e-02,
111,2.68e-02,2.00e-02,
112,1.24e-02,8.00e-02,
113,-1.00e-02,2.00e-02,
114,3.60e-03,8.00e-02,
115,-1.60e-03,2.00e-02,
116,2.00e-03,8.00e-02,
117,-1.60e-03,2.00e-02,
118,-1.20e-03,2.00e-02,
119,2.00e-03,8.00e-02,
120,-1.20e-03,2.00e-02,
121,2.40e-03,8.00e-02,
122,4.00e-03,2.00e-02,
123,-2.80e-03,6.00e-02,
124,-3.20e-03,2.00e-02,
125,8.40e-03,2.12e+00,
126,5.60e-03,1.60e-01,
127,-3.60e-03,8.00e-02,
128,3.60e-03,1.00e-01,
129,-2.00e-03,6.00e-02,
130,1.60e-03,6.00e-02,
131,-8.00e-04,1.00e-01,
132,2.80e-03,6.00e-02,
133,-1.60e-03,8.00e-02,
134,2.40e-03,6.00e-02,
135,-1.60e-03,8.00e-02,
136,-4.40e-03,6.00e-02,
137,6.80e-03,8.00e-02,
138,-1.64e-02,8.00e-02,
139,1.72e-02,6.00e-02,
140,-2.32e-02,6.00e-02,
141,2.60e-02,8.00e-02,
142,1.12e-02,6.00e-02,
143,-8.80e-03,8.00e-02,
144,2.80e-03,8.00e-02,
145,-1.20e-03,2.00e-02,
146,-4.00e-04,8.00e-02,
147,2.00e-03,2.00e-02,
148,-8.00e-04,8.00e-02,
149,2.00e-03,2.00e-02,
150,-8.00e-04,2.00e-02,
151,2.00e-03,8.00e-02,
152,-4.00e-04,8.00e-02,
153,1.60e-03,2.00e-02,
154,-8.00e-04,2.00e-02,
155,8.80e-03,2.00e+00,
156,5.60e-03,1.60e-01,
157,-1.60e-03,8.00e-02,
158,2.00e-03,1.00e-01,
159,-1.20e-03,6.00e-02,
160,2.00e-03,1.00e-01,
161,-1.20e-03,6.00e-02,
162,2.00e-03,6.00e-02,
163,-8.00e-04,8.00e-02,
164,2.00e-03,6.00e-02,
165,-4.00e-04,8.00e-02,
166,-5.20e-03,6.00e-02,
167,7.20e-03,8.00e-02,
168,1.48e-02,8.00e-02,
169,-1.80e-02,4.00e-02,
170,-2.48e-02,8.00e-02,
171,2.36e-02,6.00e-02,
172,1.04e-02,8.00e-02,
173,-7.60e-03,2.00e-02,
174,3.60e-03,8.00e-02,
175,-1.60e-03,2.00e-02,
176,-1.20e-03,8.00e-02,
177,2.40e-03,2.00e-02,
178,-1.20e-03,8.00e-02,
179,2.00e-03,2.00e-02,
180,-8.00e-04,4.00e-02,
181,2.40e-03,2.00e-02,
182,2.00e-03,4.00e-02,
183,-1.60e-03,2.00e-02,
184,-2.40e-03,2.00e-02,
185,9.20e-03,2.10e+00,
186,5.60e-03,1.60e-01,
187,-4.00e-04,8.00e-02,
188,2.00e-03,1.00e-01,
189,-8.00e-04,6.00e-02,
190,2.40e-03,1.00e-01,
191,-8.00e-04,6.00e-02,
192,2.00e-03,6.00e-02,
193,-1.20e-03,8.00e-02,
194,2.40e-03,6.00e-02,
195,-1.20e-03,8.00e-02,
196,-4.40e-03,6.00e-02,
197,5.20e-03,8.00e-02,
198,1.48e-02,6.00e-02,
199,-1.96e-02,8.00e-02,
200,-2.40e-02,8.00e-02,
201,2.40e-02,4.00e-02,
202,1.16e-02,8.00e-02,
203,-8.80e-03,2.00e-02,
204,3.20e-03,8.00e-02,
205,-1.60e-03,2.00e-02,
206,2.80e-03,8.00e-02,
207,-1.60e-03,2.00e-02,
208,-1.20e-03,8.00e-02,
209,2.00e-03,2.00e-02,
210,-1.20e-03,2.00e-02,
211,2.40e-03,6.00e-02,
212,3.60e-03,2.00e-02,
213,-2.40e-03,8.00e-02,
214,-2.80e-03,2.00e-02,
215,7.60e-03,1.86e+00,
216,5.20e-03,1.60e-01,
217,-1.60e-03,8.00e-02,
218,2.40e-03,1.00e-01,
219,-1.20e-03,6.00e-02,
220,1.60e-03,6.00e-02,
221,-8.00e-04,1.00e-01,
222,1.60e-03,6.00e-02,
223,-1.60e-03,8.00e-02,
224,-1.20e-03,6.00e-02,
225,2.40e-03,8.00e-02,
226,-4.00e-03,8.00e-02,
227,6.80e-03,6.00e-02,
228,-1.72e-02,6.00e-02,
229,1.52e-02,8.00e-02,
230,-2.44e-02,8.00e-02,
231,2.36e-02,4.00e-02,
232,1.12e-02,8.00e-02,
233,-8.80e-03,4.00e-02,
234,3.20e-03,8.00e-02,
235,-1.20e-03,2.00e-02,
236,-8.00e-04,8.00e-02,
237,2.00e-03,2.00e-02,
238,-1.20e-03,2.00e-02,
239,1.20e-03,8.00e-02,
240,-8.00e-04,2.00e-02,
241,1.60e-03,8.00e-02,
242,2.00e-03,2.00e-02,
243,-1.60e-03,8.00e-02,
244,-2.80e-03,2.00e-02,
245,8.40e-03,2.08e+00,
246,5.20e-03,1.60e-01,
247,-1.60e-03,8.00e-02,
248,2.40e-03,1.00e-01,
249,-1.20e-03,6.00e-02,
250,-8.00e-04,1.00e-01,
251,1.60e-03,6.00e-02,
252,2.00e-03,6.00e-02,
253,-1.20e-03,8.00e-02,
254,-1.20e-03,8.00e-02,
255,2.00e-03,6.00e-02,
256,-4.40e-03,8.00e-02,
257,8.00e-03,6.00e-02,
258,-1.76e-02,8.00e-02,
259,1.56e-02,4.00e-02,
260,-2.28e-02,8.00e-02,
261,2.44e-02,4.00e-02,
262,9.60e-03,8.00e-02,
263,-7.20e-03,2.00e-02,
264,2.00e-03,2.00e-02,
265,-1.20e-03,8.00e-02,
266,2.00e-03,8.00e-02,
267,-1.20e-03,2.00e-02,
268,1.60e-03,2.00e-02,
269,-4.00e-04,8.00e-02,
270,2.40e-03,2.00e-02,
271,-4.00e-04,8.00e-02,
272,-1.20e-03,8.00e-02,
273,2.00e-03,2.00e-02,
274,-1.60e-03,2.00e-02,
275,9.20e-03,2.10e+00,
276,5.60e-03,1.60e-01,
277,-8.00e-04,8.00e-02,
278,2.40e-03,1.00e-01,
279,0.00e+00,6.00e-02,
280,1.60e-03,1.00e-01,
281,-4.00e-04,6.00e-02,
282,2.40e-03,6.00e-02,
283,-8.00e-04,8.00e-02,
284,2.00e-03,6.00e-02,
285,-8.00e-04,8.00e-02,
286,-3.20e-03,6.00e-02,
287,5.60e-03,8.00e-02,
288,1.44e-02,8.00e-02,
289,-1.72e-02,4.00e-02,
290,-2.20e-02,8.00e-02,
291,2.32e-02,2.00e-02,
292,1.16e-02,8.00e-02,
293,-8.40e-03,2.00e-02,
294,2.80e-03,8.00e-02,
295,-1.60e-03,2.00e-02,
296,-1.20e-03,8.00e-02,
297,2.00e-03,2.00e-02,
298,1.20e-03,8.00e-02,
299,-1.20e-03,2.00e-02,
300,-8.00e-04,8.00e-02,
301,2.00e-03,2.00e-02,
302,2.40e-03,2.00e-02,
303,-2.40e-03,8.00e-02,
304,-1.60e-03,2.00e-02,
305,8.00e-03,2.02e+00,
306,5.20e-03,1.60e-01,
307,-8.00e-04,8.00e-02,
308,2.40e-03,8.00e-02,
309,-8.00e-04,1.00e-01,
310,1.20e-03,1.00e-01,
311,-1.20e-03,6.00e-02,
312,-8.00e-04,6.00e-02,
313,2.00e-03,8.00e-02,
314,-1.20e-03,6.00e-02,
315,2.40e-03,8.00e-02,
316,-3.20e-03,6.00e-02,
317,5.60e-03,8.00e-02,
318,-1.64e-02,6.00e-02,
319,1.56e-02,8.00e-02,
320,-2.12e-02,6.00e-02,
321,2.36e-02,8.00e-02,
322,1.08e-02,8.00e-02,
323,-8.40e-03,2.00e-02,
324,2.80e-03,8.00e-02,
325,-1.20e-03,2.00e-02,
326,2.00e-03,8.00e-02,
327,-8.00e-04,2.00e-02,
328,-8.00e-04,8.00e-02,
329,2.00e-03,2.00e-02,
330,-1.20e-03,8.00e-02,
331,2.00e-03,2.00e-02,
332,1.20e-03,8.00e-02,
333,-1.60e-03,2.00e-02,
334,-2.80e-03,2.00e-02,
335,8.00e-03,1.92e+00,
336,5.20e-03,1.60e-01,
337,-1.20e-03,8.00e-02,
338,-1.20e-03,1.00e-01,
339,2.00e-03,8.00e-02,
340,2.00e-03,6.00e-02,
341,-8.00e-04,1.00e-01,
342,2.00e-03,6.00e-02,
343,-1.20e-03,8.00e-02,
344,-8.00e-04,8.00e-02,
345,2.00e-03,6.00e-02,
346,-4.40e-03,6.00e-02,
347,6.80e-03,8.00e-02,
348,-1.72e-02,8.00e-02,
349,1.56e-02,6.00e-02,
350,-2.04e-02,6.00e-02,
351,2.28e-02,8.00e-02,
352,1.00e-02,8.00e-02,
353,-7.20e-03,4.00e-02,
354,1.60e-03,8.00e-02,
355,-1.20e-03,2.00e-02,
356,1.20e-03,2.00e-02,
357,-8.00e-04,8.00e-02,
358,1.20e-03,2.00e-02,
359,-1.20e-03,8.00e-02,
360,-1.20e-03,8.00e-02,
361,1.60e-03,2.00e-02,
362,-1.20e-03,8.00e-02,
363,1.60e-03,2.00e-02,
364,-1.20e-03,2.00e-02,
365,8.80e-03,2.08e+00,
366,5.20e-03,1.60e-01,
367,-1.20e-03,8.00e-02,
368,2.40e-03,1.00e-01,
369,-4.00e-04,6.00e-02,
370,1.20e-03,6.00e-02,
371,-8.00e-04,1.00e-01,
372,1.60e-03,6.00e-02,
373,-1.20e-03,8.00e-02,
374,-4.00e-04,6.00e-02,
375,2.40e-03,8.00e-02,
376,-4.40e-03,6.00e-02,
377,5.60e-03,8.00e-02,
378,-1.52e-02,8.00e-02,
379,1.76e-02,6.00e-02,
380,-2.16e-02,8.00e-02,
381,2.08e-02,4.00e-02,
382,1.04e-02,8.00e-02,
383,-7.60e-03,4.00e-02,
384,2.40e-03,8.00e-02,
385,-1.60e-03,2.00e-02,
386,-1.20e-03,8.00e-02,
387,1.60e-03,2.00e-02,
388,2.00e-03,2.00e-02,
389,-1.20e-03,8.00e-02,
390,1.20e-03,8.00e-02,
391,-8.00e-04,2.00e-02,
392,1.60e-03,8.00e-02,
393,-1.20e-03,2.00e-02,
394,-1.60e-03,2.00e-02,
395,8.40e-03,2.04e+00,
396,5.60e-03,1.60e-01,
397,-1.20e-03,8.00e-02,
398,2.40e-03,1.00e-01,
399,-8.00e-04,6.00e-02,
400,1.20e-03,1.00e-01,
401,-1.20e-03,6.00e-02,
402,-8.00e-04,8.00e-02,
403,2.00e-03,6.00e-02,
404,-8.00e-04,6.00e-02,
405,2.40e-03,8.00e-02,
406,-4.00e-03,6.00e-02,
407,4.80e-03,8.00e-02,
408,-1.56e-02,6.00e-02,
409,1.36e-02,8.00e-02,
410,-2.20e-02,8.00e-02,
411,2.12e-02,2.00e-02,
412,1.04e-02,8.00e-02,
413,-7.20e-03,2.00e-02,
414,2.40e-03,2.00e-02,
415,-2.40e-03,8.00e-02,
416,1.20e-03,2.00e-02,
417,-1.20e-03,8.00e-02,
418,1.20e-03,8.00e-02,
419,-8.00e-04,2.00e-02,
420,1.20e-03,2.00e-02,
421,-4.00e-04,8.00e-02,
422,-1.20e-03,6.00e-02,
423,2.40e-03,2.00e-02,
424,-1.20e-03,2.00e-02,
425,8.00e-03,2.12e+00,
426,5.20e-03,1.60e-01,
427,-4.00e-04,8.00e-02,
428,1.60e-03,1.00e-01,
429,-8.00e-04,6.00e-02,
430,2.00e-03,1.00e-01,
431,-8.00e-04,6.00e-02,
432,1.60e-03,6.00e-02,
433,-8.00e-04,8.00e-02,
434,2.00e-03,6.00e-02,
435,-1.20e-03,8.00e-02,
436,-3.20e-03,8.00e-02,
437,6.80e-03,6.00e-02,
438,-1.44e-02,6.00e-02,
439,1.68e-02,8.00e-02,
440,-2.12e-02,6.00e-02,
441,2.12e-02,8.00e-02,
442,8.40e-03,8.00e-02,
443,-6.80e-03,2.00e-02,
444,2.40e-03,8.00e-02,
445,-8.00e-04,2.00e-02,
446,2.00e-03,8.00e-02,
447,-1.20e-03,2.00e-02,
448,-8.00e-04,8.00e-02,
449,2.00e-03,2.00e-02,
450,-8.00e-04,8.00e-02,
451,2.40e-03,2.00e-02,
452,-1.20e-03,2.00e-02,
453,2.00e-03,8.00e-02,
454,-2.00e-03,2.00e-02,
455,8.80e-03,1.86e+00,
456,5.20e-03,1.60e-01,
457,-4.00e-04,8.00e-02,
458,1.60e-03,1.00e-01,
459,-8.00e-04,6.00e-02,
460,1.60e-03,1.00e-01,
461,-4.00e-04,6.00e-02,
462,-8.00e-04,6.00e-02,
463,2.00e-03,8.00e-02,
464,2.40e-03,6.00e-02,
465,-8.00e-04,8.00e-02,
466,-3.20e-03,6.00e-02,
467,5.20e-03,8.00e-02,
468,-1.44e-02,8.00e-02,
469,1.84e-02,4.00e-02,
470,2.00e-02,8.00e-02,
471,-1.96e-02,4.00e-02,
472,8.80e-03,8.00e-02,
473,-7.60e-03,4.00e-02,
474,2.40e-03,8.00e-02,
475,-1.20e-03,2.00e-02,
476,2.00e-03,8.00e-02,
477,-1.20e-03,2.00e-02,
478,-1.20e-03,8.00e-02,
479,1.60e-03,2.00e-02,
480,-1.20e-03,2.00e-02,
481,1.60e-03,8.00e-02,
482,-4.00e-04,8.00e-02,
483,2.00e-03,2.00e-02,
484,-1.20e-03,2.00e-02,
485,8.80e-03,2.14e+00,
486,5.60e-03,1.60e-01,
487,-8.00e-04,8.00e-02,
488,1.60e-03,1.00e-01,
489,-1.20e-03,6.00e-02,
490,1.20e-03,1.00e-01,
491,-8.00e-04,6.00e-02,
492,1.60e-03,6.00e-02,
493,-8.00e-04,8.00e-02,
494,2.00e-03,6.00e-02,
495,-8.00e-04,8.00e-02,
496,-3.20e-03,6.00e-02,
497,5.60e-03,8.00e-02,
498,-1.48e-02,8.00e-02,
499,1.56e-02,4.00e-02,
500,-1.92e-02,8.00e-02,
501,1.96e-02,4.00e-02,
502,9.60e-03,8.00e-02,
503,-6.80e-03,2.00e-02,
504,2.40e-03,8.00e-02,
505,-1.60e-03,2.00e-02,
506,-1.60e-03,2.00e-02,
507,2.00e-03,8.00e-02,
508,1.60e-03,8.00e-02,
509,-8.00e-04,2.00e-02,
510,-8.00e-04,2.00e-02,
511,1.60e-03,8.00e-02,
512,-1.20e-03,2.00e-02,
513,1.20e-03,8.00e-02,
514,-8.00e-04,2.00e-02,
515,8.40e-03,1.96e+00,
516,5.20e-03,1.60e-01,
517,0.00e+00,8.00e-02,
518,-8.00e-04,1.00e-01,
519,2.00e-03,6.00e-02,
520,1.20e-03,1.00e-01,
521,0.00e+00,6.00e-02,
522,2.40e-03,6.00e-02,
523,-8.00e-04,8.00e-02,
524,2.40e-03,6.00e-02,
525,-8.00e-04,8.00e-02,
526,-4.00e-03,6.00e-02,
527,5.60e-03,8.00e-02,
528,-1.48e-02,8.00e-02,
529,1.56e-02,4.00e-02,
530,-2.00e-02,4.00e-02,
531,2.00e-02,8.00e-02,
532,8.80e-03,8.00e-02,
533,-6.80e-03,4.00e-02,
534,-1.20e-03,8.00e-02,
535,2.40e-03,2.00e-02,
536,1.60e-03,8.00e-02,
537,-8.00e-04,2.00e-02,
538,1.20e-03,8.00e-02,
539,-8.00e-04,2.00e-02,
540,-4.00e-04,2.00e-02,
541,2.00e-03,8.00e-02,
542,1.20e-03,8.00e-02,
543,-1.60e-03,2.00e-02,
544,-1.60e-03,2.00e-02,
545,8.40e-03,2.14e+00,
546,5.20e-03,1.60e-01,
547,-4.00e-04,8.00e-02,
548,-8.00e-04,1.00e-01,
549,1.60e-03,6.00e-02,
550,-4.00e-04,1.00e-01,
551,1.20e-03,6.00e-02,
552,-4.00e-04,6.00e-02,
553,1.20e-03,8.00e-02,
554,-8.00e-04,6.00e-02,
555,2.40e-03,8.00e-02,
556,-2.40e-03,6.00e-02,
557,5.20e-03,8.00e-02,
558,-1.40e-02,8.00e-02,
559,1.64e-02,6.00e-02,
560,-1.80e-02,8.00e-02,
561,1.96e-02,4.00e-02,
562,8.80e-03,8.00e-02,
563,-6.40e-03,4.00e-02,
564,2.80e-03,8.00e-02,
565,-1.20e-03,4.00e-02,
566,-1.20e-03,2.00e-02,
567,2.00e-03,8.00e-02,
568,1.20e-03,8.00e-02,
569,-8.00e-04,2.00e-02,
570,-8.00e-04,8.00e-02,
571,2.00e-03,2.00e-02,
572,1.20e-03,2.00e-02,
573,-1.20e-03,8.00e-02,
574,-1.60e-03,2.00e-02,
575,8.80e-03,1.90e+00,
576,5.60e-03,1.60e-01,
577,-8.00e-04,8.00e-02,
578,2.00e-03,8.00e-02,
579,-8.00e-04,1.00e-01,
580,0.00e+00,1.00e-01,
581,2.40e-03,6.00e-02,
582,2.00e-03,8.00e-02,
583,-8.00e-04,6.00e-02,
584,-8.00e-04,6.00e-02,
585,2.00e-03,8.00e-02,
586,-3.20e-03,8.00e-02,
587,5.20e-03,2.00e-02,
588,-1.40e-02,8.00e-02,
589,1.52e-02,4.00e-02,
590,-1.88e-02,8.00e-02,
591,1.84e-02,2.00e-02,
592,8.40e-03,8.00e-02,
593,-6.80e-03,2.00e-02,
594,2.40e-03,8.00e-02,
595,-1.20e-03,2.00e-02,
596,1.60e-03,8.00e-02,
597,-8.00e-04,2.00e-02,
598,0.00e+00,2.00e-02,
599,2.00e-03,8.00e-02,
600,1.20e-03,8.00e-02,
601,-4.00e-04,2.00e-02,
602,-8.00e-04,2.00e-02,
603,2.00e-03,6.00e-02,
604,-1.20e-03,2.00e-02,
605,8.80e-03,2.12e+00,
606,5.60e-03,1.60e-01,
607,-8.00e-04,8.00e-02,
608,-8.00e-04,1.00e-01,
609,2.40e-03,6.00e-02,
610,1.60e-03,1.00e-01,
611,-4.00e-04,6.00e-02,
612,-8.00e-04,8.00e-02,
613,2.00e-03,6.00e-02,
614,-8.00e-04,6.00e-02,
615,2.80e-03,8.00e-02,
616,-3.20e-03,6.00e-02,
617,5.60e-03,8.00e-02,
618,-1.36e-02,8.00e-02,
619,1.68e-02,4.00e-02,
620,-1.84e-02,8.00e-02,
621,1.88e-02,4.00e-02,
622,8.40e-03,8.00e-02,
623,-6.00e-03,2.00e-02,
624,2.40e-03,2.00e-02,
625,-1.20e-03,8.00e-02,
626,-8.00e-04,2.00e-02,
627,2.00e-03,8.00e-02,
628,2.00e-03,2.00e-02,
629,-4.00e-04,8.00e-02,
630,-8.00e-04,2.00e-02,
631,1.20e-03,8.00e-02,
632,-8.00e-04,2.00e-02,
633,1.20e-03,8.00e-02,
634,-2.40e-03,2.00e-02,
635,8.00e-03,2.04e+00,
636,5.20e-03,1.60e-01,
637,0.00e+00,8.00e-02,
638,1.20e-03,1.00e-01,
639,-8.00e-04,6.00e-02,
640,1.20e-03,1.00e-01,
641,-8.00e-04,6.00e-02,
642,-8.00e-04,6.00e-02,
643,2.00e-03,8.00e-02,
644,1.20e-03,6.00e-02,
645,-4.00e-04,8.00e-02,
646,-2.80e-03,6.00e-02,
647,4.40e-03,8.00e-02,
648,-1.32e-02,8.00e-02,
649,1.44e-02,2.00e-02,
650,-1.72e-02,8.00e-02,
651,1.80e-02,2.00e-02,
652,8.40e-03,8.00e-02,
653,-6.00e-03,2.00e-02,
654,2.40e-03,2.00e-02,
655,-8.00e-04,8.00e-02,
656,1.20e-03,8.00e-02,
657,-1.20e-03,2.00e-02,
658,1.20e-03,8.00e-02,
659,-8.00e-04,2.00e-02,
660,-8.00e-04,8.00e-02,
661,2.00e-03,2.00e-02,
662,-8.00e-04,8.00e-02,
663,1.20e-03,2.00e-02,
664,-1.20e-03,2.00e-02,
665,8.40e-03,2.08e+00,
666,5.20e-03,1.60e-01,
667,0.00e+00,8.00e-02,
668,1.20e-03,1.00e-01,
669,-1.20e-03,6.00e-02,
670,-8.00e-04,6.00e-02,
671,1.20e-03,1.00e-01,
672,1.20e-03,6.00e-02,
673,-8.00e-04,8.00e-02,
674,2.00e-03,8.00e-02,
675,-4.00e-04,6.00e-02,
676,-2.80e-03,6.00e-02,
677,5.20e-03,8.00e-02,
678,-1.20e-02,6.00e-02,
679,1.60e-02,8.00e-02,
680,-1.72e-02,8.00e-02,
681,1.84e-02,4.00e-02,
682,8.40e-03,8.00e-02,
683,-6.00e-03,2.00e-02,
684,2.00e-03,8.00e-02,
685,-1.20e-03,2.00e-02,
686,1.20e-03,8.00e-02,
687,-8.00e-04,2.00e-02,
688,-8.00e-04,8.00e-02,
689,2.00e-03,2.00e-02,
690,-8.00e-04,8.00e-02,
691,2.00e-03,2.00e-02,
692,-1.20e-03,2.00e-02,
693,2.40e-03,8.00e-02,
694,-1.20e-03,2.00e-02,
695,8.80e-03,2.08e+00,
696,5.60e-03,1.60e-01,
697,-8.00e-04,8.00e-02,
698,-4.00e-04,1.00e-01,
699,2.00e-03,6.00e-02,
700,-8.00e-04,6.00e-02,
701,2.00e-03,1.00e-01,
702,1.60e-03,6.00e-02,
703,-4.00e-04,8.00e-02,
704,2.00e-03,6.00e-02,
705,-4.00e-04,8.00e-02,
706,-2.80e-03,8.00e-02,
707,5.20e-03,6.00e-02,
708,-1.28e-02,6.00e-02,
709,1.56e-02,8.00e-02,
710,-1.64e-02,8.00e-02,
711,1.76e-02,2.00e-02,
712,8.00e-03,2.00e-02,
713,-6.00e-03,8.00e-02,
714,2.00e-03,8.00e-02,
715,-8.00e-04,2.00e-02,
716,-4.00e-04,8.00e-02,
717,1.20e-03,2.00e-02,
718,0.00e+00,2.00e-02,
719,1.20e-03,8.00e-02,
720,-8.00e-04,2.00e-02,
721,1.20e-03,8.00e-02,
722,2.00e-03,4.00e-02,
723,-1.20e-03,2.00e-02,
724,-2.40e-03,2.00e-02,
725,8.80e-03,2.02e+00,
726,5.60e-03,1.60e-01,
727,0.00e+00,8.00e-02,
728,2.00e-03,1.00e-01,
729,-8.00e-04,6.00e-02,
730,1.60e-03,1.00e-01,
731,-8.00e-04,6.00e-02,
732,1.60e-03,6.00e-02,
733,-1.20e-03,8.00e-02,
734,2.00e-03,8.00e-02,
735,-8.00e-04,6.00e-02,
736,-2.80e-03,8.00e-02,
737,5.20e-03,6.00e-02,
738,-1.24e-02,8.00e-02,
739,1.60e-02,4.00e-02,
740,1.64e-02,8.00e-02,
741,-1.60e-02,4.00e-02,
742,8.00e-03,8.00e-02,
743,-5.20e-03,2.00e-02,
744,2.80e-03,2.00e-02,
745,-1.20e-03,8.00e-02,
746,-8.00e-04,2.00e-02,
747,2.00e-03,8.00e-02,
748,-8.00e-04,2.00e-02,
749,2.00e-03,6.00e-02,
750,-4.00e-04,8.00e-02,
751,2.00e-03,2.00e-02,
752,-8.00e-04,2.00e-02,
753,1.20e-03,4.00e-02,
754,-1.60e-03,2.00e-02,
755,8.40e-03,2.10e+00,
756,5.20e-03,1.60e-01,
757,-4.00e-04,8.00e-02,
758,1.20e-03,1.00e-01,
759,-8.00e-04,6.00e-02,
760,2.00e-03,6.00e-02,
761,-8.00e-04,1.00e-01,
762,1.60e-03,8.00e-02,
763,-8.00e-04,6.00e-02,
764,-4.00e-04,6.00e-02,
765,1.20e-03,8.00e-02,
766,-2.80e-03,6.00e-02,
767,4.00e-03,8.00e-02,
768,-1.16e-02,8.00e-02,
769,1.44e-02,2.00e-02,
770,1.56e-02,8.00e-02,
771,-1.72e-02,2.00e-02,
772,8.00e-03,8.00e-02,
773,-5.60e-03,2.00e-02,
774,2.40e-03,8.00e-02,
775,-8.00e-04,2.00e-02,
776,1.20e-03,8.00e-02,
777,-8.00e-04,2.00e-02,
778,-8.00e-04,2.00e-02,
779,1.20e-03,8.00e-02,
780,0.00e+00,2.00e-02,
781,2.00e-03,8.00e-02,
782,2.00e-03,2.00e-02,
783,-8.00e-04,6.00e-02,
784,-1.60e-03,2.00e-02,
785,8.80e-03,2.02e+00,
786,5.60e-03,1.60e-01,
787,0.00e+00,8.00e-02,
788,0.00e+00,1.00e-01,
789,1.60e-03,6.00e-02,
790,1.60e-03,6.00e-02,
791,0.00e+00,1.00e-01,
792,1.20e-03,6.00e-02,
793,-8.00e-04,8.00e-02,
794,-8.00e-04,6.00e-02,
795,1.60e-03,8.00e-02,
796,-3.60e-03,6.00e-02,
797,4.80e-03,8.00e-02,
798,-1.16e-02,8.00e-02,
799,1.56e-02,6.00e-02,
800,-1.60e-02,8.00e-02,
801,1.64e-02,2.00e-02,
802,7.60e-03,8.00e-02,
803,-5.60e-03,2.00e-02,
804,2.00e-03,2.00e-02,
805,-8.00e-04,8.00e-02,
806,-4.00e-04,8.00e-02,
807,1.20e-03,2.00e-02,
808,-8.00e-04,8.00e-02,
809,1.20e-03,2.00e-02,
810,0.00e+00,8.00e-02,
811,1.60e-03,2.00e-02,
812,1.20e-03,4.00e-02,
813,-8.00e-04,2.00e-02,
814,-1.60e-03,2.00e-02,
815,8.80e-03,2.08e+00,
816,5.60e-03,1.60e-01,
817,0.00e+00,8.00e-02,
818,2.40e-03,1.00e-01,
819,-8.00e-04,6.00e-02,
820,1.60e-03,6.00e-02,
821,-4.00e-04,1.00e-01,
822,1.60e-03,6.00e-02,
823,-1.20e-03,8.00e-02,
824,-1.20e-03,8.00e-02,
825,1.60e-03,6.00e-02,
826,-3.20e-03,6.00e-02,
827,4.40e-03,8.00e-02,
828,-1.16e-02,6.00e-02,
829,1.52e-02,8.00e-02,
830,1.60e-02,8.00e-02,
831,-1.56e-02,4.00e-02,
832,6.80e-03,8.00e-02,
833,-6.00e-03,2.00e-02,
834,-1.20e-03,8.00e-02,
835,2.40e-03,2.00e-02,
836,-1.20e-03,2.00e-02,
837,1.60e-03,8.00e-02,
838,0.00e+00,2.00e-02,
839,2.00e-03,8.00e-02,
840,-8.00e-04,2.00e-02,
841,1.20e-03,8.00e-02,
842,-8.00e-04,2.00e-02,
843,1.20e-03,8.00e-02,
844,-1.60e-03,2.00e-02,
845,8.40e-03,2.08e+00,
846,5.20e-03,1.60e-01,
847,0.00e+00,8.00e-02,
848,1.20e-03,1.00e-01,
849,-8.00e-04,6.00e-02,
850,1.20e-03,1.00e-01,
851,0.00e+00,6.00e-02,
852,2.00e-03,6.00e-02,
