CarrPurc_P1-19_P2-38_tauVary/Gly65/NewFile9.csv

X,CH1,CH2,Start,Increment,
Sequence,Volt,Volt,-3.600000e-03,2.000000e-04
0,0.00e+00,4.00e-02,
1,2.00e-03,0.00e+00,
2,2.00e-03,4.00e-02,
3,0.00e+00,0.00e+00,
4,0.00e+00,4.00e-02,
5,1.20e-03,0.00e+00,
6,0.00e+00,4.00e-02,
7,1.20e-03,0.00e+00,
8,0.00e+00,4.00e-02,
9,1.20e-03,0.00e+00,
10,2.00e-03,4.00e-02,
11,-4.00e-04,0.00e+00,
12,2.00e-03,4.00e-02,
13,0.00e+00,0.00e+00,
14,8.00e-04,4.00e-02,
15,-8.00e-04,0.00e+00,
16,-8.00e-04,4.00e-02,
17,1.20e-03,0.00e+00,
18,0.00e+00,0.00e+00,
19,1.20e-03,4.00e-02,
20,5.60e-03,2.00e-02,
21,-3.08e-02,1.74e+00,
22,2.04e-02,1.20e-01,
23,-1.72e-02,6.00e-02,
24,-2.80e-03,1.00e-01,
25,4.40e-03,6.00e-02,
26,-1.60e-03,6.00e-02,
27,4.00e-03,8.00e-02,
28,2.40e-03,6.00e-02,
29,-8.00e-04,8.00e-02,
30,-1.20e-03,8.00e-02,
31,2.40e-03,2.00e-02,
32,2.40e-03,8.00e-02,
33,-4.00e-04,2.00e-02,
34,-4.00e-04,2.00e-02,
35,8.40e-03,1.98e+00,
36,-7.60e-03,1.60e-01,
37,7.60e-03,8.00e-02,
38,5.60e-03,1.00e-01,
39,-3.20e-03,6.00e-02,
40,2.00e-03,6.00e-02,
41,-8.00e-04,8.00e-02,
42,2.40e-03,6.00e-02,
43,-1.20e-03,8.00e-02,
44,3.60e-03,6.00e-02,
45,-1.20e-03,8.00e-02,
46,-4.40e-03,8.00e-02,
47,8.00e-03,2.00e-02,
48,-2.20e-02,8.00e-02,
49,2.88e-02,2.00e-02,
50,-3.12e-02,8.00e-02,
51,3.28e-02,2.00e-02,
52,1.76e-02,2.00e-02,
53,-1.32e-02,8.00e-02,
54,4.40e-03,2.00e-02,
55,-1.20e-03,8.00e-02,
56,-1.60e-03,6.00e-02,
57,2.80e-03,2.00e-02,
58,2.40e-03,4.00e-02,
59,-8.00e-04,2.00e-02,
60,-8.00e-04,4.00e-02,
61,2.40e-03,2.00e-02,
62,0.00e+00,4.00e-02,
63,2.00e-03,2.00e-02,
64,0.00e+00,2.00e-02,
65,8.00e-03,2.08e+00,
66,5.20e-03,1.60e-01,
67,-8.00e-04,8.00e-02,
68,0.00e+00,1.00e-01,
69,2.00e-03,6.00e-02,
70,2.00e-03,6.00e-02,
71,-4.00e-04,8.00e-02,
72,2.40e-03,8.00e-02,
73,-8.00e-04,6.00e-02,
74,2.00e-03,8.00e-02,
75,-8.00e-04,2.00e-02,
76,-4.00e-03,8.00e-02,
77,6.40e-03,2.00e-02,
78,1.64e-02,8.00e-02,
79,-1.96e-02,2.00e-02,
80,-2.40e-02,8.00e-02,
81,2.60e-02,2.00e-02,
82,1.12e-02,2.00e-02,
83,-8.40e-03,8.00e-02,
84,3.20e-03,4.00e-02,
85,-1.20e-03,2.00e-02,
86,2.40e-03,2.00e-02,
87,-1.60e-03,4.00e-02,
88,2.00e-03,4.00e-02,
89,-8.00e-04,2.00e-02,
90,-1.20e-03,4.00e-02,
91,2.80e-03,2.00e-02,
92,3.20e-03,4.00e-02,
93,-2.80e-03,2.00e-02,
94,-3.20e-03,2.00e-02,
95,9.20e-03,1.72e+00,
96,5.60e-03,1.60e-01,
97,-8.00e-04,8.00e-02,
98,2.40e-03,1.00e-01,
99,-8.00e-04,6.00e-02,
100,-8.00e-04,8.00e-02,
101,2.00e-03,6.00e-02,
102,1.60e-03,6.00e-02,
103,-4.00e-04,8.00e-02,
104,2.40e-03,6.00e-02,
105,-1.20e-03,8.00e-02,
106,-4.40e-03,2.00e-02,
107,4.80e-03,8.00e-02,
108,1.68e-02,2.00e-02,
109,-2.08e-02,8.00e-02,
110,-2.64e-02,2.00e-02,
111,2.56e-02,8.00e-02,
112,1.16e-02,8.00e-02,
113,-9.60e-03,2.00e-02,
114,-1.20e-03,2.00e-02,
115,3.60e-03,6.00e-02,
116,-1.60e-03,4.00e-02,
117,2.40e-03,2.00e-02,
118,-8.00e-04,4.00e-02,
119,2.40e-03,2.00e-02,
120,-1.20e-03,2.00e-02,
121,2.80e-03,4.00e-02,
122,3.20e-03,4.00e-02,
123,-3.20e-03,2.00e-02,
124,-3.20e-03,2.00e-02,
125,9.20e-03,2.08e+00,
126,5.60e-03,1.60e-01,
127,-2.80e-03,8.00e-02,
128,4.00e-03,1.00e-01,
129,-1.20e-03,6.00e-02,
130,-8.00e-04,6.00e-02,
131,2.00e-03,1.00e-01,
132,2.00e-03,6.00e-02,
133,-1.20e-03,8.00e-02,
134,2.40e-03,6.00e-02,
135,-1.20e-03,8.00e-02,
136,-4.40e-03,8.00e-02,
137,6.40e-03,4.00e-02,
138,-1.44e-02,8.00e-02,
139,1.68e-02,2.00e-02,
140,-2.04e-02,8.00e-02,
141,2.36e-02,2.00e-02,
142,1.08e-02,8.00e-02,
143,-7.60e-03,2.00e-02,
144,3.60e-03,2.00e-02,
145,-4.00e-04,8.00e-02,
146,-4.00e-04,6.00e-02,
147,2.00e-03,2.00e-02,
148,2.00e-03,2.00e-02,
149,-1.20e-03,6.00e-02,
150,2.00e-03,2.00e-02,
151,-1.20e-03,4.00e-02,
152,2.00e-03,4.00e-02,
153,-4.00e-04,2.00e-02,
154,-1.60e-03,2.00e-02,
155,8.40e-03,2.02e+00,
156,5.60e-03,1.60e-01,
157,-8.00e-04,8.00e-02,
158,2.80e-03,1.00e-01,
159,-8.00e-04,6.00e-02,
160,2.00e-03,6.00e-02,
161,-8.00e-04,8.00e-02,
162,-8.00e-04,6.00e-02,
163,2.00e-03,8.00e-02,
164,0.00e+00,6.00e-02,
165,2.80e-03,8.00e-02,
166,-4.00e-03,8.00e-02,
167,7.20e-03,4.00e-02,
168,-1.64e-02,8.00e-02,
169,1.40e-02,2.00e-02,
170,-2.28e-02,8.00e-02,
171,2.24e-02,2.00e-02,
172,9.20e-03,2.00e-02,
173,-7.20e-03,8.00e-02,
174,2.80e-03,4.00e-02,
175,-1.20e-03,2.00e-02,
176,2.00e-03,4.00e-02,
177,-1.20e-03,2.00e-02,
178,-4.00e-04,4.00e-02,
179,2.00e-03,2.00e-02,
180,-4.00e-04,4.00e-02,
181,2.00e-03,2.00e-02,
182,2.00e-03,4.00e-02,
183,-1.60e-03,2.00e-02,
184,-1.60e-03,2.00e-02,
185,8.40e-03,2.08e+00,
186,5.20e-03,1.60e-01,
187,-4.00e-04,8.00e-02,
188,2.00e-03,1.00e-01,
189,-4.00e-04,6.00e-02,
190,2.00e-03,6.00e-02,
191,0.00e+00,8.00e-02,
192,-8.00e-04,6.00e-02,
193,2.00e-03,8.00e-02,
194,1.60e-03,8.00e-02,
195,-8.00e-04,2.00e-02,
196,-2.80e-03,8.00e-02,
197,5.20e-03,2.00e-02,
198,1.40e-02,8.00e-02,
199,-1.68e-02,2.00e-02,
200,2.16e-02,8.00e-02,
201,-2.24e-02,2.00e-02,
202,1.12e-02,2.00e-02,
203,-7.20e-03,6.00e-02,
204,2.80e-03,4.00e-02,
205,-1.60e-03,2.00e-02,
206,2.40e-03,2.00e-02,
207,-1.60e-03,4.00e-02,
208,2.40e-03,4.00e-02,
209,-1.20e-03,2.00e-02,
210,2.00e-03,4.00e-02,
211,-1.20e-03,2.00e-02,
212,3.60e-03,4.00e-02,
213,-2.80e-03,2.00e-02,
214,-2.40e-03,2.00e-02,
215,8.00e-03,2.06e+00,
216,5.60e-03,1.60e-01,
217,-1.20e-03,8.00e-02,
218,2.40e-03,1.00e-01,
219,-1.20e-03,6.00e-02,
220,2.00e-03,6.00e-02,
221,-8.00e-04,8.00e-02,
222,2.00e-03,6.00e-02,
223,-1.20e-03,8.00e-02,
224,2.40e-03,6.00e-02,
225,-1.60e-03,8.00e-02,
226,-2.80e-03,8.00e-02,
227,5.60e-03,6.00e-02,
228,-1.48e-02,8.00e-02,
229,1.32e-02,2.00e-02,
230,-1.96e-02,2.00e-02,
231,2.12e-02,8.00e-02,
232,1.04e-02,2.00e-02,
233,-7.60e-03,8.00e-02,
234,2.80e-03,8.00e-02,
235,-4.00e-04,2.00e-02,
236,2.00e-03,2.00e-02,
237,0.00e+00,8.00e-02,
238,0.00e+00,2.00e-02,
239,2.40e-03,6.00e-02,
240,0.00e+00,4.00e-02,
241,1.60e-03,2.00e-02,
242,2.00e-03,4.00e-02,
243,-1.20e-03,2.00e-02,
244,-1.60e-03,2.00e-02,
245,9.20e-03,1.88e+00,
246,5.60e-03,1.60e-01,
247,-1.20e-03,8.00e-02,
248,2.80e-03,1.00e-01,
249,-8.00e-04,6.00e-02,
250,0.00e+00,1.00e-01,
251,2.00e-03,6.00e-02,
252,2.80e-03,6.00e-02,
253,-8.00e-04,8.00e-02,
254,2.40e-03,8.00e-02,
255,-1.20e-03,6.00e-02,
256,-4.00e-03,8.00e-02,
257,6.80e-03,2.00e-02,
258,-1.48e-02,8.00e-02,
259,1.44e-02,2.00e-02,
260,-2.12e-02,8.00e-02,
261,2.24e-02,2.00e-02,
262,8.40e-03,2.00e-02,
263,-6.00e-03,8.00e-02,
264,-1.20e-03,2.00e-02,
265,2.40e-03,6.00e-02,
266,2.40e-03,4.00e-02,
267,-8.00e-04,2.00e-02,
268,-4.00e-04,4.00e-02,
269,1.60e-03,2.00e-02,
270,-4.00e-04,4.00e-02,
271,1.60e-03,2.00e-02,
272,2.40e-03,4.00e-02,
273,-1.20e-03,2.00e-02,
274,-2.80e-03,2.00e-02,
275,8.40e-03,2.02e+00,
276,5.60e-03,1.60e-01,
277,-4.00e-04,8.00e-02,
278,2.00e-03,1.00e-01,
279,-8.00e-04,6.00e-02,
280,-4.00e-04,8.00e-02,
281,2.00e-03,6.00e-02,
282,0.00e+00,6.00e-02,
283,2.40e-03,8.00e-02,
284,2.00e-03,6.00e-02,
285,0.00e+00,8.00e-02,
286,-2.80e-03,8.00e-02,
287,4.80e-03,2.00e-02,
288,1.24e-02,8.00e-02,
289,-1.48e-02,2.00e-02,
290,-1.88e-02,8.00e-02,
291,2.16e-02,2.00e-02,
292,9.20e-03,2.00e-02,
293,-7.20e-03,6.00e-02,
294,2.80e-03,4.00e-02,
295,-1.20e-03,2.00e-02,
296,-8.00e-04,4.00e-02,
297,2.40e-03,2.00e-02,
298,2.40e-03,4.00e-02,
299,-8.00e-04,2.00e-02,
300,-8.00e-04,4.00e-02,
301,1.60e-03,2.00e-02,
302,2.40e-03,4.00e-02,
303,-2.40e-03,2.00e-02,
304,-1.60e-03,2.00e-02,
305,8.40e-03,2.00e+00,
306,5.20e-03,1.60e-01,
307,-8.00e-04,8.00e-02,
308,2.00e-03,1.00e-01,
309,-8.00e-04,6.00e-02,
310,0.00e+00,6.00e-02,
311,1.20e-03,8.00e-02,
312,-8.00e-04,6.00e-02,
313,2.00e-03,8.00e-02,
314,2.40e-03,6.00e-02,
315,-1.20e-03,8.00e-02,
316,-3.20e-03,8.00e-02,
317,5.20e-03,4.00e-02,
318,-1.48e-02,8.00e-02,
319,1.44e-02,2.00e-02,
320,-1.92e-02,2.00e-02,
321,2.08e-02,8.00e-02,
322,9.60e-03,2.00e-02,
323,-8.40e-03,6.00e-02,
324,2.40e-03,4.00e-02,
325,-1.20e-03,2.00e-02,
326,-8.00e-04,4.00e-02,
327,2.00e-03,2.00e-02,
328,1.20e-03,4.00e-02,
329,-1.20e-03,2.00e-02,
330,1.60e-03,4.00e-02,
331,-8.00e-04,2.00e-02,
332,2.40e-03,4.00e-02,
333,-1.60e-03,2.00e-02,
334,-1.60e-03,2.00e-02,
335,8.80e-03,2.00e+00,
336,5.20e-03,1.60e-01,
337,-1.20e-03,6.00e-02,
338,2.00e-03,1.00e-01,
339,-8.00e-04,6.00e-02,
340,0.00e+00,6.00e-02,
341,1.60e-03,8.00e-02,
342,-8.00e-04,6.00e-02,
343,2.00e-03,8.00e-02,
344,-8.00e-04,8.00e-02,
345,2.00e-03,6.00e-02,
346,-3.60e-03,6.00e-02,
347,6.40e-03,8.00e-02,
348,-1.56e-02,8.00e-02,
349,1.40e-02,2.00e-02,
350,1.88e-02,8.00e-02,
351,-1.96e-02,2.00e-02,
352,8.80e-03,2.00e-02,
353,-5.60e-03,8.00e-02,
354,2.80e-03,8.00e-02,
355,-8.00e-04,2.00e-02,
356,-4.00e-04,2.00e-02,
357,2.00e-03,4.00e-02,
358,1.20e-03,2.00e-02,
359,-8.00e-04,4.00e-02,
360,-4.00e-04,4.00e-02,
361,1.60e-03,2.00e-02,
362,-1.20e-03,4.00e-02,
363,2.40e-03,2.00e-02,
364,-1.60e-03,-2.00e-02,
365,8.40e-03,2.06e+00,
366,5.60e-03,1.40e-01,
367,-8.00e-04,8.00e-02,
368,2.40e-03,1.00e-01,
369,-1.20e-03,6.00e-02,
370,2.00e-03,6.00e-02,
371,-4.00e-04,1.00e-01,
372,1.60e-03,6.00e-02,
373,-8.00e-04,8.00e-02,
374,1.20e-03,6.00e-02,
375,-8.00e-04,8.00e-02,
376,-2.80e-03,8.00e-02,
377,4.80e-03,4.00e-02,
378,-1.36e-02,8.00e-02,
379,1.40e-02,2.00e-02,
380,1.80e-02,8.00e-02,
381,-1.84e-02,2.00e-02,
382,9.60e-03,2.00e-02,
383,-7.20e-03,8.00e-02,
384,2.80e-03,2.00e-02,
385,-8.00e-04,8.00e-02,
386,2.00e-03,8.00e-02,
387,-8.00e-04,2.00e-02,
388,1.20e-03,2.00e-02,
389,-8.00e-04,6.00e-02,
390,2.00e-03,4.00e-02,
391,-8.00e-04,2.00e-02,
392,-1.20e-03,4.00e-02,
393,2.00e-03,2.00e-02,
394,-1.60e-03,2.00e-02,
395,8.40e-03,2.00e+00,
396,5.20e-03,1.60e-01,
397,0.00e+00,8.00e-02,
398,2.00e-03,1.00e-01,
399,-8.00e-04,6.00e-02,
400,0.00e+00,6.00e-02,
401,1.60e-03,8.00e-02,
402,1.60e-03,8.00e-02,
403,-4.00e-04,6.00e-02,
404,1.20e-03,6.00e-02,
405,-8.00e-04,8.00e-02,
406,-2.80e-03,8.00e-02,
407,4.80e-03,2.00e-02,
408,-1.32e-02,8.00e-02,
409,1.36e-02,2.00e-02,
410,-1.92e-02,2.00e-02,
411,1.96e-02,8.00e-02,
412,8.80e-03,2.00e-02,
413,-6.80e-03,8.00e-02,
414,2.40e-03,2.00e-02,
415,-1.20e-03,8.00e-02,
416,2.00e-03,2.00e-02,
417,-8.00e-04,4.00e-02,
418,-4.00e-04,4.00e-02,
419,2.00e-03,2.00e-02,
420,2.40e-03,2.00e-02,
421,-4.00e-04,4.00e-02,
422,-8.00e-04,4.00e-02,
423,2.40e-03,2.00e-02,
424,-1.20e-03,2.00e-02,
425,8.40e-03,2.06e+00,
426,5.60e-03,1.60e-01,
427,0.00e+00,8.00e-02,
428,-8.00e-04,1.00e-01,
429,2.00e-03,6.00e-02,
430,0.00e+00,6.00e-02,
431,2.00e-03,8.00e-02,
432,2.40e-03,6.00e-02,
433,-8.00e-04,8.00e-02,
434,2.40e-03,6.00e-02,
435,-4.00e-04,8.00e-02,
436,-3.20e-03,8.00e-02,
437,5.60e-03,2.00e-02,
438,-1.40e-02,8.00e-02,
439,1.44e-02,2.00e-02,
440,-1.84e-02,8.00e-02,
441,1.92e-02,2.00e-02,
442,8.40e-03,2.00e-02,
443,-5.60e-03,8.00e-02,
444,2.40e-03,4.00e-02,
445,-1.20e-03,2.00e-02,
446,1.20e-03,4.00e-02,
447,-1.20e-03,2.00e-02,
448,2.00e-03,2.00e-02,
449,-8.00e-04,4.00e-02,
450,0.00e+00,2.00e-02,
451,2.00e-03,4.00e-02,
452,2.40e-03,4.00e-02,
453,-1.20e-03,2.00e-02,
454,-2.00e-03,2.00e-02,
455,8.80e-03,2.00e+00,
456,5.60e-03,1.60e-01,
457,-8.00e-04,8.00e-02,
458,-4.00e-04,1.00e-01,
459,2.00e-03,6.00e-02,
460,1.60e-03,6.00e-02,
461,0.00e+00,8.00e-02,
462,2.00e-03,6.00e-02,
463,-8.00e-04,8.00e-02,
464,-8.00e-04,6.00e-02,
465,2.00e-03,8.00e-02,
466,-2.40e-03,6.00e-02,
467,5.60e-03,8.00e-02,
468,-1.36e-02,8.00e-02,
469,1.56e-02,2.00e-02,
470,-1.76e-02,8.00e-02,
471,1.84e-02,2.00e-02,
472,9.20e-03,2.00e-02,
473,-6.80e-03,8.00e-02,
474,2.40e-03,8.00e-02,
475,-8.00e-04,2.00e-02,
476,2.00e-03,4.00e-02,
477,-8.00e-04,2.00e-02,
478,-8.00e-04,4.00e-02,
479,2.00e-03,2.00e-02,
480,-8.00e-04,4.00e-02,
481,1.60e-03,2.00e-02,
482,2.40e-03,2.00e-02,
483,-8.00e-04,4.00e-02,
484,-1.60e-03,2.00e-02,
485,8.40e-03,2.06e+00,
486,5.20e-03,1.60e-01,
487,0.00e+00,8.00e-02,
488,2.40e-03,1.00e-01,
489,-8.00e-04,6.00e-02,
490,-4.00e-04,6.00e-02,
491,1.60e-03,8.00e-02,
492,1.60e-03,6.00e-02,
493,-4.00e-04,8.00e-02,
494,2.40e-03,6.00e-02,
495,-4.00e-04,8.00e-02,
496,-3.20e-03,8.00e-02,
497,5.20e-03,2.00e-02,
498,-1.28e-02,2.00e-02,
499,1.48e-02,8.00e-02,
500,1.76e-02,8.00e-02,
501,-1.80e-02,2.00e-02,
502,1.00e-02,8.00e-02,
503,-6.00e-03,2.00e-02,
504,2.80e-03,6.00e-02,
505,-1.20e-03,2.00e-02,
506,-8.00e-04,2.00e-02,
507,2.40e-03,4.00e-02,
508,-8.00e-04,4.00e-02,
509,2.40e-03,2.00e-02,
510,1.60e-03,4.00e-02,
511,-8.00e-04,2.00e-02,
512,-8.00e-04,4.00e-02,
513,1.60e-03,2.00e-02,
514,-1.60e-03,2.00e-02,
515,8.40e-03,1.88e+00,
516,5.20e-03,1.60e-01,
517,0.00e+00,8.00e-02,
518,-8.00e-04,1.00e-01,
519,2.00e-03,6.00e-02,
520,-4.00e-04,6.00e-02,
521,1.60e-03,8.00e-02,
522,2.00e-03,6.00e-02,
523,-4.00e-04,8.00e-02,
524,2.00e-03,6.00e-02,
525,-8.00e-04,8.00e-02,
526,-3.60e-03,8.00e-02,
527,4.80e-03,4.00e-02,
528,-1.28e-02,8.00e-02,
529,1.28e-02,2.00e-02,
530,-1.72e-02,2.00e-02,
531,1.80e-02,8.00e-02,
532,8.00e-03,6.00e-02,
533,-5.60e-03,2.00e-02,
534,2.40e-03,4.00e-02,
535,-8.00e-04,2.00e-02,
536,0.00e+00,4.00e-02,
537,1.60e-03,2.00e-02,
538,0.00e+00,4.00e-02,
539,2.00e-03,2.00e-02,
540,0.00e+00,2.00e-02,
541,2.00e-03,4.00e-02,
542,-8.00e-04,4.00e-02,
543,2.00e-03,2.00e-02,
544,-1.60e-03,2.00e-02,
545,8.80e-03,2.06e+00,
546,5.60e-03,1.60e-01,
547,-8.00e-04,8.00e-02,
548,2.00e-03,1.00e-01,
549,0.00e+00,6.00e-02,
550,1.20e-03,6.00e-02,
551,0.00e+00,1.00e-01,
552,-4.00e-04,6.00e-02,
553,2.40e-03,8.00e-02,
554,2.00e-03,6.00e-02,
555,-8.00e-04,8.00e-02,
556,-2.40e-03,6.00e-02,
557,5.20e-03,8.00e-02,
558,-1.28e-02,8.00e-02,
559,1.44e-02,2.00e-02,
560,-1.68e-02,8.00e-02,
561,1.76e-02,2.00e-02,
562,8.40e-03,8.00e-02,
563,-6.00e-03,2.00e-02,
564,2.40e-03,2.00e-02,
565,-8.00e-04,8.00e-02,
566,-8.00e-04,2.00e-02,
567,2.00e-03,8.00e-02,
568,-8.00e-04,4.00e-02,
569,2.00e-03,2.00e-02,
570,-1.20e-03,4.00e-02,
571,1.60e-03,2.00e-02,
572,-8.00e-04,4.00e-02,
573,2.00e-03,2.00e-02,
574,-1.60e-03,2.00e-02,
575,8.80e-03,2.00e+00,
576,5.60e-03,1.60e-01,
577,0.00e+00,8.00e-02,
578,-8.00e-04,1.00e-01,
579,2.40e-03,6.00e-02,
580,1.60e-03,6.00e-02,
581,0.00e+00,8.00e-02,
582,-8.00e-04,8.00e-02,
583,2.00e-03,6.00e-02,
584,-8.00e-04,6.00e-02,
585,2.00e-03,8.00e-02,
586,-3.20e-03,4.00e-02,
587,5.20e-03,8.00e-02,
588,-1.24e-02,8.00e-02,
589,1.44e-02,2.00e-02,
590,-1.68e-02,8.00e-02,
591,1.68e-02,2.00e-02,
592,7.60e-03,8.00e-02,
593,-5.60e-03,2.00e-02,
594,2.80e-03,2.00e-02,
595,-8.00e-04,8.00e-02,
596,-8.00e-04,4.00e-02,
597,1.60e-03,2.00e-02,
598,-8.00e-04,4.00e-02,
599,2.00e-03,2.00e-02,
600,-8.00e-04,2.00e-02,
601,2.00e-03,4.00e-02,
602,-8.00e-04,4.00e-02,
603,1.60e-03,2.00e-02,
604,-1.60e-03,2.00e+00,
605,8.40e-03,0.00e+00,
606,5.20e-03,1.60e-01,
607,-8.00e-04,8.00e-02,
608,-4.00e-04,1.00e-01,
609,2.00e-03,6.00e-02,
610,1.20e-03,6.00e-02,
611,0.00e+00,8.00e-02,
612,2.40e-03,8.00e-02,
613,-8.00e-04,6.00e-02,
614,2.00e-03,6.00e-02,
615,-8.00e-04,8.00e-02,
616,-2.80e-03,8.00e-02,
617,5.20e-03,2.00e-02,
618,-1.16e-02,8.00e-02,
619,1.56e-02,2.00e-02,
620,-1.60e-02,8.00e-02,
621,1.72e-02,2.00e-02,
622,8.00e-03,8.00e-02,
623,-5.20e-03,2.00e-02,
624,2.40e-03,2.00e-02,
625,-8.00e-04,6.00e-02,
626,-4.00e-04,4.00e-02,
627,1.60e-03,2.00e-02,
628,1.60e-03,4.00e-02,
629,0.00e+00,2.00e-02,
630,1.60e-03,4.00e-02,
631,-4.00e-04,2.00e-02,
632,1.20e-03,4.00e-02,
633,-4.00e-04,2.00e-02,
634,-1.60e-03,2.00e-02,
635,8.80e-03,2.10e+00,
636,5.60e-03,1.60e-01,
637,0.00e+00,8.00e-02,
638,2.00e-03,1.00e-01,
639,0.00e+00,6.00e-02,
640,2.00e-03,6.00e-02,
641,-8.00e-04,8.00e-02,
642,-8.00e-04,6.00e-02,
643,2.00e-03,8.00e-02,
644,-8.00e-04,6.00e-02,
645,1.60e-03,8.00e-02,
646,-1.60e-03,6.00e-02,
647,4.00e-03,8.00e-02,
648,-1.16e-02,8.00e-02,
649,1.44e-02,2.00e-02,
650,-1.56e-02,8.00e-02,
651,1.64e-02,2.00e-02,
652,8.40e-03,8.00e-02,
653,-5.60e-03,2.00e-02,
654,2.80e-03,2.00e-02,
655,-1.20e-03,8.00e-02,
656,-4.00e-04,2.00e-02,
657,1.60e-03,8.00e-02,
658,1.20e-03,6.00e-02,
659,-8.00e-04,2.00e-02,
660,1.60e-03,4.00e-02,
661,-8.00e-04,2.00e-02,
662,0.00e+00,4.00e-02,
663,2.00e-03,2.00e-02,
664,-1.60e-03,2.00e-02,
665,8.80e-03,1.96e+00,
666,5.60e-03,1.60e-01,
667,0.00e+00,8.00e-02,
668,1.60e-03,1.00e-01,
669,-8.00e-04,6.00e-02,
670,1.60e-03,6.00e-02,
671,0.00e+00,8.00e-02,
672,-4.00e-04,6.00e-02,
673,2.40e-03,8.00e-02,
674,-8.00e-04,8.00e-02,
675,2.40e-03,6.00e-02,
676,-2.80e-03,8.00e-02,
677,4.40e-03,2.00e-02,
678,-1.12e-02,2.00e-02,
679,1.44e-02,8.00e-02,
680,-1.64e-02,2.00e-02,
681,1.60e-02,8.00e-02,
682,8.40e-03,8.00e-02,
683,-4.80e-03,2.00e-02,
684,2.80e-03,6.00e-02,
685,-1.20e-03,2.00e-02,
686,2.00e-03,2.00e-02,
687,-8.00e-04,8.00e-02,
688,-8.00e-04,2.00e-02,
689,1.20e-03,4.00e-02,
690,-4.00e-04,4.00e-02,
691,2.00e-03,2.00e-02,
692,1.60e-03,4.00e-02,
693,-4.00e-04,2.00e-02,
694,-1.20e-03,2.00e-02,
695,8.40e-03,2.08e+00,
696,5.60e-03,1.60e-01,
697,0.00e+00,8.00e-02,
698,-8.00e-04,1.00e-01,
699,2.40e-03,6.00e-02,
700,0.00e+00,6.00e-02,
701,1.60e-03,8.00e-02,
702,1.60e-03,6.00e-02,
703,-4.00e-04,8.00e-02,
704,2.00e-03,6.00e-02,
705,-8.00e-04,8.00e-02,
706,-2.00e-03,8.00e-02,
707,5.20e-03,2.00e-02,
708,-1.16e-02,8.00e-02,
709,1.52e-02,2.00e-02,
710,-1.48e-02,8.00e-02,
711,1.72e-02,2.00e-02,
712,6.80e-03,8.00e-02,
713,-5.60e-03,2.00e-02,
714,2.40e-03,2.00e-02,
715,-8.00e-04,8.00e-02,
716,-4.00e-04,2.00e-02,
717,2.00e-03,6.00e-02,
718,0.00e+00,4.00e-02,
719,1.20e-03,2.00e-02,
720,1.20e-03,4.00e-02,
721,-4.00e-04,2.00e-02,
722,1.60e-03,6.00e-02,
723,-8.00e-04,2.00e-02,
724,-2.40e-03,2.00e-02,
725,8.00e-03,1.98e+00,
726,5.20e-03,1.60e-01,
727,0.00e+00,8.00e-02,
728,0.00e+00,1.00e-01,
729,2.00e-03,6.00e-02,
730,0.00e+00,6.00e-02,
731,2.00e-03,1.00e-01,
732,1.60e-03,6.00e-02,
733,-8.00e-04,8.00e-02,
734,-8.00e-04,8.00e-02,
735,1.60e-03,6.00e-02,
736,-2.00e-03,8.00e-02,
737,4.00e-03,2.00e-02,
738,-1.12e-02,8.00e-02,
739,1.44e-02,2.00e-02,
740,-1.48e-02,8.00e-02,
741,1.68e-02,2.00e-02,
742,7.60e-03,2.00e-02,
743,-6.00e-03,8.00e-02,
744,2.00e-03,2.00e-02,
745,-1.20e-03,6.00e-02,
746,1.20e-03,2.00e-02,
747,-4.00e-04,6.00e-02,
748,1.60e-03,2.00e-02,
749,-4.00e-04,4.00e-02,
750,0.00e+00,4.00e-02,
751,2.00e-03,2.00e-02,
752,-8.00e-04,2.00e-02,
753,1.20e-03,4.00e-02,
754,-1.60e-03,2.00e-02,
755,8.80e-03,2.08e+00,
756,5.60e-03,1.60e-01,
757,-4.00e-04,8.00e-02,
758,2.00e-03,1.00e-01,
759,-8.00e-04,6.00e-02,
760,-8.00e-04,6.00e-02,
761,1.60e-03,8.00e-02,
762,-8.00e-04,8.00e-02,
763,1.60e-03,6.00e-02,
764,2.40e-03,6.00e-02,
765,-8.00e-04,8.00e-02,
766,-2.40e-03,8.00e-02,
767,4.80e-03,2.00e-02,
768,-1.04e-02,8.00e-02,
769,1.32e-02,2.00e-02,
770,-1.44e-02,8.00e-02,
771,1.60e-02,2.00e-02,
772,7.20e-03,8.00e-02,
773,-4.80e-03,2.00e-02,
774,2.40e-03,8.00e-02,
775,-8.00e-04,2.00e-02,
776,-4.00e-04,2.00e-02,
777,2.40e-03,6.00e-02,
778,1.60e-03,2.00e-02,
779,-4.00e-04,6.00e-02,
780,1.20e-03,2.00e-02,
781,-8.00e-04,4.00e-02,
782,1.60e-03,4.00e-02,
783,-4.00e-04,2.00e-02,
784,-2.00e-03,2.00e-02,
785,8.80e-03,1.98e+00,
786,5.60e-03,1.60e-01,
787,0.00e+00,8.00e-02,
788,0.00e+00,1.00e-01,
789,2.40e-03,6.00e-02,
790,1.20e-03,6.00e-02,
791,-4.00e-04,8.00e-02,
792,2.00e-03,6.00e-02,
793,-8.00e-04,8.00e-02,
794,-8.00e-04,6.00e-02,
795,2.00e-03,8.00e-02,
796,-2.40e-03,8.00e-02,
797,5.20e-03,4.00e-02,
798,-1.12e-02,8.00e-02,
799,1.40e-02,2.00e-02,
800,-1.48e-02,8.00e-02,
801,1.56e-02,2.00e-02,
802,6.80e-03,2.00e-02,
803,-4.40e-03,8.00e-02,
804,2.40e-03,2.00e-02,
805,-8.00e-04,4.00e-02,
806,-8.00e-04,4.00e-02,
807,2.00e-03,2.00e-02,
808,0.00e+00,4.00e-02,
809,1.60e-03,2.00e-02,
810,-4.00e-04,4.00e-02,
811,2.00e-03,2.00e-02,
812,-8.00e-04,4.00e-02,
813,1.60e-03,2.00e-02,
814,-2.80e-03,2.00e-02,
815,8.00e-03,2.08e+00,
816,5.20e-03,1.60e-01,
817,0.00e+00,8.00e-02,
818,2.00e-03,1.00e-01,
819,-4.00e-04,6.00e-02,
820,0.00e+00,6.00e-02,
821,1.20e-03,1.00e-01,
822,1.20e-03,6.00e-02,
823,0.00e+00,8.00e-02,
824,1.20e-03,8.00e-02,
825,-8.00e-04,6.00e-02,
826,-2.00e-03,8.00e-02,
827,4.40e-03,4.00e-02,
828,-1.12e-02,2.00e-02,
829,1.32e-02,8.00e-02,
830,-1.44e-02,8.00e-02,
831,1.52e-02,2.00e-02,
832,7.20e-03,8.00e-02,
833,-4.80e-03,2.00e-02,
834,2.00e-03,2.00e-02,
835,-8.00e-04,8.00e-02,
836,0.00e+00,2.00e-02,
837,2.00e-03,6.00e-02,
838,1.20e-03,4.00e-02,
839,-4.00e-04,2.00e-02,
840,-8.00e-04,4.00e-02,
841,1.60e-03,2.00e-02,
842,-1.20e-03,4.00e-02,
843,1.20e-03,2.00e-02,
844,-2.00e-03,2.00e-02,
845,8.40e-03,1.96e+00,
846,5.60e-03,1.60e-01,
847,-4.00e-04,8.00e-02,
848,2.00e-03,1.00e-01,
849,-8.00e-04,6.00e-02,
850,-8.00e-04,6.00e-02,
851,1.60e-03,8.00e-02,
852,1.60e-03,6.00e-02,
853,-8.00e-04,8.00e-02,
854,2.00e-03,8.00e-02,
