CarrPurc_P1-19_P2-38_tauVary/Gly65/NewFile4.csv

X,CH1,CH2,Start,Increment,
Sequence,Volt,Volt,-3.600000e-03,2.000000e-04
0,1.20e-03,4.00e-02,
1,-8.00e-04,2.00e-02,
2,1.20e-03,4.00e-02,
3,-8.00e-04,2.00e-02,
4,-8.00e-04,4.00e-02,
5,1.20e-03,2.00e-02,
6,0.00e+00,2.00e-02,
7,1.20e-03,4.00e-02,
8,1.20e-03,4.00e-02,
9,-4.00e-04,2.00e-02,
10,1.20e-03,4.00e-02,
11,0.00e+00,2.00e-02,
12,1.20e-03,4.00e-02,
13,0.00e+00,2.00e-02,
14,0.00e+00,4.00e-02,
15,1.60e-03,2.00e-02,
16,1.20e-03,4.00e-02,
17,-8.00e-04,2.00e-02,
18,0.00e+00,4.00e-02,
19,1.20e-03,2.00e-02,
20,6.00e-03,2.00e-02,
21,-3.20e-02,1.70e+00,
22,2.08e-02,1.20e-01,
23,-1.72e-02,8.00e-02,
24,-3.60e-03,1.00e-01,
25,4.40e-03,6.00e-02,
26,4.00e-03,6.00e-02,
27,-2.00e-03,8.00e-02,
28,2.80e-03,6.00e-02,
29,-8.00e-04,8.00e-02,
30,-1.20e-03,6.00e-02,
31,2.80e-03,8.00e-02,
32,2.00e-03,8.00e-02,
33,-1.20e-03,4.00e-02,
34,-8.00e-04,2.00e-02,
35,8.00e-03,2.10e+00,
36,-7.20e-03,1.60e-01,
37,6.80e-03,8.00e-02,
38,5.20e-03,1.00e-01,
39,-3.20e-03,6.00e-02,
40,2.40e-03,6.00e-02,
41,-8.00e-04,1.00e-01,
42,2.40e-03,6.00e-02,
43,-1.20e-03,8.00e-02,
44,-1.20e-03,6.00e-02,
45,2.40e-03,8.00e-02,
46,-4.40e-03,6.00e-02,
47,8.00e-03,8.00e-02,
48,-2.28e-02,8.00e-02,
49,2.76e-02,6.00e-02,
50,-3.24e-02,8.00e-02,
51,3.28e-02,2.00e-02,
52,1.76e-02,8.00e-02,
53,-1.40e-02,2.00e-02,
54,4.00e-03,8.00e-02,
55,-1.20e-03,2.00e-02,
56,-1.20e-03,8.00e-02,
57,2.40e-03,2.00e-02,
58,2.00e-03,2.00e-02,
59,-1.20e-03,8.00e-02,
60,2.00e-03,2.00e-02,
61,-8.00e-04,8.00e-02,
62,0.00e+00,6.00e-02,
63,2.00e-03,2.00e-02,
64,0.00e+00,2.00e-02,
65,8.00e-03,1.88e+00,
66,5.20e-03,1.60e-01,
67,-8.00e-04,8.00e-02,
68,-4.00e-04,1.00e-01,
69,2.00e-03,6.00e-02,
70,2.00e-03,1.00e-01,
71,-1.20e-03,6.00e-02,
72,-8.00e-04,8.00e-02,
73,1.60e-03,6.00e-02,
74,-8.00e-04,6.00e-02,
75,2.40e-03,8.00e-02,
76,-5.20e-03,6.00e-02,
77,6.40e-03,8.00e-02,
78,1.56e-02,8.00e-02,
79,-1.84e-02,4.00e-02,
80,-2.56e-02,8.00e-02,
81,2.48e-02,2.00e-02,
82,1.12e-02,8.00e-02,
83,-8.80e-03,2.00e-02,
84,2.80e-03,8.00e-02,
85,-1.20e-03,2.00e-02,
86,2.40e-03,2.00e-02,
87,-1.20e-03,8.00e-02,
88,2.00e-03,8.00e-02,
89,-8.00e-04,2.00e-02,
90,-1.20e-03,4.00e-02,
91,2.80e-03,2.00e-02,
92,3.60e-03,2.00e-02,
93,-3.20e-03,8.00e-02,
94,-3.60e-03,2.00e-02,
95,9.20e-03,2.08e+00,
96,5.60e-03,1.60e-01,
97,0.00e+00,8.00e-02,
98,2.40e-03,1.00e-01,
99,-1.20e-03,6.00e-02,
100,-1.20e-03,1.00e-01,
101,1.20e-03,6.00e-02,
102,-4.00e-04,6.00e-02,
103,1.60e-03,8.00e-02,
104,2.40e-03,6.00e-02,
105,-1.20e-03,8.00e-02,
106,4.80e-03,6.00e-02,
107,-4.40e-03,8.00e-02,
108,1.68e-02,8.00e-02,
109,-2.08e-02,2.00e-02,
110,2.60e-02,8.00e-02,
111,-2.56e-02,2.00e-02,
112,1.16e-02,8.00e-02,
113,-1.00e-02,4.00e-02,
114,3.20e-03,8.00e-02,
115,-1.60e-03,2.00e-02,
116,2.40e-03,6.00e-02,
117,-4.00e-04,2.00e-02,
118,2.40e-03,8.00e-02,
119,-8.00e-04,2.00e-02,
120,2.40e-03,2.00e-02,
121,-1.20e-03,6.00e-02,
122,3.60e-03,4.00e-02,
123,-2.40e-03,2.00e-02,
124,-2.80e-03,2.00e-02,
125,9.20e-03,2.08e+00,
126,5.60e-03,1.60e-01,
127,-2.80e-03,8.00e-02,
128,3.60e-03,1.00e-01,
129,-1.60e-03,6.00e-02,
130,2.40e-03,6.00e-02,
131,0.00e+00,8.00e-02,
132,2.40e-03,6.00e-02,
133,-1.20e-03,8.00e-02,
134,2.80e-03,6.00e-02,
135,-1.20e-03,8.00e-02,
136,-2.80e-03,6.00e-02,
137,5.60e-03,8.00e-02,
138,-1.32e-02,8.00e-02,
139,1.44e-02,2.00e-02,
140,-2.04e-02,8.00e-02,
141,2.20e-02,2.00e-02,
142,1.08e-02,8.00e-02,
143,-8.00e-03,2.00e-02,
144,2.80e-03,8.00e-02,
145,-8.00e-04,2.00e-02,
146,-4.00e-04,8.00e-02,
147,2.40e-03,2.00e-02,
148,1.20e-03,2.00e-02,
149,-8.00e-04,8.00e-02,
150,-8.00e-04,2.00e-02,
151,1.60e-03,6.00e-02,
152,-8.00e-04,4.00e-02,
153,2.00e-03,2.00e-02,
154,-8.00e-04,2.00e-02,
155,8.40e-03,1.94e+00,
156,5.60e-03,1.60e-01,
157,-1.20e-03,8.00e-02,
158,2.40e-03,1.00e-01,
159,-8.00e-04,6.00e-02,
160,2.00e-03,6.00e-02,
161,-8.00e-04,8.00e-02,
162,0.00e+00,6.00e-02,
163,2.40e-03,8.00e-02,
164,-8.00e-04,6.00e-02,
165,2.40e-03,8.00e-02,
166,-4.00e-03,6.00e-02,
167,6.00e-03,8.00e-02,
168,1.40e-02,2.00e-02,
169,-1.52e-02,8.00e-02,
170,-2.12e-02,8.00e-02,
171,2.16e-02,2.00e-02,
172,8.40e-03,8.00e-02,
173,-6.00e-03,2.00e-02,
174,2.80e-03,2.00e-02,
175,-1.60e-03,8.00e-02,
176,1.60e-03,8.00e-02,
177,-8.00e-04,2.00e-02,
178,2.00e-03,2.00e-02,
179,-8.00e-04,8.00e-02,
180,2.00e-03,4.00e-02,
181,-8.00e-04,2.00e-02,
182,2.40e-03,4.00e-02,
183,-1.60e-03,2.00e-02,
184,-2.40e-03,2.00e-02,
185,9.20e-03,2.10e+00,
186,5.60e-03,1.60e-01,
187,0.00e+00,8.00e-02,
188,2.00e-03,1.00e-01,
189,-4.00e-04,6.00e-02,
190,2.00e-03,6.00e-02,
191,-8.00e-04,1.00e-01,
192,-8.00e-04,6.00e-02,
193,2.00e-03,8.00e-02,
194,-8.00e-04,6.00e-02,
195,1.60e-03,8.00e-02,
196,-3.20e-03,6.00e-02,
197,4.40e-03,8.00e-02,
198,1.32e-02,8.00e-02,
199,-1.56e-02,4.00e-02,
200,2.16e-02,4.00e-02,
201,-2.08e-02,8.00e-02,
202,9.60e-03,8.00e-02,
203,-7.20e-03,2.00e-02,
204,3.20e-03,2.00e-02,
205,-1.20e-03,8.00e-02,
206,2.40e-03,2.00e-02,
207,-1.20e-03,8.00e-02,
208,2.00e-03,2.00e-02,
209,-8.00e-04,8.00e-02,
210,-8.00e-04,2.00e-02,
211,2.00e-03,8.00e-02,
212,3.60e-03,4.00e-02,
213,-2.40e-03,2.00e-02,
214,-3.20e-03,2.00e-02,
215,8.80e-03,1.94e+00,
216,5.60e-03,1.60e-01,
217,-1.20e-03,8.00e-02,
218,2.80e-03,1.00e-01,
219,-8.00e-04,6.00e-02,
220,0.00e+00,6.00e-02,
221,2.00e-03,1.00e-01,
222,2.00e-03,6.00e-02,
223,-8.00e-04,8.00e-02,
224,-1.20e-03,6.00e-02,
225,2.80e-03,8.00e-02,
226,-2.80e-03,8.00e-02,
227,5.20e-03,6.00e-02,
228,-1.28e-02,8.00e-02,
229,1.28e-02,4.00e-02,
230,-1.96e-02,8.00e-02,
231,1.96e-02,4.00e-02,
232,9.20e-03,8.00e-02,
233,-7.20e-03,2.00e-02,
234,2.00e-03,8.00e-02,
235,-4.00e-04,2.00e-02,
236,-8.00e-04,2.00e-02,
237,1.20e-03,8.00e-02,
238,0.00e+00,2.00e-02,
239,1.60e-03,8.00e-02,
240,-4.00e-04,8.00e-02,
241,2.40e-03,2.00e-02,
242,-1.20e-03,2.00e-02,
243,2.00e-03,8.00e-02,
244,-2.40e-03,2.00e-02,
245,8.40e-03,2.10e+00,
246,5.60e-03,1.60e-01,
247,-1.60e-03,8.00e-02,
248,2.00e-03,1.00e-01,
249,-8.00e-04,6.00e-02,
250,2.00e-03,1.00e-01,
251,-8.00e-04,6.00e-02,
252,2.00e-03,6.00e-02,
253,-1.20e-03,8.00e-02,
254,2.00e-03,8.00e-02,
255,-1.20e-03,6.00e-02,
256,-4.40e-03,8.00e-02,
257,5.60e-03,6.00e-02,
258,-1.44e-02,8.00e-02,
259,1.44e-02,4.00e-02,
260,1.88e-02,8.00e-02,
261,-1.96e-02,2.00e-02,
262,8.40e-03,8.00e-02,
263,-5.20e-03,2.00e-02,
264,2.00e-03,2.00e-02,
265,-1.20e-03,8.00e-02,
266,1.20e-03,8.00e-02,
267,-1.20e-03,2.00e-02,
268,0.00e+00,2.00e-02,
269,2.00e-03,8.00e-02,
270,0.00e+00,2.00e-02,
271,1.60e-03,8.00e-02,
272,-8.00e-04,6.00e-02,
273,2.00e-03,2.00e-02,
274,-2.40e-03,2.00e-02,
275,8.40e-03,2.00e+00,
276,5.20e-03,1.60e-01,
277,0.00e+00,8.00e-02,
278,2.40e-03,1.00e-01,
279,-1.20e-03,6.00e-02,
280,1.60e-03,1.00e-01,
281,-8.00e-04,6.00e-02,
282,-8.00e-04,6.00e-02,
283,2.00e-03,8.00e-02,
284,1.20e-03,6.00e-02,
285,-8.00e-04,8.00e-02,
286,-2.40e-03,6.00e-02,
287,4.00e-03,8.00e-02,
288,1.08e-02,6.00e-02,
289,-1.40e-02,8.00e-02,
290,-1.84e-02,8.00e-02,
291,1.88e-02,4.00e-02,
292,8.40e-03,8.00e-02,
293,-6.40e-03,2.00e-02,
294,2.40e-03,2.00e-02,
295,-1.60e-03,8.00e-02,
296,2.40e-03,8.00e-02,
297,-1.20e-03,2.00e-02,
298,1.60e-03,8.00e-02,
299,-8.00e-04,2.00e-02,
300,2.40e-03,2.00e-02,
301,-8.00e-04,8.00e-02,
302,2.80e-03,4.00e-02,
303,-1.60e-03,2.00e-02,
304,-1.60e-03,2.00e-02,
305,8.80e-03,2.10e+00,
306,5.60e-03,1.60e-01,
307,-8.00e-04,8.00e-02,
308,2.00e-03,1.00e-01,
309,-8.00e-04,6.00e-02,
310,2.40e-03,1.00e-01,
311,0.00e+00,6.00e-02,
312,-8.00e-04,6.00e-02,
313,1.20e-03,8.00e-02,
314,2.40e-03,6.00e-02,
315,-1.20e-03,8.00e-02,
316,-2.80e-03,6.00e-02,
317,4.40e-03,8.00e-02,
318,-1.32e-02,6.00e-02,
319,1.40e-02,8.00e-02,
320,-1.84e-02,8.00e-02,
321,1.96e-02,4.00e-02,
322,9.20e-03,2.00e-02,
323,-6.80e-03,8.00e-02,
324,2.40e-03,8.00e-02,
325,-1.20e-03,2.00e-02,
326,2.00e-03,8.00e-02,
327,-8.00e-04,2.00e-02,
328,-8.00e-04,8.00e-02,
329,1.60e-03,2.00e-02,
330,-8.00e-04,2.00e-02,
331,1.60e-03,6.00e-02,
332,2.00e-03,4.00e-02,
333,-1.20e-03,2.00e-02,
334,-2.40e-03,2.00e-02,
335,8.80e-03,1.78e+00,
336,5.60e-03,1.60e-01,
337,-8.00e-04,8.00e-02,
338,2.40e-03,1.00e-01,
339,-8.00e-04,6.00e-02,
340,1.20e-03,1.00e-01,
341,-8.00e-04,6.00e-02,
342,1.60e-03,6.00e-02,
343,-8.00e-04,8.00e-02,
344,-8.00e-04,8.00e-02,
345,2.40e-03,6.00e-02,
346,-3.60e-03,6.00e-02,
347,6.00e-03,8.00e-02,
348,-1.44e-02,8.00e-02,
349,1.24e-02,6.00e-02,
350,-1.68e-02,8.00e-02,
351,1.84e-02,4.00e-02,
352,7.20e-03,8.00e-02,
353,-6.00e-03,2.00e-02,
354,2.00e-03,8.00e-02,
355,-8.00e-04,2.00e-02,
356,2.00e-03,2.00e-02,
357,-8.00e-04,8.00e-02,
358,2.00e-03,2.00e-02,
359,-8.00e-04,8.00e-02,
360,1.60e-03,2.00e-02,
361,-8.00e-04,8.00e-02,
362,1.60e-03,2.00e-02,
363,-8.00e-04,6.00e-02,
364,-1.60e-03,2.00e-02,
365,8.40e-03,2.02e+00,
366,5.20e-03,1.40e-01,
367,-8.00e-04,8.00e-02,
368,2.40e-03,1.00e-01,
369,-1.20e-03,6.00e-02,
370,2.00e-03,6.00e-02,
371,-4.00e-04,1.00e-01,
372,1.60e-03,6.00e-02,
373,-8.00e-04,8.00e-02,
374,2.40e-03,6.00e-02,
375,-4.00e-04,8.00e-02,
376,-3.20e-03,6.00e-02,
377,4.40e-03,8.00e-02,
378,-1.32e-02,8.00e-02,
379,1.28e-02,4.00e-02,
380,-1.76e-02,6.00e-02,
381,1.88e-02,8.00e-02,
382,8.40e-03,8.00e-02,
383,-6.00e-03,2.00e-02,
384,2.80e-03,2.00e-02,
385,-8.00e-04,8.00e-02,
386,1.60e-03,8.00e-02,
387,-1.20e-03,2.00e-02,
388,1.60e-03,2.00e-02,
389,-8.00e-04,8.00e-02,
390,2.00e-03,8.00e-02,
391,-8.00e-04,2.00e-02,
392,-1.20e-03,2.00e-02,
393,2.40e-03,6.00e-02,
394,-1.20e-03,2.00e-02,
395,8.80e-03,2.12e+00,
396,5.20e-03,1.60e-01,
397,0.00e+00,8.00e-02,
398,2.00e-03,1.00e-01,
399,-8.00e-04,6.00e-02,
400,1.20e-03,6.00e-02,
401,-8.00e-04,8.00e-02,
402,2.00e-03,8.00e-02,
403,-8.00e-04,6.00e-02,
404,2.00e-03,6.00e-02,
405,-8.00e-04,8.00e-02,
406,-2.40e-03,8.00e-02,
407,5.20e-03,4.00e-02,
408,-1.16e-02,6.00e-02,
409,1.36e-02,8.00e-02,
410,-1.72e-02,8.00e-02,
411,1.72e-02,2.00e-02,
412,7.60e-03,8.00e-02,
413,-6.00e-03,2.00e-02,
414,2.40e-03,2.00e-02,
415,-1.60e-03,8.00e-02,
416,-8.00e-04,2.00e-02,
417,1.60e-03,8.00e-02,
418,-8.00e-04,8.00e-02,
419,2.00e-03,2.00e-02,
420,1.20e-03,2.00e-02,
421,-4.00e-04,8.00e-02,
422,2.00e-03,2.00e-02,
423,-1.20e-03,8.00e-02,
424,-1.20e-03,2.00e-02,
425,9.20e-03,1.96e+00,
426,5.60e-03,1.60e-01,
427,0.00e+00,8.00e-02,
428,1.20e-03,1.00e-01,
429,-1.20e-03,6.00e-02,
430,-4.00e-04,1.00e-01,
431,1.20e-03,6.00e-02,
432,1.20e-03,6.00e-02,
433,-1.20e-03,8.00e-02,
434,2.00e-03,6.00e-02,
435,-1.20e-03,8.00e-02,
436,-3.20e-03,8.00e-02,
437,5.20e-03,6.00e-02,
438,-1.32e-02,6.00e-02,
439,1.40e-02,8.00e-02,
440,-1.84e-02,6.00e-02,
441,1.76e-02,8.00e-02,
442,7.60e-03,8.00e-02,
443,-4.80e-03,2.00e-02,
444,2.40e-03,8.00e-02,
445,-8.00e-04,2.00e-02,
446,1.20e-03,2.00e-02,
447,-1.20e-03,8.00e-02,
448,1.20e-03,8.00e-02,
449,-8.00e-04,2.00e-02,
450,-4.00e-04,2.00e-02,
451,2.40e-03,6.00e-02,
452,1.60e-03,6.00e-02,
453,-1.20e-03,2.00e-02,
454,-1.60e-03,2.00e-02,
455,8.80e-03,2.00e+00,
456,5.60e-03,1.60e-01,
457,-4.00e-04,8.00e-02,
458,1.60e-03,1.00e-01,
459,-8.00e-04,6.00e-02,
460,2.00e-03,6.00e-02,
461,-8.00e-04,1.00e-01,
462,2.00e-03,6.00e-02,
463,-1.20e-03,8.00e-02,
464,-8.00e-04,6.00e-02,
465,1.60e-03,8.00e-02,
466,-2.40e-03,6.00e-02,
467,4.40e-03,8.00e-02,
468,-1.20e-02,8.00e-02,
469,1.36e-02,2.00e-02,
470,-1.68e-02,8.00e-02,
471,1.72e-02,2.00e-02,
472,7.60e-03,8.00e-02,
473,-6.00e-03,2.00e-02,
474,2.40e-03,8.00e-02,
475,-1.20e-03,2.00e-02,
476,-8.00e-04,8.00e-02,
477,2.00e-03,2.00e-02,
478,1.20e-03,2.00e-02,
479,-4.00e-04,8.00e-02,
480,-8.00e-04,8.00e-02,
481,2.00e-03,2.00e-02,
482,2.00e-03,2.00e-02,
483,-8.00e-04,6.00e-02,
484,-1.60e-03,2.00e-02,
485,8.40e-03,1.96e+00,
486,5.20e-03,1.60e-01,
487,-4.00e-04,8.00e-02,
488,1.20e-03,1.00e-01,
489,-8.00e-04,6.00e-02,
490,1.20e-03,1.00e-01,
491,-4.00e-04,6.00e-02,
492,1.20e-03,6.00e-02,
493,-8.00e-04,8.00e-02,
494,2.00e-03,6.00e-02,
495,-1.20e-03,8.00e-02,
496,-2.40e-03,6.00e-02,
497,5.60e-03,8.00e-02,
498,-1.20e-02,6.00e-02,
499,1.32e-02,8.00e-02,
500,-1.64e-02,8.00e-02,
501,1.64e-02,4.00e-02,
502,8.00e-03,8.00e-02,
503,-6.00e-03,4.00e-02,
504,2.80e-03,8.00e-02,
505,-1.60e-03,2.00e-02,
506,1.60e-03,8.00e-02,
507,-1.20e-03,2.00e-02,
508,1.20e-03,8.00e-02,
509,-1.20e-03,2.00e-02,
510,1.20e-03,8.00e-02,
511,-8.00e-04,2.00e-02,
512,-8.00e-04,8.00e-02,
513,2.00e-03,2.00e-02,
514,-2.40e-03,2.00e-02,
515,8.80e-03,2.12e+00,
516,5.60e-03,1.60e-01,
517,-4.00e-04,8.00e-02,
518,2.00e-03,1.00e-01,
519,-8.00e-04,6.00e-02,
520,-8.00e-04,1.00e-01,
521,2.00e-03,6.00e-02,
522,1.20e-03,6.00e-02,
523,-4.00e-04,8.00e-02,
524,1.20e-03,6.00e-02,
525,-8.00e-04,8.00e-02,
526,-2.80e-03,6.00e-02,
527,5.20e-03,8.00e-02,
528,-1.12e-02,8.00e-02,
529,1.16e-02,2.00e-02,
530,1.60e-02,2.00e-02,
531,-1.60e-02,8.00e-02,
532,6.80e-03,8.00e-02,
533,-4.80e-03,2.00e-02,
534,2.40e-03,8.00e-02,
535,-8.00e-04,2.00e-02,
536,-8.00e-04,8.00e-02,
537,1.60e-03,2.00e-02,
538,2.00e-03,2.00e-02,
539,0.00e+00,6.00e-02,
540,1.20e-03,2.00e-02,
541,-8.00e-04,6.00e-02,
542,-8.00e-04,4.00e-02,
543,2.00e-03,2.00e-02,
544,-2.40e-03,2.00e-02,
545,9.20e-03,2.08e+00,
546,5.60e-03,1.60e-01,
547,0.00e+00,8.00e-02,
548,2.00e-03,1.00e-01,
549,-8.00e-04,6.00e-02,
550,1.20e-03,1.00e-01,
551,0.00e+00,6.00e-02,
552,1.20e-03,6.00e-02,
553,0.00e+00,8.00e-02,
554,1.60e-03,6.00e-02,
555,-1.20e-03,8.00e-02,
556,-2.40e-03,8.00e-02,
557,5.20e-03,4.00e-02,
558,-1.08e-02,8.00e-02,
559,1.32e-02,6.00e-02,
560,-1.52e-02,4.00e-02,
561,1.64e-02,8.00e-02,
562,7.20e-03,8.00e-02,
563,-5.20e-03,2.00e-02,
564,2.80e-03,8.00e-02,
565,-4.00e-04,2.00e-02,
566,1.20e-03,2.00e-02,
567,-1.20e-03,8.00e-02,
568,0.00e+00,8.00e-02,
569,1.20e-03,2.00e-02,
570,-8.00e-04,2.00e-02,
571,2.00e-03,8.00e-02,
572,-4.00e-04,2.00e-02,
573,2.00e-03,8.00e-02,
574,-2.00e-03,2.00e-02,
575,8.40e-03,2.02e+00,
576,5.20e-03,1.60e-01,
577,4.00e-04,8.00e-02,
578,2.00e-03,1.00e-01,
579,-8.00e-04,6.00e-02,
580,-8.00e-04,1.00e-01,
581,1.20e-03,6.00e-02,
582,2.00e-03,8.00e-02,
583,-8.00e-04,6.00e-02,
584,2.00e-03,6.00e-02,
585,-8.00e-04,8.00e-02,
586,-2.80e-03,8.00e-02,
587,4.40e-03,4.00e-02,
588,-1.12e-02,8.00e-02,
589,1.36e-02,4.00e-02,
590,-1.48e-02,8.00e-02,
591,1.52e-02,2.00e-02,
592,7.60e-03,8.00e-02,
593,-5.20e-03,4.00e-02,
594,2.40e-03,8.00e-02,
595,-8.00e-04,2.00e-02,
596,2.00e-03,2.00e-02,
597,-4.00e-04,8.00e-02,
598,-8.00e-04,2.00e-02,
599,1.60e-03,8.00e-02,
600,1.20e-03,8.00e-02,
601,-8.00e-04,2.00e-02,
602,-8.00e-04,2.00e-02,
603,1.20e-03,6.00e-02,
604,-2.40e-03,2.00e-02,
605,8.40e-03,1.96e+00,
606,5.20e-03,1.60e-01,
607,0.00e+00,8.00e-02,
608,-4.00e-04,1.00e-01,
609,2.40e-03,6.00e-02,
610,-4.00e-04,1.00e-01,
611,1.60e-03,6.00e-02,
612,1.20e-03,8.00e-02,
613,-8.00e-04,6.00e-02,
614,-8.00e-04,6.00e-02,
615,2.00e-03,8.00e-02,
616,-3.20e-03,6.00e-02,
617,4.80e-03,8.00e-02,
618,-1.04e-02,6.00e-02,
619,1.32e-02,8.00e-02,
620,1.52e-02,8.00e-02,
621,-1.48e-02,2.00e-02,
622,6.80e-03,8.00e-02,
623,-5.20e-03,2.00e-02,
624,-1.20e-03,2.00e-02,
625,2.00e-03,8.00e-02,
626,1.20e-03,2.00e-02,
627,-8.00e-04,8.00e-02,
628,1.20e-03,2.00e-02,
629,-8.00e-04,8.00e-02,
630,2.00e-03,2.00e-02,
631,-8.00e-04,8.00e-02,
632,-4.00e-04,4.00e-02,
633,2.00e-03,2.00e-02,
634,-1.60e-03,2.00e-02,
635,8.80e-03,2.06e+00,
636,5.60e-03,1.60e-01,
637,0.00e+00,8.00e-02,
638,2.00e-03,1.00e-01,
639,-8.00e-04,6.00e-02,
640,1.20e-03,6.00e-02,
641,-4.00e-04,1.00e-01,
642,-8.00e-04,6.00e-02,
643,1.20e-03,8.00e-02,
644,2.00e-03,6.00e-02,
645,-4.00e-04,8.00e-02,
646,-1.60e-03,6.00e-02,
647,4.00e-03,8.00e-02,
648,-1.12e-02,6.00e-02,
649,1.28e-02,8.00e-02,
650,1.44e-02,8.00e-02,
651,-1.48e-02,4.00e-02,
652,6.80e-03,8.00e-02,
653,-4.40e-03,4.00e-02,
654,2.40e-03,4.00e-02,
655,-8.00e-04,8.00e-02,
656,-8.00e-04,8.00e-02,
657,1.60e-03,2.00e-02,
658,-8.00e-04,8.00e-02,
659,1.20e-03,2.00e-02,
660,1.20e-03,2.00e-02,
661,-8.00e-04,8.00e-02,
662,1.20e-03,6.00e-02,
663,-8.00e-04,2.00e-02,
664,-2.40e-03,-6.00e-02,
665,8.40e-03,2.06e+00,
666,5.60e-03,1.60e-01,
667,-8.00e-04,8.00e-02,
668,1.60e-03,1.00e-01,
669,-1.20e-03,6.00e-02,
670,2.00e-03,6.00e-02,
671,-8.00e-04,1.00e-01,
672,2.40e-03,6.00e-02,
673,-1.20e-03,8.00e-02,
674,2.00e-03,8.00e-02,
675,-8.00e-04,6.00e-02,
676,-2.80e-03,8.00e-02,
677,4.00e-03,4.00e-02,
678,-1.04e-02,6.00e-02,
679,1.28e-02,8.00e-02,
680,-1.48e-02,8.00e-02,
681,1.56e-02,2.00e-02,
682,6.40e-03,8.00e-02,
683,-5.60e-03,2.00e-02,
684,2.40e-03,8.00e-02,
685,-8.00e-04,4.00e-02,
686,1.20e-03,8.00e-02,
687,-8.00e-04,2.00e-02,
688,0.00e+00,2.00e-02,
689,1.60e-03,8.00e-02,
690,0.00e+00,8.00e-02,
691,2.00e-03,2.00e-02,
692,-8.00e-04,8.00e-02,
693,1.20e-03,2.00e-02,
694,-1.60e-03,2.00e-02,
695,8.40e-03,2.08e+00,
696,5.20e-03,1.60e-01,
697,0.00e+00,8.00e-02,
698,2.00e-03,1.00e-01,
699,-8.00e-04,6.00e-02,
700,0.00e+00,6.00e-02,
701,1.20e-03,1.00e-01,
702,-8.00e-04,6.00e-02,
703,1.60e-03,8.00e-02,
704,1.20e-03,6.00e-02,
705,-1.20e-03,8.00e-02,
706,-2.00e-03,8.00e-02,
707,4.80e-03,2.00e-02,
708,-1.12e-02,8.00e-02,
709,1.28e-02,4.00e-02,
710,-1.40e-02,2.00e-02,
711,1.48e-02,8.00e-02,
712,6.40e-03,8.00e-02,
713,-4.80e-03,2.00e-02,
714,2.00e-03,2.00e-02,
715,-8.00e-04,8.00e-02,
716,-8.00e-04,8.00e-02,
717,1.60e-03,2.00e-02,
718,1.20e-03,2.00e-02,
719,-4.00e-04,8.00e-02,
720,-4.00e-04,2.00e-02,
721,1.60e-03,6.00e-02,
722,0.00e+00,4.00e-02,
723,2.00e-03,2.00e-02,
724,-1.60e-03,2.00e-02,
725,8.80e-03,2.08e+00,
726,5.60e-03,1.60e-01,
727,-8.00e-04,8.00e-02,
728,2.00e-03,1.00e-01,
729,-4.00e-04,6.00e-02,
730,-8.00e-04,6.00e-02,
731,1.20e-03,1.00e-01,
732,1.20e-03,6.00e-02,
733,-8.00e-04,8.00e-02,
734,-4.00e-04,8.00e-02,
735,2.00e-03,6.00e-02,
736,-2.40e-03,8.00e-02,
737,3.60e-03,6.00e-02,
738,-1.00e-02,8.00e-02,
739,1.28e-02,2.00e-02,
740,-1.48e-02,8.00e-02,
741,1.44e-02,2.00e-02,
742,6.80e-03,8.00e-02,
743,-4.40e-03,2.00e-02,
744,2.40e-03,8.00e-02,
745,-8.00e-04,2.00e-02,
746,-8.00e-04,2.00e-02,
747,2.00e-03,8.00e-02,
748,-4.00e-04,2.00e-02,
749,2.40e-03,8.00e-02,
750,1.20e-03,2.00e-02,
751,-8.00e-04,6.00e-02,
752,1.20e-03,2.00e-02,
753,-8.00e-04,4.00e-02,
754,-2.40e-03,2.00e+00,
755,9.60e-03,0.00e+00,
756,5.60e-03,1.60e-01,
757,0.00e+00,8.00e-02,
758,1.20e-03,1.00e-01,
759,-8.00e-04,6.00e-02,
760,0.00e+00,6.00e-02,
761,1.60e-03,8.00e-02,
762,2.00e-03,8.00e-02,
763,-8.00e-04,6.00e-02,
764,2.00e-03,6.00e-02,
765,-4.00e-04,8.00e-02,
766,-2.80e-03,6.00e-02,
767,4.00e-03,8.00e-02,
768,-1.00e-02,8.00e-02,
769,1.16e-02,4.00e-02,
770,-1.32e-02,8.00e-02,
771,1.44e-02,2.00e-02,
772,6.80e-03,8.00e-02,
773,-4.40e-03,2.00e-02,
774,2.40e-03,8.00e-02,
775,-8.00e-04,2.00e-02,
776,1.60e-03,8.00e-02,
777,-8.00e-04,2.00e-02,
778,-8.00e-04,2.00e-02,
779,1.20e-03,8.00e-02,
780,2.00e-03,2.00e-02,
781,-8.00e-04,8.00e-02,
782,-8.00e-04,8.00e-02,
783,1.20e-03,2.00e-02,
784,-2.00e-03,2.00e-02,
785,8.00e-03,1.96e+00,
786,5.20e-03,1.60e-01,
787,0.00e+00,8.00e-02,
788,2.40e-03,1.00e-01,
789,0.00e+00,6.00e-02,
790,2.00e-03,6.00e-02,
791,-4.00e-04,1.00e-01,
792,1.20e-03,6.00e-02,
793,0.00e+00,8.00e-02,
794,2.00e-03,6.00e-02,
795,-8.00e-04,8.00e-02,
796,-1.60e-03,6.00e-02,
797,4.80e-03,8.00e-02,
798,-9.60e-03,8.00e-02,
799,1.36e-02,6.00e-02,
800,-1.28e-02,8.00e-02,
801,1.44e-02,2.00e-02,
802,6.00e-03,2.00e-02,
803,-4.40e-03,8.00e-02,
804,-8.00e-04,8.00e-02,
805,2.00e-03,2.00e-02,
806,1.20e-03,8.00e-02,
807,-8.00e-04,2.00e-02,
808,1.20e-03,8.00e-02,
809,0.00e+00,2.00e-02,
810,1.20e-03,8.00e-02,
811,-4.00e-04,2.00e-02,
812,-1.20e-03,6.00e-02,
813,1.20e-03,2.00e-02,
814,-1.60e-03,2.00e-02,
815,8.80e-03,1.94e+00,
816,5.60e-03,1.60e-01,
817,-4.00e-04,8.00e-02,
818,-1.20e-03,1.00e-01,
819,2.40e-03,6.00e-02,
820,0.00e+00,6.00e-02,
821,1.60e-03,1.00e-01,
822,2.00e-03,6.00e-02,
823,0.00e+00,8.00e-02,
824,1.20e-03,8.00e-02,
825,-4.00e-04,6.00e-02,
826,-1.60e-03,8.00e-02,
827,4.00e-03,4.00e-02,
828,-8.80e-03,6.00e-02,
829,1.32e-02,8.00e-02,
830,1.32e-02,8.00e-02,
831,-1.32e-02,4.00e-02,
832,6.80e-03,8.00e-02,
833,-4.80e-03,2.00e-02,
834,2.40e-03,8.00e-02,
835,-8.00e-04,2.00e-02,
836,-8.00e-04,2.00e-02,
837,2.00e-03,8.00e-02,
838,-8.00e-04,2.00e-02,
839,1.60e-03,8.00e-02,
840,1.60e-03,2.00e-02,
841,-4.00e-04,8.00e-02,
842,0.00e+00,4.00e-02,
843,1.60e-03,2.00e-02,
844,-2.00e-03,2.00e-02,
845,8.80e-03,2.02e+00,
846,5.60e-03,1.60e-01,
847,0.00e+00,8.00e-02,
848,1.20e-03,1.00e-01,
849,-8.00e-04,6.00e-02,
850,1.20e-03,6.00e-02,
851,-1.20e-03,8.00e-02,
852,0.00e+00,6.00e-02,
853,2.00e-03,8.00e-02,
