CarrPurc_P1-19_P2-38_tauVary/Gly40/NewFile9.csv

X,CH1,CH2,Start,Increment,
Sequence,Volt,Volt,-3.600000e-03,2.000000e-04
0,0.00e+00,4.00e-02,
1,1.20e-03,2.00e-02,
2,1.60e-03,4.00e-02,
3,0.00e+00,2.00e-02,
4,1.20e-03,4.00e-02,
5,0.00e+00,2.00e-02,
6,0.00e+00,2.00e-02,
7,1.20e-03,4.00e-02,
8,0.00e+00,4.00e-02,
9,2.40e-03,2.00e-02,
10,0.00e+00,4.00e-02,
11,1.20e-03,2.00e-02,
12,0.00e+00,4.00e-02,
13,1.20e-03,2.00e-02,
14,1.20e-03,4.00e-02,
15,-4.00e-04,2.00e-02,
16,1.20e-03,4.00e-02,
17,0.00e+00,2.00e-02,
18,1.20e-03,4.00e-02,
19,-4.00e-04,2.00e-02,
20,6.80e-03,2.00e-02,
21,-2.76e-02,1.76e+00,
22,1.92e-02,1.20e-01,
23,-1.48e-02,6.00e-02,
24,-3.60e-03,1.00e-01,
25,4.80e-03,6.00e-02,
26,2.80e-03,6.00e-02,
27,-1.60e-03,8.00e-02,
28,2.40e-03,6.00e-02,
29,-8.00e-04,8.00e-02,
30,2.40e-03,6.00e-02,
31,-8.00e-04,8.00e-02,
32,-8.00e-04,8.00e-02,
33,2.40e-03,6.00e-02,
34,0.00e+00,4.00e-02,
35,8.00e-03,2.00e+00,
36,7.60e-03,1.60e-01,
37,-5.60e-03,8.00e-02,
38,2.80e-03,1.00e-01,
39,-8.00e-04,6.00e-02,
40,-8.00e-04,1.00e-01,
41,2.40e-03,6.00e-02,
42,-8.00e-04,6.00e-02,
43,2.40e-03,8.00e-02,
44,-1.20e-03,6.00e-02,
45,2.80e-03,8.00e-02,
46,-4.40e-03,6.00e-02,
47,8.00e-03,8.00e-02,
48,-1.92e-02,8.00e-02,
49,2.56e-02,4.00e-02,
50,-2.92e-02,8.00e-02,
51,2.88e-02,4.00e-02,
52,1.60e-02,8.00e-02,
53,-1.16e-02,2.00e-02,
54,4.40e-03,8.00e-02,
55,-1.60e-03,2.00e-02,
56,2.40e-03,8.00e-02,
57,-8.00e-04,2.00e-02,
58,2.00e-03,2.00e-02,
59,-8.00e-04,8.00e-02,
60,-4.00e-04,6.00e-02,
61,2.00e-03,2.00e-02,
62,0.00e+00,6.00e-02,
63,2.00e-03,2.00e-02,
64,0.00e+00,2.00e-02,
65,8.00e-03,1.84e+00,
66,8.00e-03,1.60e-01,
67,-4.00e-04,8.00e-02,
68,2.40e-03,1.00e-01,
69,0.00e+00,6.00e-02,
70,-4.00e-04,1.00e-01,
71,2.00e-03,6.00e-02,
72,2.00e-03,8.00e-02,
73,-4.00e-04,6.00e-02,
74,-8.00e-04,6.00e-02,
75,2.40e-03,8.00e-02,
76,-4.40e-03,6.00e-02,
77,6.80e-03,8.00e-02,
78,-1.80e-02,6.00e-02,
79,1.64e-02,8.00e-02,
80,2.28e-02,8.00e-02,
81,-2.16e-02,6.00e-02,
82,1.04e-02,8.00e-02,
83,-8.40e-03,2.00e-02,
84,2.80e-03,8.00e-02,
85,-1.60e-03,2.00e-02,
86,2.40e-03,2.00e-02,
87,-8.00e-04,8.00e-02,
88,-8.00e-04,2.00e-02,
89,1.60e-03,8.00e-02,
90,0.00e+00,6.00e-02,
91,2.00e-03,2.00e-02,
92,-1.20e-03,2.00e-02,
93,2.40e-03,8.00e-02,
94,-2.80e-03,2.00e-02,
95,9.20e-03,1.94e+00,
96,8.40e-03,1.60e-01,
97,-8.00e-04,8.00e-02,
98,1.60e-03,1.00e-01,
99,-8.00e-04,6.00e-02,
100,2.00e-03,1.00e-01,
101,0.00e+00,6.00e-02,
102,2.00e-03,6.00e-02,
103,-4.00e-04,8.00e-02,
104,-1.20e-03,6.00e-02,
105,2.40e-03,8.00e-02,
106,-4.00e-03,6.00e-02,
107,6.00e-03,8.00e-02,
108,1.44e-02,6.00e-02,
109,-1.84e-02,8.00e-02,
110,-2.36e-02,2.00e-02,
111,2.32e-02,8.00e-02,
112,1.16e-02,8.00e-02,
113,-8.80e-03,2.00e-02,
114,3.60e-03,2.00e-02,
115,-1.20e-03,8.00e-02,
116,2.80e-03,8.00e-02,
117,-8.00e-04,2.00e-02,
118,-8.00e-04,8.00e-02,
119,2.00e-03,2.00e-02,
120,2.00e-03,2.00e-02,
121,-4.00e-04,8.00e-02,
122,2.40e-03,2.00e-02,
123,-1.60e-03,6.00e-02,
124,-2.40e-03,2.00e-02,
125,8.40e-03,2.02e+00,
126,8.00e-03,1.60e-01,
127,-1.20e-03,8.00e-02,
128,2.40e-03,1.00e-01,
129,-4.00e-04,6.00e-02,
130,0.00e+00,6.00e-02,
131,1.60e-03,1.00e-01,
132,-4.00e-04,6.00e-02,
133,2.40e-03,8.00e-02,
134,-8.00e-04,6.00e-02,
135,2.00e-03,8.00e-02,
136,-4.00e-03,6.00e-02,
137,6.80e-03,8.00e-02,
138,-1.48e-02,8.00e-02,
139,1.76e-02,6.00e-02,
140,-2.16e-02,8.00e-02,
141,2.20e-02,2.00e-02,
142,1.12e-02,8.00e-02,
143,-8.40e-03,2.00e-02,
144,3.60e-03,8.00e-02,
145,-1.60e-03,2.00e-02,
146,2.40e-03,8.00e-02,
147,-4.00e-04,2.00e-02,
148,2.00e-03,2.00e-02,
149,-4.00e-04,8.00e-02,
150,1.20e-03,2.00e-02,
151,0.00e+00,6.00e-02,
152,2.00e-03,2.00e-02,
153,-1.20e-03,8.00e-02,
154,-2.00e-03,2.00e-02,
155,8.40e-03,1.94e+00,
156,8.00e-03,1.60e-01,
157,0.00e+00,8.00e-02,
158,2.00e-03,1.00e-01,
159,0.00e+00,6.00e-02,
160,0.00e+00,1.00e-01,
161,1.60e-03,6.00e-02,
162,-8.00e-04,6.00e-02,
163,2.00e-03,8.00e-02,
164,-8.00e-04,6.00e-02,
165,2.00e-03,8.00e-02,
166,-4.40e-03,6.00e-02,
167,7.20e-03,8.00e-02,
168,-1.64e-02,6.00e-02,
169,1.76e-02,8.00e-02,
170,2.28e-02,8.00e-02,
171,-2.16e-02,6.00e-02,
172,1.00e-02,8.00e-02,
173,-7.20e-03,4.00e-02,
174,2.80e-03,2.00e-02,
175,-1.20e-03,8.00e-02,
176,2.40e-03,8.00e-02,
177,-8.00e-04,2.00e-02,
178,2.40e-03,8.00e-02,
179,-4.00e-04,2.00e-02,
180,1.20e-03,2.00e-02,
181,-8.00e-04,8.00e-02,
182,2.40e-03,2.00e-02,
183,-1.60e-03,6.00e-02,
184,-2.80e-03,2.00e-02,
185,8.40e-03,2.00e+00,
186,8.40e-03,1.60e-01,
187,-4.00e-04,8.00e-02,
188,2.40e-03,1.00e-01,
189,0.00e+00,6.00e-02,
190,1.20e-03,1.00e-01,
191,0.00e+00,6.00e-02,
192,-1.20e-03,6.00e-02,
193,2.00e-03,8.00e-02,
194,2.40e-03,6.00e-02,
195,-8.00e-04,8.00e-02,
196,-4.00e-03,6.00e-02,
197,7.20e-03,8.00e-02,
198,-1.72e-02,8.00e-02,
199,1.56e-02,2.00e-02,
200,-2.08e-02,8.00e-02,
201,2.20e-02,4.00e-02,
202,1.16e-02,8.00e-02,
203,-8.40e-03,2.00e-02,
204,3.20e-03,8.00e-02,
205,-1.60e-03,2.00e-02,
206,2.80e-03,2.00e-02,
207,-8.00e-04,8.00e-02,
208,1.60e-03,8.00e-02,
209,-8.00e-04,2.00e-02,
210,1.60e-03,2.00e-02,
211,0.00e+00,8.00e-02,
212,-1.20e-03,6.00e-02,
213,2.40e-03,2.00e-02,
214,-2.80e-03,2.00e-02,
215,8.80e-03,1.80e+00,
216,8.40e-03,1.60e-01,
217,-8.00e-04,8.00e-02,
218,-8.00e-04,1.00e-01,
219,2.00e-03,6.00e-02,
220,0.00e+00,6.00e-02,
221,2.00e-03,1.00e-01,
222,2.40e-03,6.00e-02,
223,-8.00e-04,8.00e-02,
224,-8.00e-04,6.00e-02,
225,2.40e-03,8.00e-02,
226,-4.00e-03,8.00e-02,
227,6.40e-03,6.00e-02,
228,-1.44e-02,6.00e-02,
229,1.68e-02,8.00e-02,
230,-1.88e-02,6.00e-02,
231,2.16e-02,8.00e-02,
232,1.16e-02,8.00e-02,
233,-7.60e-03,4.00e-02,
234,3.20e-03,8.00e-02,
235,-1.60e-03,2.00e-02,
236,0.00e+00,2.00e-02,
237,2.40e-03,8.00e-02,
238,2.00e-03,8.00e-02,
239,-4.00e-04,2.00e-02,
240,1.20e-03,2.00e-02,
241,-4.00e-04,8.00e-02,
242,-8.00e-04,2.00e-02,
243,2.00e-03,8.00e-02,
244,-2.40e-03,2.00e-02,
245,8.40e-03,1.96e+00,
246,8.00e-03,1.60e-01,
247,-8.00e-04,8.00e-02,
248,2.00e-03,1.00e-01,
249,0.00e+00,6.00e-02,
250,0.00e+00,1.00e-01,
251,1.60e-03,6.00e-02,
252,0.00e+00,6.00e-02,
253,2.00e-03,8.00e-02,
254,2.00e-03,8.00e-02,
255,-8.00e-04,6.00e-02,
256,-4.40e-03,8.00e-02,
257,6.80e-03,6.00e-02,
258,-1.72e-02,2.00e-02,
259,2.04e-02,8.00e-02,
260,-2.16e-02,8.00e-02,
261,2.20e-02,2.00e-02,
262,9.60e-03,8.00e-02,
263,-7.20e-03,2.00e-02,
264,3.20e-03,2.00e-02,
265,-8.00e-04,8.00e-02,
266,2.40e-03,2.00e-02,
267,-8.00e-04,8.00e-02,
268,-4.00e-04,2.00e-02,
269,2.00e-03,8.00e-02,
270,0.00e+00,2.00e-02,
271,2.00e-03,6.00e-02,
272,2.80e-03,4.00e-02,
273,-1.20e-03,2.00e-02,
274,-2.40e-03,2.00e-02,
275,8.40e-03,2.00e+00,
276,8.00e-03,1.60e-01,
277,-8.00e-04,8.00e-02,
278,2.00e-03,1.00e-01,
279,0.00e+00,6.00e-02,
280,0.00e+00,1.00e-01,
281,2.00e-03,6.00e-02,
282,0.00e+00,6.00e-02,
283,2.40e-03,8.00e-02,
284,2.40e-03,6.00e-02,
285,-8.00e-04,8.00e-02,
286,-3.20e-03,6.00e-02,
287,6.00e-03,8.00e-02,
288,-1.60e-02,8.00e-02,
289,1.52e-02,4.00e-02,
290,2.16e-02,8.00e-02,
291,-2.00e-02,4.00e-02,
292,1.12e-02,8.00e-02,
293,-7.60e-03,2.00e-02,
294,3.60e-03,2.00e-02,
295,-1.20e-03,8.00e-02,
296,0.00e+00,8.00e-02,
297,2.00e-03,2.00e-02,
298,2.00e-03,8.00e-02,
299,-8.00e-04,2.00e-02,
300,0.00e+00,8.00e-02,
301,1.60e-03,2.00e-02,
302,2.40e-03,6.00e-02,
303,-1.20e-03,2.00e-02,
304,-1.60e-03,2.00e-02,
305,8.80e-03,1.94e+00,
306,8.00e-03,1.60e-01,
307,-1.20e-03,8.00e-02,
308,2.00e-03,1.00e-01,
309,-8.00e-04,6.00e-02,
310,2.00e-03,1.00e-01,
311,0.00e+00,6.00e-02,
312,2.00e-03,6.00e-02,
313,-4.00e-04,8.00e-02,
314,2.00e-03,6.00e-02,
315,-4.00e-04,8.00e-02,
316,-4.00e-03,6.00e-02,
317,5.60e-03,8.00e-02,
318,-1.48e-02,6.00e-02,
319,1.64e-02,8.00e-02,
320,-2.00e-02,6.00e-02,
321,2.08e-02,8.00e-02,
322,1.20e-02,2.00e-02,
323,-8.00e-03,8.00e-02,
324,3.20e-03,8.00e-02,
325,-1.20e-03,2.00e-02,
326,-4.00e-04,8.00e-02,
327,2.00e-03,2.00e-02,
328,-4.00e-04,8.00e-02,
329,1.60e-03,2.00e-02,
330,-4.00e-04,8.00e-02,
331,2.00e-03,2.00e-02,
332,-1.60e-03,8.00e-02,
333,2.00e-03,2.00e-02,
334,-2.80e-03,2.00e-02,
335,8.40e-03,1.82e+00,
336,8.00e-03,1.60e-01,
337,-4.00e-04,8.00e-02,
338,2.40e-03,1.00e-01,
339,0.00e+00,6.00e-02,
340,0.00e+00,6.00e-02,
341,2.00e-03,1.00e-01,
342,2.00e-03,6.00e-02,
343,0.00e+00,8.00e-02,
344,2.40e-03,8.00e-02,
345,0.00e+00,6.00e-02,
346,-4.00e-03,6.00e-02,
347,7.20e-03,8.00e-02,
348,-1.56e-02,8.00e-02,
349,2.00e-02,6.00e-02,
350,2.04e-02,8.00e-02,
351,-2.00e-02,2.00e-02,
352,9.60e-03,8.00e-02,
353,-6.40e-03,2.00e-02,
354,2.80e-03,2.00e-02,
355,-8.00e-04,8.00e-02,
356,2.40e-03,2.00e-02,
357,-1.20e-03,8.00e-02,
358,2.00e-03,8.00e-02,
359,-4.00e-04,2.00e-02,
360,1.20e-03,2.00e-02,
361,0.00e+00,8.00e-02,
362,2.40e-03,4.00e-02,
363,-8.00e-04,2.00e-02,
364,-2.00e-03,2.00e-02,
365,8.40e-03,1.94e+00,
366,8.00e-03,1.40e-01,
367,-8.00e-04,8.00e-02,
368,2.00e-03,1.00e-01,
369,0.00e+00,6.00e-02,
370,2.00e-03,1.00e-01,
371,0.00e+00,6.00e-02,
372,2.00e-03,6.00e-02,
373,-4.00e-04,8.00e-02,
374,-8.00e-04,6.00e-02,
375,2.40e-03,8.00e-02,
376,-3.20e-03,6.00e-02,
377,6.00e-03,8.00e-02,
378,-1.56e-02,8.00e-02,
379,1.84e-02,4.00e-02,
380,-2.04e-02,8.00e-02,
381,2.08e-02,4.00e-02,
382,1.04e-02,8.00e-02,
383,-7.60e-03,2.00e-02,
384,2.80e-03,8.00e-02,
385,-1.60e-03,2.00e-02,
386,2.00e-03,8.00e-02,
387,-8.00e-04,2.00e-02,
388,1.20e-03,2.00e-02,
389,0.00e+00,6.00e-02,
390,1.20e-03,2.00e-02,
391,-8.00e-04,8.00e-02,
392,2.00e-03,6.00e-02,
393,-1.20e-03,2.00e-02,
394,-2.00e-03,2.00e-02,
395,8.40e-03,1.96e+00,
396,8.00e-03,1.60e-01,
397,-8.00e-04,8.00e-02,
398,1.60e-03,1.00e-01,
399,-8.00e-04,6.00e-02,
400,0.00e+00,1.00e-01,
401,2.00e-03,6.00e-02,
402,0.00e+00,8.00e-02,
403,2.00e-03,6.00e-02,
404,-8.00e-04,6.00e-02,
405,2.40e-03,8.00e-02,
406,-3.20e-03,6.00e-02,
407,6.00e-03,8.00e-02,
408,-1.44e-02,8.00e-02,
409,1.72e-02,4.00e-02,
410,-1.92e-02,8.00e-02,
411,2.00e-02,2.00e-02,
412,1.00e-02,8.00e-02,
413,-8.40e-03,2.00e-02,
414,4.00e-03,2.00e-02,
415,-1.20e-03,8.00e-02,
416,-8.00e-04,2.00e-02,
417,2.00e-03,8.00e-02,
418,1.20e-03,2.00e-02,
419,-8.00e-04,8.00e-02,
420,0.00e+00,2.00e-02,
421,2.40e-03,8.00e-02,
422,2.40e-03,2.00e-02,
423,-1.20e-03,6.00e-02,
424,-2.00e-03,2.00e-02,
425,9.20e-03,2.00e+00,
426,8.40e-03,1.60e-01,
427,-8.00e-04,8.00e-02,
428,2.00e-03,1.00e-01,
429,-8.00e-04,6.00e-02,
430,0.00e+00,6.00e-02,
431,1.60e-03,1.00e-01,
432,-8.00e-04,6.00e-02,
433,1.60e-03,8.00e-02,
434,2.00e-03,6.00e-02,
435,-8.00e-04,8.00e-02,
436,-4.00e-03,8.00e-02,
437,7.20e-03,6.00e-02,
438,-1.48e-02,8.00e-02,
439,1.84e-02,4.00e-02,
440,-1.92e-02,8.00e-02,
441,2.12e-02,2.00e-02,
442,9.60e-03,8.00e-02,
443,-6.80e-03,2.00e-02,
444,2.80e-03,8.00e-02,
445,-8.00e-04,2.00e-02,
446,2.40e-03,8.00e-02,
447,-8.00e-04,2.00e-02,
448,2.00e-03,2.00e-02,
449,-1.20e-03,8.00e-02,
450,2.00e-03,2.00e-02,
451,-8.00e-04,6.00e-02,
452,2.40e-03,4.00e-02,
453,-4.00e-04,2.00e-02,
454,-2.00e-03,2.00e-02,
455,8.40e-03,1.78e+00,
456,8.00e-03,1.60e-01,
457,-4.00e-04,8.00e-02,
458,0.00e+00,1.00e-01,
459,2.00e-03,6.00e-02,
460,0.00e+00,1.00e-01,
461,1.60e-03,6.00e-02,
462,-8.00e-04,6.00e-02,
463,2.00e-03,8.00e-02,
464,2.00e-03,6.00e-02,
465,-8.00e-04,8.00e-02,
466,-3.20e-03,6.00e-02,
467,6.00e-03,8.00e-02,
468,-1.60e-02,8.00e-02,
469,1.80e-02,2.00e-02,
470,-2.04e-02,8.00e-02,
471,2.08e-02,2.00e-02,
472,1.04e-02,8.00e-02,
473,-8.00e-03,2.00e-02,
474,2.80e-03,2.00e-02,
475,-1.60e-03,8.00e-02,
476,-8.00e-04,8.00e-02,
477,2.00e-03,2.00e-02,
478,1.60e-03,8.00e-02,
479,-8.00e-04,2.00e-02,
480,0.00e+00,2.00e-02,
481,2.00e-03,8.00e-02,
482,-8.00e-04,2.00e-02,
483,2.40e-03,6.00e-02,
484,-1.60e-03,2.00e-02,
485,8.40e-03,2.04e+00,
486,8.00e-03,1.60e-01,
487,-4.00e-04,8.00e-02,
488,0.00e+00,1.00e-01,
489,2.00e-03,6.00e-02,
490,0.00e+00,6.00e-02,
491,1.60e-03,1.00e-01,
492,2.00e-03,6.00e-02,
493,-8.00e-04,8.00e-02,
494,2.40e-03,6.00e-02,
495,-8.00e-04,8.00e-02,
496,-3.20e-03,6.00e-02,
497,6.40e-03,8.00e-02,
498,-1.40e-02,8.00e-02,
499,1.76e-02,2.00e-02,
500,-1.88e-02,8.00e-02,
501,2.04e-02,2.00e-02,
502,1.00e-02,8.00e-02,
503,-8.40e-03,2.00e-02,
504,3.20e-03,8.00e-02,
505,-8.00e-04,2.00e-02,
506,1.60e-03,8.00e-02,
507,-4.00e-04,2.00e-02,
508,2.00e-03,2.00e-02,
509,-8.00e-04,8.00e-02,
510,0.00e+00,8.00e-02,
511,1.60e-03,2.00e-02,
512,2.40e-03,2.00e-02,
513,-1.20e-03,6.00e-02,
514,-2.40e-03,2.00e-02,
515,8.80e-03,1.94e+00,
516,8.40e-03,1.60e-01,
517,-8.00e-04,8.00e-02,
518,0.00e+00,1.00e-01,
519,2.00e-03,6.00e-02,
520,0.00e+00,1.00e-01,
521,2.00e-03,6.00e-02,
522,-4.00e-04,6.00e-02,
523,2.00e-03,8.00e-02,
524,2.00e-03,6.00e-02,
525,-4.00e-04,8.00e-02,
526,-4.40e-03,6.00e-02,
527,6.80e-03,8.00e-02,
528,-1.48e-02,8.00e-02,
529,1.76e-02,4.00e-02,
530,-1.76e-02,8.00e-02,
531,2.04e-02,2.00e-02,
532,8.80e-03,8.00e-02,
533,-7.60e-03,2.00e-02,
534,2.40e-03,8.00e-02,
535,-8.00e-04,2.00e-02,
536,-8.00e-04,8.00e-02,
537,2.40e-03,2.00e-02,
538,1.60e-03,2.00e-02,
539,0.00e+00,8.00e-02,
540,-8.00e-04,2.00e-02,
541,2.00e-03,8.00e-02,
542,2.40e-03,2.00e-02,
543,-8.00e-04,8.00e-02,
544,-2.40e-03,2.00e-02,
545,8.40e-03,2.06e+00,
546,8.00e-03,1.60e-01,
547,-8.00e-04,8.00e-02,
548,4.00e-04,1.00e-01,
549,1.60e-03,6.00e-02,
550,0.00e+00,6.00e-02,
551,2.00e-03,1.00e-01,
552,2.40e-03,6.00e-02,
553,-4.00e-04,8.00e-02,
554,2.40e-03,6.00e-02,
555,0.00e+00,8.00e-02,
556,-3.60e-03,6.00e-02,
557,5.60e-03,8.00e-02,
558,-1.52e-02,8.00e-02,
559,1.80e-02,2.00e-02,
560,-1.88e-02,8.00e-02,
561,1.92e-02,2.00e-02,
562,1.00e-02,8.00e-02,
563,-8.00e-03,2.00e-02,
564,2.80e-03,8.00e-02,
565,-1.60e-03,2.00e-02,
566,-8.00e-04,2.00e-02,
567,2.00e-03,8.00e-02,
568,-4.00e-04,8.00e-02,
569,1.60e-03,2.00e-02,
570,1.60e-03,4.00e-02,
571,-8.00e-04,2.00e-02,
572,2.40e-03,4.00e-02,
573,-1.60e-03,2.00e-02,
574,-2.00e-03,2.00e-02,
575,8.40e-03,1.96e+00,
576,8.00e-03,1.60e-01,
577,-4.00e-04,8.00e-02,
578,-8.00e-04,1.00e-01,
579,2.40e-03,6.00e-02,
580,0.00e+00,6.00e-02,
581,2.00e-03,1.00e-01,
582,2.00e-03,8.00e-02,
583,-8.00e-04,6.00e-02,
584,0.00e+00,6.00e-02,
585,2.40e-03,8.00e-02,
586,-2.80e-03,8.00e-02,
587,5.60e-03,6.00e-02,
588,-1.28e-02,8.00e-02,
589,1.72e-02,4.00e-02,
590,-1.84e-02,8.00e-02,
591,1.92e-02,2.00e-02,
592,9.20e-03,8.00e-02,
593,-8.00e-03,2.00e-02,
594,2.80e-03,8.00e-02,
595,-1.20e-03,2.00e-02,
596,2.00e-03,2.00e-02,
597,-8.00e-04,8.00e-02,
598,1.60e-03,2.00e-02,
599,0.00e+00,8.00e-02,
600,0.00e+00,2.00e-02,
601,1.60e-03,8.00e-02,
602,2.40e-03,8.00e-02,
603,-1.20e-03,2.00e-02,
604,-2.40e-03,2.00e-02,
605,8.80e-03,1.80e+00,
606,8.40e-03,1.60e-01,
607,0.00e+00,8.00e-02,
608,2.00e-03,1.00e-01,
609,0.00e+00,6.00e-02,
610,2.00e-03,1.00e-01,
611,0.00e+00,6.00e-02,
612,2.00e-03,8.00e-02,
613,0.00e+00,6.00e-02,
614,2.00e-03,6.00e-02,
615,-4.00e-04,8.00e-02,
616,-3.20e-03,6.00e-02,
617,6.80e-03,8.00e-02,
618,-1.44e-02,6.00e-02,
619,1.76e-02,8.00e-02,
620,-1.84e-02,8.00e-02,
621,1.84e-02,4.00e-02,
622,1.00e-02,8.00e-02,
623,-6.00e-03,2.00e-02,
624,2.00e-03,8.00e-02,
625,-1.20e-03,2.00e-02,
626,-8.00e-04,2.00e-02,
627,2.00e-03,8.00e-02,
628,-4.00e-04,2.00e-02,
629,2.40e-03,6.00e-02,
630,1.20e-03,2.00e-02,
631,-8.00e-04,6.00e-02,
632,-1.20e-03,4.00e-02,
633,2.00e-03,2.00e-02,
634,-2.40e-03,2.00e-02,
635,9.20e-03,1.98e+00,
636,8.80e-03,1.60e-01,
637,0.00e+00,8.00e-02,
638,1.20e-03,1.00e-01,
639,4.00e-04,6.00e-02,
640,0.00e+00,6.00e-02,
641,2.00e-03,1.00e-01,
642,0.00e+00,6.00e-02,
643,2.00e-03,8.00e-02,
644,2.00e-03,6.00e-02,
645,-4.00e-04,8.00e-02,
646,-2.80e-03,6.00e-02,
647,6.40e-03,8.00e-02,
648,-1.44e-02,6.00e-02,
649,1.68e-02,8.00e-02,
650,-1.76e-02,8.00e-02,
651,1.96e-02,2.00e-02,
652,1.00e-02,8.00e-02,
653,-7.20e-03,2.00e-02,
654,3.60e-03,8.00e-02,
655,-8.00e-04,2.00e-02,
656,1.60e-03,2.00e-02,
657,0.00e+00,8.00e-02,
658,0.00e+00,2.00e-02,
659,2.00e-03,6.00e-02,
660,1.20e-03,2.00e-02,
661,0.00e+00,8.00e-02,
662,2.40e-03,4.00e-02,
663,-1.20e-03,2.00e-02,
664,-1.60e-03,2.00e-02,
665,8.40e-03,1.92e+00,
666,8.00e-03,1.60e-01,
667,-8.00e-04,8.00e-02,
668,0.00e+00,1.00e-01,
669,2.00e-03,6.00e-02,
670,1.60e-03,6.00e-02,
671,-4.00e-04,1.00e-01,
672,2.40e-03,6.00e-02,
673,-4.00e-04,8.00e-02,
674,2.00e-03,8.00e-02,
675,-8.00e-04,6.00e-02,
676,-3.20e-03,6.00e-02,
677,5.20e-03,8.00e-02,
678,-1.40e-02,6.00e-02,
679,1.76e-02,8.00e-02,
680,-1.96e-02,8.00e-02,
681,1.84e-02,4.00e-02,
682,9.60e-03,8.00e-02,
683,-7.20e-03,2.00e-02,
684,2.80e-03,8.00e-02,
685,-1.20e-03,2.00e-02,
686,2.00e-03,8.00e-02,
687,-4.00e-04,2.00e-02,
688,0.00e+00,2.00e-02,
689,2.00e-03,8.00e-02,
690,-4.00e-04,2.00e-02,
691,2.00e-03,6.00e-02,
692,2.40e-03,2.00e-02,
693,-1.20e-03,6.00e-02,
694,-2.80e-03,2.00e-02,
695,8.40e-03,2.00e+00,
696,8.00e-03,1.60e-01,
697,-4.00e-04,8.00e-02,
698,1.60e-03,1.00e-01,
699,0.00e+00,6.00e-02,
700,1.60e-03,6.00e-02,
701,0.00e+00,1.00e-01,
702,0.00e+00,6.00e-02,
703,2.00e-03,8.00e-02,
704,-4.00e-04,6.00e-02,
705,2.40e-03,8.00e-02,
706,-4.00e-03,8.00e-02,
707,5.60e-03,6.00e-02,
708,-1.40e-02,6.00e-02,
709,1.68e-02,8.00e-02,
710,-1.72e-02,8.00e-02,
711,1.88e-02,2.00e-02,
712,9.20e-03,8.00e-02,
713,-6.40e-03,2.00e-02,
714,2.40e-03,8.00e-02,
715,-8.00e-04,2.00e-02,
716,0.00e+00,2.00e-02,
717,2.40e-03,8.00e-02,
718,1.60e-03,2.00e-02,
719,-8.00e-04,8.00e-02,
720,1.60e-03,2.00e-02,
721,-4.00e-04,6.00e-02,
722,2.00e-03,2.00e-02,
723,-1.20e-03,6.00e-02,
724,-2.40e-03,2.00e-02,
725,8.80e-03,1.94e+00,
726,8.40e-03,1.60e-01,
727,-4.00e-04,8.00e-02,
728,1.60e-03,1.00e-01,
729,0.00e+00,6.00e-02,
730,0.00e+00,1.00e-01,
731,1.20e-03,6.00e-02,
732,1.20e-03,6.00e-02,
733,-8.00e-04,8.00e-02,
734,-8.00e-04,8.00e-02,
735,2.00e-03,6.00e-02,
736,-3.20e-03,8.00e-02,
737,5.60e-03,6.00e-02,
738,-1.28e-02,8.00e-02,
739,1.76e-02,2.00e-02,
740,-1.76e-02,8.00e-02,
741,1.88e-02,4.00e-02,
742,9.20e-03,8.00e-02,
743,-6.80e-03,2.00e-02,
744,3.60e-03,2.00e-02,
745,-1.20e-03,8.00e-02,
746,2.40e-03,2.00e-02,
747,-8.00e-04,8.00e-02,
748,2.00e-03,2.00e-02,
749,-8.00e-04,8.00e-02,
750,-4.00e-04,2.00e-02,
751,1.60e-03,8.00e-02,
752,1.60e-03,2.00e-02,
753,-1.60e-03,6.00e-02,
754,-1.60e-03,2.00e-02,
755,9.60e-03,2.00e+00,
756,8.40e-03,1.60e-01,
757,0.00e+00,8.00e-02,
758,2.00e-03,1.00e-01,
759,0.00e+00,6.00e-02,
760,-4.00e-04,6.00e-02,
761,1.20e-03,1.00e-01,
762,0.00e+00,8.00e-02,
763,2.00e-03,6.00e-02,
764,-8.00e-04,6.00e-02,
765,2.40e-03,8.00e-02,
766,-3.20e-03,6.00e-02,
767,4.80e-03,8.00e-02,
768,-1.32e-02,8.00e-02,
769,1.68e-02,4.00e-02,
770,-1.84e-02,8.00e-02,
771,1.84e-02,2.00e-02,
772,9.60e-03,8.00e-02,
773,-6.80e-03,2.00e-02,
774,2.40e-03,2.00e-02,
775,-1.20e-03,8.00e-02,
776,2.00e-03,8.00e-02,
777,-8.00e-04,2.00e-02,
778,1.20e-03,2.00e-02,
779,-4.00e-04,8.00e-02,
780,1.20e-03,2.00e-02,
781,-8.00e-04,6.00e-02,
782,1.60e-03,2.00e-02,
783,-8.00e-04,8.00e-02,
784,-2.00e-03,2.00e-02,
785,8.00e-03,1.92e+00,
786,8.00e-03,1.60e-01,
787,-8.00e-04,8.00e-02,
788,2.00e-03,1.00e-01,
789,4.00e-04,6.00e-02,
790,-8.00e-04,6.00e-02,
791,1.20e-03,1.00e-01,
792,-8.00e-04,6.00e-02,
793,1.60e-03,8.00e-02,
794,-8.00e-04,6.00e-02,
795,2.00e-03,8.00e-02,
796,-4.00e-03,6.00e-02,
797,5.60e-03,8.00e-02,
798,-1.32e-02,8.00e-02,
799,1.72e-02,6.00e-02,
800,-1.76e-02,8.00e-02,
801,1.88e-02,2.00e-02,
802,8.80e-03,8.00e-02,
803,-6.00e-03,2.00e-02,
804,2.40e-03,8.00e-02,
805,-4.00e-04,2.00e-02,
806,2.00e-03,8.00e-02,
807,-4.00e-04,2.00e-02,
808,-4.00e-04,2.00e-02,
809,2.00e-03,8.00e-02,
810,1.20e-03,8.00e-02,
811,-4.00e-04,2.00e-02,
812,2.40e-03,4.00e-02,
813,-1.60e-03,2.00e-02,
814,-2.40e-03,2.00e-02,
815,8.40e-03,2.02e+00,
816,8.00e-03,1.60e-01,
817,-8.00e-04,8.00e-02,
818,2.00e-03,1.00e-01,
819,0.00e+00,6.00e-02,
820,0.00e+00,1.00e-01,
821,1.20e-03,6.00e-02,
822,2.00e-03,6.00e-02,
823,0.00e+00,8.00e-02,
824,-4.00e-04,8.00e-02,
825,2.00e-03,6.00e-02,
826,-2.40e-03,6.00e-02,
827,5.20e-03,8.00e-02,
828,-1.20e-02,6.00e-02,
829,1.72e-02,8.00e-02,
830,-1.60e-02,8.00e-02,
831,1.88e-02,4.00e-02,
832,8.40e-03,8.00e-02,
833,-6.00e-03,2.00e-02,
834,2.80e-03,8.00e-02,
835,-1.20e-03,2.00e-02,
836,2.00e-03,2.00e-02,
837,-8.00e-04,8.00e-02,
838,-8.00e-04,8.00e-02,
839,2.00e-03,2.00e-02,
840,0.00e+00,2.00e-02,
841,2.00e-03,8.00e-02,
842,2.40e-03,2.00e-02,
843,-1.60e-03,8.00e-02,
844,-2.80e-03,2.00e-02,
845,9.20e-03,1.90e+00,
846,8.40e-03,1.60e-01,
847,0.00e+00,8.00e-02,
848,0.00e+00,1.00e-01,
849,2.00e-03,6.00e-02,
850,0.00e+00,1.00e-01,
851,1.60e-03,6.00e-02,
852,-8.00e-04,6.00e-02,
853,2.00e-03,8.00e-02,
854,-4.00e-04,8.00e-02,
855,2.00e-03,6.00e-02,
