CarrPurc_P1-19_P2-38_tauVary/Gly40/NewFile7.csv

X,CH1,CH2,Start,Increment,
Sequence,Volt,Volt,-3.600000e-03,2.000000e-04
0,-8.00e-04,4.00e-02,
1,1.60e-03,2.00e-02,
2,1.20e-03,4.00e-02,
3,-4.00e-04,2.00e-02,
4,1.60e-03,4.00e-02,
5,0.00e+00,2.00e-02,
6,1.20e-03,2.00e-02,
7,0.00e+00,4.00e-02,
8,1.20e-03,4.00e-02,
9,0.00e+00,2.00e-02,
10,0.00e+00,4.00e-02,
11,2.00e-03,2.00e-02,
12,1.20e-03,4.00e-02,
13,0.00e+00,2.00e-02,
14,0.00e+00,4.00e-02,
15,1.20e-03,2.00e-02,
16,2.00e-03,4.00e-02,
17,0.00e+00,2.00e-02,
18,1.20e-03,4.00e-02,
19,0.00e+00,2.00e-02,
20,7.60e-03,2.00e-02,
21,-2.76e-02,1.96e+00,
22,1.92e-02,1.20e-01,
23,-1.56e-02,8.00e-02,
24,-2.80e-03,1.00e-01,
25,4.80e-03,6.00e-02,
26,3.60e-03,6.00e-02,
27,-1.60e-03,8.00e-02,
28,2.80e-03,6.00e-02,
29,-1.20e-03,8.00e-02,
30,2.00e-03,6.00e-02,
31,-8.00e-04,8.00e-02,
32,0.00e+00,8.00e-02,
33,2.40e-03,6.00e-02,
34,0.00e+00,6.00e-02,
35,8.40e-03,1.86e+00,
36,8.00e-03,1.60e-01,
37,-5.60e-03,8.00e-02,
38,2.80e-03,1.00e-01,
39,-8.00e-04,6.00e-02,
40,-8.00e-04,6.00e-02,
41,2.40e-03,1.00e-01,
42,-8.00e-04,6.00e-02,
43,2.80e-03,8.00e-02,
44,3.60e-03,6.00e-02,
45,-1.20e-03,8.00e-02,
46,-5.60e-03,6.00e-02,
47,7.60e-03,8.00e-02,
48,-1.88e-02,8.00e-02,
49,2.56e-02,6.00e-02,
50,-2.64e-02,8.00e-02,
51,3.04e-02,2.00e-02,
52,1.68e-02,8.00e-02,
53,-1.20e-02,2.00e-02,
54,4.80e-03,8.00e-02,
55,-1.60e-03,2.00e-02,
56,-8.00e-04,2.00e-02,
57,2.40e-03,8.00e-02,
58,2.00e-03,2.00e-02,
59,0.00e+00,8.00e-02,
60,-8.00e-04,8.00e-02,
61,1.60e-03,2.00e-02,
62,0.00e+00,8.00e-02,
63,1.20e-03,2.00e-02,
64,0.00e+00,2.00e-02,
65,8.40e-03,2.02e+00,
66,8.40e-03,1.60e-01,
67,0.00e+00,8.00e-02,
68,2.00e-03,1.00e-01,
69,0.00e+00,6.00e-02,
70,2.00e-03,6.00e-02,
71,0.00e+00,1.00e-01,
72,2.40e-03,8.00e-02,
73,0.00e+00,6.00e-02,
74,2.40e-03,6.00e-02,
75,-8.00e-04,8.00e-02,
76,-4.40e-03,6.00e-02,
77,5.60e-03,8.00e-02,
78,-1.52e-02,6.00e-02,
79,1.44e-02,8.00e-02,
80,1.88e-02,8.00e-02,
81,-2.00e-02,2.00e-02,
82,9.60e-03,8.00e-02,
83,-5.60e-03,2.00e-02,
84,2.80e-03,8.00e-02,
85,-8.00e-04,2.00e-02,
86,2.40e-03,2.00e-02,
87,-1.20e-03,8.00e-02,
88,-8.00e-04,2.00e-02,
89,2.00e-03,8.00e-02,
90,0.00e+00,4.00e-02,
91,2.00e-03,2.00e-02,
92,2.80e-03,4.00e-02,
93,-1.20e-03,2.00e-02,
94,-2.40e-03,2.00e-02,
95,9.20e-03,1.86e+00,
96,8.40e-03,1.60e-01,
97,-8.00e-04,8.00e-02,
98,2.00e-03,1.00e-01,
99,0.00e+00,6.00e-02,
100,4.00e-04,1.00e-01,
101,2.00e-03,6.00e-02,
102,2.00e-03,6.00e-02,
103,-4.00e-04,8.00e-02,
104,0.00e+00,6.00e-02,
105,2.80e-03,8.00e-02,
106,-3.60e-03,6.00e-02,
107,5.60e-03,8.00e-02,
108,1.44e-02,4.00e-02,
109,-1.60e-02,8.00e-02,
110,-2.00e-02,8.00e-02,
111,2.04e-02,2.00e-02,
112,1.04e-02,4.00e-02,
113,-8.00e-03,8.00e-02,
114,3.60e-03,2.00e-02,
115,-1.20e-03,8.00e-02,
116,2.40e-03,8.00e-02,
117,-8.00e-04,2.00e-02,
118,-8.00e-04,8.00e-02,
119,2.00e-03,2.00e-02,
120,-4.00e-04,8.00e-02,
121,2.00e-03,2.00e-02,
122,2.40e-03,2.00e-02,
123,-1.20e-03,8.00e-02,
124,-2.40e-03,2.00e-02,
125,8.40e-03,2.06e+00,
126,8.00e-03,1.60e-01,
127,-1.20e-03,8.00e-02,
128,2.80e-03,1.00e-01,
129,-4.00e-04,6.00e-02,
130,2.00e-03,6.00e-02,
131,0.00e+00,1.00e-01,
132,0.00e+00,6.00e-02,
133,2.40e-03,8.00e-02,
134,2.40e-03,6.00e-02,
135,-8.00e-04,8.00e-02,
136,-2.80e-03,6.00e-02,
137,6.40e-03,8.00e-02,
138,-1.28e-02,8.00e-02,
139,1.72e-02,4.00e-02,
140,2.04e-02,8.00e-02,
141,-1.76e-02,2.00e-02,
142,1.08e-02,8.00e-02,
143,-7.60e-03,2.00e-02,
144,2.80e-03,8.00e-02,
145,-1.60e-03,2.00e-02,
146,0.00e+00,8.00e-02,
147,2.40e-03,2.00e-02,
148,2.00e-03,2.00e-02,
149,-8.00e-04,8.00e-02,
150,2.00e-03,2.00e-02,
151,0.00e+00,8.00e-02,
152,2.40e-03,2.00e-02,
153,-8.00e-04,8.00e-02,
154,-1.60e-03,2.00e-02,
155,9.20e-03,1.92e+00,
156,8.00e-03,1.60e-01,
157,0.00e+00,8.00e-02,
158,0.00e+00,1.00e-01,
159,2.00e-03,6.00e-02,
160,2.00e-03,1.00e-01,
161,-8.00e-04,6.00e-02,
162,2.00e-03,6.00e-02,
163,0.00e+00,8.00e-02,
164,2.00e-03,6.00e-02,
165,-4.00e-04,8.00e-02,
166,-4.00e-03,6.00e-02,
167,5.20e-03,8.00e-02,
168,-1.32e-02,6.00e-02,
169,1.40e-02,8.00e-02,
170,-1.72e-02,8.00e-02,
171,1.80e-02,2.00e-02,
172,7.60e-03,8.00e-02,
173,-4.80e-03,2.00e-02,
174,-8.00e-04,2.00e-02,
175,2.80e-03,8.00e-02,
176,2.80e-03,8.00e-02,
177,-8.00e-04,2.00e-02,
178,2.00e-03,8.00e-02,
179,0.00e+00,2.00e-02,
180,4.00e-04,8.00e-02,
181,2.00e-03,2.00e-02,
182,2.40e-03,2.00e-02,
183,-1.60e-03,6.00e-02,
184,-2.40e-03,2.00e-02,
185,9.20e-03,1.82e+00,
186,8.40e-03,1.60e-01,
187,-4.00e-04,8.00e-02,
188,2.00e-03,1.00e-01,
189,0.00e+00,6.00e-02,
190,2.00e-03,6.00e-02,
191,0.00e+00,1.00e-01,
192,0.00e+00,6.00e-02,
193,2.00e-03,8.00e-02,
194,-8.00e-04,6.00e-02,
195,2.40e-03,8.00e-02,
196,-4.00e-03,6.00e-02,
197,5.20e-03,8.00e-02,
198,1.24e-02,8.00e-02,
199,-1.40e-02,4.00e-02,
200,-1.76e-02,8.00e-02,
201,1.80e-02,2.00e-02,
202,9.60e-03,8.00e-02,
203,-7.20e-03,2.00e-02,
204,2.80e-03,2.00e-02,
205,-1.20e-03,8.00e-02,
206,2.00e-03,2.00e-02,
207,-8.00e-04,8.00e-02,
208,0.00e+00,8.00e-02,
209,2.00e-03,2.00e-02,
210,2.00e-03,4.00e-02,
211,-4.00e-04,2.00e-02,
212,2.00e-03,4.00e-02,
213,-1.20e-03,2.00e-02,
214,-1.60e-03,2.00e-02,
215,8.00e-03,1.88e+00,
216,8.00e-03,1.60e-01,
217,-8.00e-04,8.00e-02,
218,2.40e-03,1.00e-01,
219,0.00e+00,6.00e-02,
220,0.00e+00,6.00e-02,
221,1.60e-03,1.00e-01,
222,-8.00e-04,6.00e-02,
223,2.40e-03,8.00e-02,
224,2.00e-03,6.00e-02,
225,-8.00e-04,8.00e-02,
226,-2.40e-03,8.00e-02,
227,5.20e-03,6.00e-02,
228,-1.04e-02,8.00e-02,
229,1.52e-02,2.00e-02,
230,-1.56e-02,8.00e-02,
231,1.88e-02,2.00e-02,
232,1.04e-02,2.00e-02,
233,-6.40e-03,8.00e-02,
234,3.20e-03,8.00e-02,
235,-8.00e-04,2.00e-02,
236,2.00e-03,8.00e-02,
237,0.00e+00,2.00e-02,
238,0.00e+00,4.00e-02,
239,1.60e-03,2.00e-02,
240,2.40e-03,4.00e-02,
241,4.00e-04,2.00e-02,
242,-8.00e-04,4.00e-02,
243,3.20e-03,2.00e-02,
244,-2.80e-03,2.00e-02,
245,8.40e-03,1.88e+00,
246,8.00e-03,1.60e-01,
247,-4.00e-04,8.00e-02,
248,2.00e-03,1.00e-01,
249,0.00e+00,6.00e-02,
250,0.00e+00,8.00e-02,
251,2.00e-03,6.00e-02,
252,2.00e-03,6.00e-02,
253,-8.00e-04,8.00e-02,
254,-8.00e-04,8.00e-02,
255,2.40e-03,6.00e-02,
256,-3.20e-03,8.00e-02,
257,5.60e-03,6.00e-02,
258,-1.28e-02,8.00e-02,
259,1.56e-02,4.00e-02,
260,1.68e-02,8.00e-02,
261,-1.56e-02,2.00e-02,
262,6.80e-03,8.00e-02,
263,-4.40e-03,2.00e-02,
264,2.40e-03,2.00e-02,
265,-8.00e-04,8.00e-02,
266,2.00e-03,8.00e-02,
267,-8.00e-04,2.00e-02,
268,-8.00e-04,2.00e-02,
269,2.00e-03,8.00e-02,
270,0.00e+00,2.00e-02,
271,2.00e-03,8.00e-02,
272,2.40e-03,8.00e-02,
273,-1.60e-03,2.00e-02,
274,-1.60e-03,2.00e-02,
275,9.20e-03,1.94e+00,
276,8.40e-03,1.60e-01,
277,0.00e+00,8.00e-02,
278,2.40e-03,1.00e-01,
279,0.00e+00,6.00e-02,
280,2.40e-03,1.00e-01,
281,0.00e+00,6.00e-02,
282,0.00e+00,6.00e-02,
283,2.40e-03,8.00e-02,
284,2.00e-03,6.00e-02,
285,-8.00e-04,8.00e-02,
286,-1.60e-03,6.00e-02,
287,4.80e-03,8.00e-02,
288,1.16e-02,6.00e-02,
289,-1.28e-02,8.00e-02,
290,1.68e-02,8.00e-02,
291,-1.60e-02,2.00e-02,
292,8.80e-03,8.00e-02,
293,-6.00e-03,2.00e-02,
294,3.20e-03,8.00e-02,
295,-1.20e-03,2.00e-02,
296,1.60e-03,8.00e-02,
297,0.00e+00,2.00e-02,
298,0.00e+00,2.00e-02,
299,2.00e-03,6.00e-02,
300,-4.00e-04,4.00e-02,
301,2.00e-03,2.00e-02,
302,2.40e-03,4.00e-02,
303,-8.00e-04,2.00e-02,
304,-2.00e-03,2.00e-02,
305,8.80e-03,2.04e+00,
306,8.40e-03,1.60e-01,
307,0.00e+00,8.00e-02,
308,2.00e-03,1.00e-01,
309,0.00e+00,6.00e-02,
310,1.60e-03,6.00e-02,
311,0.00e+00,8.00e-02,
312,1.60e-03,6.00e-02,
313,-4.00e-04,8.00e-02,
314,-8.00e-04,6.00e-02,
315,2.00e-03,8.00e-02,
316,-1.60e-03,6.00e-02,
317,4.40e-03,8.00e-02,
318,-9.20e-03,8.00e-02,
319,1.32e-02,4.00e-02,
320,-1.48e-02,8.00e-02,
321,1.68e-02,2.00e-02,
322,9.60e-03,2.00e-02,
323,-6.00e-03,8.00e-02,
324,2.80e-03,8.00e-02,
325,-1.20e-03,2.00e-02,
326,1.20e-03,2.00e-02,
327,-8.00e-04,8.00e-02,
328,2.00e-03,4.00e-02,
329,0.00e+00,2.00e-02,
330,1.60e-03,4.00e-02,
331,-8.00e-04,2.00e-02,
332,-8.00e-04,2.00e-02,
333,2.00e-03,6.00e-02,
334,-2.40e-03,2.00e-02,
335,8.00e-03,1.78e+00,
336,8.00e-03,1.60e-01,
337,-8.00e-04,8.00e-02,
338,2.00e-03,1.00e-01,
339,-4.00e-04,6.00e-02,
340,2.00e-03,6.00e-02,
341,0.00e+00,8.00e-02,
342,1.20e-03,6.00e-02,
343,0.00e+00,8.00e-02,
344,0.00e+00,8.00e-02,
345,2.00e-03,6.00e-02,
346,-3.20e-03,6.00e-02,
347,6.40e-03,8.00e-02,
348,-1.16e-02,8.00e-02,
349,1.40e-02,6.00e-02,
350,-1.44e-02,8.00e-02,
351,1.56e-02,2.00e-02,
352,6.40e-03,8.00e-02,
353,-3.20e-03,2.00e-02,
354,2.40e-03,8.00e-02,
355,-8.00e-04,2.00e-02,
356,2.00e-03,2.00e-02,
357,-8.00e-04,8.00e-02,
358,2.00e-03,2.00e-02,
359,-8.00e-04,6.00e-02,
360,0.00e+00,6.00e-02,
361,2.00e-03,2.00e-02,
362,2.40e-03,6.00e-02,
363,-1.20e-03,2.00e-02,
364,-2.40e-03,2.00e-02,
365,8.40e-03,2.00e+00,
366,8.00e-03,1.60e-01,
367,0.00e+00,8.00e-02,
368,1.20e-03,1.00e-01,
369,-8.00e-04,6.00e-02,
370,0.00e+00,1.00e-01,
371,2.00e-03,6.00e-02,
372,1.20e-03,6.00e-02,
373,-8.00e-04,8.00e-02,
374,-8.00e-04,6.00e-02,
375,2.40e-03,8.00e-02,
376,-2.40e-03,6.00e-02,
377,4.40e-03,8.00e-02,
378,-1.16e-02,8.00e-02,
379,1.28e-02,2.00e-02,
380,-1.44e-02,8.00e-02,
381,1.56e-02,2.00e-02,
382,8.80e-03,2.00e-02,
383,-6.00e-03,8.00e-02,
384,3.20e-03,8.00e-02,
385,-4.00e-04,2.00e-02,
386,-8.00e-04,8.00e-02,
387,2.00e-03,2.00e-02,
388,2.00e-03,2.00e-02,
389,0.00e+00,6.00e-02,
390,2.00e-03,2.00e-02,
391,4.00e-04,6.00e-02,
392,2.40e-03,2.00e-02,
393,-1.20e-03,8.00e-02,
394,-2.80e-03,2.00e-02,
395,9.20e-03,1.94e+00,
396,8.40e-03,1.60e-01,
397,-8.00e-04,8.00e-02,
398,2.00e-03,1.00e-01,
399,-8.00e-04,6.00e-02,
400,0.00e+00,1.00e-01,
401,1.60e-03,6.00e-02,
402,0.00e+00,8.00e-02,
403,2.40e-03,6.00e-02,
404,2.40e-03,6.00e-02,
405,-4.00e-04,8.00e-02,
406,-2.80e-03,6.00e-02,
407,4.40e-03,8.00e-02,
408,-9.20e-03,6.00e-02,
409,1.28e-02,8.00e-02,
410,1.64e-02,8.00e-02,
411,-1.40e-02,4.00e-02,
412,9.60e-03,8.00e-02,
413,-5.20e-03,2.00e-02,
414,2.40e-03,2.00e-02,
415,-1.20e-03,8.00e-02,
416,0.00e+00,2.00e-02,
417,2.40e-03,8.00e-02,
418,1.20e-03,8.00e-02,
419,-4.00e-04,2.00e-02,
420,-8.00e-04,2.00e-02,
421,2.00e-03,8.00e-02,
422,1.20e-03,2.00e-02,
423,-1.20e-03,8.00e-02,
424,-2.40e-03,2.00e-02,
425,8.40e-03,2.00e+00,
426,8.00e-03,1.60e-01,
427,-8.00e-04,8.00e-02,
428,2.00e-03,1.00e-01,
429,0.00e+00,6.00e-02,
430,0.00e+00,6.00e-02,
431,2.00e-03,1.00e-01,
432,-8.00e-04,6.00e-02,
433,2.00e-03,8.00e-02,
434,2.00e-03,6.00e-02,
435,-8.00e-04,8.00e-02,
436,-3.20e-03,8.00e-02,
437,5.60e-03,6.00e-02,
438,-1.04e-02,8.00e-02,
439,1.40e-02,4.00e-02,
440,-1.28e-02,8.00e-02,
441,1.64e-02,2.00e-02,
442,6.80e-03,8.00e-02,
443,-4.40e-03,2.00e-02,
444,2.00e-03,8.00e-02,
445,-4.00e-04,2.00e-02,
446,2.00e-03,4.00e-02,
447,-4.00e-04,2.00e-02,
448,1.60e-03,2.00e-02,
449,-8.00e-04,4.00e-02,
450,1.20e-03,2.00e-02,
451,-4.00e-04,4.00e-02,
452,2.00e-03,4.00e-02,
453,-1.20e-03,2.00e-02,
454,-2.00e-03,2.00e-02,
455,8.40e-03,1.86e+00,
456,8.00e-03,1.60e-01,
457,-4.00e-04,8.00e-02,
458,2.00e-03,1.00e-01,
459,0.00e+00,6.00e-02,
460,0.00e+00,6.00e-02,
461,1.60e-03,1.00e-01,
462,0.00e+00,6.00e-02,
463,2.00e-03,8.00e-02,
464,0.00e+00,6.00e-02,
465,2.40e-03,8.00e-02,
466,-1.60e-03,6.00e-02,
467,4.00e-03,8.00e-02,
468,-1.08e-02,6.00e-02,
469,1.36e-02,8.00e-02,
470,-1.44e-02,8.00e-02,
471,1.52e-02,2.00e-02,
472,7.20e-03,8.00e-02,
473,-5.60e-03,2.00e-02,
474,2.40e-03,8.00e-02,
475,-8.00e-04,2.00e-02,
476,1.60e-03,8.00e-02,
477,0.00e+00,2.00e-02,
478,2.00e-03,8.00e-02,
479,-8.00e-04,2.00e-02,
480,2.00e-03,2.00e-02,
481,0.00e+00,8.00e-02,
482,2.00e-03,2.00e-02,
483,-1.20e-03,6.00e-02,
484,-2.00e-03,2.00e-02,
485,8.80e-03,2.00e+00,
486,8.40e-03,1.60e-01,
487,-4.00e-04,8.00e-02,
488,-8.00e-04,1.00e-01,
489,2.00e-03,6.00e-02,
490,1.60e-03,6.00e-02,
491,0.00e+00,1.00e-01,
492,2.00e-03,6.00e-02,
493,-4.00e-04,8.00e-02,
494,-8.00e-04,6.00e-02,
495,1.60e-03,8.00e-02,
496,-2.40e-03,6.00e-02,
497,5.20e-03,8.00e-02,
498,-9.60e-03,8.00e-02,
499,1.44e-02,4.00e-02,
500,-1.28e-02,6.00e-02,
501,1.60e-02,8.00e-02,
502,7.60e-03,8.00e-02,
503,-5.60e-03,2.00e-02,
504,2.00e-03,8.00e-02,
505,-1.20e-03,2.00e-02,
506,2.40e-03,8.00e-02,
507,-4.00e-04,2.00e-02,
508,-4.00e-04,8.00e-02,
509,2.00e-03,2.00e-02,
510,0.00e+00,2.00e-02,
511,1.60e-03,8.00e-02,
512,1.60e-03,2.00e-02,
513,-1.60e-03,8.00e-02,
514,-2.40e-03,2.00e-02,
515,9.20e-03,1.82e+00,
516,8.40e-03,1.60e-01,
517,-8.00e-04,8.00e-02,
518,2.00e-03,1.00e-01,
519,4.00e-04,6.00e-02,
520,2.00e-03,6.00e-02,
521,0.00e+00,1.00e-01,
522,1.20e-03,6.00e-02,
523,0.00e+00,8.00e-02,
524,2.40e-03,6.00e-02,
525,-4.00e-04,8.00e-02,
526,-2.80e-03,6.00e-02,
527,5.60e-03,8.00e-02,
528,-1.04e-02,8.00e-02,
529,1.32e-02,2.00e-02,
530,1.52e-02,8.00e-02,
531,-1.48e-02,2.00e-02,
532,5.60e-03,8.00e-02,
533,-4.40e-03,4.00e-02,
534,2.80e-03,8.00e-02,
535,-8.00e-04,2.00e-02,
536,-8.00e-04,8.00e-02,
537,2.40e-03,2.00e-02,
538,1.20e-03,6.00e-02,
539,-8.00e-04,2.00e-02,
540,0.00e+00,2.00e-02,
541,2.00e-03,8.00e-02,
542,2.40e-03,2.00e-02,
543,-8.00e-04,8.00e-02,
544,-2.40e-03,2.00e-02,
545,8.40e-03,1.98e+00,
546,8.00e-03,1.60e-01,
547,0.00e+00,8.00e-02,
548,2.00e-03,1.00e-01,
549,0.00e+00,6.00e-02,
550,0.00e+00,1.00e-01,
551,1.20e-03,6.00e-02,
552,1.20e-03,6.00e-02,
553,0.00e+00,8.00e-02,
554,2.40e-03,6.00e-02,
555,-8.00e-04,8.00e-02,
556,-1.60e-03,6.00e-02,
557,4.00e-03,8.00e-02,
558,-1.00e-02,8.00e-02,
559,1.36e-02,4.00e-02,
560,-1.40e-02,8.00e-02,
561,1.56e-02,2.00e-02,
562,8.40e-03,8.00e-02,
563,-4.80e-03,2.00e-02,
564,3.60e-03,8.00e-02,
565,-8.00e-04,2.00e-02,
566,2.00e-03,8.00e-02,
567,0.00e+00,2.00e-02,
568,1.60e-03,8.00e-02,
569,0.00e+00,2.00e-02,
570,-4.00e-04,2.00e-02,
571,2.00e-03,8.00e-02,
572,2.00e-03,2.00e-02,
573,-1.20e-03,6.00e-02,
574,-1.60e-03,2.00e-02,
575,8.80e-03,1.82e+00,
576,8.00e-03,1.60e-01,
577,0.00e+00,8.00e-02,
578,2.00e-03,1.00e-01,
579,-8.00e-04,6.00e-02,
580,2.00e-03,1.00e-01,
581,-8.00e-04,6.00e-02,
582,-4.00e-04,8.00e-02,
583,2.00e-03,6.00e-02,
584,2.00e-03,6.00e-02,
585,-8.00e-04,8.00e-02,
586,-1.60e-03,8.00e-02,
587,4.40e-03,6.00e-02,
588,-1.00e-02,8.00e-02,
589,1.36e-02,6.00e-02,
590,-1.32e-02,8.00e-02,
591,1.44e-02,2.00e-02,
592,8.00e-03,8.00e-02,
593,-4.80e-03,2.00e-02,
594,2.40e-03,8.00e-02,
595,-8.00e-04,2.00e-02,
596,1.20e-03,8.00e-02,
597,-4.00e-04,2.00e-02,
598,1.60e-03,2.00e-02,
599,0.00e+00,8.00e-02,
600,-4.00e-04,2.00e-02,
601,2.00e-03,8.00e-02,
602,2.80e-03,6.00e-02,
603,-1.20e-03,2.00e-02,
604,-2.40e-03,2.00e-02,
605,8.80e-03,1.94e+00,
606,8.40e-03,1.60e-01,
607,-4.00e-04,8.00e-02,
608,0.00e+00,1.00e-01,
609,2.00e-03,6.00e-02,
610,4.00e-04,1.00e-01,
611,1.60e-03,6.00e-02,
612,2.00e-03,8.00e-02,
613,0.00e+00,6.00e-02,
614,0.00e+00,6.00e-02,
615,2.40e-03,8.00e-02,
616,-2.80e-03,6.00e-02,
617,5.20e-03,8.00e-02,
618,-1.16e-02,6.00e-02,
619,1.40e-02,8.00e-02,
620,-1.32e-02,8.00e-02,
621,1.48e-02,4.00e-02,
622,6.80e-03,8.00e-02,
623,-3.20e-03,2.00e-02,
624,2.00e-03,2.00e-02,
625,-8.00e-04,8.00e-02,
626,-8.00e-04,2.00e-02,
627,2.00e-03,8.00e-02,
628,0.00e+00,8.00e-02,
629,2.00e-03,2.00e-02,
630,1.20e-03,8.00e-02,
631,-4.00e-04,2.00e-02,
632,2.40e-03,2.00e-02,
633,-1.20e-03,8.00e-02,
634,-2.40e-03,2.00e-02,
635,8.40e-03,1.98e+00,
636,8.00e-03,1.60e-01,
637,-4.00e-04,8.00e-02,
638,0.00e+00,1.00e-01,
639,2.00e-03,6.00e-02,
640,2.40e-03,1.00e-01,
641,0.00e+00,6.00e-02,
642,2.00e-03,6.00e-02,
643,-8.00e-04,8.00e-02,
644,2.00e-03,6.00e-02,
645,-8.00e-04,8.00e-02,
646,-2.40e-03,6.00e-02,
647,4.00e-03,8.00e-02,
648,-9.60e-03,6.00e-02,
649,1.44e-02,8.00e-02,
650,1.52e-02,8.00e-02,
651,-1.44e-02,2.00e-02,
652,7.20e-03,8.00e-02,
653,-4.40e-03,2.00e-02,
654,2.80e-03,2.00e-02,
655,-8.00e-04,8.00e-02,
656,2.00e-03,2.00e-02,
657,0.00e+00,8.00e-02,
658,1.20e-03,2.00e-02,
659,0.00e+00,6.00e-02,
660,0.00e+00,2.00e-02,
661,2.00e-03,6.00e-02,
662,2.00e-03,4.00e-02,
663,-1.20e-03,2.00e-02,
664,-2.40e-03,2.00e-02,
665,8.40e-03,1.92e+00,
666,8.00e-03,1.60e-01,
667,-8.00e-04,8.00e-02,
668,2.00e-03,1.00e-01,
669,0.00e+00,6.00e-02,
670,0.00e+00,6.00e-02,
671,1.20e-03,1.00e-01,
672,0.00e+00,6.00e-02,
673,2.00e-03,8.00e-02,
674,2.00e-03,8.00e-02,
675,-8.00e-04,6.00e-02,
676,-2.40e-03,6.00e-02,
677,4.40e-03,8.00e-02,
678,-9.60e-03,6.00e-02,
679,1.40e-02,8.00e-02,
680,-1.32e-02,8.00e-02,
681,1.44e-02,2.00e-02,
682,6.80e-03,8.00e-02,
683,-4.40e-03,2.00e-02,
684,3.20e-03,8.00e-02,
685,-4.00e-04,2.00e-02,
686,2.00e-03,8.00e-02,
687,-8.00e-04,2.00e-02,
688,0.00e+00,2.00e-02,
689,1.60e-03,8.00e-02,
690,0.00e+00,8.00e-02,
691,1.20e-03,2.00e-02,
692,1.60e-03,4.00e-02,
693,-1.60e-03,2.00e-02,
694,-2.40e-03,2.00e-02,
695,8.80e-03,1.82e+00,
696,8.40e-03,1.60e-01,
697,-4.00e-04,8.00e-02,
698,1.20e-03,1.00e-01,
699,0.00e+00,6.00e-02,
700,1.20e-03,6.00e-02,
701,0.00e+00,1.00e-01,
702,2.00e-03,6.00e-02,
703,0.00e+00,8.00e-02,
704,0.00e+00,6.00e-02,
705,2.40e-03,8.00e-02,
706,-2.00e-03,8.00e-02,
707,5.20e-03,6.00e-02,
708,-1.00e-02,8.00e-02,
709,1.40e-02,4.00e-02,
710,-1.28e-02,8.00e-02,
711,1.48e-02,2.00e-02,
712,6.00e-03,8.00e-02,
713,-4.80e-03,2.00e-02,
714,2.40e-03,2.00e-02,
715,-8.00e-04,8.00e-02,
716,2.00e-03,2.00e-02,
717,-4.00e-04,8.00e-02,
718,2.00e-03,2.00e-02,
719,0.00e+00,8.00e-02,
720,1.20e-03,2.00e-02,
721,-8.00e-04,8.00e-02,
722,2.40e-03,2.00e-02,
723,-1.20e-03,8.00e-02,
724,-2.80e-03,2.00e-02,
725,9.20e-03,2.00e+00,
726,8.40e-03,1.60e-01,
727,-4.00e-04,8.00e-02,
728,2.00e-03,1.00e-01,
729,0.00e+00,6.00e-02,
730,0.00e+00,1.00e-01,
731,2.00e-03,6.00e-02,
732,0.00e+00,6.00e-02,
733,2.00e-03,8.00e-02,
734,-4.00e-04,8.00e-02,
735,2.00e-03,6.00e-02,
736,-1.20e-03,8.00e-02,
737,4.40e-03,6.00e-02,
738,-1.00e-02,6.00e-02,
739,1.24e-02,8.00e-02,
740,-1.32e-02,8.00e-02,
741,1.52e-02,4.00e-02,
742,7.60e-03,8.00e-02,
743,-5.60e-03,2.00e-02,
744,2.80e-03,8.00e-02,
745,-1.20e-03,2.00e-02,
746,2.00e-03,2.00e-02,
747,0.00e+00,8.00e-02,
748,-4.00e-04,2.00e-02,
749,2.00e-03,8.00e-02,
750,2.00e-03,8.00e-02,
751,0.00e+00,2.00e-02,
752,2.40e-03,2.00e-02,
753,-1.20e-03,6.00e-02,
754,-2.40e-03,2.00e-02,
755,8.00e-03,1.92e+00,
756,8.00e-03,1.60e-01,
757,0.00e+00,8.00e-02,
758,0.00e+00,1.00e-01,
759,1.60e-03,6.00e-02,
760,0.00e+00,1.00e-01,
761,2.00e-03,6.00e-02,
762,2.00e-03,8.00e-02,
763,0.00e+00,6.00e-02,
764,0.00e+00,6.00e-02,
765,2.00e-03,8.00e-02,
766,-2.80e-03,6.00e-02,
767,4.40e-03,8.00e-02,
768,-1.08e-02,6.00e-02,
769,1.32e-02,8.00e-02,
770,-1.32e-02,8.00e-02,
771,1.40e-02,2.00e-02,
772,6.00e-03,8.00e-02,
773,-4.40e-03,2.00e-02,
774,2.40e-03,8.00e-02,
775,-1.20e-03,2.00e-02,
776,1.20e-03,8.00e-02,
777,-8.00e-04,2.00e-02,
778,1.20e-03,2.00e-02,
779,-4.00e-04,8.00e-02,
780,1.20e-03,2.00e-02,
781,0.00e+00,8.00e-02,
782,1.60e-03,2.00e-02,
783,-1.60e-03,6.00e-02,
784,-2.80e-03,2.00e-02,
785,8.00e-03,1.82e+00,
786,8.00e-03,1.60e-01,
787,-4.00e-04,8.00e-02,
788,-4.00e-04,1.00e-01,
789,2.40e-03,6.00e-02,
790,2.00e-03,6.00e-02,
791,0.00e+00,1.00e-01,
792,1.20e-03,6.00e-02,
793,0.00e+00,8.00e-02,
794,0.00e+00,6.00e-02,
795,2.40e-03,8.00e-02,
796,-2.80e-03,6.00e-02,
797,4.80e-03,8.00e-02,
798,-8.80e-03,8.00e-02,
799,1.36e-02,2.00e-02,
800,-1.28e-02,8.00e-02,
801,1.44e-02,2.00e-02,
802,6.00e-03,8.00e-02,
803,-4.80e-03,2.00e-02,
804,2.40e-03,2.00e-02,
805,-4.00e-04,8.00e-02,
806,-1.20e-03,8.00e-02,
807,1.20e-03,2.00e-02,
808,1.20e-03,4.00e-02,
809,0.00e+00,2.00e-02,
810,1.20e-03,4.00e-02,
811,0.00e+00,2.00e-02,
812,2.40e-03,4.00e-02,
813,-1.20e-03,2.00e-02,
814,-2.40e-03,2.00e-02,
815,8.80e-03,1.98e+00,
816,8.40e-03,1.60e-01,
817,0.00e+00,8.00e-02,
818,1.20e-03,1.00e-01,
819,0.00e+00,6.00e-02,
820,0.00e+00,6.00e-02,
821,1.20e-03,1.00e-01,
822,2.00e-03,6.00e-02,
823,-4.00e-04,8.00e-02,
824,0.00e+00,8.00e-02,
825,1.60e-03,6.00e-02,
826,-1.60e-03,6.00e-02,
827,4.40e-03,8.00e-02,
828,-8.80e-03,8.00e-02,
829,1.36e-02,2.00e-02,
830,-1.28e-02,8.00e-02,
831,1.32e-02,4.00e-02,
832,6.80e-03,8.00e-02,
833,-4.40e-03,2.00e-02,
834,2.80e-03,8.00e-02,
835,-1.60e-03,2.00e-02,
836,2.00e-03,2.00e-02,
837,0.00e+00,8.00e-02,
838,1.20e-03,2.00e-02,
839,0.00e+00,8.00e-02,
840,-4.00e-04,2.00e-02,
841,1.60e-03,8.00e-02,
842,2.00e-03,8.00e-02,
843,-1.20e-03,2.00e-02,
844,-1.60e-03,2.00e-02,
845,8.80e-03,1.94e+00,
846,8.40e-03,1.60e-01,
847,0.00e+00,8.00e-02,
848,-8.00e-04,1.00e-01,
849,2.00e-03,6.00e-02,
850,0.00e+00,6.00e-02,
851,1.60e-03,8.00e-02,
852,0.00e+00,6.00e-02,
853,2.00e-03,8.00e-02,
854,2.00e-03,8.00e-02,
855,0.00e+00,6.00e-02,
856,-1.60e-03,8.00e-02,
857,4.00e-03,6.00e-02,
