CarrPurc_P1-19_P2-38_tauVary/Gly40/NewFile1.csv

X,CH1,CH2,Start,Increment,
Sequence,Volt,Volt,-3.600000e-03,2.000000e-04
0,0.00e+00,4.00e-02,
1,2.00e-03,0.00e+00,
2,1.20e-03,4.00e-02,
3,0.00e+00,0.00e+00,
4,1.20e-03,4.00e-02,
5,0.00e+00,2.00e-02,
6,0.00e+00,4.00e-02,
7,1.20e-03,0.00e+00,
8,0.00e+00,4.00e-02,
9,1.20e-03,0.00e+00,
10,1.60e-03,4.00e-02,
11,0.00e+00,0.00e+00,
12,1.20e-03,4.00e-02,
13,0.00e+00,0.00e+00,
14,-8.00e-04,4.00e-02,
15,1.20e-03,0.00e+00,
16,0.00e+00,4.00e-02,
17,1.60e-03,0.00e+00,
18,1.20e-03,4.00e-02,
19,0.00e+00,0.00e+00,
20,6.80e-03,0.00e+00,
21,-2.80e-02,1.76e+00,
22,2.04e-02,1.00e-01,
23,-1.60e-02,6.00e-02,
24,-2.80e-03,1.00e-01,
25,5.20e-03,6.00e-02,
26,2.80e-03,6.00e-02,
27,-1.60e-03,8.00e-02,
28,3.60e-03,6.00e-02,
29,-4.00e-04,8.00e-02,
30,2.00e-03,8.00e-02,
31,-4.00e-04,2.00e-02,
32,2.40e-03,8.00e-02,
33,-8.00e-04,2.00e-02,
34,-8.00e-04,2.00e-02,
35,8.40e-03,1.92e+00,
36,8.40e-03,1.60e-01,
37,-6.40e-03,8.00e-02,
38,3.60e-03,1.00e-01,
39,-1.20e-03,6.00e-02,
40,-1.20e-03,6.00e-02,
41,2.40e-03,8.00e-02,
42,2.40e-03,6.00e-02,
43,-8.00e-04,8.00e-02,
44,-1.20e-03,6.00e-02,
45,2.40e-03,8.00e-02,
46,-5.60e-03,4.00e-02,
47,7.60e-03,8.00e-02,
48,-1.96e-02,8.00e-02,
49,2.72e-02,2.00e-02,
50,-2.76e-02,8.00e-02,
51,3.04e-02,2.00e-02,
52,1.68e-02,2.00e-02,
53,-1.28e-02,8.00e-02,
54,4.00e-03,4.00e-02,
55,-2.00e-03,2.00e-02,
56,-8.00e-04,4.00e-02,
57,2.80e-03,2.00e-02,
58,2.00e-03,4.00e-02,
59,-8.00e-04,2.00e-02,
60,-8.00e-04,4.00e-02,
61,2.40e-03,2.00e-02,
62,-8.00e-04,4.00e-02,
63,1.60e-03,2.00e-02,
64,-4.00e-04,2.00e-02,
65,8.00e-03,2.04e+00,
66,8.00e-03,1.60e-01,
67,-8.00e-04,8.00e-02,
68,0.00e+00,1.00e-01,
69,2.40e-03,6.00e-02,
70,2.40e-03,6.00e-02,
71,-8.00e-04,8.00e-02,
72,2.40e-03,8.00e-02,
73,-8.00e-04,6.00e-02,
74,-8.00e-04,6.00e-02,
75,2.80e-03,8.00e-02,
76,-4.40e-03,8.00e-02,
77,8.00e-03,2.00e-02,
78,-1.96e-02,2.00e-02,
79,1.68e-02,8.00e-02,
80,-2.36e-02,8.00e-02,
81,2.44e-02,2.00e-02,
82,1.16e-02,2.00e-02,
83,-7.60e-03,8.00e-02,
84,2.80e-03,8.00e-02,
85,-1.20e-03,2.00e-02,
86,-1.60e-03,2.00e-02,
87,2.80e-03,4.00e-02,
88,2.40e-03,4.00e-02,
89,0.00e+00,2.00e-02,
90,1.20e-03,4.00e-02,
91,0.00e+00,2.00e-02,
92,2.40e-03,4.00e-02,
93,-1.60e-03,2.00e-02,
94,-2.40e-03,2.00e-02,
95,9.20e-03,2.04e+00,
96,8.00e-03,1.60e-01,
97,-1.20e-03,8.00e-02,
98,2.40e-03,1.00e-01,
99,-8.00e-04,6.00e-02,
100,4.00e-04,8.00e-02,
101,2.40e-03,6.00e-02,
102,2.00e-03,6.00e-02,
103,-8.00e-04,8.00e-02,
104,-1.20e-03,6.00e-02,
105,3.20e-03,8.00e-02,
106,-4.40e-03,6.00e-02,
107,6.40e-03,8.00e-02,
108,1.52e-02,8.00e-02,
109,-1.76e-02,2.00e-02,
110,-2.32e-02,2.00e-02,
111,2.48e-02,8.00e-02,
112,1.16e-02,2.00e-02,
113,-9.60e-03,8.00e-02,
114,3.20e-03,4.00e-02,
115,-1.60e-03,2.00e-02,
116,2.00e-03,4.00e-02,
117,-1.60e-03,2.00e-02,
118,-8.00e-04,4.00e-02,
119,2.40e-03,2.00e-02,
120,0.00e+00,2.00e-02,
121,2.00e-03,4.00e-02,
122,-1.20e-03,4.00e-02,
123,2.40e-03,2.00e-02,
124,-2.80e-03,2.00e-02,
125,9.20e-03,1.98e+00,
126,8.80e-03,1.60e-01,
127,-8.00e-04,8.00e-02,
128,2.40e-03,1.00e-01,
129,-4.00e-04,6.00e-02,
130,0.00e+00,6.00e-02,
131,2.00e-03,1.00e-01,
132,2.40e-03,6.00e-02,
133,-8.00e-04,8.00e-02,
134,-8.00e-04,6.00e-02,
135,2.40e-03,8.00e-02,
136,-4.00e-03,8.00e-02,
137,6.40e-03,4.00e-02,
138,-1.56e-02,8.00e-02,
139,1.88e-02,2.00e-02,
140,-2.20e-02,8.00e-02,
141,2.40e-02,2.00e-02,
142,1.16e-02,2.00e-02,
143,-9.20e-03,6.00e-02,
144,2.80e-03,6.00e-02,
145,-2.80e-03,2.00e-02,
146,2.40e-03,4.00e-02,
147,-4.00e-04,2.00e-02,
148,-4.00e-04,4.00e-02,
149,2.00e-03,2.00e-02,
150,2.00e-03,2.00e-02,
151,-8.00e-04,4.00e-02,
152,2.40e-03,4.00e-02,
153,-8.00e-04,2.00e-02,
154,-2.00e-03,2.00e-02,
155,8.40e-03,2.04e+00,
156,8.00e-03,1.60e-01,
157,-8.00e-04,8.00e-02,
158,1.20e-03,1.00e-01,
159,0.00e+00,6.00e-02,
160,1.60e-03,6.00e-02,
161,-4.00e-04,8.00e-02,
162,1.20e-03,6.00e-02,
163,-4.00e-04,8.00e-02,
164,-4.00e-04,8.00e-02,
165,2.80e-03,4.00e-02,
166,-4.40e-03,8.00e-02,
167,7.20e-03,2.00e-02,
168,-1.76e-02,2.00e-02,
169,1.72e-02,8.00e-02,
170,-2.20e-02,8.00e-02,
171,2.32e-02,2.00e-02,
172,1.04e-02,2.00e-02,
173,-7.20e-03,8.00e-02,
174,2.80e-03,2.00e-02,
175,-4.00e-04,6.00e-02,
176,2.00e-03,4.00e-02,
177,-1.20e-03,2.00e-02,
178,0.00e+00,4.00e-02,
179,2.00e-03,2.00e-02,
180,1.20e-03,4.00e-02,
181,0.00e+00,2.00e-02,
182,-1.20e-03,4.00e-02,
183,2.80e-03,2.00e-02,
184,-2.40e-03,2.00e-02,
185,8.40e-03,1.82e+00,
186,8.00e-03,1.60e-01,
187,-1.20e-03,8.00e-02,
188,2.00e-03,1.00e-01,
189,0.00e+00,6.00e-02,
190,2.00e-03,6.00e-02,
191,-8.00e-04,8.00e-02,
192,-8.00e-04,6.00e-02,
193,2.40e-03,8.00e-02,
194,3.20e-03,8.00e-02,
195,-8.00e-04,4.00e-02,
196,-4.40e-03,8.00e-02,
197,6.80e-03,2.00e-02,
198,1.48e-02,8.00e-02,
199,-1.76e-02,2.00e-02,
200,-2.20e-02,2.00e-02,
201,2.24e-02,8.00e-02,
202,1.28e-02,4.00e-02,
203,-8.80e-03,2.00e-02,
204,3.20e-03,4.00e-02,
205,-4.00e-04,2.00e-02,
206,2.00e-03,2.00e-02,
207,-8.00e-04,4.00e-02,
208,2.00e-03,4.00e-02,
209,-4.00e-04,2.00e-02,
210,1.20e-03,4.00e-02,
211,-1.20e-03,2.00e-02,
212,2.00e-03,4.00e-02,
213,-8.00e-04,2.00e-02,
214,-2.00e-03,2.00e-02,
215,8.80e-03,1.94e+00,
216,8.40e-03,1.60e-01,
217,-1.20e-03,8.00e-02,
218,2.40e-03,1.00e-01,
219,-8.00e-04,6.00e-02,
220,-4.00e-04,6.00e-02,
221,2.00e-03,8.00e-02,
222,2.00e-03,6.00e-02,
223,-8.00e-04,8.00e-02,
224,2.80e-03,8.00e-02,
225,-1.20e-03,4.00e-02,
226,-3.20e-03,8.00e-02,
227,6.80e-03,2.00e-02,
228,-1.36e-02,8.00e-02,
229,1.72e-02,2.00e-02,
230,-2.00e-02,8.00e-02,
231,2.40e-02,2.00e-02,
232,1.16e-02,4.00e-02,
233,-8.40e-03,2.00e-02,
234,4.00e-03,4.00e-02,
235,-1.20e-03,2.00e-02,
236,2.40e-03,4.00e-02,
237,-8.00e-04,2.00e-02,
238,-4.00e-04,4.00e-02,
239,2.00e-03,2.00e-02,
240,2.40e-03,4.00e-02,
241,0.00e+00,2.00e-02,
242,2.40e-03,4.00e-02,
243,-1.60e-03,2.00e-02,
244,-2.80e-03,2.00e-02,
245,9.20e-03,2.02e+00,
246,8.40e-03,1.60e-01,
247,0.00e+00,8.00e-02,
248,2.00e-03,1.00e-01,
249,0.00e+00,6.00e-02,
250,2.40e-03,8.00e-02,
251,-8.00e-04,6.00e-02,
252,2.00e-03,6.00e-02,
253,-8.00e-04,8.00e-02,
254,2.00e-03,8.00e-02,
255,-8.00e-04,6.00e-02,
256,-4.40e-03,8.00e-02,
257,7.20e-03,4.00e-02,
258,-1.72e-02,2.00e-02,
259,2.04e-02,8.00e-02,
260,-2.12e-02,8.00e-02,
261,2.20e-02,2.00e-02,
262,9.60e-03,8.00e-02,
263,-7.20e-03,2.00e-02,
264,2.40e-03,2.00e-02,
265,-1.20e-03,6.00e-02,
266,2.40e-03,4.00e-02,
267,-8.00e-04,2.00e-02,
268,-8.00e-04,4.00e-02,
269,2.00e-03,2.00e-02,
270,1.20e-03,4.00e-02,
271,0.00e+00,2.00e-02,
272,-1.20e-03,4.00e-02,
273,2.40e-03,2.00e-02,
274,-2.40e-03,2.00e-02,
275,8.40e-03,2.06e+00,
276,8.00e-03,1.60e-01,
277,-4.00e-04,8.00e-02,
278,2.00e-03,1.00e-01,
279,0.00e+00,6.00e-02,
280,0.00e+00,8.00e-02,
281,2.00e-03,6.00e-02,
282,2.00e-03,6.00e-02,
283,-4.00e-04,8.00e-02,
284,2.40e-03,6.00e-02,
285,-1.20e-03,8.00e-02,
286,-4.40e-03,8.00e-02,
287,5.60e-03,4.00e-02,
288,-1.72e-02,8.00e-02,
289,1.52e-02,2.00e-02,
290,2.20e-02,8.00e-02,
291,-2.12e-02,2.00e-02,
292,1.20e-02,8.00e-02,
293,-8.80e-03,2.00e-02,
294,4.00e-03,8.00e-02,
295,-1.60e-03,2.00e-02,
296,0.00e+00,4.00e-02,
297,2.40e-03,2.00e-02,
298,2.40e-03,4.00e-02,
299,0.00e+00,2.00e-02,
300,1.20e-03,4.00e-02,
301,0.00e+00,2.00e-02,
302,2.40e-03,4.00e-02,
303,-1.20e-03,2.00e-02,
304,-2.40e-03,2.00e-02,
305,8.40e-03,1.96e+00,
306,8.00e-03,1.60e-01,
307,-4.00e-04,8.00e-02,
308,2.00e-03,1.00e-01,
309,0.00e+00,6.00e-02,
310,0.00e+00,6.00e-02,
311,2.00e-03,8.00e-02,
312,0.00e+00,6.00e-02,
313,2.40e-03,8.00e-02,
314,2.40e-03,8.00e-02,
315,-8.00e-04,4.00e-02,
316,-3.60e-03,8.00e-02,
317,7.20e-03,2.00e-02,
318,-1.32e-02,8.00e-02,
319,1.72e-02,2.00e-02,
320,-1.96e-02,8.00e-02,
321,2.24e-02,2.00e-02,
322,1.20e-02,2.00e-02,
323,-8.40e-03,8.00e-02,
324,4.00e-03,4.00e-02,
325,-1.20e-03,2.00e-02,
326,2.00e-03,4.00e-02,
327,-8.00e-04,2.00e-02,
328,2.00e-03,4.00e-02,
329,-4.00e-04,2.00e-02,
330,2.00e-03,4.00e-02,
331,0.00e+00,2.00e-02,
332,2.00e-03,4.00e-02,
333,-1.20e-03,2.00e-02,
334,-2.80e-03,2.00e-02,
335,8.80e-03,1.92e+00,
336,8.40e-03,1.60e-01,
337,-8.00e-04,8.00e-02,
338,2.00e-03,1.00e-01,
339,0.00e+00,6.00e-02,
340,2.00e-03,6.00e-02,
341,0.00e+00,8.00e-02,
342,0.00e+00,6.00e-02,
343,2.40e-03,8.00e-02,
344,2.40e-03,8.00e-02,
345,-8.00e-04,4.00e-02,
346,-4.40e-03,8.00e-02,
347,7.20e-03,2.00e-02,
348,-1.56e-02,8.00e-02,
349,2.00e-02,2.00e-02,
350,-2.08e-02,8.00e-02,
351,2.12e-02,2.00e-02,
352,9.60e-03,4.00e-02,
353,-6.00e-03,2.00e-02,
354,3.60e-03,4.00e-02,
355,-1.20e-03,2.00e-02,
356,2.00e-03,2.00e-02,
357,-1.20e-03,4.00e-02,
358,1.60e-03,2.00e-02,
359,-8.00e-04,4.00e-02,
360,2.40e-03,4.00e-02,
361,0.00e+00,2.00e-02,
362,2.40e-03,4.00e-02,
363,-1.60e-03,2.00e-02,
364,-2.40e-03,2.00e-02,
365,8.80e-03,1.96e+00,
366,8.00e-03,1.40e-01,
367,-4.00e-04,8.00e-02,
368,2.40e-03,1.00e-01,
369,0.00e+00,6.00e-02,
370,-4.00e-04,6.00e-02,
371,1.60e-03,8.00e-02,
372,1.60e-03,6.00e-02,
373,-4.00e-04,8.00e-02,
374,2.80e-03,6.00e-02,
375,-8.00e-04,8.00e-02,
376,-2.80e-03,8.00e-02,
377,7.20e-03,2.00e-02,
378,-1.56e-02,2.00e-02,
379,1.76e-02,8.00e-02,
380,-2.04e-02,8.00e-02,
381,2.12e-02,2.00e-02,
382,1.12e-02,6.00e-02,
383,-9.60e-03,2.00e-02,
384,3.60e-03,4.00e-02,
385,-4.00e-04,2.00e-02,
386,2.40e-03,4.00e-02,
387,-8.00e-04,2.00e-02,
388,1.20e-03,2.00e-02,
389,-8.00e-04,4.00e-02,
390,0.00e+00,4.00e-02,
391,1.60e-03,2.00e-02,
392,2.40e-03,4.00e-02,
393,-1.20e-03,2.00e-02,
394,-2.00e-03,2.00e-02,
395,8.40e-03,1.84e+00,
396,8.00e-03,1.60e-01,
397,-1.20e-03,8.00e-02,
398,2.00e-03,1.00e-01,
399,4.00e-04,6.00e-02,
400,4.00e-04,6.00e-02,
401,2.00e-03,8.00e-02,
402,-4.00e-04,8.00e-02,
403,2.40e-03,6.00e-02,
404,2.40e-03,6.00e-02,
405,0.00e+00,8.00e-02,
406,-3.20e-03,8.00e-02,
407,6.00e-03,4.00e-02,
408,-1.32e-02,8.00e-02,
409,1.68e-02,2.00e-02,
410,-1.92e-02,2.00e-02,
411,2.08e-02,8.00e-02,
412,1.16e-02,8.00e-02,
413,-8.00e-03,2.00e-02,
414,3.20e-03,2.00e-02,
415,-1.20e-03,8.00e-02,
416,-8.00e-04,2.00e-02,
417,2.00e-03,6.00e-02,
418,0.00e+00,4.00e-02,
419,2.00e-03,2.00e-02,
420,1.20e-03,2.00e-02,
421,0.00e+00,4.00e-02,
422,2.40e-03,4.00e-02,
423,-8.00e-04,2.00e-02,
424,-2.40e-03,2.00e-02,
425,9.20e-03,1.98e+00,
426,8.40e-03,1.60e-01,
427,-8.00e-04,8.00e-02,
428,2.00e-03,1.00e-01,
429,0.00e+00,6.00e-02,
430,0.00e+00,6.00e-02,
431,2.00e-03,8.00e-02,
432,2.00e-03,6.00e-02,
433,-8.00e-04,8.00e-02,
434,-8.00e-04,8.00e-02,
435,2.40e-03,2.00e-02,
436,-4.00e-03,8.00e-02,
437,6.80e-03,4.00e-02,
438,-1.48e-02,8.00e-02,
439,1.84e-02,2.00e-02,
440,-1.92e-02,8.00e-02,
441,2.00e-02,2.00e-02,
442,9.20e-03,8.00e-02,
443,-6.00e-03,2.00e-02,
444,2.80e-03,4.00e-02,
445,-4.00e-04,2.00e-02,
446,-8.00e-04,4.00e-02,
447,2.80e-03,2.00e-02,
448,2.00e-03,2.00e-02,
449,-4.00e-04,4.00e-02,
450,2.00e-03,2.00e-02,
451,0.00e+00,4.00e-02,
452,-1.20e-03,4.00e-02,
453,2.40e-03,2.00e-02,
454,-1.60e-03,2.00e-02,
455,8.80e-03,1.82e+00,
456,8.80e-03,1.60e-01,
457,0.00e+00,8.00e-02,
458,2.00e-03,1.00e-01,
459,0.00e+00,6.00e-02,
460,2.00e-03,6.00e-02,
461,-1.20e-03,8.00e-02,
462,0.00e+00,6.00e-02,
463,2.40e-03,8.00e-02,
464,0.00e+00,8.00e-02,
465,2.40e-03,2.00e-02,
466,-2.80e-03,8.00e-02,
467,5.60e-03,2.00e-02,
468,-1.52e-02,8.00e-02,
469,1.80e-02,2.00e-02,
470,1.88e-02,2.00e-02,
471,-1.88e-02,8.00e-02,
472,1.00e-02,2.00e-02,
473,-7.60e-03,6.00e-02,
474,2.80e-03,4.00e-02,
475,-8.00e-04,2.00e-02,
476,-4.00e-04,4.00e-02,
477,2.40e-03,2.00e-02,
478,1.60e-03,4.00e-02,
479,-8.00e-04,2.00e-02,
480,-4.00e-04,4.00e-02,
481,1.60e-03,2.00e-02,
482,2.00e-03,2.00e-02,
483,-1.60e-03,4.00e-02,
484,-2.80e-03,2.00e-02,
485,8.40e-03,2.00e+00,
486,8.00e-03,1.60e-01,
487,-4.00e-04,8.00e-02,
488,-4.00e-04,1.00e-01,
489,2.00e-03,6.00e-02,
490,0.00e+00,6.00e-02,
491,2.00e-03,8.00e-02,
492,-8.00e-04,6.00e-02,
493,2.40e-03,8.00e-02,
494,2.40e-03,8.00e-02,
495,-8.00e-04,2.00e-02,
496,-2.80e-03,8.00e-02,
497,6.80e-03,2.00e-02,
498,-1.32e-02,8.00e-02,
499,1.84e-02,2.00e-02,
500,-1.88e-02,8.00e-02,
501,1.96e-02,2.00e-02,
502,1.08e-02,2.00e-02,
503,-7.60e-03,8.00e-02,
504,3.60e-03,4.00e-02,
505,-1.20e-03,2.00e-02,
506,-8.00e-04,2.00e-02,
507,2.00e-03,4.00e-02,
508,2.00e-03,4.00e-02,
509,-8.00e-04,2.00e-02,
510,-4.00e-04,4.00e-02,
511,2.40e-03,2.00e-02,
512,-1.20e-03,4.00e-02,
513,2.40e-03,2.00e-02,
514,-2.40e-03,2.00e-02,
515,8.40e-03,1.88e+00,
516,8.00e-03,1.60e-01,
517,-8.00e-04,8.00e-02,
518,-8.00e-04,1.00e-01,
519,2.40e-03,6.00e-02,
520,2.00e-03,6.00e-02,
521,0.00e+00,8.00e-02,
522,0.00e+00,6.00e-02,
523,2.00e-03,8.00e-02,
524,2.00e-03,6.00e-02,
525,0.00e+00,8.00e-02,
526,-3.20e-03,8.00e-02,
527,7.60e-03,4.00e-02,
528,-1.48e-02,2.00e-02,
529,1.76e-02,8.00e-02,
530,-1.92e-02,2.00e-02,
531,2.00e-02,8.00e-02,
532,9.60e-03,8.00e-02,
533,-6.00e-03,2.00e-02,
534,2.80e-03,2.00e-02,
535,-1.20e-03,6.00e-02,
536,2.40e-03,4.00e-02,
537,-1.20e-03,2.00e-02,
538,0.00e+00,4.00e-02,
539,2.40e-03,2.00e-02,
540,2.00e-03,2.00e-02,
541,-8.00e-04,4.00e-02,
542,-1.20e-03,4.00e-02,
543,2.00e-03,2.00e-02,
544,-2.00e-03,2.00e-02,
545,8.80e-03,2.02e+00,
546,8.40e-03,1.60e-01,
547,-8.00e-04,8.00e-02,
548,0.00e+00,1.00e-01,
549,2.00e-03,6.00e-02,
550,0.00e+00,6.00e-02,
551,2.00e-03,8.00e-02,
552,2.00e-03,6.00e-02,
553,-4.00e-04,8.00e-02,
554,2.00e-03,8.00e-02,
555,0.00e+00,4.00e-02,
556,-2.80e-03,4.00e-02,
557,5.20e-03,8.00e-02,
558,-1.44e-02,8.00e-02,
559,1.72e-02,2.00e-02,
560,-1.80e-02,8.00e-02,
561,1.88e-02,2.00e-02,
562,1.00e-02,2.00e-02,
563,-6.00e-03,8.00e-02,
564,2.80e-03,4.00e-02,
565,-1.20e-03,2.00e-02,
566,-8.00e-04,4.00e-02,
567,2.00e-03,2.00e-02,
568,0.00e+00,4.00e-02,
569,2.00e-03,2.00e-02,
570,-4.00e-04,4.00e-02,
571,2.00e-03,2.00e-02,
572,2.40e-03,4.00e-02,
573,-1.20e-03,2.00e-02,
574,-2.40e-03,2.00e-02,
575,8.80e-03,2.00e+00,
576,8.40e-03,1.60e-01,
577,-8.00e-04,8.00e-02,
578,4.00e-04,1.00e-01,
579,2.00e-03,6.00e-02,
580,0.00e+00,6.00e-02,
581,2.40e-03,8.00e-02,
582,2.40e-03,8.00e-02,
583,-8.00e-04,6.00e-02,
584,2.00e-03,6.00e-02,
585,-8.00e-04,8.00e-02,
586,-2.80e-03,8.00e-02,
587,5.60e-03,2.00e-02,
588,-1.28e-02,8.00e-02,
589,1.84e-02,2.00e-02,
590,-1.76e-02,8.00e-02,
591,2.04e-02,2.00e-02,
592,1.04e-02,2.00e-02,
593,-7.20e-03,8.00e-02,
594,3.20e-03,2.00e-02,
595,-8.00e-04,6.00e-02,
596,-8.00e-04,6.00e-02,
597,2.00e-03,2.00e-02,
598,2.00e-03,4.00e-02,
599,-8.00e-04,2.00e-02,
600,1.20e-03,2.00e-02,
601,-4.00e-04,4.00e-02,
602,-1.20e-03,4.00e-02,
603,2.80e-03,2.00e-02,
604,-1.60e-03,2.00e-02,
605,8.40e-03,2.02e+00,
606,8.00e-03,1.60e-01,
607,-4.00e-04,8.00e-02,
608,2.00e-03,1.00e-01,
609,4.00e-04,6.00e-02,
610,-8.00e-04,6.00e-02,
611,2.00e-03,8.00e-02,
612,-4.00e-04,8.00e-02,
613,2.80e-03,6.00e-02,
614,2.40e-03,6.00e-02,
615,-4.00e-04,8.00e-02,
616,-3.20e-03,8.00e-02,
617,7.20e-03,2.00e-02,
618,-1.40e-02,8.00e-02,
619,1.84e-02,2.00e-02,
620,-1.76e-02,8.00e-02,
621,2.00e-02,2.00e-02,
622,8.80e-03,6.00e-02,
623,-6.00e-03,2.00e-02,
624,2.80e-03,2.00e-02,
625,-8.00e-04,6.00e-02,
626,2.40e-03,4.00e-02,
627,-8.00e-04,2.00e-02,
628,2.40e-03,4.00e-02,
629,-4.00e-04,2.00e-02,
630,0.00e+00,4.00e-02,
631,2.00e-03,2.00e-02,
632,-8.00e-04,4.00e-02,
633,2.40e-03,2.00e-02,
634,-1.60e-03,2.00e-02,
635,8.80e-03,1.92e+00,
636,8.40e-03,1.60e-01,
637,-8.00e-04,8.00e-02,
638,2.00e-03,1.00e-01,
639,0.00e+00,6.00e-02,
640,0.00e+00,6.00e-02,
641,1.60e-03,8.00e-02,
642,2.40e-03,6.00e-02,
643,-4.00e-04,8.00e-02,
644,2.40e-03,8.00e-02,
645,-8.00e-04,2.00e-02,
646,-1.60e-03,8.00e-02,
647,6.00e-03,2.00e-02,
648,-1.28e-02,2.00e-02,
649,1.72e-02,8.00e-02,
650,-1.84e-02,8.00e-02,
651,1.88e-02,2.00e-02,
652,1.00e-02,4.00e-02,
653,-6.00e-03,2.00e-02,
654,2.80e-03,2.00e-02,
655,-1.60e-03,4.00e-02,
656,0.00e+00,4.00e-02,
657,2.40e-03,2.00e-02,
658,0.00e+00,4.00e-02,
659,2.40e-03,2.00e-02,
660,2.00e-03,4.00e-02,
661,-8.00e-04,2.00e-02,
662,2.00e-03,4.00e-02,
663,-1.20e-03,2.00e-02,
664,-1.60e-03,2.00e-02,
665,8.80e-03,1.98e+00,
666,8.40e-03,1.60e-01,
667,-8.00e-04,8.00e-02,
668,1.60e-03,1.00e-01,
669,0.00e+00,6.00e-02,
670,1.60e-03,6.00e-02,
671,-8.00e-04,8.00e-02,
672,2.40e-03,6.00e-02,
673,-8.00e-04,8.00e-02,
674,-4.00e-04,8.00e-02,
675,2.00e-03,6.00e-02,
676,-3.20e-03,8.00e-02,
677,6.00e-03,2.00e-02,
678,-1.32e-02,8.00e-02,
679,1.68e-02,2.00e-02,
680,-1.76e-02,8.00e-02,
681,1.88e-02,2.00e-02,
682,9.60e-03,8.00e-02,
683,-6.80e-03,2.00e-02,
684,2.80e-03,4.00e-02,
685,-1.20e-03,2.00e-02,
686,-8.00e-04,4.00e-02,
687,2.00e-03,2.00e-02,
688,-4.00e-04,2.00e-02,
689,2.40e-03,4.00e-02,
690,2.40e-03,4.00e-02,
691,0.00e+00,2.00e-02,
692,-1.20e-03,4.00e-02,
693,2.40e-03,2.00e-02,
694,-2.40e-03,2.00e-02,
695,8.40e-03,2.02e+00,
696,8.00e-03,1.60e-01,
697,0.00e+00,8.00e-02,
698,-4.00e-04,1.00e-01,
699,2.00e-03,6.00e-02,
700,0.00e+00,6.00e-02,
701,1.60e-03,8.00e-02,
702,2.00e-03,6.00e-02,
703,-4.00e-04,8.00e-02,
704,-4.00e-04,6.00e-02,
705,2.40e-03,8.00e-02,
706,-3.20e-03,8.00e-02,
707,7.20e-03,2.00e-02,
708,-1.28e-02,2.00e-02,
709,1.76e-02,8.00e-02,
710,-1.76e-02,2.00e-02,
711,1.92e-02,8.00e-02,
712,8.40e-03,4.00e-02,
713,-4.80e-03,2.00e-02,
714,2.00e-03,2.00e-02,
715,-8.00e-04,8.00e-02,
716,-4.00e-04,4.00e-02,
717,2.00e-03,2.00e-02,
718,1.20e-03,4.00e-02,
719,-8.00e-04,2.00e-02,
720,0.00e+00,4.00e-02,
721,2.00e-03,2.00e-02,
722,2.80e-03,4.00e-02,
723,-1.20e-03,2.00e-02,
724,-2.40e-03,2.00e-02,
725,8.40e-03,1.96e+00,
726,8.00e-03,1.60e-01,
727,-8.00e-04,8.00e-02,
728,1.20e-03,1.00e-01,
729,0.00e+00,6.00e-02,
730,0.00e+00,8.00e-02,
731,1.60e-03,6.00e-02,
732,0.00e+00,6.00e-02,
733,2.00e-03,8.00e-02,
734,2.00e-03,8.00e-02,
735,-4.00e-04,2.00e-02,
736,-2.80e-03,8.00e-02,
737,5.20e-03,2.00e-02,
738,-1.32e-02,8.00e-02,
739,1.68e-02,2.00e-02,
740,-1.72e-02,8.00e-02,
741,1.84e-02,2.00e-02,
742,9.20e-03,4.00e-02,
743,-7.20e-03,2.00e-02,
744,3.60e-03,2.00e-02,
745,-8.00e-04,4.00e-02,
746,2.00e-03,4.00e-02,
747,-4.00e-04,2.00e-02,
748,2.00e-03,2.00e-02,
749,-4.00e-04,4.00e-02,
750,2.00e-03,4.00e-02,
751,0.00e+00,2.00e-02,
752,2.80e-03,2.00e-02,
753,-1.20e-03,4.00e-02,
754,-2.40e-03,2.00e-02,
755,8.80e-03,2.00e+00,
756,8.40e-03,1.60e-01,
757,-4.00e-04,8.00e-02,
758,1.60e-03,1.00e-01,
759,0.00e+00,6.00e-02,
760,2.00e-03,6.00e-02,
761,-4.00e-04,8.00e-02,
762,0.00e+00,8.00e-02,
763,2.00e-03,6.00e-02,
764,-8.00e-04,6.00e-02,
765,2.00e-03,8.00e-02,
766,-3.20e-03,8.00e-02,
767,5.20e-03,2.00e-02,
768,-1.24e-02,8.00e-02,
769,1.72e-02,2.00e-02,
770,-1.72e-02,2.00e-02,
771,1.76e-02,8.00e-02,
772,9.60e-03,8.00e-02,
773,-6.80e-03,2.00e-02,
774,2.80e-03,2.00e-02,
775,-8.00e-04,6.00e-02,
776,-4.00e-04,8.00e-02,
777,2.00e-03,2.00e-02,
778,-8.00e-04,4.00e-02,
779,1.60e-03,2.00e-02,
780,2.00e-03,2.00e-02,
781,-4.00e-04,4.00e-02,
782,-4.00e-04,4.00e-02,
783,2.80e-03,2.00e-02,
784,-2.40e-03,2.00e-02,
785,8.80e-03,2.06e+00,
786,8.40e-03,1.60e-01,
787,-8.00e-04,8.00e-02,
788,0.00e+00,1.00e-01,
789,2.00e-03,6.00e-02,
790,-8.00e-04,6.00e-02,
791,1.20e-03,8.00e-02,
792,1.60e-03,6.00e-02,
793,-8.00e-04,8.00e-02,
794,2.40e-03,6.00e-02,
795,-8.00e-04,8.00e-02,
796,-3.60e-03,8.00e-02,
797,6.40e-03,2.00e-02,
798,-1.28e-02,8.00e-02,
799,1.80e-02,2.00e-02,
800,-1.72e-02,8.00e-02,
801,1.80e-02,2.00e-02,
802,8.40e-03,2.00e-02,
803,-5.60e-03,6.00e-02,
804,2.80e-03,2.00e-02,
805,-4.00e-04,6.00e-02,
806,2.40e-03,4.00e-02,
807,-8.00e-04,2.00e-02,
808,-4.00e-04,4.00e-02,
809,2.40e-03,2.00e-02,
810,2.00e-03,4.00e-02,
811,-4.00e-04,2.00e-02,
812,-1.20e-03,4.00e-02,
813,2.80e-03,2.00e-02,
814,-1.60e-03,2.00e-02,
815,8.40e-03,1.92e+00,
816,8.00e-03,1.60e-01,
817,-8.00e-04,8.00e-02,
818,1.20e-03,1.00e-01,
819,4.00e-04,6.00e-02,
820,0.00e+00,6.00e-02,
821,1.60e-03,8.00e-02,
822,0.00e+00,6.00e-02,
823,2.00e-03,8.00e-02,
824,-4.00e-04,8.00e-02,
825,1.60e-03,6.00e-02,
826,-2.40e-03,8.00e-02,
827,4.40e-03,2.00e-02,
828,-1.20e-02,2.00e-02,
829,1.68e-02,8.00e-02,
830,-1.68e-02,8.00e-02,
831,1.76e-02,2.00e-02,
832,9.20e-03,8.00e-02,
833,-6.00e-03,2.00e-02,
834,3.60e-03,4.00e-02,
835,-8.00e-04,2.00e-02,
836,1.60e-03,4.00e-02,
837,-8.00e-04,2.00e-02,
838,-4.00e-04,4.00e-02,
839,2.00e-03,2.00e-02,
840,1.20e-03,4.00e-02,
841,0.00e+00,2.00e-02,
842,2.40e-03,4.00e-02,
843,-8.00e-04,2.00e-02,
844,-2.80e-03,2.00e-02,
845,8.80e-03,2.04e+00,
846,8.00e-03,1.60e-01,
847,0.00e+00,8.00e-02,
848,2.40e-03,1.00e-01,
849,-8.00e-04,6.00e-02,
850,-8.00e-04,6.00e-02,
851,2.00e-03,8.00e-02,
852,1.60e-03,6.00e-02,
853,-4.00e-04,8.00e-02,
854,2.00e-03,8.00e-02,
855,-4.00e-04,6.00e-02,
