CarrPurc_P1-19_P2-38_tauVary/Gly40/NewFile8.csv

X,CH1,CH2,Start,Increment,
Sequence,Volt,Volt,-3.600000e-03,2.000000e-04
0,0.00e+00,4.00e-02,
1,2.00e-03,0.00e+00,
2,0.00e+00,4.00e-02,
3,1.60e-03,0.00e+00,
4,2.00e-03,4.00e-02,
5,-4.00e-04,0.00e+00,
6,0.00e+00,4.00e-02,
7,2.00e-03,0.00e+00,
8,0.00e+00,4.00e-02,
9,1.60e-03,0.00e+00,
10,4.00e-04,4.00e-02,
11,1.20e-03,0.00e+00,
12,1.60e-03,4.00e-02,
13,-8.00e-04,0.00e+00,
14,1.60e-03,4.00e-02,
15,-4.00e-04,0.00e+00,
16,1.20e-03,4.00e-02,
17,-4.00e-04,0.00e+00,
18,0.00e+00,4.00e-02,
19,2.00e-03,0.00e+00,
20,6.80e-03,0.00e+00,
21,-2.72e-02,1.98e+00,
22,1.92e-02,1.00e-01,
23,-1.44e-02,8.00e-02,
24,-2.40e-03,1.00e-01,
25,4.40e-03,6.00e-02,
26,2.80e-03,6.00e-02,
27,-1.60e-03,8.00e-02,
28,2.40e-03,6.00e-02,
29,-4.00e-04,8.00e-02,
30,2.00e-03,8.00e-02,
31,-8.00e-04,4.00e-02,
32,2.00e-03,8.00e-02,
33,-8.00e-04,2.00e-02,
34,-8.00e-04,2.00e-02,
35,8.40e-03,1.88e+00,
36,8.00e-03,1.60e-01,
37,-5.60e-03,8.00e-02,
38,3.60e-03,1.00e-01,
39,-8.00e-04,6.00e-02,
40,2.00e-03,6.00e-02,
41,-8.00e-04,8.00e-02,
42,-4.00e-04,6.00e-02,
43,2.40e-03,8.00e-02,
44,2.40e-03,8.00e-02,
45,-1.20e-03,4.00e-02,
46,-5.20e-03,8.00e-02,
47,7.60e-03,2.00e-02,
48,-1.92e-02,8.00e-02,
49,2.56e-02,2.00e-02,
50,3.04e-02,2.00e-02,
51,-2.68e-02,8.00e-02,
52,1.56e-02,2.00e-02,
53,-1.20e-02,6.00e-02,
54,4.40e-03,8.00e-02,
55,-1.60e-03,2.00e-02,
56,2.40e-03,4.00e-02,
57,-4.00e-04,2.00e-02,
58,0.00e+00,4.00e-02,
59,2.40e-03,2.00e-02,
60,0.00e+00,2.00e-02,
61,1.60e-03,6.00e-02,
62,0.00e+00,4.00e-02,
63,1.60e-03,2.00e-02,
64,0.00e+00,2.00e-02,
65,8.40e-03,2.04e+00,
66,8.00e-03,1.60e-01,
67,-8.00e-04,8.00e-02,
68,2.40e-03,1.00e-01,
69,0.00e+00,6.00e-02,
70,2.00e-03,6.00e-02,
71,-8.00e-04,8.00e-02,
72,2.40e-03,8.00e-02,
73,0.00e+00,6.00e-02,
74,-8.00e-04,6.00e-02,
75,2.80e-03,8.00e-02,
76,-4.00e-03,8.00e-02,
77,6.80e-03,4.00e-02,
78,1.40e-02,8.00e-02,
79,-1.48e-02,2.00e-02,
80,-1.92e-02,8.00e-02,
81,2.00e-02,2.00e-02,
82,9.60e-03,8.00e-02,
83,-6.00e-03,2.00e-02,
84,2.80e-03,8.00e-02,
85,-4.00e-04,2.00e-02,
86,2.40e-03,2.00e-02,
87,-8.00e-04,4.00e-02,
88,2.00e-03,2.00e-02,
89,0.00e+00,8.00e-02,
90,1.60e-03,4.00e-02,
91,0.00e+00,2.00e-02,
92,2.40e-03,4.00e-02,
93,-1.20e-03,2.00e-02,
94,-2.40e-03,2.00e-02,
95,9.60e-03,1.84e+00,
96,8.80e-03,1.60e-01,
97,0.00e+00,8.00e-02,
98,2.00e-03,1.00e-01,
99,0.00e+00,6.00e-02,
100,1.60e-03,8.00e-02,
101,0.00e+00,6.00e-02,
102,0.00e+00,6.00e-02,
103,2.00e-03,8.00e-02,
104,-4.00e-04,6.00e-02,
105,2.00e-03,8.00e-02,
106,-3.20e-03,8.00e-02,
107,4.80e-03,2.00e-02,
108,1.28e-02,8.00e-02,
109,-1.48e-02,2.00e-02,
110,-2.04e-02,2.00e-02,
111,1.88e-02,8.00e-02,
112,1.08e-02,2.00e-02,
113,-6.80e-03,6.00e-02,
114,3.20e-03,4.00e-02,
115,-1.20e-03,2.00e-02,
116,2.40e-03,4.00e-02,
117,-1.20e-03,2.00e-02,
118,2.00e-03,4.00e-02,
119,0.00e+00,2.00e-02,
120,-4.00e-04,2.00e-02,
121,2.00e-03,4.00e-02,
122,2.80e-03,4.00e-02,
123,-1.60e-03,2.00e-02,
124,-2.00e-03,2.00e-02,
125,9.20e-03,2.06e+00,
126,8.40e-03,1.60e-01,
127,-8.00e-04,8.00e-02,
128,2.40e-03,1.00e-01,
129,0.00e+00,6.00e-02,
130,0.00e+00,6.00e-02,
131,1.60e-03,8.00e-02,
132,-8.00e-04,6.00e-02,
133,2.40e-03,8.00e-02,
134,2.40e-03,6.00e-02,
135,-1.20e-03,8.00e-02,
136,-2.80e-03,6.00e-02,
137,6.00e-03,8.00e-02,
138,-1.20e-02,8.00e-02,
139,1.68e-02,2.00e-02,
140,1.96e-02,8.00e-02,
141,-1.76e-02,2.00e-02,
142,1.08e-02,8.00e-02,
143,-7.60e-03,2.00e-02,
144,4.40e-03,8.00e-02,
145,-1.60e-03,2.00e-02,
146,1.60e-03,6.00e-02,
147,-8.00e-04,2.00e-02,
148,0.00e+00,2.00e-02,
149,2.00e-03,6.00e-02,
150,2.40e-03,2.00e-02,
151,0.00e+00,4.00e-02,
152,2.40e-03,4.00e-02,
153,0.00e+00,2.00e-02,
154,-1.60e-03,2.00e-02,
155,8.40e-03,2.00e+00,
156,8.00e-03,1.60e-01,
157,0.00e+00,8.00e-02,
158,2.00e-03,1.00e-01,
159,0.00e+00,6.00e-02,
160,1.60e-03,6.00e-02,
161,0.00e+00,1.00e-01,
162,1.60e-03,6.00e-02,
163,0.00e+00,8.00e-02,
164,2.00e-03,6.00e-02,
165,-4.00e-04,8.00e-02,
166,-3.20e-03,6.00e-02,
167,6.40e-03,8.00e-02,
168,-1.36e-02,8.00e-02,
169,1.40e-02,4.00e-02,
170,1.84e-02,8.00e-02,
171,-1.72e-02,2.00e-02,
172,8.40e-03,2.00e-02,
173,-5.20e-03,8.00e-02,
174,2.00e-03,2.00e-02,
175,-1.20e-03,8.00e-02,
176,2.00e-03,4.00e-02,
177,-8.00e-04,2.00e-02,
178,0.00e+00,4.00e-02,
179,2.00e-03,2.00e-02,
180,0.00e+00,4.00e-02,
181,2.00e-03,2.00e-02,
182,2.40e-03,4.00e-02,
183,-1.20e-03,2.00e-02,
184,-2.40e-03,2.00e-02,
185,9.20e-03,1.96e+00,
186,8.40e-03,1.60e-01,
187,0.00e+00,8.00e-02,
188,2.00e-03,1.00e-01,
189,0.00e+00,6.00e-02,
190,1.20e-03,6.00e-02,
191,0.00e+00,8.00e-02,
192,-8.00e-04,6.00e-02,
193,2.00e-03,8.00e-02,
194,-8.00e-04,6.00e-02,
195,2.80e-03,8.00e-02,
196,-2.80e-03,6.00e-02,
197,5.20e-03,8.00e-02,
198,-1.28e-02,8.00e-02,
199,1.12e-02,2.00e-02,
200,1.88e-02,8.00e-02,
201,-1.64e-02,2.00e-02,
202,8.80e-03,8.00e-02,
203,-6.80e-03,2.00e-02,
204,3.20e-03,2.00e-02,
205,-1.20e-03,8.00e-02,
206,2.40e-03,2.00e-02,
207,0.00e+00,8.00e-02,
208,0.00e+00,8.00e-02,
209,2.00e-03,2.00e-02,
210,1.60e-03,4.00e-02,
211,0.00e+00,2.00e-02,
212,2.40e-03,4.00e-02,
213,-1.20e-03,2.00e-02,
214,-2.00e-03,2.00e-02,
215,8.80e-03,2.06e+00,
216,8.40e-03,1.60e-01,
217,-8.00e-04,8.00e-02,
218,2.40e-03,1.00e-01,
219,0.00e+00,6.00e-02,
220,0.00e+00,6.00e-02,
221,1.60e-03,8.00e-02,
222,2.00e-03,6.00e-02,
223,-4.00e-04,8.00e-02,
224,2.40e-03,6.00e-02,
225,0.00e+00,8.00e-02,
226,-2.80e-03,8.00e-02,
227,5.20e-03,4.00e-02,
228,-1.08e-02,8.00e-02,
229,1.44e-02,2.00e-02,
230,1.84e-02,8.00e-02,
231,-1.60e-02,2.00e-02,
232,9.60e-03,2.00e-02,
233,-6.00e-03,8.00e-02,
234,3.60e-03,4.00e-02,
235,-4.00e-04,2.00e-02,
236,1.60e-03,4.00e-02,
237,-4.00e-04,2.00e-02,
238,0.00e+00,4.00e-02,
239,1.60e-03,2.00e-02,
240,0.00e+00,4.00e-02,
241,1.60e-03,2.00e-02,
242,2.40e-03,4.00e-02,
243,-8.00e-04,2.00e-02,
244,-2.40e-03,2.00e-02,
245,8.40e-03,1.96e+00,
246,8.00e-03,1.60e-01,
247,-8.00e-04,8.00e-02,
248,2.00e-03,1.00e-01,
249,4.00e-04,6.00e-02,
250,0.00e+00,8.00e-02,
251,2.00e-03,6.00e-02,
252,2.00e-03,6.00e-02,
253,0.00e+00,8.00e-02,
254,-8.00e-04,8.00e-02,
255,2.40e-03,4.00e-02,
256,-3.20e-03,8.00e-02,
257,6.00e-03,2.00e-02,
258,-1.32e-02,2.00e-02,
259,1.48e-02,8.00e-02,
260,-1.68e-02,8.00e-02,
261,1.84e-02,2.00e-02,
262,7.20e-03,2.00e-02,
263,-4.40e-03,8.00e-02,
264,2.80e-03,2.00e-02,
265,-8.00e-04,8.00e-02,
266,2.00e-03,2.00e-02,
267,-4.00e-04,6.00e-02,
268,2.00e-03,4.00e-02,
269,0.00e+00,2.00e-02,
270,0.00e+00,4.00e-02,
271,1.60e-03,2.00e-02,
272,2.00e-03,4.00e-02,
273,-1.20e-03,2.00e-02,
274,-2.40e-03,2.00e-02,
275,9.20e-03,2.06e+00,
276,8.00e-03,1.60e-01,
277,-8.00e-04,8.00e-02,
278,-8.00e-04,1.00e-01,
279,1.20e-03,6.00e-02,
280,4.00e-04,8.00e-02,
281,2.00e-03,6.00e-02,
282,-8.00e-04,6.00e-02,
283,2.00e-03,8.00e-02,
284,2.40e-03,6.00e-02,
285,-8.00e-04,8.00e-02,
286,-2.40e-03,8.00e-02,
287,4.40e-03,4.00e-02,
288,1.08e-02,8.00e-02,
289,-1.28e-02,2.00e-02,
290,-1.60e-02,8.00e-02,
291,1.68e-02,2.00e-02,
292,8.80e-03,8.00e-02,
293,-6.40e-03,2.00e-02,
294,2.80e-03,2.00e-02,
295,-1.20e-03,8.00e-02,
296,2.40e-03,6.00e-02,
297,0.00e+00,2.00e-02,
298,1.20e-03,4.00e-02,
299,0.00e+00,2.00e-02,
300,0.00e+00,4.00e-02,
301,2.00e-03,2.00e-02,
302,2.40e-03,4.00e-02,
303,-1.20e-03,2.00e-02,
304,-2.40e-03,2.00e-02,
305,9.20e-03,2.02e+00,
306,8.40e-03,1.60e-01,
307,-4.00e-04,8.00e-02,
308,4.00e-04,1.00e-01,
309,2.40e-03,6.00e-02,
310,1.60e-03,6.00e-02,
311,0.00e+00,8.00e-02,
312,0.00e+00,6.00e-02,
313,2.00e-03,8.00e-02,
314,0.00e+00,8.00e-02,
315,2.40e-03,4.00e-02,
316,-2.80e-03,8.00e-02,
317,5.20e-03,2.00e-02,
318,-1.00e-02,8.00e-02,
319,1.44e-02,2.00e-02,
320,-1.52e-02,8.00e-02,
321,1.80e-02,2.00e-02,
322,8.40e-03,2.00e-02,
323,-6.40e-03,8.00e-02,
324,3.20e-03,4.00e-02,
325,-1.20e-03,2.00e-02,
326,1.60e-03,4.00e-02,
327,0.00e+00,2.00e-02,
328,2.00e-03,4.00e-02,
329,0.00e+00,2.00e-02,
330,2.00e-03,4.00e-02,
331,0.00e+00,2.00e-02,
332,2.00e-03,4.00e-02,
333,-8.00e-04,2.00e-02,
334,-2.40e-03,2.00e-02,
335,8.80e-03,2.00e+00,
336,8.40e-03,1.60e-01,
337,-8.00e-04,8.00e-02,
338,0.00e+00,1.00e-01,
339,2.00e-03,6.00e-02,
340,2.00e-03,6.00e-02,
341,0.00e+00,8.00e-02,
342,2.00e-03,6.00e-02,
343,4.00e-04,8.00e-02,
344,-8.00e-04,8.00e-02,
345,2.40e-03,2.00e-02,
346,-2.80e-03,8.00e-02,
347,5.60e-03,4.00e-02,
348,-1.24e-02,8.00e-02,
349,1.44e-02,2.00e-02,
350,-1.48e-02,8.00e-02,
351,1.72e-02,2.00e-02,
352,6.80e-03,8.00e-02,
353,-4.00e-03,2.00e-02,
354,2.00e-03,2.00e-02,
355,-1.20e-03,8.00e-02,
356,2.40e-03,2.00e-02,
357,-4.00e-04,4.00e-02,
358,2.00e-03,2.00e-02,
359,-4.00e-04,4.00e-02,
360,0.00e+00,4.00e-02,
361,1.60e-03,2.00e-02,
362,2.00e-03,4.00e-02,
363,-1.20e-03,2.00e-02,
364,-2.40e-03,2.00e-02,
365,8.40e-03,2.00e+00,
366,8.00e-03,1.40e-01,
367,0.00e+00,8.00e-02,
368,2.00e-03,1.00e-01,
369,0.00e+00,6.00e-02,
370,0.00e+00,6.00e-02,
371,1.60e-03,8.00e-02,
372,0.00e+00,6.00e-02,
373,2.00e-03,8.00e-02,
374,2.00e-03,6.00e-02,
375,-8.00e-04,8.00e-02,
376,-2.00e-03,6.00e-02,
377,4.00e-03,8.00e-02,
378,-1.12e-02,8.00e-02,
379,1.40e-02,2.00e-02,
380,1.60e-02,8.00e-02,
381,-1.56e-02,2.00e-02,
382,7.60e-03,8.00e-02,
383,-6.40e-03,2.00e-02,
384,2.80e-03,8.00e-02,
385,-8.00e-04,2.00e-02,
386,2.00e-03,8.00e-02,
387,-4.00e-04,2.00e-02,
388,0.00e+00,2.00e-02,
389,2.00e-03,8.00e-02,
390,1.20e-03,4.00e-02,
391,0.00e+00,2.00e-02,
392,-4.00e-04,4.00e-02,
393,2.80e-03,2.00e-02,
394,-2.40e-03,2.00e-02,
395,8.80e-03,2.06e+00,
396,8.00e-03,1.60e-01,
397,-8.00e-04,8.00e-02,
398,2.00e-03,1.00e-01,
399,0.00e+00,6.00e-02,
400,0.00e+00,6.00e-02,
401,1.60e-03,8.00e-02,
402,0.00e+00,8.00e-02,
403,1.60e-03,6.00e-02,
404,-8.00e-04,6.00e-02,
405,2.40e-03,8.00e-02,
406,-2.40e-03,6.00e-02,
407,5.20e-03,8.00e-02,
408,-1.00e-02,8.00e-02,
409,1.36e-02,2.00e-02,
410,-1.60e-02,2.00e-02,
411,1.64e-02,8.00e-02,
412,8.40e-03,2.00e-02,
413,-6.00e-03,8.00e-02,
414,2.80e-03,2.00e-02,
415,-8.00e-04,6.00e-02,
416,2.40e-03,2.00e-02,
417,-4.00e-04,4.00e-02,
418,1.20e-03,4.00e-02,
419,-4.00e-04,2.00e-02,
420,1.20e-03,2.00e-02,
421,0.00e+00,4.00e-02,
422,-8.00e-04,4.00e-02,
423,2.40e-03,2.00e-02,
424,-2.40e-03,2.00e-02,
425,9.20e-03,1.90e+00,
426,8.40e-03,1.60e-01,
427,-8.00e-04,8.00e-02,
428,2.00e-03,1.00e-01,
429,0.00e+00,6.00e-02,
430,1.20e-03,6.00e-02,
431,-8.00e-04,8.00e-02,
432,4.00e-04,6.00e-02,
433,2.00e-03,8.00e-02,
434,0.00e+00,6.00e-02,
435,2.40e-03,8.00e-02,
436,-2.40e-03,8.00e-02,
437,5.60e-03,4.00e-02,
438,-1.12e-02,8.00e-02,
439,1.44e-02,2.00e-02,
440,-1.44e-02,8.00e-02,
441,1.64e-02,2.00e-02,
442,7.20e-03,8.00e-02,
443,-4.00e-03,2.00e-02,
444,2.40e-03,2.00e-02,
445,-8.00e-04,8.00e-02,
446,2.40e-03,2.00e-02,
447,-8.00e-04,8.00e-02,
448,2.00e-03,2.00e-02,
449,-8.00e-04,4.00e-02,
450,2.00e-03,2.00e-02,
451,-8.00e-04,4.00e-02,
452,-8.00e-04,4.00e-02,
453,2.40e-03,2.00e-02,
454,-2.80e-03,1.74e+00,
455,8.40e-03,0.00e+00,
456,8.00e-03,1.60e-01,
457,-4.00e-04,8.00e-02,
458,1.60e-03,1.00e-01,
459,-8.00e-04,6.00e-02,
460,0.00e+00,6.00e-02,
461,2.00e-03,8.00e-02,
462,1.60e-03,6.00e-02,
463,0.00e+00,8.00e-02,
464,-4.00e-04,6.00e-02,
465,2.40e-03,8.00e-02,
466,-1.60e-03,8.00e-02,
467,4.40e-03,4.00e-02,
468,-1.04e-02,8.00e-02,
469,1.36e-02,2.00e-02,
470,-1.52e-02,8.00e-02,
471,1.56e-02,2.00e-02,
472,7.60e-03,8.00e-02,
473,-5.60e-03,2.00e-02,
474,3.20e-03,2.00e-02,
475,-8.00e-04,8.00e-02,
476,-4.00e-04,4.00e-02,
477,2.00e-03,2.00e-02,
478,2.00e-03,4.00e-02,
479,0.00e+00,2.00e-02,
480,1.20e-03,4.00e-02,
481,0.00e+00,2.00e-02,
482,-8.00e-04,2.00e-02,
483,2.80e-03,4.00e-02,
484,-1.60e-03,2.00e-02,
485,8.40e-03,1.94e+00,
486,8.00e-03,1.60e-01,
487,-8.00e-04,8.00e-02,
488,0.00e+00,1.00e-01,
489,2.00e-03,6.00e-02,
490,1.20e-03,6.00e-02,
491,-4.00e-04,8.00e-02,
492,2.00e-03,6.00e-02,
493,-8.00e-04,8.00e-02,
494,-8.00e-04,6.00e-02,
495,2.40e-03,8.00e-02,
496,-2.40e-03,8.00e-02,
497,4.80e-03,2.00e-02,
498,-1.04e-02,8.00e-02,
499,1.44e-02,2.00e-02,
500,-1.48e-02,8.00e-02,
501,1.72e-02,2.00e-02,
502,8.00e-03,2.00e-02,
503,-5.20e-03,8.00e-02,
504,2.40e-03,4.00e-02,
505,-1.20e-03,2.00e-02,
506,-8.00e-04,2.00e-02,
507,1.60e-03,4.00e-02,
508,2.00e-03,4.00e-02,
509,0.00e+00,2.00e-02,
510,0.00e+00,4.00e-02,
511,1.60e-03,2.00e-02,
512,-4.00e-04,4.00e-02,
513,2.40e-03,2.00e-02,
514,-2.40e-03,2.00e-02,
515,9.20e-03,2.06e+00,
516,8.40e-03,1.60e-01,
517,-8.00e-04,8.00e-02,
518,2.40e-03,1.00e-01,
519,0.00e+00,6.00e-02,
520,2.40e-03,1.00e-01,
521,0.00e+00,6.00e-02,
522,0.00e+00,6.00e-02,
523,2.00e-03,8.00e-02,
524,-4.00e-04,8.00e-02,
525,2.40e-03,4.00e-02,
526,-3.60e-03,8.00e-02,
527,5.20e-03,2.00e-02,
528,-1.04e-02,8.00e-02,
529,1.28e-02,2.00e-02,
530,-1.36e-02,2.00e-02,
531,1.56e-02,8.00e-02,
532,6.80e-03,8.00e-02,
533,-4.40e-03,2.00e-02,
534,2.40e-03,2.00e-02,
535,0.00e+00,6.00e-02,
536,2.40e-03,4.00e-02,
537,0.00e+00,2.00e-02,
538,2.00e-03,4.00e-02,
539,-8.00e-04,2.00e-02,
540,2.00e-03,2.00e-02,
541,0.00e+00,4.00e-02,
542,-8.00e-04,4.00e-02,
543,2.40e-03,2.00e-02,
544,-2.80e-03,-1.60e-01,
545,9.20e-03,2.02e+00,
546,8.40e-03,1.60e-01,
547,-8.00e-04,8.00e-02,
548,2.00e-03,1.00e-01,
549,0.00e+00,6.00e-02,
550,2.00e-03,6.00e-02,
551,0.00e+00,8.00e-02,
552,0.00e+00,6.00e-02,
553,2.00e-03,8.00e-02,
554,0.00e+00,6.00e-02,
555,2.40e-03,8.00e-02,
556,-1.60e-03,8.00e-02,
557,4.80e-03,4.00e-02,
558,-1.00e-02,8.00e-02,
559,1.44e-02,2.00e-02,
560,-1.44e-02,8.00e-02,
561,1.60e-02,2.00e-02,
562,7.20e-03,2.00e-02,
563,-4.80e-03,8.00e-02,
564,2.80e-03,4.00e-02,
565,-1.60e-03,2.00e-02,
566,2.00e-03,4.00e-02,
567,-8.00e-04,2.00e-02,
568,-4.00e-04,4.00e-02,
569,2.40e-03,2.00e-02,
570,0.00e+00,4.00e-02,
571,2.00e-03,2.00e-02,
572,2.80e-03,4.00e-02,
573,-1.20e-03,2.00e-02,
574,-2.80e-03,2.00e-02,
575,8.40e-03,1.82e+00,
576,8.00e-03,1.60e-01,
577,-4.00e-04,8.00e-02,
578,2.00e-03,1.00e-01,
579,0.00e+00,6.00e-02,
580,-8.00e-04,6.00e-02,
581,2.00e-03,8.00e-02,
582,0.00e+00,8.00e-02,
583,2.00e-03,6.00e-02,
584,2.00e-03,8.00e-02,
585,-4.00e-04,4.00e-02,
586,-2.00e-03,8.00e-02,
587,4.40e-03,2.00e-02,
588,-1.12e-02,8.00e-02,
589,1.40e-02,2.00e-02,
590,-1.44e-02,8.00e-02,
591,1.56e-02,2.00e-02,
592,7.60e-03,2.00e-02,
593,-5.20e-03,8.00e-02,
594,2.40e-03,4.00e-02,
595,-8.00e-04,2.00e-02,
596,-4.00e-04,4.00e-02,
597,1.60e-03,2.00e-02,
598,1.20e-03,4.00e-02,
599,0.00e+00,2.00e-02,
600,0.00e+00,2.00e-02,
601,1.60e-03,4.00e-02,
602,2.00e-03,4.00e-02,
603,-1.60e-03,2.00e-02,
604,-2.40e-03,1.98e+00,
605,8.80e-03,0.00e+00,
606,8.00e-03,1.60e-01,
607,0.00e+00,8.00e-02,
608,0.00e+00,1.00e-01,
609,1.60e-03,6.00e-02,
610,0.00e+00,6.00e-02,
611,1.60e-03,8.00e-02,
612,2.00e-03,8.00e-02,
613,0.00e+00,6.00e-02,
614,-8.00e-04,6.00e-02,
615,2.40e-03,8.00e-02,
616,-2.80e-03,8.00e-02,
617,5.20e-03,4.00e-02,
618,-1.04e-02,8.00e-02,
619,1.40e-02,2.00e-02,
620,-1.40e-02,8.00e-02,
621,1.44e-02,2.00e-02,
622,7.20e-03,8.00e-02,
623,-4.40e-03,2.00e-02,
624,-8.00e-04,2.00e-02,
625,2.00e-03,8.00e-02,
626,1.60e-03,2.00e-02,
627,-8.00e-04,6.00e-02,
628,0.00e+00,4.00e-02,
629,2.40e-03,2.00e-02,
630,-4.00e-04,4.00e-02,
631,2.00e-03,2.00e-02,
632,2.80e-03,4.00e-02,
633,-1.20e-03,2.00e-02,
634,-2.40e-03,2.00e-02,
635,9.20e-03,2.02e+00,
636,9.20e-03,1.60e-01,
637,-8.00e-04,8.00e-02,
638,1.20e-03,1.00e-01,
639,0.00e+00,6.00e-02,
640,0.00e+00,6.00e-02,
641,2.00e-03,8.00e-02,
642,2.00e-03,6.00e-02,
643,0.00e+00,8.00e-02,
644,0.00e+00,8.00e-02,
645,1.60e-03,2.00e-02,
646,-1.20e-03,2.00e-02,
647,3.60e-03,8.00e-02,
648,-1.00e-02,2.00e-02,
649,1.44e-02,8.00e-02,
650,-1.40e-02,8.00e-02,
651,1.48e-02,2.00e-02,
652,7.20e-03,2.00e-02,
653,-4.40e-03,8.00e-02,
654,2.40e-03,2.00e-02,
655,-1.20e-03,8.00e-02,
656,1.20e-03,4.00e-02,
657,-1.20e-03,2.00e-02,
658,0.00e+00,4.00e-02,
659,2.00e-03,2.00e-02,
660,2.00e-03,4.00e-02,
661,-1.20e-03,2.00e-02,
662,2.40e-03,4.00e-02,
663,-1.20e-03,2.00e-02,
664,-2.40e-03,2.00e-02,
665,8.40e-03,1.96e+00,
666,8.40e-03,1.60e-01,
667,0.00e+00,8.00e-02,
668,1.20e-03,1.00e-01,
669,0.00e+00,6.00e-02,
670,2.00e-03,6.00e-02,
671,-8.00e-04,8.00e-02,
672,-4.00e-04,6.00e-02,
673,2.00e-03,8.00e-02,
674,-4.00e-04,8.00e-02,
675,2.40e-03,6.00e-02,
676,-2.40e-03,8.00e-02,
677,4.40e-03,2.00e-02,
678,-1.04e-02,8.00e-02,
679,1.44e-02,2.00e-02,
680,-1.48e-02,8.00e-02,
681,1.60e-02,2.00e-02,
682,7.20e-03,2.00e-02,
683,-5.20e-03,8.00e-02,
684,2.40e-03,8.00e-02,
685,-1.20e-03,2.00e-02,
686,-4.00e-04,4.00e-02,
687,2.00e-03,2.00e-02,
688,1.60e-03,2.00e-02,
689,-8.00e-04,4.00e-02,
690,-8.00e-04,4.00e-02,
691,1.60e-03,2.00e-02,
692,2.40e-03,4.00e-02,
693,-8.00e-04,2.00e-02,
694,-2.80e-03,2.00e-02,
695,8.40e-03,2.04e+00,
696,8.40e-03,1.60e-01,
697,-4.00e-04,8.00e-02,
698,1.20e-03,1.00e-01,
699,0.00e+00,6.00e-02,
700,1.20e-03,6.00e-02,
701,0.00e+00,8.00e-02,
702,0.00e+00,6.00e-02,
703,2.40e-03,8.00e-02,
704,2.00e-03,8.00e-02,
705,-4.00e-04,4.00e-02,
706,-3.60e-03,8.00e-02,
707,5.20e-03,2.00e-02,
708,-1.04e-02,2.00e-02,
709,1.40e-02,8.00e-02,
710,-1.32e-02,8.00e-02,
711,1.48e-02,2.00e-02,
712,6.00e-03,2.00e-02,
713,-4.80e-03,8.00e-02,
714,-8.00e-04,4.00e-02,
715,2.40e-03,2.00e-02,
716,2.00e-03,6.00e-02,
717,-4.00e-04,2.00e-02,
718,-8.00e-04,4.00e-02,
719,1.60e-03,2.00e-02,
720,2.00e-03,4.00e-02,
721,0.00e+00,2.00e-02,
722,2.40e-03,4.00e-02,
723,-1.20e-03,2.00e-02,
724,-2.40e-03,2.00e-02,
725,9.20e-03,1.96e+00,
726,8.40e-03,1.60e-01,
727,0.00e+00,8.00e-02,
728,2.00e-03,1.00e-01,
729,0.00e+00,6.00e-02,
730,2.00e-03,8.00e-02,
731,0.00e+00,6.00e-02,
732,0.00e+00,6.00e-02,
733,2.00e-03,8.00e-02,
734,0.00e+00,8.00e-02,
735,2.00e-03,6.00e-02,
736,-2.80e-03,8.00e-02,
737,4.00e-03,6.00e-02,
738,-1.04e-02,8.00e-02,
739,1.40e-02,2.00e-02,
740,-1.36e-02,8.00e-02,
741,1.56e-02,2.00e-02,
742,7.60e-03,2.00e-02,
743,-5.20e-03,8.00e-02,
744,3.20e-03,2.00e-02,
745,-1.20e-03,8.00e-02,
746,0.00e+00,4.00e-02,
747,1.60e-03,2.00e-02,
748,0.00e+00,2.00e-02,
749,2.00e-03,4.00e-02,
750,0.00e+00,4.00e-02,
751,2.00e-03,2.00e-02,
752,2.40e-03,2.00e-02,
753,-1.20e-03,4.00e-02,
754,-2.40e-03,2.00e-02,
755,9.60e-03,2.00e+00,
756,8.40e-03,1.60e-01,
757,0.00e+00,8.00e-02,
758,1.60e-03,1.00e-01,
759,0.00e+00,6.00e-02,
760,2.00e-03,6.00e-02,
761,0.00e+00,8.00e-02,
762,0.00e+00,8.00e-02,
763,2.00e-03,6.00e-02,
764,1.20e-03,6.00e-02,
765,0.00e+00,8.00e-02,
766,-2.80e-03,8.00e-02,
767,4.40e-03,2.00e-02,
768,-1.08e-02,8.00e-02,
769,1.40e-02,2.00e-02,
770,-1.32e-02,8.00e-02,
771,1.56e-02,2.00e-02,
772,6.00e-03,2.00e-02,
773,-5.20e-03,8.00e-02,
774,2.40e-03,6.00e-02,
775,-8.00e-04,2.00e-02,
776,-4.00e-04,4.00e-02,
777,2.00e-03,2.00e-02,
778,-8.00e-04,4.00e-02,
779,2.00e-03,2.00e-02,
780,0.00e+00,2.00e-02,
781,1.60e-03,4.00e-02,
782,2.40e-03,4.00e-02,
783,-4.00e-04,2.00e-02,
784,-2.40e-03,2.00e-02,
785,8.00e-03,1.86e+00,
786,8.00e-03,1.60e-01,
787,-4.00e-04,8.00e-02,
788,0.00e+00,1.00e-01,
789,1.60e-03,6.00e-02,
790,4.00e-04,6.00e-02,
791,2.00e-03,8.00e-02,
792,2.00e-03,6.00e-02,
793,0.00e+00,8.00e-02,
794,-8.00e-04,6.00e-02,
795,2.00e-03,8.00e-02,
796,-2.80e-03,6.00e-02,
797,5.20e-03,8.00e-02,
798,-9.20e-03,8.00e-02,
799,1.36e-02,4.00e-02,
800,-1.32e-02,8.00e-02,
801,1.44e-02,2.00e-02,
802,6.80e-03,8.00e-02,
803,-4.40e-03,2.00e-02,
804,2.40e-03,2.00e-02,
805,-8.00e-04,8.00e-02,
806,2.00e-03,2.00e-02,
807,0.00e+00,8.00e-02,
808,0.00e+00,4.00e-02,
809,2.00e-03,2.00e-02,
810,1.20e-03,4.00e-02,
811,-4.00e-04,2.00e-02,
812,2.40e-03,4.00e-02,
813,-1.60e-03,2.00e-02,
814,-2.00e-03,2.00e-02,
815,8.80e-03,1.90e+00,
816,8.00e-03,1.60e-01,
817,-4.00e-04,8.00e-02,
818,2.00e-03,1.00e-01,
819,4.00e-04,6.00e-02,
820,1.20e-03,6.00e-02,
821,0.00e+00,8.00e-02,
822,0.00e+00,6.00e-02,
823,2.00e-03,8.00e-02,
824,0.00e+00,8.00e-02,
825,2.00e-03,6.00e-02,
826,-1.60e-03,6.00e-02,
827,4.00e-03,8.00e-02,
828,-9.20e-03,8.00e-02,
829,1.40e-02,2.00e-02,
830,-1.32e-02,8.00e-02,
831,1.48e-02,2.00e-02,
832,7.20e-03,8.00e-02,
833,-4.80e-03,2.00e-02,
834,2.80e-03,2.00e-02,
835,-8.00e-04,8.00e-02,
836,2.00e-03,4.00e-02,
837,-8.00e-04,2.00e-02,
838,0.00e+00,4.00e-02,
839,2.00e-03,2.00e-02,
840,0.00e+00,4.00e-02,
841,1.60e-03,2.00e-02,
842,2.40e-03,4.00e-02,
843,-1.60e-03,2.00e-02,
844,-2.40e-03,2.00e-02,
845,9.20e-03,1.82e+00,
846,8.40e-03,1.60e-01,
847,-8.00e-04,8.00e-02,
848,2.40e-03,1.00e-01,
849,4.00e-04,6.00e-02,
850,4.00e-04,6.00e-02,
851,2.00e-03,8.00e-02,
852,0.00e+00,6.00e-02,
853,2.00e-03,8.00e-02,
854,0.00e+00,8.00e-02,
855,2.00e-03,6.00e-02,
856,-1.60e-03,8.00e-02,
857,4.40e-03,2.00e-02,
